v -15.8342 -39.3088 -12.1042
v -15.5059 -39.2515 -12.2928
v -15.1531 -39.2515 -12.3014
v -14.9298 -39.2515 -12.14
v -15.5059 -38.9485 -12.1055
v -15.1531 -38.9454 -12.1064
v -15.9736 -39.2515 -11.7333
v -14.784 -39.2515 -11.715
v -15.8742 -38.8462 -11.7577
v -14.8204 -38.9768 -11.7333
v -15.804 -38.5456 -11.6539
v -15.5059 -38.5456 -11.8667
v -15.122 -38.5012 -11.7626
v -15.5059 -38.2288 -11.7123
v -15.8221 -39.2515 -11.3977
v -14.8579 -39.2515 -11.3267
v -15.8662 -38.9328 -11.3129
v -14.82 -38.8985 -11.3267
v -15.9327 -38.5456 -11.3267
v -14.8743 -38.5456 -11.3267
v -15.8587 -38.1926 -11.5647
v -15.9969 -38.1926 -11.3267
v -15.1531 -38.1926 -11.5558
v -15.0077 -38.1926 -11.3267
v -15.9398 -37.8397 -11.4191
v -15.5059 -37.8397 -11.5377
v -15.167 -37.8511 -11.3149
v -15.8587 -37.5319 -11.3007
v -15.5059 -37.5195 -11.3042
v -15.5059 -39.2515 -11.0988
v -15.1531 -39.1686 -10.98
v -15.5345 -38.9314 -10.8963
v -15.0795 -38.8985 -10.8596
v -15.8637 -38.5542 -10.9097
v -14.9083 -38.5456 -10.9201
v -16.0656 -38.1926 -10.9201
v -14.9393 -38.1926 -10.9201
v -16.2062 -37.8397 -10.9201
v -15.0136 -37.8397 -10.9201
v -16.1841 -37.4867 -10.9201
v -15.1351 -37.4418 -10.9585
v -15.8618 -37.1313 -10.9252
v -15.4831 -37.1213 -10.9348
v -15.5059 -38.5163 -10.5398
v -15.1531 -38.4716 -10.5526
v -15.8937 -38.2321 -10.4698
v -15.1099 -38.1926 -10.4631
v -16.1479 -37.8397 -10.5135
v -15.0356 -37.8397 -10.5135
v -16.1227 -37.4867 -10.5135
v -15.042 -37.4867 -10.5135
v -15.8602 -37.1323 -10.5114
v -15.1338 -37.0968 -10.5653
v -15.5059 -36.9079 -10.5135
v -14.3796 -39.3335 -10.1069
v -14.0946 -39.2515 -10.3414
v -13.7417 -39.2515 -10.3872
v -13.3911 -39.2465 -10.0597
v -14.1325 -38.8985 -10.1557
v -13.7417 -38.8985 -10.3414
v -13.3085 -38.8985 -10.177
v -14.0702 -38.5985 -10.1069
v -13.7417 -38.5456 -10.3089
v -13.3889 -38.5456 -10.3256
v -13.0206 -38.5728 -10.1252
v -15.5059 -38.1926 -10.2935
v -13.8097 -38.1926 -10.1732
v -13.3889 -38.1926 -10.3497
v -13.0361 -38.1926 -10.2938
v -12.8263 -38.1926 -10.1069
v -15.8598 -37.8409 -10.1061
v -15.4924 -37.8493 -10.1016
v -15.1531 -37.8397 -10.2914
v -13.6919 -37.9055 -10.1069
v -13.3889 -37.8397 -10.3008
v -13.0361 -37.8397 -10.3169
v -12.6725 -37.8588 -10.1161
v -15.8694 -37.4791 -10.0962
v -15.155 -37.482 -10.1094
v -13.4005 -37.4687 -10.1202
v -13.0361 -37.4867 -10.2624
v -12.5993 -37.4867 -10.1542
v -15.536 -37.0755 -10.0488
v -15.137 -37.0821 -10.0783
v -13.0553 -37.1157 -10.119
v -12.6832 -37.1338 -10.1951
v -12.3266 -37.1432 -10.1099
v -12.6832 -36.8008 -10.0985
v -12.3635 -36.7731 -10.1092
v -14.2866 -39.2515 -9.70028
v -13.3848 -39.2587 -9.69237
v -14.1359 -38.8985 -9.63212
v -13.0906 -38.8377 -9.70028
v -14.0959 -38.5421 -9.71535
v -12.8919 -38.5456 -9.70028
v -13.939 -38.1926 -9.70028
v -12.6871 -38.1864 -9.70028
v -13.7318 -37.8544 -9.70028
v -12.4707 -37.8397 -9.70028
v -15.5059 -37.4867 -9.9279
v -13.5076 -37.4867 -9.70028
v -12.3091 -37.5229 -9.70242
v -13.33 -37.21 -9.70028
v -12.0037 -37.0936 -9.70028
v -13.0149 -36.8066 -9.70028
v -11.9775 -36.7808 -9.92262
v -11.6945 -36.6983 -9.70028
v -12.6943 -36.4141 -9.71914
v -12.3304 -36.4278 -9.99698
v -11.9775 -36.4278 -10.0006
v -11.5547 -36.4278 -9.78449
v -12.3414 -36.0635 -9.71411
v -11.9775 -36.0749 -10.0124
v -11.6247 -36.0749 -10.0398
v -11.2495 -36.1007 -9.72752
v -12.0135 -35.6735 -9.75562
v -11.6247 -35.7219 -10.0286
v -11.2719 -35.7219 -9.93985
v -10.9307 -35.7 -9.68155
v -11.6646 -35.3239 -9.74402
v -11.2719 -35.369 -9.91009
v -10.8629 -35.369 -9.75573
v -11.3354 -35.016 -9.75271
v -10.836 -35.016 -9.75526
v -11.2719 -34.7076 -9.65367
v -10.9463 -34.6388 -9.7089
v -14.0946 -39.2515 -9.48348
v -13.7417 -39.2515 -9.38775
v -13.7417 -38.8985 -9.34696
v -13.3889 -38.8985 -9.39361
v -13.7417 -38.5456 -9.33195
v -13.401 -38.5674 -9.28899
v -13.0361 -38.5456 -9.40959
v -13.7417 -38.1926 -9.42003
v -13.4474 -38.1926 -9.27402
v -13.0239 -38.2259 -9.28754
v -13.3898 -37.8375 -9.29312
v -12.9764 -37.8397 -9.28111
v -12.6832 -37.8397 -9.41256
v -13.3889 -37.4867 -9.47143
v -13.0778 -37.4867 -9.283
v -12.6572 -37.5201 -9.28726
v -13.0369 -37.132 -9.29304
v -12.3304 -37.3117 -9.29367
v -12.1507 -37.1338 -9.29367
v -12.8636 -36.7808 -9.29367
v -11.9775 -36.8689 -9.21931
v -11.7102 -36.7071 -9.29367
v -12.6854 -36.4245 -9.2903
v -11.4471 -36.4278 -9.29367
v -12.3501 -36.0536 -9.26613
v -11.1913 -36.1569 -9.29367
v -12.0458 -35.6346 -9.29367
v -10.8479 -35.8094 -9.29367
v -11.8039 -35.369 -9.29367
v -10.5379 -35.3969 -9.32553
v -11.5778 -35.0857 -9.29367
v -10.5662 -35.016 -9.57514
v -10.2123 -35.0172 -9.29466
v -11.3057 -34.6295 -9.25335
v -10.5662 -34.6631 -9.55549
v -10.2067 -34.6579 -9.28043
v -10.919 -34.4365 -9.29367
v -10.5662 -34.4721 -9.29367
v -12.3304 -39.4576 -8.88706
v -11.9775 -39.4592 -8.88706
v -12.6832 -37.1338 -9.18006
v -12.3304 -37.1338 -9.1927
v -12.6832 -36.7808 -9.13617
v -12.3304 -36.7808 -9.05414
v -12.3304 -36.4278 -9.02751
v -11.9775 -36.4278 -8.96098
v -11.6247 -36.4278 -9.05234
v -11.9775 -36.0749 -8.9232
v -11.6437 -36.0886 -8.88114
v -11.2719 -35.9911 -8.96858
v -11.9775 -35.7219 -9.07328
v -11.6525 -35.6791 -8.87252
v -10.9102 -35.7296 -8.88097
v -11.5782 -35.369 -8.94873
v -10.519 -35.4032 -8.8535
v -11.3055 -34.9803 -8.85922
v -10.1709 -35.0656 -8.85112
v -10.919 -34.6908 -8.92196
v -10.5673 -34.6628 -8.88671
v -10.2134 -34.8163 -8.88706
v -12.2437 -39.2816 -8.48045
v -11.9775 -39.2424 -8.46341
v -11.609 -39.246 -8.4824
v -11.2719 -35.7219 -8.78688
v -11.2719 -35.369 -8.70953
v -10.919 -35.369 -8.67446
v -10.919 -35.016 -8.68851
v -10.5662 -35.016 -8.6819
v -12.3304 -39.4679 -8.07383
v -11.9775 -39.3798 -8.07383
v -14.138 -52.7088 -19.482
v -13.707 -52.719 -19.4826
v -14.0946 -52.3109 -19.6146
v -14.4407 -52.2979 -19.4463
v -13.6812 -52.3109 -19.5172
v -14.4893 -51.9579 -19.4976
v -14.0946 -51.9579 -19.5881
v -13.7703 -51.9927 -19.459
v -14.4474 -51.605 -19.5687
v -14.6607 -51.605 -19.459
v -14.0793 -51.5712 -19.4703
v -14.4474 -51.252 -19.5415
v -14.7999 -51.2417 -19.4588
v -14.2463 -51.252 -19.459
v -14.8017 -50.8949 -19.4597
v -14.424 -50.86 -19.4713
v -14.1263 -53.061 -19.1081
v -13.7417 -53.0168 -19.3366
v -13.4112 -53.0168 -18.9996
v -14.4233 -52.6161 -19.0524
v -13.5024 -52.6638 -19.0524
v -14.5325 -52.3109 -19.0524
v -13.6283 -52.3109 -19.0524
v -14.6595 -51.9579 -19.0524
v -13.7993 -52.0303 -19.0524
v -14.8165 -51.6357 -19.0564
v -14.067 -51.605 -18.9893
v -15.0016 -51.252 -19.0524
v -14.1255 -51.3383 -19.0524
v -15.1395 -50.8684 -19.0524
v -14.2565 -50.899 -19.0524
v -15.199 -50.5461 -19.1117
v -14.8002 -50.5461 -19.3504
v -14.4317 -50.5112 -19.0577
v -15.2401 -50.1931 -19.1221
v -14.8002 -50.1931 -19.1956
v -14.6082 -50.1931 -19.0524
v -15.1531 -49.8402 -19.1672
v -15.3763 -49.8402 -19.0524
v -14.7849 -49.7991 -19.0652
v -15.1485 -49.463 -19.0631
v -14.1241 -53.0798 -18.6457
v -13.3498 -52.9406 -18.6457
v -14.2792 -52.6638 -18.6457
v -13.5211 -52.6638 -18.6457
v -14.4409 -52.2964 -18.6546
v -13.7443 -52.3125 -18.6463
v -14.5157 -51.9579 -18.6457
v -14.0873 -51.9465 -18.6457
v -14.4555 -51.605 -18.6457
v -14.8002 -51.252 -18.74
v -14.4474 -51.2657 -18.6483
v -14.8002 -50.8611 -18.6565
v -14.4474 -50.899 -18.7381
v -15.1056 -50.5219 -18.6808
v -14.7524 -50.5461 -18.5926
v -15.2814 -50.1931 -18.6457
v -14.7435 -50.1931 -18.5507
v -15.4386 -49.8402 -18.6457
v -14.6769 -49.8402 -18.6457
v -15.5147 -49.5211 -18.6522
v -14.8002 -49.4872 -18.8805
v -14.7066 -49.4872 -18.6457
v -15.5503 -49.1343 -18.7007
v -15.1531 -49.1343 -18.8846
v -14.814 -49.1579 -18.6457
v -15.5625 -48.7813 -18.6778
v -15.1154 -48.7227 -18.6749
v -15.5059 -48.4936 -18.6195
v -14.1155 -53.0688 -18.2391
v -13.0859 -53.0168 -18.1444
v -14.2493 -52.6638 -18.2391
v -13.371 -52.6285 -18.2875
v -14.3702 -52.3109 -18.2391
v -13.4725 -52.3109 -18.1486
v -14.4652 -52.0279 -18.2391
v -13.7394 -51.9543 -18.2428
v -14.4022 -51.5865 -18.2391
v -14.0946 -51.6274 -18.232
v -15.1531 -50.1931 -18.4319
v -15.1167 -49.864 -18.2391
v -14.8002 -49.8402 -18.3377
v -15.3226 -49.4872 -18.2391
v -14.7994 -49.4796 -18.2359
v -15.5209 -49.1619 -18.1918
v -14.8266 -49.1343 -18.2391
v -15.8189 -48.7015 -18.2391
v -14.9091 -48.7813 -18.2391
v -15.8945 -48.4284 -18.3077
v -15.1531 -48.4284 -18.5045
v -15.0138 -48.4284 -18.2391
v -15.9234 -48.0754 -18.3107
v -15.5059 -48.0754 -18.4388
v -15.1477 -48.0652 -18.2482
v -15.9204 -47.7224 -18.2794
v -15.4797 -47.6807 -18.259
v -15.8587 -47.3975 -18.2314
v -14.178 -53.0168 -17.8325
v -13.0014 -52.9381 -17.8325
v -14.3024 -52.6638 -17.8325
v -13.1426 -52.6638 -17.8325
v -14.4544 -52.3247 -17.8356
v -13.2729 -52.3109 -17.8325
v -14.6326 -51.9579 -17.8325
v -13.3867 -51.9531 -17.8365
v -14.7343 -51.605 -17.8325
v -13.7417 -51.605 -18.0678
v -13.5469 -51.605 -17.8325
v -14.8087 -51.2835 -17.8491
v -14.4474 -51.252 -18.1747
v -14.0946 -51.252 -18.0979
v -13.7497 -51.2612 -17.8034
v -14.8762 -50.899 -17.9251
v -14.4474 -50.899 -18.1135
v -14.0648 -50.8616 -17.8658
v -14.8002 -50.5461 -18.0354
v -15.1087 -50.5461 -17.8111
v -14.4116 -50.5099 -17.8729
v -15.1577 -50.2187 -17.8461
v -14.792 -50.17 -17.8496
v -15.1193 -49.8402 -17.8325
v -15.134 -49.4872 -17.8325
v -15.1721 -49.1343 -17.8325
v -15.5468 -48.8459 -17.8325
v -15.1152 -48.7813 -17.7626
v -15.8532 -48.4233 -17.8443
v -15.1255 -48.4284 -17.7888
v -15.9861 -48.0754 -17.8325
v -15.1213 -48.0754 -17.765
v -16.1041 -47.7224 -17.8325
v -15.1502 -47.7116 -17.8225
v -16.1882 -47.3695 -17.8325
v -15.5059 -47.3695 -18.1352
v -15.2501 -47.3695 -17.8325
v -16.2149 -47.032 -17.8395
v -15.8587 -47.0165 -18.1158
v -15.4196 -47.0165 -17.9252
v -16.0487 -46.6636 -17.8325
v -15.8587 -46.6636 -17.9154
v -15.5304 -46.674 -17.8238
v -14.1015 -53.0369 -17.4139
v -12.9452 -53.0168 -17.4259
v -14.1612 -52.6638 -17.3404
v -13.0784 -52.7363 -17.4259
v -14.4238 -52.2804 -17.4259
v -13.2425 -52.3109 -17.4259
v -14.628 -51.9579 -17.4259
v -13.3727 -51.9233 -17.3926
v -14.8051 -51.614 -17.4377
v -13.4973 -51.605 -17.4259
v -15.0047 -51.252 -17.4259
v -13.7233 -51.2174 -17.3869
v -15.1835 -50.942 -17.4797
v -13.8737 -50.899 -17.4259
v -15.402 -50.5461 -17.4259
v -14.1106 -50.5658 -17.4259
v -15.5252 -50.2332 -17.4549
v -14.449 -50.1946 -17.4259
v -15.5059 -49.8402 -17.6376
v -15.6991 -49.8402 -17.4259
v -14.8002 -49.8402 -17.7158
v -14.6762 -49.8402 -17.4259
v -15.5059 -49.4872 -17.6474
v -15.8101 -49.4872 -17.3884
v -14.8082 -49.5006 -17.4259
v -15.5059 -49.1343 -17.6795
v -15.8424 -49.1343 -17.4208
v -15.0924 -49.0558 -17.4259
v -15.8643 -48.7859 -17.4319
v -15.4811 -48.7264 -17.4259
v -15.5059 -48.3428 -17.4743
v -15.8587 -48.3811 -17.4166
v -15.9165 -48.0754 -17.4259
v -15.4687 -48.0754 -17.3795
v -16.0533 -47.7224 -17.4259
v -15.2563 -47.7224 -17.4259
v -16.164 -47.3695 -17.4259
v -15.1807 -47.3695 -17.4259
v -16.2115 -47.0165 -17.4295
v -15.1843 -47.0165 -17.4259
v -16.2113 -46.6636 -17.4259
v -15.2349 -46.6636 -17.4259
v -13.7482 -52.9865 -17.0147
v -13.3111 -53.0168 -16.988
v -13.0361 -53.0696 -17.1028
v -13.7417 -52.6638 -17.0609
v -13.3889 -52.7453 -17.0551
v -14.0946 -52.3109 -17.1575
v -13.7417 -52.3109 -17.0712
v -13.3889 -52.3109 -17.1853
v -14.4474 -51.9579 -17.1846
v -14.0946 -51.901 -17.0389
v -13.7417 -51.9579 -17.0604
v -14.4926 -51.6517 -16.9931
v -13.807 -51.605 -17.0513
v -14.8344 -51.2972 -16.9882
v -14.0182 -51.252 -16.9641
v -15.1768 -50.9291 -16.9868
v -14.0817 -50.8777 -17.0064
v -15.4662 -50.4866 -17.0193
v -14.2524 -50.5461 -17.0193
v -15.6473 -50.1931 -17.0193
v -14.4704 -50.2276 -17.0193
v -15.8656 -49.8499 -17.0053
v -14.6669 -49.8402 -17.0193
v -16.085 -49.4872 -17.0193
v -14.7992 -49.4847 -17.0489
v -16.2456 -49.183 -17.0706
v -14.9599 -49.1343 -17.0193
v -16.2116 -48.7813 -17.3008
v -16.4746 -48.7813 -17.0193
v -15.1997 -48.8341 -17.0193
v -16.2116 -48.4284 -17.2704
v -16.5549 -48.4284 -17.0062
v -15.4972 -48.4079 -17.0777
v -16.2116 -48.0754 -17.1809
v -16.5237 -48.0754 -16.9985
v -15.6808 -48.0754 -17.0193
v -16.2363 -47.6689 -17.0414
v -15.5059 -47.7224 -17.2032
v -15.7733 -47.7224 -17.0193
v -16.1492 -47.3695 -16.9828
v -15.5059 -47.3695 -17.097
v -15.7776 -47.3695 -16.9518
v -16.039 -47.0165 -17.0193
v -15.4847 -47.0607 -17.0065
v -16.0965 -46.6636 -17.0193
v -15.2537 -46.6636 -17.0193
v -14.0946 -51.605 -16.9432
v -14.4474 -51.252 -16.822
v -14.8002 -50.899 -16.7592
v -14.4474 -50.899 -16.7743
v -15.1531 -50.471 -16.6454
v -14.8002 -50.5461 -16.6741
v -14.4474 -50.5461 -16.8277
v -15.4516 -50.1586 -16.6506
v -14.8593 -50.1931 -16.6357
v -15.8069 -49.7998 -16.6127
v -14.8544 -49.8402 -16.6793
v -16.1445 -49.4024 -16.6127
v -14.952 -49.4872 -16.6127
v -16.3471 -49.1343 -16.6127
v -15.0265 -49.1343 -16.6127
v -16.5559 -48.7639 -16.6127
v -15.1797 -48.8348 -16.6127
v -16.6935 -48.4284 -16.6127
v -15.4 -48.4284 -16.6127
v -16.791 -48.0754 -16.6127
v -15.559 -48.1614 -16.6127
v -16.5644 -47.7224 -16.9216
v -16.9011 -47.7224 -16.5478
v -15.8276 -47.6562 -16.6127
v -16.5644 -47.3695 -16.8267
v -16.9132 -47.3695 -16.608
v -16.0158 -47.3695 -16.6127
v -16.5644 -47.0438 -16.5929
v -16.2116 -47.0805 -16.5215
v -15.8587 -47.0165 -16.8808
v -15.8587 -46.6636 -16.7431
v -15.5059 -46.6636 -16.8242
v -15.1531 -50.1931 -16.5451
v -15.5059 -49.8402 -16.4662
v -15.1531 -49.8402 -16.4652
v -15.8587 -49.4872 -16.3455
v -15.5059 -49.4872 -16.2976
v -15.1531 -49.4872 -16.4073
v -16.1633 -49.0911 -16.2527
v -15.8587 -49.2206 -16.1517
v -15.4664 -49.1831 -16.1834
v -15.1531 -49.1343 -16.408
v -16.2915 -48.7813 -16.1339
v -15.4468 -48.7813 -16.1536
v -16.5862 -48.464 -16.1738
v -15.5077 -48.4336 -16.2108
v -16.8105 -48.0754 -16.2061
v -15.6698 -48.0754 -16.2061
v -16.9348 -47.762 -16.1512
v -15.8394 -47.6797 -16.1471
v -17.0878 -47.3695 -16.2061
v -15.9625 -47.3695 -16.2061
v -16.9173 -47.0165 -16.4651
v -17.1599 -47.0165 -16.2061
v -16.1225 -47.0165 -16.2061
v -16.9739 -46.6049 -16.2378
v -16.5644 -46.6636 -16.3406
v -16.2495 -46.7087 -16.1613
v -15.8587 -48.7813 -15.9801
v -16.2116 -48.4284 -15.922
v -15.8587 -48.4284 -15.9436
v -16.5644 -48.0411 -15.8248
v -16.2116 -48.0698 -15.8019
v -15.8587 -48.0754 -15.9551
v -16.8548 -47.654 -15.7995
v -15.9947 -47.7224 -15.7995
v -17.0561 -47.3695 -15.7995
v -15.9714 -47.3695 -15.7995
v -17.2552 -46.9705 -15.7995
v -16.0344 -47.0165 -15.7995
v -17.3097 -46.6636 -15.8961
v -16.1112 -46.6636 -15.7995
v -16.5644 -47.7224 -15.6181
v -16.2116 -47.7224 -15.6339
v -16.9173 -47.2993 -15.4794
v -16.6086 -47.3974 -15.3674
v -16.2292 -47.3573 -15.3989
v -17.0997 -47.0165 -15.3928
v -16.1616 -47.0165 -15.3242
v -17.2886 -46.6969 -15.3594
v -16.1112 -46.6636 -15.3928
v -16.9173 -47.0165 -15.2064
v -16.5644 -47.0165 -15.0892
v -16.9239 -46.6699 -14.9819
v -16.5073 -46.7167 -14.9535
v -16.2116 -46.6636 -15.1615
v -12.3304 -53.1453 -11.3267
v -12.3304 -53.0665 -10.9201
v -11.9775 -53.0241 -10.9045
v -11.6247 -53.103 -10.8522
v -12.3168 -53.0239 -10.5135
v -11.2764 -53.0275 -10.511
v -11.9775 -52.8276 -10.5135
v -11.6247 -52.8116 -10.5135
v -12.3005 -53.073 -10.1069
v -10.8655 -53.0168 -10.171
v -11.954 -52.6728 -10.1069
v -11.6247 -52.6038 -10.1984
v -11.2261 -52.6402 -10.1358
v -10.919 -52.749 -10.061
v -12.1538 -53.0168 -9.70028
v -10.4944 -53.0168 -9.783
v -11.9569 -52.6843 -9.70028
v -10.5415 -52.6269 -9.72262
v -11.6247 -52.4263 -9.70028
v -11.2719 -52.3235 -9.65392
v -10.919 -52.3244 -9.68016
v -11.9435 -53.0168 -9.34651
v -10.2134 -53.0168 -9.51062
v -9.93999 -53.0168 -9.20646
v -11.6626 -52.6155 -9.25031
v -10.2134 -52.6638 -9.52438
v -9.91322 -52.6638 -9.2536
v -11.3433 -52.2452 -9.29367
v -10.5662 -52.3109 -9.55162
v -10.1718 -52.2552 -9.32494
v -10.919 -52.0282 -9.29367
v -10.5662 -51.9855 -9.24092
v -11.5731 -53.0168 -8.94881
v -9.56391 -53.0168 -8.8377
v -11.4618 -52.6638 -8.88706
v -9.45275 -52.7198 -8.92263
v -11.2817 -52.2964 -8.87284
v -9.86052 -52.3109 -9.17762
v -9.50769 -52.3109 -9.04525
v -9.19034 -52.3109 -8.87157
v -10.9046 -51.9639 -8.88706
v -10.2134 -51.9579 -9.16469
v -9.86052 -51.9579 -9.0919
v -9.50769 -51.9579 -9.01212
v -9.22925 -51.9579 -8.84736
v -10.5662 -51.7891 -8.88706
v -10.2134 -51.6663 -8.88706
v -9.86052 -51.6052 -8.88664
v -9.50769 -51.6435 -8.8601
v -11.21 -53.0168 -8.53862
v -9.50769 -53.2987 -8.48045
v -9.15485 -53.0724 -8.5304
v -8.85631 -52.9755 -8.45274
v -11.2158 -52.6638 -8.54833
v -9.15485 -52.6638 -8.79296
v -8.80201 -52.6638 -8.6482
v -8.49032 -52.6638 -8.46182
v -10.9398 -52.2564 -8.46292
v -8.80201 -52.3109 -8.70102
v -8.46679 -52.3109 -8.47209
v -10.8043 -51.9579 -8.48045
v -8.74558 -51.9579 -8.52654
v -10.5662 -51.7818 -8.48045
v -10.22 -51.6003 -8.49652
v -9.15485 -51.5346 -8.56147
v -8.8415 -51.6524 -8.45119
v -9.86052 -51.4003 -8.48045
v -9.50769 -51.3686 -8.48045
v -10.919 -53.0168 -8.259
v -10.6132 -53.0676 -8.028
v -10.2134 -53.3272 -8.07383
v -9.86052 -53.3696 -8.07383
v -9.50769 -53.3696 -8.07383
v -9.15485 -53.3428 -8.07383
v -8.80201 -53.2976 -8.07383
v -8.44918 -53.0168 -8.23763
v -8.06858 -53.0293 -8.08239
v -10.8404 -52.6638 -8.15676
v -8.09634 -52.6638 -8.32376
v -7.7435 -52.6638 -8.21065
v -7.7435 -52.9565 -8.04654
v -7.35731 -52.6868 -8.08497
v -10.5646 -52.3134 -8.07567
v -8.09634 -52.3109 -8.34943
v -7.7435 -52.3109 -8.2448
v -7.36928 -52.2833 -8.08556
v -10.5662 -51.9579 -8.27537
v -10.2507 -51.9272 -8.06191
v -8.44918 -51.9579 -8.34578
v -8.09634 -51.9579 -8.21869
v -7.75583 -51.965 -8.06708
v -9.89016 -51.5693 -8.04897
v -8.42295 -51.589 -8.09151
v -8.09634 -51.7491 -8.07383
v -9.50769 -51.3349 -8.07383
v -9.15485 -51.3318 -8.07383
v -8.80201 -51.377 -8.07383
v -10.1398 -53.0168 -7.70525
v -9.86052 -53.0861 -7.60213
v -9.50769 -53.2705 -7.66722
v -9.15485 -53.3352 -7.66722
v -7.39067 -53.0168 -7.99736
v -7.03783 -53.0168 -7.98741
v -6.68499 -53.0168 -7.96255
v -6.33216 -53.0168 -7.91259
v -5.97932 -53.0168 -7.85526
v -5.62648 -53.0168 -7.77977
v -5.24798 -53.0011 -7.67635
v -4.92081 -53.0902 -7.60044
v -10.5662 -52.6638 -7.89737
v -10.2198 -52.6705 -7.66221
v -7.03783 -52.6638 -8.02641
v -6.68499 -52.6638 -7.95802
v -6.33216 -52.6638 -7.83959
v -5.97717 -52.6627 -7.66827
v -5.62648 -52.8288 -7.66722
v -10.1469 -52.3109 -7.73537
v -7.03783 -52.3109 -7.95485
v -6.6549 -52.2842 -7.69333
v -6.33216 -52.4579 -7.66722
v -9.85435 -51.9633 -7.67258
v -7.39067 -51.9579 -7.88903
v -7.09348 -51.983 -7.66722
v -9.47163 -51.6216 -7.69906
v -8.06358 -51.5892 -7.64699
v -7.7435 -51.6622 -7.66722
v -7.39067 -51.774 -7.66722
v -9.15485 -51.4098 -7.66722
v -8.80201 -51.3382 -7.66722
v -8.44918 -51.4047 -7.66722
v -9.50769 -53.0168 -7.38061
v -9.18693 -53.0382 -7.24418
v -8.80201 -53.2284 -7.26061
v -4.61505 -53.0386 -7.26061
v -9.86052 -52.6638 -7.38274
v -9.53213 -52.6916 -7.24712
v -5.58676 -52.6468 -7.29831
v -5.27365 -52.7179 -7.26061
v -4.92081 -52.8556 -7.26061
v -9.86052 -52.3109 -7.4574
v -9.52318 -52.2882 -7.24835
v -6.38756 -52.3332 -7.26061
v -5.97932 -52.4695 -7.26061
v -9.50769 -51.9579 -7.42565
v -9.18588 -51.9269 -7.2468
v -7.0766 -51.9698 -7.26061
v -6.68499 -52.1221 -7.26061
v -9.15485 -51.605 -7.52381
v -8.80201 -51.6446 -7.32775
v -8.44918 -51.6156 -7.29664
v -8.09634 -51.6359 -7.26061
v -7.7435 -51.6744 -7.26061
v -7.39067 -51.7504 -7.26061
v -8.80201 -53.0168 -7.06042
v -8.40893 -52.9819 -6.87295
v -8.09634 -53.0844 -6.78867
v -4.63751 -53.0443 -6.854
v -9.15485 -52.6638 -7.025
v -8.75774 -52.6638 -6.87145
v -5.27365 -52.7279 -6.854
v -5.61558 -52.6594 -6.8466
v -4.92081 -52.8816 -6.854
v -9.15485 -52.3109 -7.02994
v -8.81004 -52.3281 -6.84821
v -6.33216 -52.4277 -6.854
v -6.68076 -52.307 -6.85031
v -5.97932 -52.5287 -6.854
v -8.80201 -51.9579 -7.0505
v -8.44918 -51.9682 -6.86292
v -8.09634 -51.9664 -6.86515
v -7.7435 -51.9781 -6.89401
v -7.39067 -51.9893 -6.93779
v -7.03783 -52.103 -6.854
v -7.7435 -53.0168 -6.52368
v -7.42532 -53.0355 -6.43198
v -7.03783 -53.2086 -6.44739
v -5.23693 -52.9932 -6.42766
v -4.92081 -53.0634 -6.53598
v -4.56797 -53.2199 -6.44739
v -8.44918 -52.6638 -6.70956
v -8.09634 -52.6638 -6.56881
v -7.71925 -52.6638 -6.45138
v -6.65965 -52.6536 -6.43812
v -6.33216 -52.7212 -6.48521
v -5.97932 -52.7451 -6.54561
v -5.62648 -52.9384 -6.38195
v -8.44918 -52.3109 -6.66999
v -8.09634 -52.3109 -6.60396
v -7.7435 -52.3109 -6.57164
v -7.39067 -52.3109 -6.57158
v -7.39067 -52.6033 -6.40553
v -7.03783 -52.6051 -6.39897
v -7.03783 -52.3109 -6.64428
v -7.03783 -53.0168 -6.3297
v -6.68499 -53.0168 -6.31484
v -6.33216 -53.0168 -6.30371
v -5.97932 -53.0168 -6.29852
v -15.8587 -46.5531 -17.8325
v -16.1667 -46.3106 -17.4259
v -15.8587 -46.3106 -17.6633
v -15.5059 -46.3106 -17.6041
v -15.2697 -46.3106 -17.4259
v -15.8865 -45.9316 -17.4446
v -15.4591 -45.9223 -17.4429
v -16.1776 -46.3106 -17.0193
v -15.1464 -46.3347 -17.0298
v -16.1721 -45.9577 -17.0193
v -15.1531 -45.9577 -17.257
v -15.0581 -45.9577 -17.0193
v -16.0552 -45.6047 -17.0193
v -15.8587 -45.6047 -17.2139
v -15.5059 -45.6047 -17.29
v -15.1001 -45.6047 -17.0997
v -15.8022 -45.2692 -17.0087
v -15.5059 -45.1967 -17.0429
v -15.2031 -45.2806 -16.9801
v -15.9054 -46.3637 -16.5752
v -15.4882 -46.3237 -16.6035
v -16.1329 -45.9577 -16.6127
v -15.1654 -45.9224 -16.6388
v -16.2126 -45.6112 -16.6028
v -15.1168 -45.6047 -16.5578
v -16.2355 -45.2517 -16.6528
v -15.0791 -45.2517 -16.6127
v -16.2058 -44.9188 -16.5985
v -15.8587 -44.8988 -16.8469
v -15.5059 -44.8988 -16.9214
v -15.1531 -44.8988 -16.8269
v -15.0769 -44.8988 -16.6127
v -15.8192 -44.5592 -16.5994
v -15.5059 -44.503 -16.6705
v -15.177 -44.5719 -16.5782
v -16.5644 -46.366 -16.1748
v -15.8587 -45.8946 -16.261
v -15.5059 -45.9577 -16.4051
v -16.1802 -45.5583 -16.2061
v -15.4684 -45.636 -16.1828
v -16.2919 -45.2517 -16.2061
v -15.1568 -45.2352 -16.2243
v -16.2932 -44.8988 -16.2061
v -15.1213 -44.8988 -16.126
v -16.1928 -44.5884 -16.2061
v -15.0983 -44.5458 -16.2061
v -15.8829 -44.169 -16.2267
v -15.5059 -44.1929 -16.3577
v -15.1622 -44.2131 -16.1956
v -15.5059 -43.922 -16.1473
v -17.3217 -46.3106 -15.8681
v -16.9173 -46.3106 -16.1127
v -16.2054 -46.289 -15.8197
v -17.2679 -45.9604 -15.7981
v -16.9173 -45.9577 -15.9261
v -16.5644 -45.9577 -15.9476
v -16.3507 -45.9577 -15.7995
v -16.9173 -45.68 -15.7494
v -16.5644 -45.6592 -15.7612
v -15.8587 -45.6047 -16.0413
v -16.2116 -45.2517 -15.9724
v -15.8587 -45.2405 -15.8059
v -15.5059 -45.1701 -15.8488
v -16.184 -44.8988 -15.8485
v -15.3134 -44.8988 -15.7995
v -16.208 -44.5458 -15.7995
v -15.1518 -44.5494 -15.797
v -16.1932 -44.1929 -15.7995
v -15.01 -44.1929 -15.7995
v -15.9435 -43.8399 -15.8832
v -15.1531 -43.8399 -16.0681
v -14.9409 -43.8399 -15.7995
v -15.8587 -43.566 -15.7282
v -15.5283 -43.4685 -15.8132
v -15.1133 -43.4364 -15.8326
v -17.4491 -46.3106 -15.3928
v -16.1437 -46.3106 -15.3928
v -17.4816 -45.9577 -15.3928
v -16.2177 -45.9826 -15.3928
v -17.2701 -45.6047 -15.592
v -17.456 -45.6047 -15.3928
v -16.315 -45.6047 -15.3928
v -17.2923 -45.2297 -15.4081
v -16.9173 -45.2517 -15.5206
v -16.5172 -45.1931 -15.4375
v -16.9173 -44.9856 -15.34
v -15.8587 -44.8988 -15.603
v -15.5059 -44.8988 -15.6868
v -15.9152 -44.5797 -15.3688
v -15.4993 -44.5495 -15.39
v -16.1504 -44.1929 -15.3928
v -15.1149 -44.2355 -15.3417
v -16.1526 -43.8399 -15.3928
v -14.8817 -43.8399 -15.3928
v -16.0654 -43.487 -15.3928
v -14.8455 -43.487 -15.3928
v -15.8297 -43.1531 -15.3688
v -15.5059 -43.134 -15.5814
v -15.1531 -43.134 -15.677
v -14.8916 -43.134 -15.3928
v -17.2726 -46.3146 -14.9832
v -16.2327 -46.3106 -15.0452
v -17.4173 -45.9577 -14.9862
v -16.2533 -45.9577 -14.9862
v -17.5195 -45.6047 -14.9862
v -16.2644 -45.6047 -14.9862
v -17.5713 -45.2517 -14.9862
v -16.2785 -45.2517 -14.9862
v -17.4936 -44.8988 -14.9862
v -17.2701 -44.8988 -15.2064
v -16.5644 -44.8988 -15.2923
v -16.3139 -44.8988 -14.9862
v -17.2701 -44.5908 -14.9375
v -16.9503 -44.5354 -14.9967
v -16.5652 -44.5459 -14.9861
v -15.8587 -44.1279 -15.044
v -15.5059 -44.1428 -15.0372
v -16.0708 -43.8399 -14.9862
v -15.1006 -43.893 -14.9399
v -16.1413 -43.487 -14.9862
v -14.8632 -43.487 -14.9862
v -16.0401 -43.134 -14.9862
v -14.8335 -43.134 -14.9862
v -16.9173 -46.3106 -14.7514
v -16.5644 -46.3106 -14.7129
v -17.2701 -45.8949 -14.6576
v -16.9597 -45.9876 -14.553
v -16.5404 -45.9937 -14.5539
v -17.4379 -45.6047 -14.5796
v -16.3066 -45.6047 -14.5796
v -17.5613 -45.2517 -14.5796
v -16.2431 -45.2517 -14.5796
v -17.5722 -44.8988 -14.5796
v -16.2499 -44.8988 -14.5796
v -17.4702 -44.5458 -14.5796
v -16.3375 -44.5458 -14.5796
v -17.2701 -44.2312 -14.5187
v -16.9664 -44.1744 -14.5982
v -16.5649 -44.193 -14.5795
v -15.8587 -43.8399 -14.7955
v -15.5059 -43.8399 -14.7818
v -15.8771 -43.5028 -14.5682
v -15.5059 -43.524 -14.553
v -15.1402 -43.4958 -14.5731
v -16.0517 -43.134 -14.5796
v -14.8564 -43.134 -14.5796
v -17.238 -45.5873 -14.1957
v -16.9173 -45.6569 -14.1021
v -16.541 -45.6278 -14.1429
v -17.4483 -45.2517 -14.173
v -16.2872 -45.2517 -14.173
v -17.5173 -44.8988 -14.173
v -16.2356 -44.8988 -14.173
v -17.5068 -44.5458 -14.173
v -16.2481 -44.5458 -14.173
v -17.4055 -44.1929 -14.173
v -16.247 -44.1929 -14.0887
v -17.2701 -43.9862 -14.173
v -16.9699 -43.8098 -14.2079
v -16.5116 -43.7967 -14.2229
v -15.8587 -43.134 -14.2937
v -15.5059 -43.134 -14.1772
v -15.1531 -43.134 -14.1782
v -17.2701 -45.2517 -13.8973
v -16.9563 -45.277 -13.7463
v -16.5408 -45.2745 -13.7434
v -17.2852 -44.9354 -13.7482
v -16.2735 -44.8988 -13.7664
v -17.3377 -44.5458 -13.6656
v -16.1984 -44.6007 -13.8324
v -17.4067 -44.1929 -13.7664
v -16.1276 -44.1929 -13.7664
v -17.2839 -43.8174 -13.8061
v -16.1804 -43.8399 -13.8397
v -16.9424 -43.4685 -13.7892
v -16.5644 -43.4206 -13.8518
v -16.2505 -43.5423 -13.7345
v -16.9173 -44.8988 -13.4765
v -16.5644 -44.8776 -13.3801
v -16.9636 -44.6046 -13.3205
v -16.2064 -44.555 -13.3499
v -17.2367 -44.1929 -13.4175
v -16.0574 -44.1929 -13.3598
v -17.2542 -43.8399 -13.4506
v -15.996 -43.8399 -13.3598
v -17.1551 -43.487 -13.3598
v -16.0096 -43.487 -13.3598
v -16.8924 -43.1463 -13.3176
v -16.5644 -43.134 -13.4924
v -16.2082 -43.1308 -13.3635
v -16.5644 -44.5458 -13.1049
v -16.8309 -44.1929 -13.0041
v -16.5644 -44.2706 -12.8935
v -16.1962 -44.2101 -12.9344
v -16.9417 -43.8934 -12.9244
v -15.8869 -43.7697 -12.9532
v -17.049 -43.487 -12.9532
v -15.8285 -43.487 -13.015
v -16.9363 -43.1003 -12.8988
v -15.8243 -43.134 -13.0065
v -16.5204 -43.8233 -12.5595
v -16.2116 -43.8843 -12.4736
v -15.9402 -43.8048 -12.5466
v -16.8449 -43.487 -12.644
v -15.6725 -43.487 -12.5466
v -16.8397 -43.134 -12.5466
v -15.5342 -43.134 -12.4674
v -16.4816 -43.487 -12.2173
v -16.2116 -43.6936 -12.14
v -15.8587 -43.7325 -12.14
v -15.5596 -43.409 -12.14
v -16.5722 -43.1535 -12.1283
v -15.4095 -43.134 -12.14
v -16.1692 -43.4512 -11.7677
v -15.8587 -43.6439 -11.7333
v -15.5746 -43.4405 -11.7333
v -16.3153 -43.134 -11.7333
v -15.3208 -43.134 -11.7333
v -15.8587 -43.487 -11.5228
v -16.1243 -43.134 -11.4105
v -15.8587 -43.222 -11.254
v -15.5059 -43.2005 -11.2592
v -15.2386 -43.0743 -11.3267
v -15.5059 -42.9782 -15.3928
v -15.1531 -42.8376 -15.3286
v -15.8119 -42.8156 -14.9443
v -15.5059 -42.6995 -15.0738
v -14.9383 -42.7811 -14.9862
v -15.1531 -42.4871 -14.9337
v -16.0178 -42.7811 -14.5796
v -14.8654 -42.7811 -14.5796
v -15.878 -42.3851 -14.6002
v -15.5059 -42.4281 -14.8379
v -14.9343 -42.4281 -14.5796
v -15.5463 -42.0551 -14.5981
v -15.1294 -42.0586 -14.5971
v -15.8587 -42.9894 -14.173
v -15.9152 -42.7811 -14.1002
v -15.5059 -43.1298 -14.173
v -15.1531 -43.1286 -14.173
v -14.9268 -42.7811 -14.173
v -16.0418 -42.4281 -14.173
v -14.9005 -42.4281 -14.173
v -16.0385 -42.0751 -14.173
v -15.8587 -42.0751 -14.4438
v -14.871 -42.0751 -14.173
v -15.8704 -41.711 -14.1828
v -15.5059 -41.6493 -14.2402
v -15.0954 -41.6818 -14.2091
v -15.5059 -42.7811 -13.9032
v -15.1531 -42.7811 -13.94
v -15.834 -42.4017 -13.7814
v -15.5059 -42.5078 -13.7143
v -15.1297 -42.4594 -13.7471
v -15.8995 -42.0751 -13.7181
v -14.9108 -42.0751 -13.7664
v -15.9761 -41.7222 -13.7664
v -14.8317 -41.7222 -13.7664
v -15.8647 -41.3616 -13.7744
v -15.5059 -41.3692 -13.9753
v -15.1531 -41.3692 -13.9823
v -14.8383 -41.3692 -13.7664
v -15.5059 -41.0592 -13.7204
v -15.1531 -41.0433 -13.7388
v -16.5644 -43.0204 -13.3598
v -15.5059 -42.0751 -13.5056
v -15.1531 -41.9961 -13.4271
v -15.7907 -41.7222 -13.4392
v -15.5059 -41.8059 -13.2793
v -14.9606 -41.7222 -13.3598
v -15.8624 -41.3629 -13.3508
v -14.8415 -41.3692 -13.3598
v -15.79 -41.0163 -13.3598
v -14.9086 -41.0163 -13.3598
v -15.5059 -40.6797 -13.3428
v -15.1531 -40.6838 -13.3377
v -16.5937 -42.7604 -12.9787
v -16.2116 -42.7264 -13.0105
v -15.8934 -42.8197 -12.9404
v -15.1531 -41.7222 -13.1895
v -15.5487 -41.4073 -12.9063
v -15.0994 -41.416 -12.8993
v -15.7923 -41.0163 -12.9532
v -14.8907 -41.0163 -12.9532
v -15.8196 -40.6633 -12.9532
v -14.9348 -40.6633 -12.9532
v -15.558 -40.2667 -12.9855
v -15.1309 -40.2814 -12.9757
v -16.7255 -42.7811 -12.5466
v -15.5199 -42.7811 -12.5242
v -16.5644 -42.5879 -12.5466
v -16.2559 -42.3957 -12.5879
v -15.8587 -42.34 -12.6269
v -15.5565 -42.4281 -12.5115
v -15.5306 -41.0425 -12.523
v -15.1099 -41.0574 -12.5006
v -15.7962 -40.6633 -12.5466
v -14.8923 -40.6633 -12.5466
v -15.8621 -40.3079 -12.5453
v -14.8736 -40.3104 -12.5466
v -15.5059 -39.9574 -12.7744
v -15.7954 -39.9574 -12.5466
v -15.1531 -39.9574 -12.7558
v -14.9483 -39.9574 -12.5466
v -15.5059 -39.6361 -12.5224
v -15.1531 -39.6273 -12.5302
v -16.565 -42.78 -12.1389
v -15.3163 -42.7811 -12.14
v -16.3895 -42.4281 -12.14
v -15.195 -42.4281 -12.0761
v -16.1401 -42.1322 -12.14
v -15.8587 -42.0751 -12.35
v -15.5059 -41.9938 -12.2196
v -15.2259 -42.0751 -12.0851
v -15.8587 -41.9205 -12.14
v -15.5059 -40.62 -12.1808
v -15.1618 -40.6681 -12.1366
v -15.7349 -40.3104 -12.14
v -14.8752 -40.3104 -12.14
v -15.8664 -39.9783 -12.1624
v -14.8088 -39.9574 -12.14
v -15.8847 -39.6044 -12.1782
v -14.818 -39.6044 -12.14
v -16.3744 -42.7811 -11.7333
v -15.1507 -42.786 -11.7373
v -16.3133 -42.4281 -11.7333
v -14.9806 -42.4281 -11.7333
v -16.1711 -42.1428 -11.7333
v -14.8698 -42.0751 -11.6336
v -15.8075 -41.7469 -11.7333
v -15.5059 -41.6495 -11.8262
v -15.111 -41.668 -11.7752
v -15.5059 -40.3104 -11.9305
v -15.1531 -40.2315 -11.8013
v -15.5646 -40.0066 -11.6914
v -14.9679 -39.9574 -11.7333
v -15.8795 -39.6447 -11.7026
v -14.7996 -39.6062 -11.7453
v -16.2151 -42.7948 -11.3142
v -14.9671 -42.7811 -11.3267
v -16.2133 -42.4223 -11.318
v -14.7727 -42.4645 -11.3528
v -16.1085 -42.0751 -11.3267
v -14.6144 -42.0751 -11.3267
v -15.8735 -41.7052 -11.3897
v -14.8002 -41.7222 -11.5286
v -14.5272 -41.7222 -11.2285
v -15.5222 -41.3535 -11.3527
v -15.1531 -41.3692 -11.5803
v -14.7821 -41.3484 -11.3437
v -15.1531 -41.0922 -11.2271
v -15.1531 -39.9574 -11.5876
v -15.5051 -39.6043 -11.3268
v -15.1352 -39.6191 -11.3145
v -15.8532 -42.7783 -10.9213
v -15.5059 -42.8271 -10.8861
v -15.1232 -42.7969 -10.9084
v -16.0409 -42.4281 -10.9201
v -14.8002 -42.6678 -10.9201
v -14.4574 -42.4121 -10.9201
v -16.032 -42.0751 -10.9201
v -14.3766 -42.0751 -10.9957
v -15.8728 -41.7048 -10.8874
v -14.27 -41.7222 -10.9201
v -15.6913 -41.3692 -10.9201
v -14.4474 -41.3692 -11.1111
v -14.2638 -41.3692 -10.9201
v -15.4316 -41.0767 -10.9201
v -14.8002 -41.0163 -11.147
v -14.3909 -41.0163 -10.9697
v -15.1531 -40.8594 -10.9201
v -14.8002 -40.7047 -10.8751
v -14.4474 -40.7439 -10.8811
v -15.8587 -42.4281 -10.7556
v -15.5059 -42.4281 -10.6058
v -15.1531 -42.4065 -10.5312
v -14.8002 -42.4011 -10.5524
v -15.8587 -42.0751 -10.6987
v -15.5542 -42.133 -10.4858
v -14.4474 -42.2561 -10.5135
v -14.3699 -42.0751 -10.4453
v -15.7316 -41.7222 -10.5135
v -14.1556 -41.7222 -10.5135
v -15.5712 -41.3692 -10.4208
v -14.0762 -41.4182 -10.5383
v -15.4601 -41.088 -10.5135
v -14.0354 -41.0163 -10.5806
v -15.114 -40.6998 -10.5135
v -14.0426 -40.6633 -10.5639
v -14.8001 -40.3105 -10.5133
v -14.4474 -40.3104 -10.6948
v -14.0311 -40.3104 -10.5593
v -14.484 -39.9095 -10.5391
v -14.0946 -39.9574 -10.5941
v -13.8245 -39.9574 -10.455
v -14.0946 -39.6281 -10.506
v -15.1531 -42.0751 -10.3308
v -14.8002 -42.0751 -10.3033
v -15.5059 -41.7222 -10.3081
v -15.1531 -41.7222 -10.1662
v -14.8519 -41.7502 -10.0827
v -14.3955 -41.7572 -10.0726
v -15.1866 -41.4251 -10.082
v -14.0946 -41.5882 -10.1069
v -13.9082 -41.3692 -10.1069
v -15.1613 -41.0032 -10.0982
v -13.7425 -41.0099 -10.1052
v -15.0391 -40.6633 -10.1069
v -13.7199 -40.6633 -10.1435
v -14.9227 -40.3104 -10.1069
v -13.7097 -40.3104 -10.1759
v -14.8039 -39.95 -10.0951
v -13.6038 -39.9574 -10.1069
v -14.4474 -39.6044 -10.3441
v -14.5908 -39.6044 -10.1069
v -13.7417 -39.6044 -10.4313
v -13.5134 -39.6044 -10.1069
v -14.7856 -41.3535 -9.70757
v -14.4474 -41.5148 -9.70028
v -14.0946 -41.4197 -9.59887
v -13.8148 -41.3281 -9.70028
v -14.8552 -41.0163 -9.60447
v -13.4953 -41.0163 -9.70028
v -14.844 -40.6633 -9.62535
v -13.4265 -40.6633 -9.63949
v -14.8056 -40.2838 -9.69127
v -13.5332 -40.3104 -9.70028
v -14.7294 -39.9574 -9.70028
v -13.5815 -39.9574 -9.70028
v -14.4797 -39.5616 -9.66358
v -13.5312 -39.6044 -9.70028
v -14.4474 -41.3692 -9.49403
v -14.4691 -41.0391 -9.27594
v -14.0946 -41.2513 -9.29367
v -13.7417 -41.2681 -9.29367
v -13.3889 -41.0163 -9.4937
v -13.3889 -41.2027 -9.29367
v -13.0531 -40.9916 -9.25242
v -14.4553 -40.6497 -9.28782
v -13.0361 -40.6633 -9.36534
v -12.7634 -40.6633 -9.22676
v -14.4474 -40.3104 -9.38966
v -14.1774 -40.3104 -9.24029
v -13.3889 -40.3104 -9.46308
v -13.0361 -40.2658 -9.31349
v -12.7584 -40.3104 -9.272
v -14.4474 -39.9574 -9.44811
v -14.0946 -40.0255 -9.32516
v -13.7417 -39.9734 -9.31348
v -13.3889 -40.1066 -9.29367
v -14.0946 -39.6044 -9.42942
v -13.7417 -39.6044 -9.43048
v -14.0946 -41.0163 -9.0906
v -13.7417 -41.0163 -9.02062
v -13.3675 -41.0109 -8.89779
v -13.0361 -41.0845 -8.84722
v -12.696 -41.0115 -8.88706
v -14.0946 -40.6633 -9.05091
v -13.7532 -40.653 -8.88056
v -12.3364 -40.6589 -8.85169
v -13.7004 -40.3104 -8.92909
v -12.3304 -40.3104 -9.17175
v -11.9678 -40.3185 -8.89802
v -13.3558 -39.9874 -8.88706
v -13.0361 -39.9574 -9.12294
v -12.6832 -39.9574 -9.19251
v -12.3304 -39.9574 -9.20648
v -11.9775 -39.9574 -9.13048
v -11.6428 -39.9135 -8.82702
v -13.0361 -39.738 -8.88706
v -12.7337 -39.5764 -8.92054
v -12.3304 -39.6044 -9.06427
v -11.9775 -39.6044 -9.04774
v -11.5868 -39.5838 -8.9098
v -13.3889 -40.6633 -8.6958
v -12.9808 -40.6342 -8.5019
v -12.6832 -40.7353 -8.44099
v -12.3125 -40.6821 -8.45688
v -13.3037 -40.3104 -8.55522
v -11.91 -40.3767 -8.48045
v -13.0787 -39.9008 -8.43537
v -11.595 -39.9958 -8.48045
v -12.8953 -39.6044 -8.48045
v -11.342 -39.6044 -8.48045
v -13.0361 -40.3104 -8.36565
v -12.6832 -40.3104 -8.18096
v -12.3492 -40.3308 -8.06648
v -12.0319 -40.2933 -8.10142
v -12.6842 -39.9557 -8.07321
v -11.6388 -39.944 -8.11645
v -12.6452 -39.5535 -8.23891
v -11.5929 -39.5645 -8.04131
v -12.3304 -39.9574 -7.97241
v -11.9775 -39.9574 -7.95909
v -12.3304 -39.6044 -7.97627
v -11.9775 -39.6044 -7.93367
v -13.7299 -53.3838 -19.0636
v -13.752 -53.7375 -18.6625
v -13.3412 -53.7712 -18.6802
v -13.9718 -53.3697 -18.6457
v -13.3889 -53.3697 -18.9183
v -13.2221 -53.3697 -18.6457
v -13.7425 -54.077 -18.2411
v -13.3889 -54.3659 -18.1756
v -13.3889 -54.0757 -18.5014
v -13.01 -54.1135 -18.2781
v -13.8871 -53.7227 -18.2391
v -13.0361 -53.7227 -18.494
v -12.9045 -53.7227 -18.2391
v -14.0025 -53.3697 -18.2391
v -13.0153 -53.3149 -18.2887
v -13.7432 -54.431 -17.8358
v -13.3889 -54.6216 -17.8325
v -12.9941 -54.4721 -17.8924
v -13.8848 -54.0757 -17.8325
v -12.7201 -54.0757 -17.7422
v -13.9584 -53.7227 -17.8325
v -12.7102 -53.7227 -17.7322
v -14.0716 -53.301 -17.8325
v -12.8212 -53.3697 -17.8325
v -13.3809 -54.7829 -17.4289
v -13.7417 -54.6563 -17.4259
v -13.8793 -54.4286 -17.4259
v -13.0361 -54.7689 -17.3913
v -12.6862 -54.4195 -17.4184
v -13.9516 -54.0757 -17.4259
v -12.6069 -54.0757 -17.4259
v -13.9672 -53.7227 -17.4259
v -12.6569 -53.6519 -17.4259
v -14.0141 -53.3697 -17.4259
v -12.7634 -53.3697 -17.4259
v -13.3889 -54.9192 -17.0193
v -13.6754 -54.7337 -17.0193
v -13.0361 -54.952 -17.0193
v -12.7547 -54.7172 -17.0193
v -13.8881 -54.4286 -17.0193
v -12.5567 -54.4286 -17.0193
v -13.9141 -54.0757 -17.0193
v -12.5269 -54.0757 -17.0193
v -13.7984 -53.7227 -16.9325
v -12.6504 -53.6623 -17.0193
v -13.7727 -53.3697 -16.9861
v -12.8468 -53.3697 -17.0193
v -13.3889 -54.9874 -16.6127
v -13.5883 -54.7816 -16.6127
v -13.0361 -55.12 -16.5518
v -12.666 -54.8087 -16.6606
v -13.7532 -54.4559 -16.5844
v -12.4864 -54.4286 -16.6127
v -13.7381 -54.1029 -16.6187
v -12.5227 -54.0757 -16.6127
v -13.4142 -53.6973 -16.5903
v -12.7225 -53.7537 -16.6756
v -13.3889 -53.3697 -16.7962
v -13.0361 -53.6446 -16.5215
v -13.0361 -53.3697 -16.8136
v -13.0321 -55.1582 -16.2061
v -13.3889 -55.0044 -16.2061
v -13.5383 -54.7816 -16.2061
v -12.6832 -55.0166 -16.2061
v -12.5335 -54.7816 -16.2061
v -13.6161 -54.4286 -16.2061
v -12.4604 -54.4286 -16.2061
v -13.413 -54.053 -16.1615
v -12.6386 -54.0303 -16.2061
v -13.0361 -53.8655 -16.2061
v -13.0361 -55.2699 -15.7995
v -13.3162 -55.0593 -15.7995
v -12.6711 -55.1456 -15.8323
v -13.4913 -54.7816 -15.7995
v -12.4406 -54.7816 -15.7995
v -13.4414 -54.3469 -15.7995
v -12.4451 -54.4286 -15.7995
v -13.0646 -54.062 -15.7398
v -12.7267 -54.087 -15.8321
v -13.0361 -55.3108 -15.3928
v -13.3331 -55.0581 -15.3928
v -12.6099 -55.1928 -15.3928
v -13.4779 -54.7816 -15.3928
v -12.3724 -54.7816 -15.3928
v -13.4107 -54.3978 -15.3928
v -12.4307 -54.4286 -15.3928
v -13.0361 -54.1275 -15.3928
v -12.6832 -54.1641 -15.3928
v -13.0361 -55.3338 -14.9862
v -13.3461 -55.0687 -14.9862
v -12.6832 -55.2838 -14.9862
v -12.493 -55.1345 -14.9862
v -13.4807 -54.7816 -14.9862
v -12.3535 -54.7816 -14.9862
v -13.3919 -54.4245 -14.955
v -12.4368 -54.4286 -14.9862
v -13.0361 -54.1635 -14.9862
v -12.6832 -54.1935 -14.9862
v -13.0361 -55.3544 -14.5796
v -13.356 -55.0763 -14.5796
v -12.6832 -55.3197 -14.5796
v -12.4595 -55.1345 -14.5796
v -13.4765 -54.7816 -14.5796
v -12.3316 -54.7816 -14.5708
v -13.3698 -54.4671 -14.5796
v -12.4401 -54.4286 -14.5796
v -13.0361 -54.1964 -14.5796
v -12.6832 -54.2165 -14.5796
v -13.0361 -55.3555 -14.173
v -13.2965 -55.1345 -14.173
v -12.6832 -55.3517 -14.173
v -12.4157 -55.1345 -14.173
v -13.4051 -54.7824 -14.173
v -12.3071 -54.8643 -14.173
v -13.2917 -54.4286 -14.173
v -12.3594 -54.5022 -14.173
v -13.0361 -54.2218 -14.173
v -12.6832 -54.2126 -14.173
v -13.0361 -55.3217 -13.7664
v -13.251 -55.1345 -13.7664
v -12.6832 -55.3485 -13.7664
v -12.3562 -55.0959 -13.7664
v -13.3912 -54.7812 -13.7165
v -12.2343 -54.7816 -13.7664
v -13.2647 -54.4286 -13.7664
v -12.319 -54.4093 -13.8318
v -13.0361 -54.2157 -13.7664
v -12.6832 -54.1717 -13.7664
v -13.1223 -55.2052 -13.3598
v -12.6832 -55.3216 -13.3598
v -12.3419 -55.1222 -13.3598
v -13.3794 -54.7816 -13.3598
v -12.1957 -54.7816 -13.3598
v -13.2824 -54.4286 -13.3598
v -12.2806 -54.3422 -13.3598
v -13.0361 -54.1647 -13.3598
v -12.6832 -54.0871 -13.3162
v -13.0948 -55.1815 -12.9532
v -12.6832 -55.2986 -12.9532
v -12.3257 -55.1407 -13.02
v -13.3619 -54.7816 -12.9532
v -12.1565 -54.7816 -12.9532
v -13.3097 -54.4286 -12.9532
v -12.1647 -54.4286 -12.9532
v -13.0298 -54.0774 -12.9446
v -12.3536 -54.086 -12.9351
v -12.6832 -53.977 -12.9532
v -13.0252 -55.1306 -12.5596
v -12.6832 -55.2439 -12.5466
v -12.3269 -55.1387 -12.5314
v -13.3001 -54.7816 -12.5466
v -12.1178 -54.7816 -12.5466
v -13.3041 -54.4286 -12.5466
v -12.0842 -54.4286 -12.5466
v -13.0768 -54.0302 -12.5466
v -12.184 -54.0757 -12.5466
v -12.6832 -53.8346 -12.5466
v -12.3304 -53.8795 -12.5466
v -12.6832 -55.108 -12.2132
v -13.075 -54.8239 -12.0812
v -12.3304 -55.0588 -12.14
v -12.1058 -54.7816 -12.14
v -13.2577 -54.4286 -12.14
v -11.9915 -54.4286 -12.066
v -13.0977 -53.992 -12.14
v -12.0005 -54.0757 -12.0895
v -12.7149 -53.6982 -12.1863
v -12.2845 -53.68 -12.1986
v -12.7285 -54.8119 -11.6874
v -12.2437 -54.85 -11.7333
v -13.0723 -54.4813 -11.6671
v -11.9512 -54.4854 -11.7333
v -13.1449 -54.0757 -11.7333
v -11.8651 -54.0757 -11.7333
v -12.9812 -53.7992 -11.7333
v -11.9591 -53.6783 -11.775
v -12.6832 -53.4615 -11.7333
v -12.3329 -53.3592 -11.7495
v -12.3304 -54.7597 -11.3893
v -12.6832 -54.6237 -11.3267
v -12.909 -54.4286 -11.3267
v -11.9154 -54.51 -11.3267
v -13.0397 -54.0707 -11.3192
v -11.715 -54.0757 -11.3267
v -12.9577 -53.7227 -11.3267
v -11.6698 -53.7227 -11.2484
v -12.6938 -53.3578 -11.3611
v -11.9377 -53.3213 -11.3918
v -12.6406 -54.4008 -10.9562
v -12.3304 -54.4903 -10.8275
v -11.9364 -54.4606 -10.8565
v -12.8862 -54.0757 -10.9201
v -11.6106 -54.1044 -10.9596
v -12.9093 -53.7227 -10.9201
v -11.4942 -53.7227 -10.9201
v -12.6978 -53.3507 -10.8726
v -11.5753 -53.3697 -10.9924
v -12.6455 -54.0757 -10.5568
v -12.3304 -54.2887 -10.5135
v -11.9775 -54.3517 -10.5135
v -11.5674 -54.1464 -10.5135
v -12.7038 -53.7814 -10.484
v -11.2832 -53.675 -10.4858
v -12.6486 -53.4512 -10.5135
v -11.2345 -53.3697 -10.5597
v -12.3304 -54.0757 -10.2467
v -12.0106 -54.0934 -10.0821
v -11.5933 -54.0952 -10.0641
v -12.3697 -53.7795 -10.0599
v -11.2719 -53.9117 -10.1069
v -11.0956 -53.7227 -10.1069
v -12.3793 -53.3697 -10.0304
v -10.8986 -53.398 -10.1318
v -12.0063 -53.7516 -9.67831
v -11.6247 -53.9831 -9.70028
v -11.2719 -53.9376 -9.70028
v -10.9088 -53.7322 -9.71619
v -12.1891 -53.3697 -9.70028
v -10.5615 -53.3755 -9.7065
v -11.6247 -53.678 -9.33725
v -11.3253 -53.7445 -9.26722
v -10.8779 -53.7418 -9.25269
v -11.9103 -53.3697 -9.36518
v -10.5662 -53.6343 -9.29367
v -10.2208 -53.3598 -9.28199
v -11.6247 -53.3697 -9.09519
v -11.3044 -53.3998 -8.85611
v -10.919 -53.631 -8.88706
v -10.5662 -53.649 -8.88706
v -10.2134 -53.5715 -8.88706
v -9.96999 -53.3697 -8.88706
v -10.887 -53.3466 -8.49902
v -10.5662 -53.4408 -8.38466
v -10.2134 -53.547 -8.48045
v -9.82633 -53.3626 -8.61943
v -10.2134 -53.3697 -8.16177
v -9.86052 -53.3697 -8.0751
v -2.80478 -55.8391 -7.66753
v -2.44164 -55.8268 -7.67294
v -5.60122 -54.0682 -7.66143
v -5.27365 -54.1233 -7.69267
v -4.92081 -54.3574 -7.62928
v -4.92081 -54.0757 -7.75666
v -4.56797 -54.3779 -7.65459
v -4.56797 -54.0757 -7.73512
v -4.26582 -54.0757 -7.65785
v -7.01354 -53.713 -7.6379
v -6.68499 -53.7792 -7.71392
v -6.33216 -53.909 -7.66722
v -6.33216 -53.7227 -7.80687
v -5.97932 -54.02 -7.59812
v -5.97932 -53.7227 -7.82416
v -5.62648 -53.7227 -7.83451
v -5.27365 -53.7227 -7.83737
v -4.92081 -53.7227 -7.81199
v -4.47993 -53.7227 -7.70634
v -8.80073 -53.3697 -7.66722
v -8.44918 -53.3345 -7.65464
v -8.09634 -53.3933 -7.6999
v -7.7435 -53.4145 -7.7119
v -7.39067 -53.457 -7.73488
v -7.03783 -53.3697 -7.87035
v -6.68499 -53.3697 -7.90284
v -6.33216 -53.3697 -7.90274
v -5.97932 -53.3697 -7.88071
v -5.62648 -53.3697 -7.85166
v -5.27365 -53.3697 -7.8253
v -4.92081 -53.3697 -7.76264
v -4.59199 -53.3965 -7.65854
v -3.51455 -56.5535 -7.267
v -3.15663 -56.6321 -7.35223
v -2.80379 -56.7413 -7.26061
v -2.80379 -56.5463 -7.4835
v -2.50261 -56.5042 -7.26061
v -3.56387 -56.1934 -7.32654
v -3.15663 -56.1934 -7.57079
v -2.80379 -56.1934 -7.58008
v -2.45096 -56.1934 -7.53804
v -2.11964 -56.1704 -7.20671
v -3.50946 -55.8404 -7.42564
v -3.70506 -55.8404 -7.26061
v -3.15663 -55.8404 -7.56943
v -2.09812 -55.8404 -7.54156
v -3.88934 -55.5165 -7.28152
v -3.50946 -55.4875 -7.52034
v -3.15663 -55.4875 -7.58241
v -2.80379 -55.4875 -7.62046
v -2.45096 -55.4875 -7.60183
v -2.09812 -55.4875 -7.52224
v -4.26036 -55.1716 -7.29375
v -3.8623 -55.1345 -7.50951
v -3.50946 -55.1345 -7.57211
v -3.15663 -55.1345 -7.57328
v -2.80379 -55.1345 -7.5275
v -2.45096 -55.0464 -7.33677
v -2.12992 -55.1494 -7.23394
v -4.91065 -54.7763 -7.20057
v -4.56797 -54.7816 -7.45713
v -4.56797 -54.9789 -7.26061
v -4.21514 -54.7816 -7.5642
v -3.8623 -54.7816 -7.57943
v -3.50946 -54.7816 -7.55507
v -3.15663 -54.7816 -7.50141
v -2.76225 -54.7435 -7.28929
v -5.60519 -54.4201 -7.26061
v -5.27365 -54.508 -7.35346
v -4.21514 -54.4286 -7.63763
v -3.8623 -54.4286 -7.6028
v -3.50946 -54.4286 -7.52053
v -3.10709 -54.3734 -7.30146
v -6.35053 -54.084 -7.25647
v -5.97932 -54.2531 -7.26061
v -3.8623 -54.0757 -7.5661
v -3.45556 -54.0291 -7.30359
v -7.08391 -53.7532 -7.19689
v -6.68499 -53.9706 -7.26061
v -4.21514 -53.7227 -7.59689
v -3.81659 -53.6761 -7.3062
v -8.13321 -53.3795 -7.24478
v -7.7435 -53.5099 -7.26061
v -7.39067 -53.6231 -7.26061
v -4.19151 -53.3507 -7.28699
v -3.17922 -56.9098 -6.87208
v -3.50946 -56.7705 -6.854
v -3.62554 -56.5463 -6.854
v -2.80379 -56.8148 -6.854
v -2.46514 -56.5352 -6.854
v -3.74992 -56.1934 -6.854
v -2.09812 -56.3002 -6.854
v -3.88559 -55.8705 -6.89242
v -4.20141 -55.4712 -6.854
v -4.54283 -55.1092 -6.854
v -4.93208 -54.7912 -6.83871
v -2.42318 -54.7587 -6.89763
v -2.09812 -54.9595 -6.854
v -5.27365 -54.4952 -6.77953
v -5.55213 -54.3896 -6.854
v -2.80331 -54.4282 -6.85139
v -6.02527 -54.0986 -6.82855
v -3.15828 -54.077 -6.854
v -6.68499 -53.7713 -6.79389
v -6.95286 -53.6861 -6.854
v -6.33216 -53.9862 -6.854
v -3.55961 -53.7629 -6.854
v -7.70089 -53.3537 -6.89243
v -7.39067 -53.4238 -6.7822
v -3.8623 -53.4993 -6.854
v -4.08747 -53.3697 -6.854
v -3.08405 -56.9464 -6.44739
v -3.48457 -56.8684 -6.44739
v -3.6179 -56.5463 -6.44739
v -2.80379 -56.8229 -6.44739
v -2.45606 -56.5428 -6.44739
v -3.71972 -56.1934 -6.44739
v -2.09812 -56.4676 -6.44739
v -3.86013 -55.8357 -6.46767
v -4.15856 -55.4075 -6.44739
v -4.29956 -55.1345 -6.37734
v -4.60855 -54.8203 -6.4183
v -2.09812 -54.9517 -6.44739
v -2.42659 -54.7617 -6.4112
v -4.94509 -54.4576 -6.43138
v -2.82024 -54.4435 -6.44739
v -5.62648 -54.0757 -6.58242
v -5.30013 -54.0964 -6.43541
v -3.19451 -54.1016 -6.44739
v -6.33216 -53.7227 -6.56956
v -5.96069 -53.7108 -6.45378
v -5.62648 -53.8065 -6.3981
v -3.50946 -53.8659 -6.44739
v -3.81412 -53.6826 -6.39092
v -7.03783 -53.3697 -6.53868
v -6.69522 -53.3744 -6.44392
v -6.33216 -53.4578 -6.39039
v -4.24068 -53.3607 -6.59177
v -3.11535 -56.9254 -5.99887
v -3.47622 -56.8765 -6.04078
v -3.66819 -56.5463 -6.04078
v -2.80379 -56.8215 -6.04078
v -2.45892 -56.5401 -6.04078
v -3.67507 -56.1934 -6.04078
v -2.09812 -56.459 -6.04078
v -3.65897 -55.8404 -6.04078
v -3.78859 -55.4875 -6.12813
v -3.85339 -55.1161 -6.04748
v -4.15937 -54.7816 -6.0679
v -2.77061 -54.7584 -6.01767
v -2.45096 -54.9147 -6.04078
v -2.09812 -55.127 -6.02885
v -4.56797 -54.4286 -6.18779
v -4.23108 -54.4637 -6.03221
v -3.16513 -54.4335 -6.0446
v -4.92081 -54.0757 -6.21862
v -4.56797 -54.0757 -6.104
v -4.23394 -54.0565 -6.03508
v -3.84362 -54.0634 -6.03379
v -3.50946 -54.1479 -6.09988
v -5.27365 -53.7227 -6.24693
v -4.92081 -53.7227 -6.14193
v -4.56797 -53.7227 -6.09593
v -4.21514 -53.7227 -6.12006
v -5.97932 -53.3697 -6.28323
v -5.62648 -53.3697 -6.25067
v -5.27365 -53.3697 -6.22572
v -4.92081 -53.3697 -6.20807
v -4.56797 -53.3697 -6.25989
v -3.56496 -56.5871 -5.59346
v -3.15663 -56.7769 -5.63416
v -2.80379 -56.7718 -5.63416
v -2.48802 -56.5092 -5.63416
v -3.59368 -56.1934 -5.57332
v -2.09812 -56.1972 -5.62997
v -3.48509 -55.865 -5.6676
v -3.50946 -55.4875 -5.84076
v -3.12443 -55.5073 -5.64433
v -3.50946 -55.1345 -5.82503
v -3.15663 -55.1345 -5.73591
v -2.80379 -55.1345 -5.71274
v -2.80379 -55.4007 -5.59876
v -2.45096 -55.4081 -5.59053
v -2.45096 -55.1345 -5.78284
v -2.09812 -55.4486 -5.60691
v -3.8623 -54.7816 -5.93014
v -3.50946 -54.7816 -5.82655
v -3.15663 -54.7816 -5.83441
v -3.8623 -54.4286 -5.91535
v -3.50946 -54.4286 -5.91107
v -3.15663 -56.5463 -5.39817
v -2.80379 -56.5463 -5.37867
v -3.15663 -56.1934 -5.39704
v -2.80379 -56.1934 -5.34264
v -2.45096 -56.1934 -5.38182
v -3.15663 -55.8404 -5.51418
v -2.80379 -55.8404 -5.42102
v -2.45096 -55.8404 -5.40026
v -2.09812 -55.8404 -5.43523

f 1029 2 1012
f 1 2 1029
f 1012 2 3
f 1012 3 1013
f 1013 4 1030
f 1013 3 4
f 1 5 2
f 3 5 6
f 3 2 5
f 4 3 6
f 7 1029 1044
f 1 1029 7
f 4 1045 1030
f 8 1045 4
f 9 1 7
f 5 1 9
f 10 8 4
f 6 10 4
f 9 12 5
f 9 11 12
f 5 12 13
f 5 13 6
f 6 13 10
f 11 14 12
f 13 12 14
f 1044 15 7
f 1060 15 1044
f 1061 8 16
f 1045 8 1061
f 7 17 9
f 15 17 7
f 16 10 18
f 8 10 16
f 19 9 17
f 11 9 19
f 18 10 13
f 18 13 20
f 21 19 22
f 21 11 19
f 14 11 21
f 14 23 13
f 13 24 20
f 13 23 24
f 25 21 22
f 21 25 26
f 21 26 14
f 26 23 14
f 27 23 26
f 24 23 27
f 26 28 29
f 26 25 28
f 27 26 29
f 15 1060 30
f 30 1061 31
f 1060 1061 30
f 31 1061 16
f 30 32 17
f 15 30 17
f 30 31 32
f 33 16 18
f 31 16 33
f 17 34 19
f 17 32 34
f 33 18 20
f 33 20 35
f 19 34 36
f 19 36 22
f 35 20 24
f 35 24 37
f 22 36 38
f 22 38 25
f 24 39 37
f 27 39 24
f 40 25 38
f 28 25 40
f 27 29 41
f 27 41 39
f 42 28 40
f 28 42 43
f 28 43 29
f 43 41 29
f 33 32 31
f 34 32 44
f 44 32 33
f 44 33 45
f 45 33 35
f 34 46 36
f 34 44 46
f 47 35 37
f 45 35 47
f 36 46 48
f 36 48 38
f 47 37 39
f 47 39 49
f 38 48 50
f 38 50 40
f 49 39 41
f 49 41 51
f 40 50 52
f 40 52 42
f 41 43 53
f 41 53 51
f 42 52 54
f 42 54 43
f 53 43 54
f 1122 55 1121
f 1121 56 1103
f 55 56 1121
f 1103 56 57
f 1103 57 1123
f 1123 58 1124
f 1123 57 58
f 59 56 55
f 56 59 60
f 56 60 57
f 61 57 60
f 58 57 61
f 59 63 60
f 62 63 59
f 60 63 64
f 60 64 61
f 65 61 64
f 66 46 44
f 47 44 45
f 47 66 44
f 67 63 62
f 63 67 68
f 63 68 64
f 64 68 69
f 64 69 65
f 65 69 70
f 46 71 48
f 71 66 72
f 46 66 71
f 73 66 47
f 73 72 66
f 73 47 49
f 67 75 68
f 74 75 67
f 68 75 76
f 68 76 69
f 77 69 76
f 77 70 69
f 48 71 78
f 48 78 50
f 73 79 72
f 79 49 51
f 79 73 49
f 80 75 74
f 75 80 81
f 75 81 76
f 76 81 82
f 76 82 77
f 78 52 50
f 78 83 52
f 84 51 53
f 79 51 84
f 80 85 81
f 81 85 86
f 81 86 82
f 87 82 86
f 52 83 54
f 54 83 84
f 54 84 53
f 86 85 88
f 86 89 87
f 88 89 86
f 1137 55 1122
f 55 1137 90
f 58 1138 1124
f 58 91 1138
f 55 90 92
f 55 92 59
f 91 61 93
f 58 61 91
f 94 59 92
f 94 62 59
f 65 93 61
f 93 65 95
f 62 96 67
f 62 94 96
f 95 65 70
f 95 70 97
f 98 67 96
f 98 74 67
f 77 97 70
f 97 77 99
f 78 71 72
f 78 72 100
f 100 72 79
f 74 98 101
f 74 101 80
f 82 99 77
f 82 102 99
f 83 78 100
f 100 84 83
f 79 84 100
f 103 80 101
f 80 103 85
f 102 82 87
f 102 87 104
f 105 85 103
f 105 88 85
f 89 104 87
f 106 104 89
f 107 104 106
f 108 88 105
f 109 88 108
f 109 89 88
f 106 109 110
f 106 89 109
f 111 106 110
f 107 106 111
f 108 112 109
f 109 112 113
f 109 113 110
f 110 113 114
f 110 114 111
f 115 111 114
f 112 116 113
f 113 116 117
f 113 117 114
f 114 117 118
f 114 118 115
f 115 118 119
f 116 120 117
f 117 120 121
f 117 121 118
f 122 118 121
f 119 118 122
f 120 123 121
f 121 123 124
f 121 124 122
f 123 126 124
f 125 126 123
f 127 1137 1158
f 90 1137 127
f 127 1158 1159
f 127 1159 128
f 1159 91 128
f 1138 91 1159
f 127 92 90
f 92 127 128
f 92 128 129
f 129 128 91
f 129 91 130
f 130 91 93
f 94 92 129
f 94 129 131
f 130 131 129
f 130 132 131
f 93 133 132
f 130 93 132
f 95 133 93
f 134 94 131
f 96 94 134
f 135 131 132
f 134 131 135
f 136 132 133
f 136 95 97
f 136 133 95
f 96 134 98
f 98 135 137
f 98 134 135
f 97 138 136
f 97 139 138
f 99 139 97
f 137 101 98
f 137 140 101
f 137 141 140
f 142 138 139
f 99 102 142
f 139 99 142
f 101 140 103
f 103 141 143
f 103 140 141
f 144 142 102
f 145 102 104
f 144 102 145
f 143 105 103
f 105 143 146
f 104 147 145
f 147 107 148
f 147 104 107
f 105 146 149
f 105 149 108
f 148 111 150
f 148 107 111
f 112 149 151
f 108 149 112
f 111 152 150
f 115 152 111
f 116 151 153
f 112 151 116
f 119 152 115
f 119 154 152
f 120 153 155
f 116 153 120
f 122 156 154
f 119 122 154
f 157 120 155
f 120 157 123
f 124 156 122
f 158 156 124
f 159 156 158
f 160 123 157
f 125 123 160
f 126 158 124
f 161 158 126
f 158 161 162
f 158 162 159
f 126 160 163
f 126 125 160
f 164 126 163
f 161 126 164
f 162 161 164
f 1179 1178 165
f 1180 165 166
f 1180 1179 165
f 1181 1180 166
f 132 136 135
f 137 135 136
f 137 136 138
f 141 137 138
f 138 142 141
f 143 141 142
f 143 142 167
f 142 168 167
f 142 144 168
f 145 168 144
f 169 143 167
f 146 143 169
f 169 167 168
f 169 168 170
f 168 147 170
f 145 147 168
f 169 149 146
f 149 169 170
f 149 170 171
f 171 170 147
f 171 147 172
f 147 173 172
f 148 173 147
f 150 173 148
f 151 149 171
f 151 171 172
f 151 172 174
f 173 174 172
f 173 175 174
f 152 176 175
f 150 152 175
f 173 150 175
f 177 151 174
f 153 151 177
f 178 174 175
f 177 174 178
f 176 154 179
f 176 152 154
f 180 155 153
f 178 180 153
f 177 178 153
f 154 181 179
f 156 181 154
f 155 180 157
f 157 180 182
f 156 183 181
f 159 183 156
f 182 160 157
f 182 184 160
f 162 185 186
f 162 183 159
f 162 186 183
f 163 160 184
f 163 185 164
f 184 185 163
f 185 162 164
f 1198 1178 1190
f 1178 1198 187
f 1178 187 165
f 187 166 165
f 187 188 166
f 166 189 1181
f 188 189 166
f 1181 189 1191
f 175 190 178
f 175 176 190
f 179 190 176
f 191 178 190
f 180 178 191
f 191 190 179
f 191 179 192
f 179 181 192
f 191 182 180
f 182 191 192
f 182 192 193
f 193 192 181
f 193 181 194
f 181 183 194
f 184 182 193
f 185 193 194
f 185 184 193
f 183 185 194
f 186 185 183
f 1198 195 187
f 196 187 195
f 188 187 196
f 188 1199 189
f 196 1199 188
f 189 1199 1191
f 1198 1202 195
f 196 1202 1203
f 196 195 1202
f 1199 196 1203
f 199 197 200
f 197 199 201
f 197 201 198
f 199 202 203
f 200 202 199
f 203 201 199
f 204 201 203
f 205 202 206
f 202 205 207
f 202 207 203
f 203 207 204
f 208 206 209
f 208 205 206
f 208 207 205
f 210 207 208
f 208 211 212
f 209 211 208
f 208 212 210
f 1204 213 214
f 1204 214 215
f 197 213 216
f 213 198 214
f 197 198 213
f 215 198 217
f 214 198 215
f 218 200 216
f 216 200 197
f 217 198 201
f 217 201 219
f 202 218 220
f 200 218 202
f 204 219 201
f 204 221 219
f 220 206 202
f 220 222 206
f 221 204 207
f 221 207 223
f 209 222 224
f 222 209 206
f 225 207 210
f 207 225 223
f 211 224 226
f 209 224 211
f 225 210 212
f 225 212 227
f 228 229 226
f 229 211 226
f 211 230 212
f 229 230 211
f 212 230 227
f 228 231 232
f 228 232 229
f 232 230 229
f 233 230 232
f 234 231 235
f 231 234 236
f 231 236 232
f 232 236 233
f 237 234 235
f 237 236 234
f 1207 213 1204
f 238 213 1207
f 215 1208 1204
f 1208 239 1209
f 1208 215 239
f 213 238 240
f 213 240 216
f 241 215 217
f 239 215 241
f 218 216 242
f 242 216 240
f 219 241 217
f 243 241 219
f 218 244 220
f 242 244 218
f 243 221 245
f 219 221 243
f 246 220 244
f 246 222 220
f 223 246 245
f 223 245 221
f 222 247 224
f 222 248 247
f 246 248 222
f 246 223 225
f 248 246 225
f 247 226 224
f 247 249 226
f 249 247 248
f 249 248 250
f 250 225 227
f 250 248 225
f 228 226 251
f 226 249 251
f 230 249 250
f 252 249 230
f 230 250 227
f 228 253 231
f 251 253 228
f 252 233 254
f 252 230 233
f 231 253 255
f 231 255 235
f 254 233 236
f 254 236 256
f 255 237 235
f 255 257 237
f 236 237 258
f 236 259 256
f 236 258 259
f 261 257 260
f 261 237 257
f 262 258 237
f 261 262 237
f 259 258 262
f 260 263 264
f 260 264 261
f 261 264 262
f 264 263 265
f 1217 238 1207
f 266 238 1217
f 267 1209 239
f 267 1218 1209
f 238 266 268
f 238 268 240
f 239 241 269
f 239 269 267
f 240 268 270
f 240 270 242
f 271 269 241
f 243 271 241
f 242 272 244
f 272 242 270
f 273 243 245
f 243 273 271
f 244 272 274
f 244 274 246
f 274 245 246
f 275 245 274
f 273 245 275
f 274 248 246
f 248 274 246
f 251 249 252
f 253 251 276
f 276 252 254
f 251 252 276
f 253 277 255
f 276 277 253
f 278 276 254
f 278 277 276
f 278 254 256
f 279 255 277
f 279 257 255
f 280 277 278
f 280 256 259
f 280 278 256
f 257 281 260
f 257 279 281
f 280 262 282
f 262 280 259
f 260 281 283
f 260 283 263
f 282 262 264
f 282 264 284
f 285 265 283
f 265 263 283
f 265 286 264
f 264 287 284
f 264 286 287
f 285 288 289
f 285 289 265
f 265 289 290
f 265 290 286
f 286 290 287
f 288 291 292
f 288 292 289
f 292 290 289
f 292 291 293
f 266 1226 294
f 1226 266 1217
f 1218 295 1227
f 1218 267 295
f 266 294 296
f 266 296 268
f 297 267 269
f 295 267 297
f 296 270 268
f 296 298 270
f 269 299 297
f 269 271 299
f 272 298 300
f 272 270 298
f 301 271 273
f 271 301 299
f 272 300 302
f 272 302 274
f 275 303 273
f 304 301 273
f 303 304 273
f 306 274 305
f 274 302 305
f 275 306 307
f 275 274 306
f 307 303 275
f 308 303 307
f 304 303 308
f 305 309 310
f 305 310 306
f 306 310 311
f 306 311 307
f 307 311 308
f 312 309 313
f 309 312 314
f 309 314 310
f 314 311 310
f 312 315 316
f 313 315 312
f 316 314 312
f 277 315 317
f 315 277 316
f 277 317 316
f 277 317 318
f 277 318 279
f 277 318 317
f 277 280 318
f 319 279 318
f 319 281 279
f 318 282 319
f 318 280 282
f 281 320 283
f 281 319 320
f 319 282 284
f 319 284 321
f 285 283 322
f 322 283 320
f 321 284 287
f 321 287 323
f 285 324 288
f 322 324 285
f 323 287 290
f 323 290 325
f 288 324 326
f 288 326 291
f 290 292 327
f 290 327 325
f 328 291 326
f 293 291 328
f 293 329 292
f 330 327 292
f 329 330 292
f 293 331 332
f 328 331 293
f 293 332 333
f 293 333 329
f 329 333 330
f 331 335 332
f 331 334 335
f 335 333 332
f 336 333 335
f 1226 337 294
f 337 1226 1237
f 1238 1227 295
f 1238 295 338
f 294 337 339
f 294 339 296
f 340 295 297
f 295 340 338
f 341 296 339
f 341 298 296
f 340 297 299
f 340 299 342
f 298 343 300
f 298 341 343
f 342 299 301
f 342 301 344
f 343 302 300
f 343 345 302
f 346 301 304
f 344 301 346
f 305 345 347
f 305 302 345
f 304 348 346
f 308 348 304
f 347 309 305
f 347 349 309
f 350 308 311
f 348 308 350
f 313 349 351
f 349 313 309
f 352 311 314
f 311 352 350
f 313 351 353
f 315 313 353
f 354 314 316
f 314 354 352
f 355 353 356
f 315 355 317
f 353 355 315
f 316 317 357
f 316 358 354
f 316 357 358
f 359 356 360
f 359 355 356
f 317 359 318
f 355 359 317
f 361 317 318
f 361 357 317
f 358 357 361
f 362 360 363
f 362 359 360
f 318 362 319
f 359 362 318
f 361 318 319
f 361 319 364
f 362 363 365
f 320 362 365
f 320 319 362
f 366 364 321
f 321 364 319
f 366 322 365
f 322 320 365
f 367 322 366
f 367 321 323
f 367 366 321
f 322 369 324
f 322 368 369
f 322 367 368
f 325 367 323
f 370 367 325
f 324 369 371
f 324 371 326
f 370 327 372
f 325 327 370
f 326 371 373
f 326 373 328
f 372 330 374
f 372 327 330
f 375 328 373
f 375 331 328
f 374 330 333
f 374 333 376
f 334 375 377
f 331 375 334
f 333 378 376
f 336 378 333
f 379 1237 1249
f 379 337 1237
f 338 1250 1238
f 381 1250 338
f 337 382 339
f 337 379 382
f 379 383 382
f 380 381 340
f 383 380 340
f 338 340 381
f 339 384 341
f 384 339 382
f 384 382 385
f 385 382 383
f 385 383 386
f 386 340 342
f 386 383 340
f 343 341 387
f 387 384 388
f 341 384 387
f 388 384 385
f 388 385 389
f 389 385 386
f 389 386 344
f 344 386 342
f 387 390 345
f 343 387 345
f 387 388 390
f 391 388 389
f 344 391 389
f 344 346 391
f 345 392 347
f 345 390 392
f 391 348 393
f 348 391 346
f 392 349 347
f 394 349 392
f 393 350 395
f 393 348 350
f 349 394 396
f 349 396 351
f 395 352 397
f 352 395 350
f 353 396 398
f 396 353 351
f 354 397 352
f 354 399 397
f 398 356 353
f 398 400 356
f 399 354 358
f 399 358 401
f 360 400 402
f 400 360 356
f 358 403 401
f 361 403 358
f 360 404 363
f 402 404 360
f 405 361 364
f 405 403 361
f 406 404 407
f 406 363 404
f 406 365 363
f 408 364 366
f 364 408 405
f 409 407 410
f 409 406 407
f 368 406 409
f 368 365 406
f 365 411 366
f 368 411 365
f 366 411 408
f 412 410 413
f 412 409 410
f 412 368 409
f 369 368 412
f 368 367 370
f 414 368 370
f 411 368 414
f 415 412 413
f 369 415 371
f 412 415 369
f 414 416 417
f 370 416 414
f 416 370 372
f 371 418 373
f 371 415 418
f 417 419 420
f 416 419 417
f 419 372 374
f 419 416 372
f 373 418 421
f 373 421 375
f 422 420 419
f 422 374 376
f 422 419 374
f 375 421 423
f 375 423 377
f 422 376 378
f 422 378 424
f 379 1249 1261
f 379 1261 380
f 1263 380 1261
f 381 380 1263
f 1250 381 1263
f 383 379 380
f 425 390 388
f 391 425 388
f 392 390 426
f 426 390 425
f 426 425 393
f 393 425 391
f 394 392 427
f 427 392 426
f 427 426 428
f 428 426 393
f 428 393 395
f 394 429 396
f 429 394 427
f 429 427 430
f 430 427 428
f 430 428 431
f 395 431 428
f 395 397 431
f 398 396 432
f 396 429 432
f 433 429 430
f 431 433 430
f 399 433 431
f 397 399 431
f 432 434 400
f 398 432 400
f 435 399 401
f 435 433 399
f 400 436 402
f 400 434 436
f 435 403 437
f 403 435 401
f 404 436 438
f 436 404 402
f 437 405 439
f 437 403 405
f 404 438 440
f 404 440 407
f 408 439 405
f 408 441 439
f 442 410 440
f 440 410 407
f 441 408 411
f 441 411 443
f 413 442 444
f 413 410 442
f 445 411 414
f 411 445 443
f 446 444 447
f 446 413 444
f 413 446 415
f 445 414 417
f 445 417 448
f 449 447 450
f 449 446 447
f 418 446 449
f 418 415 446
f 418 415 420
f 415 448 420
f 448 415 418
f 451 448 418
f 420 448 417
f 450 452 449
f 418 452 453
f 418 449 452
f 418 453 451
f 420 454 421
f 420 421 418
f 420 422 454
f 454 423 421
f 454 455 423
f 455 454 422
f 455 422 456
f 456 422 424
f 432 429 457
f 433 457 429
f 434 432 458
f 458 457 459
f 432 457 458
f 459 433 435
f 459 457 433
f 436 434 460
f 460 458 461
f 434 458 460
f 461 458 459
f 461 459 462
f 462 435 437
f 462 459 435
f 438 436 463
f 460 464 463
f 436 460 463
f 464 461 465
f 460 461 464
f 466 461 462
f 466 465 461
f 466 437 439
f 466 462 437
f 438 467 440
f 463 467 438
f 465 441 468
f 466 441 465
f 439 441 466
f 440 469 442
f 469 440 467
f 443 468 441
f 470 468 443
f 442 469 471
f 442 471 444
f 470 445 472
f 443 445 470
f 471 447 444
f 473 447 471
f 472 445 448
f 472 448 474
f 450 473 475
f 450 447 473
f 476 448 451
f 474 448 476
f 477 475 478
f 477 450 475
f 452 450 477
f 451 479 476
f 453 479 451
f 480 477 478
f 477 480 481
f 477 481 452
f 481 453 452
f 482 453 481
f 479 453 482
f 467 464 483
f 463 464 467
f 483 464 465
f 483 465 468
f 469 467 484
f 484 467 483
f 484 483 485
f 468 485 483
f 470 485 468
f 469 486 471
f 486 469 484
f 486 484 487
f 487 484 485
f 487 485 488
f 488 470 472
f 488 485 470
f 486 489 473
f 471 486 473
f 474 487 488
f 490 487 474
f 474 488 472
f 473 491 475
f 473 489 491
f 490 476 492
f 490 474 476
f 475 491 493
f 475 493 478
f 492 476 479
f 492 479 494
f 493 480 478
f 493 495 480
f 479 496 494
f 482 496 479
f 489 486 497
f 498 486 487
f 498 497 486
f 490 498 487
f 491 489 499
f 497 500 499
f 489 497 499
f 501 497 498
f 501 500 497
f 501 490 492
f 501 498 490
f 491 502 493
f 499 502 491
f 503 492 494
f 501 492 503
f 493 504 495
f 504 493 502
f 503 494 496
f 503 496 505
f 502 499 506
f 506 500 507
f 499 500 506
f 500 503 507
f 501 503 500
f 506 508 504
f 502 506 504
f 508 507 509
f 506 507 508
f 510 507 503
f 510 509 507
f 510 503 505
f 1381 1390 511
f 1391 1381 511
f 1390 1399 512
f 1390 512 511
f 511 512 513
f 511 513 1391
f 514 1391 513
f 1400 1391 514
f 1399 515 512
f 1399 1407 515
f 515 513 512
f 516 1408 1400
f 514 516 1400
f 515 517 513
f 514 517 518
f 514 513 517
f 516 514 518
f 519 1407 1415
f 519 515 1407
f 1416 516 520
f 1408 516 1416
f 521 515 519
f 521 517 515
f 521 518 517
f 521 522 518
f 516 522 523
f 516 518 522
f 523 520 516
f 523 524 520
f 519 1421 525
f 519 1415 1421
f 520 1422 1416
f 526 1422 520
f 527 519 525
f 527 521 519
f 526 524 528
f 520 524 526
f 529 521 527
f 529 522 521
f 522 529 530
f 522 530 523
f 531 523 530
f 524 523 531
f 528 524 531
f 1426 525 1421
f 1426 532 525
f 526 1428 1422
f 533 1428 526
f 534 1428 533
f 525 532 527
f 527 532 535
f 528 533 526
f 536 533 528
f 533 537 534
f 533 536 537
f 535 529 527
f 535 530 529
f 538 530 535
f 531 539 528
f 536 539 540
f 536 528 539
f 536 540 537
f 531 538 541
f 531 530 538
f 539 541 542
f 539 531 541
f 540 539 542
f 1429 532 1426
f 1429 543 532
f 543 1429 1430
f 534 1438 1434
f 1428 534 1434
f 544 1438 534
f 543 535 532
f 535 543 545
f 546 534 537
f 546 544 534
f 538 545 547
f 538 535 545
f 548 537 540
f 537 548 549
f 537 549 546
f 546 549 550
f 538 547 551
f 538 551 541
f 551 542 541
f 542 552 540
f 548 552 553
f 548 540 552
f 548 553 554
f 548 554 549
f 549 555 550
f 549 554 555
f 551 556 542
f 552 556 557
f 552 542 556
f 553 557 558
f 553 552 557
f 554 558 559
f 554 553 558
f 555 554 559
f 1430 560 543
f 1435 560 1430
f 544 561 1438
f 562 561 544
f 560 545 543
f 560 564 545
f 544 565 562
f 544 546 565
f 566 562 565
f 563 562 566
f 567 563 566
f 564 547 545
f 547 564 568
f 550 565 546
f 565 550 569
f 565 569 566
f 566 570 567
f 566 569 570
f 547 568 551
f 551 568 571
f 550 555 572
f 550 572 569
f 569 572 570
f 573 551 571
f 573 556 551
f 573 557 556
f 573 574 557
f 574 558 557
f 555 559 575
f 575 572 555
f 576 572 575
f 558 574 577
f 559 577 578
f 559 558 577
f 575 559 578
f 560 1435 579
f 1436 580 579
f 1435 1436 579
f 580 1439 581
f 1436 1439 580
f 581 1440 582
f 1439 1440 581
f 582 561 583
f 582 1438 561
f 1440 1438 582
f 583 561 562
f 583 562 584
f 562 585 584
f 563 585 562
f 1461 563 586
f 1461 585 563
f 587 1461 586
f 579 564 560
f 579 588 564
f 588 579 580
f 563 567 586
f 586 567 589
f 586 589 587
f 590 587 589
f 591 587 590
f 592 591 590
f 588 568 564
f 588 593 568
f 567 570 594
f 567 594 589
f 589 594 595
f 589 595 590
f 590 595 596
f 590 596 592
f 597 568 593
f 571 568 597
f 597 593 598
f 599 570 572
f 570 599 600
f 570 600 594
f 600 595 594
f 601 595 600
f 596 595 601
f 571 597 573
f 598 574 573
f 597 598 573
f 598 602 574
f 599 576 603
f 572 576 599
f 603 600 599
f 603 604 600
f 601 600 604
f 574 602 577
f 577 602 605
f 577 605 578
f 578 605 606
f 578 606 575
f 607 575 606
f 576 575 607
f 603 576 607
f 608 580 581
f 609 581 582
f 608 581 609
f 609 582 583
f 609 583 610
f 610 583 584
f 610 584 611
f 611 584 585
f 611 585 1460
f 1461 1460 585
f 1461 587 1462
f 1462 591 1463
f 1462 587 591
f 1463 591 612
f 1463 612 1464
f 1464 612 613
f 1464 613 1465
f 1465 613 614
f 1465 614 1466
f 1466 614 615
f 1466 615 1467
f 1467 615 616
f 1467 616 1468
f 1468 616 617
f 1468 617 1469
f 1469 617 618
f 1469 618 1470
f 618 1471 1470
f 618 619 1471
f 1472 1471 619
f 580 620 588
f 608 620 580
f 608 621 620
f 591 592 612
f 612 622 613
f 612 592 622
f 613 622 623
f 613 623 614
f 614 623 624
f 614 624 615
f 615 624 625
f 615 625 616
f 625 617 616
f 625 626 617
f 618 617 626
f 588 620 593
f 621 627 593
f 620 621 593
f 596 622 592
f 628 622 596
f 622 628 629
f 622 629 623
f 629 624 623
f 629 630 624
f 625 624 630
f 627 598 593
f 627 631 598
f 601 632 596
f 633 628 596
f 632 633 596
f 629 628 633
f 602 598 631
f 631 634 602
f 604 603 635
f 635 636 601
f 604 635 601
f 632 636 637
f 632 601 636
f 633 632 637
f 605 602 634
f 605 638 606
f 634 638 605
f 606 638 639
f 606 639 607
f 607 639 640
f 607 640 603
f 635 603 640
f 641 609 610
f 642 610 611
f 642 641 610
f 642 611 1460
f 642 1460 643
f 1460 1461 643
f 619 644 1472
f 1525 1472 644
f 621 609 645
f 621 608 609
f 641 645 609
f 641 646 645
f 641 642 646
f 626 625 647
f 626 648 618
f 626 647 648
f 649 618 648
f 619 618 649
f 644 619 649
f 650 621 645
f 627 621 650
f 651 645 646
f 650 645 651
f 652 630 629
f 630 652 653
f 630 653 625
f 647 625 653
f 627 650 631
f 651 654 631
f 650 651 631
f 651 655 654
f 633 656 657
f 633 657 629
f 629 657 652
f 631 654 634
f 655 658 634
f 654 655 634
f 655 659 658
f 660 661 635
f 636 661 662
f 636 635 661
f 636 662 663
f 636 663 637
f 637 656 633
f 637 663 656
f 634 658 638
f 639 658 659
f 639 638 658
f 640 659 660
f 640 639 659
f 635 640 660
f 664 642 643
f 665 643 1461
f 665 664 643
f 1522 666 665
f 1461 1522 665
f 1522 1548 666
f 644 667 1578
f 644 1578 1525
f 1525 1578 1551
f 646 642 668
f 668 642 664
f 668 664 669
f 665 669 664
f 671 648 647
f 670 648 671
f 648 670 672
f 648 672 649
f 649 667 644
f 649 672 667
f 651 646 668
f 651 668 673
f 669 673 668
f 669 674 673
f 675 652 676
f 652 675 677
f 652 677 653
f 653 677 671
f 653 671 647
f 655 651 673
f 673 678 655
f 673 674 678
f 674 679 678
f 656 682 683
f 656 683 676
f 656 676 657
f 657 676 652
f 659 655 678
f 660 678 679
f 660 659 678
f 661 679 680
f 661 660 679
f 662 680 681
f 662 661 680
f 663 681 682
f 663 662 681
f 656 663 682
f 684 666 1548
f 1549 685 684
f 1548 1549 684
f 685 1575 686
f 1549 1575 685
f 1575 1576 686
f 667 688 689
f 689 1578 667
f 669 665 690
f 690 666 691
f 665 666 690
f 691 666 684
f 691 684 692
f 692 684 685
f 695 696 671
f 670 696 687
f 670 671 696
f 687 672 670
f 687 688 672
f 667 672 688
f 674 690 697
f 674 669 690
f 697 690 691
f 697 691 698
f 698 691 692
f 698 692 699
f 692 700 699
f 692 701 700
f 700 702 703
f 701 702 700
f 703 693 676
f 702 693 703
f 694 675 676
f 693 694 676
f 677 694 695
f 677 675 694
f 671 677 695
f 679 674 697
f 680 697 698
f 680 679 697
f 681 698 699
f 681 680 698
f 682 699 700
f 682 681 699
f 683 700 703
f 683 682 700
f 676 683 703
f 704 685 686
f 704 1576 705
f 686 1576 704
f 705 1576 1577
f 705 1577 706
f 706 1577 1605
f 706 1605 707
f 707 1605 1606
f 707 1606 696
f 696 1606 1607
f 696 1607 687
f 1608 687 1607
f 688 687 1608
f 689 1608 1609
f 689 688 1608
f 1578 689 1609
f 685 701 692
f 701 685 704
f 701 704 702
f 702 704 705
f 702 705 693
f 706 693 705
f 694 693 706
f 695 706 707
f 695 694 706
f 696 695 707
f 334 708 335
f 336 335 708
f 709 334 377
f 710 334 709
f 710 708 334
f 336 710 711
f 336 708 710
f 336 712 378
f 336 711 712
f 713 710 709
f 710 713 714
f 710 714 711
f 711 714 712
f 377 423 715
f 377 715 709
f 712 424 378
f 712 716 424
f 709 715 717
f 709 717 713
f 714 716 712
f 718 716 714
f 716 718 719
f 720 713 717
f 721 713 720
f 713 722 714
f 721 722 713
f 718 722 723
f 718 714 722
f 718 723 719
f 720 724 721
f 721 725 722
f 724 725 721
f 725 723 722
f 726 723 725
f 423 727 715
f 455 727 423
f 727 456 728
f 455 456 727
f 424 716 728
f 456 424 728
f 715 727 729
f 715 729 717
f 716 730 728
f 730 716 719
f 729 720 717
f 729 731 720
f 732 719 723
f 730 719 732
f 724 731 733
f 724 720 731
f 723 734 732
f 726 734 723
f 733 736 724
f 735 736 733
f 737 724 736
f 725 724 737
f 726 737 738
f 726 725 737
f 726 739 734
f 726 738 739
f 735 740 736
f 736 741 737
f 740 741 736
f 741 738 737
f 742 738 741
f 739 738 742
f 481 480 743
f 482 481 743
f 727 744 729
f 744 727 728
f 744 728 745
f 745 728 730
f 744 746 731
f 729 744 731
f 744 745 747
f 730 732 747
f 745 730 747
f 731 748 733
f 731 746 748
f 732 749 747
f 749 732 734
f 750 733 748
f 735 733 750
f 751 734 739
f 749 734 751
f 750 752 735
f 752 740 735
f 739 753 751
f 742 753 739
f 754 740 752
f 755 740 754
f 741 740 755
f 741 756 742
f 755 756 741
f 753 742 756
f 755 754 757
f 756 755 757
f 759 495 758
f 759 480 495
f 759 743 480
f 482 743 760
f 482 760 496
f 758 762 759
f 761 762 758
f 759 762 763
f 759 763 743
f 763 760 743
f 764 760 763
f 761 765 762
f 763 765 766
f 763 762 765
f 764 763 766
f 746 744 767
f 747 767 744
f 748 746 768
f 768 767 769
f 746 767 768
f 769 767 747
f 769 747 770
f 770 747 749
f 768 750 748
f 768 771 750
f 769 771 768
f 749 751 772
f 770 749 772
f 750 771 752
f 752 771 773
f 774 772 751
f 774 751 753
f 752 773 775
f 752 775 754
f 753 776 774
f 756 776 753
f 777 754 775
f 777 757 754
f 756 757 778
f 756 779 776
f 756 778 779
f 777 781 757
f 780 781 777
f 757 781 782
f 757 782 778
f 778 782 779
f 495 504 783
f 495 783 758
f 505 496 760
f 505 760 784
f 785 758 783
f 761 758 785
f 786 760 764
f 760 786 784
f 787 785 788
f 787 761 785
f 765 761 787
f 764 789 786
f 766 789 764
f 790 787 788
f 787 790 791
f 787 791 765
f 765 791 792
f 765 792 766
f 766 792 789
f 791 790 793
f 792 791 793
f 771 769 794
f 795 769 770
f 795 794 769
f 772 795 770
f 771 796 773
f 794 796 771
f 796 795 797
f 794 795 796
f 772 774 797
f 795 772 797
f 773 796 798
f 773 798 775
f 799 797 774
f 799 774 776
f 775 798 800
f 775 800 777
f 799 776 779
f 799 779 801
f 802 777 800
f 780 777 802
f 801 779 782
f 801 782 803
f 802 804 780
f 805 781 780
f 804 805 780
f 781 806 782
f 805 806 781
f 782 807 803
f 782 806 807
f 504 808 783
f 504 508 808
f 510 809 509
f 809 505 784
f 809 510 505
f 783 808 810
f 783 810 785
f 809 786 811
f 784 786 809
f 785 810 812
f 785 812 788
f 811 786 789
f 811 789 813
f 788 812 814
f 788 814 790
f 813 789 792
f 813 792 815
f 816 790 814
f 817 790 816
f 817 793 790
f 793 818 792
f 792 819 815
f 792 818 819
f 816 820 817
f 817 821 793
f 820 821 817
f 821 818 793
f 822 818 821
f 819 818 822
f 796 823 798
f 823 796 797
f 823 797 824
f 797 799 824
f 798 825 800
f 823 825 798
f 824 799 826
f 826 799 801
f 800 825 827
f 800 827 802
f 826 801 803
f 826 803 828
f 829 802 827
f 804 802 829
f 828 803 807
f 828 807 830
f 808 508 831
f 831 508 509
f 831 509 832
f 832 509 809
f 808 833 810
f 831 833 808
f 831 834 833
f 834 832 835
f 831 832 834
f 835 809 811
f 835 832 809
f 810 836 812
f 833 836 810
f 835 811 813
f 835 813 837
f 812 836 838
f 812 838 814
f 837 813 815
f 837 815 839
f 814 838 840
f 814 840 816
f 839 815 819
f 839 819 841
f 842 816 840
f 820 816 842
f 819 843 841
f 822 843 819
f 842 844 820
f 845 821 820
f 844 845 820
f 821 846 822
f 845 846 821
f 843 822 846
f 825 823 847
f 848 823 824
f 848 847 823
f 826 848 824
f 825 849 827
f 847 849 825
f 849 848 850
f 847 848 849
f 850 826 851
f 848 826 850
f 851 826 828
f 827 849 852
f 827 852 829
f 851 828 830
f 851 830 853
f 836 833 854
f 834 855 854
f 833 834 854
f 855 835 856
f 834 835 855
f 856 835 837
f 836 857 838
f 854 857 836
f 856 837 839
f 856 839 858
f 838 857 859
f 838 859 840
f 858 839 841
f 858 841 860
f 840 859 861
f 840 861 842
f 860 841 843
f 860 843 862
f 863 842 861
f 844 842 863
f 843 864 862
f 846 864 843
f 863 865 844
f 866 845 844
f 865 866 844
f 846 866 867
f 846 845 866
f 846 867 864
f 849 868 852
f 868 849 850
f 868 850 869
f 869 850 851
f 869 851 870
f 870 851 853
f 857 854 871
f 855 872 871
f 854 855 871
f 872 856 873
f 855 856 872
f 873 856 858
f 857 874 859
f 871 874 857
f 871 872 874
f 873 858 860
f 873 860 875
f 859 874 876
f 859 876 861
f 862 875 860
f 862 877 875
f 861 876 878
f 861 878 863
f 864 877 862
f 877 864 879
f 880 863 878
f 880 865 863
f 880 866 865
f 881 864 867
f 864 881 879
f 882 866 880
f 866 883 867
f 882 883 866
f 884 881 867
f 883 884 867
f 874 872 885
f 885 872 873
f 885 873 886
f 886 873 875
f 885 876 874
f 885 887 876
f 885 886 887
f 886 877 888
f 886 875 877
f 876 889 878
f 889 876 887
f 888 877 879
f 888 879 890
f 889 880 878
f 889 891 880
f 890 879 881
f 890 881 892
f 882 891 893
f 880 891 882
f 881 894 892
f 884 894 881
f 895 882 893
f 895 883 882
f 895 896 883
f 884 896 897
f 884 883 896
f 884 897 894
f 898 887 886
f 888 898 886
f 887 899 889
f 898 899 887
f 900 899 898
f 900 888 901
f 898 888 900
f 901 888 890
f 889 902 891
f 899 902 889
f 901 890 892
f 901 892 903
f 891 902 904
f 891 904 893
f 894 903 892
f 905 903 894
f 906 893 904
f 895 893 906
f 897 905 894
f 907 905 897
f 902 900 908
f 902 899 900
f 901 908 900
f 909 908 901
f 910 901 903
f 909 901 910
f 902 911 904
f 908 911 902
f 910 905 912
f 910 903 905
f 911 906 904
f 906 911 913
f 912 905 907
f 912 907 914
f 911 908 915
f 909 916 915
f 908 909 915
f 916 910 917
f 909 910 916
f 917 912 918
f 917 910 912
f 911 919 913
f 915 919 911
f 914 918 912
f 920 918 914
f 915 916 921
f 922 916 917
f 921 916 922
f 922 918 923
f 922 917 918
f 921 924 919
f 915 921 919
f 923 920 925
f 923 918 920
f 921 922 926
f 923 926 922
f 924 921 927
f 926 928 927
f 921 926 927
f 928 923 929
f 926 923 928
f 929 925 930
f 929 923 925
f 804 931 805
f 806 931 932
f 806 805 931
f 807 806 932
f 829 933 804
f 934 931 804
f 933 934 804
f 934 932 931
f 807 935 830
f 932 935 807
f 932 934 936
f 935 932 936
f 937 829 852
f 933 829 937
f 853 830 935
f 853 935 938
f 939 933 937
f 940 933 939
f 934 933 940
f 940 936 934
f 935 941 938
f 936 941 935
f 939 942 940
f 940 942 943
f 940 943 936
f 936 943 941
f 852 945 937
f 868 945 852
f 868 944 945
f 944 869 946
f 868 869 944
f 946 870 947
f 869 870 946
f 948 853 938
f 947 853 948
f 947 870 853
f 937 945 949
f 937 949 939
f 948 938 941
f 948 941 950
f 951 939 949
f 952 939 951
f 952 942 939
f 950 941 943
f 950 943 953
f 954 952 951
f 955 952 954
f 955 942 952
f 942 956 943
f 955 956 942
f 943 956 953
f 957 944 946
f 957 945 944
f 958 946 947
f 958 957 946
f 948 958 947
f 945 959 949
f 957 959 945
f 960 959 957
f 960 958 961
f 957 958 960
f 961 948 950
f 961 958 948
f 949 962 951
f 959 962 949
f 961 950 953
f 961 953 963
f 951 962 964
f 951 964 954
f 963 953 956
f 963 956 965
f 966 954 964
f 954 967 955
f 966 967 954
f 955 968 956
f 967 968 955
f 956 969 965
f 956 968 969
f 967 966 970
f 968 970 971
f 968 967 970
f 969 968 971
f 895 972 896
f 897 896 972
f 962 960 973
f 959 960 962
f 973 960 961
f 973 961 974
f 974 961 963
f 962 975 964
f 973 975 962
f 976 975 973
f 973 974 976
f 977 963 965
f 974 963 977
f 964 978 966
f 975 978 964
f 977 965 969
f 977 969 979
f 978 970 966
f 980 970 978
f 969 981 979
f 971 981 969
f 980 982 970
f 971 982 983
f 971 970 982
f 981 971 983
f 984 972 895
f 906 984 895
f 972 985 897
f 984 985 972
f 986 907 897
f 985 986 897
f 987 976 974
f 977 987 974
f 976 988 978
f 975 976 978
f 988 987 989
f 976 987 988
f 989 977 979
f 989 987 977
f 980 988 990
f 980 978 988
f 989 979 981
f 989 981 991
f 992 980 990
f 982 980 992
f 981 993 991
f 983 993 981
f 994 982 992
f 982 994 995
f 982 995 983
f 983 995 993
f 984 913 996
f 984 906 913
f 907 997 914
f 986 997 907
f 998 984 996
f 998 985 984
f 998 999 985
f 986 999 1000
f 986 985 999
f 986 1001 997
f 986 1000 1001
f 988 1002 990
f 1002 989 1003
f 988 989 1002
f 1003 989 991
f 990 1002 1004
f 990 1004 992
f 1003 991 993
f 1003 993 1005
f 1004 994 992
f 1004 1006 994
f 1005 993 995
f 1005 995 1007
f 1008 994 1006
f 1009 1008 1006
f 994 1010 995
f 1008 1010 994
f 995 1011 1007
f 995 1010 1011
f 1009 1012 1008
f 1010 1012 1013
f 1010 1008 1012
f 1011 1010 1013
f 913 919 1014
f 913 1014 996
f 914 1015 920
f 914 997 1015
f 1014 998 996
f 999 1014 1016
f 998 1014 999
f 997 1017 1015
f 997 1001 1017
f 1018 999 1016
f 1018 1000 999
f 1018 1019 1000
f 1001 1019 1020
f 1001 1000 1019
f 1001 1021 1017
f 1001 1020 1021
f 1018 1022 1019
f 1020 1019 1022
f 1002 1023 1004
f 1003 1023 1002
f 1003 1024 1023
f 1024 1003 1005
f 1023 1025 1006
f 1004 1023 1006
f 1024 1005 1007
f 1024 1007 1026
f 1006 1025 1009
f 1027 1009 1025
f 1026 1007 1011
f 1026 1011 1028
f 1012 1027 1029
f 1012 1009 1027
f 1011 1030 1028
f 1013 1030 1011
f 1031 919 924
f 1014 919 1031
f 1015 925 920
f 1015 1032 925
f 1016 1031 1033
f 1016 1014 1031
f 1017 1032 1015
f 1032 1017 1034
f 1035 1016 1033
f 1035 1018 1016
f 1017 1036 1034
f 1017 1021 1036
f 1037 1018 1035
f 1037 1022 1018
f 1037 1020 1022
f 1037 1038 1020
f 1021 1038 1039
f 1021 1020 1038
f 1021 1039 1036
f 1025 1023 1040
f 1040 1024 1041
f 1023 1024 1040
f 1041 1024 1026
f 1040 1042 1027
f 1025 1040 1027
f 1040 1041 1042
f 1043 1026 1028
f 1041 1026 1043
f 1027 1044 1029
f 1027 1042 1044
f 1030 1043 1028
f 1030 1045 1043
f 924 1046 1031
f 927 1046 924
f 1032 930 925
f 930 1032 1047
f 1031 1046 1048
f 1031 1048 1033
f 1034 1047 1032
f 1034 1049 1047
f 1048 1035 1033
f 1035 1048 1050
f 1036 1049 1034
f 1049 1036 1051
f 1052 1035 1050
f 1052 1037 1035
f 1053 1036 1039
f 1036 1054 1051
f 1036 1053 1054
f 1038 1037 1052
f 1055 1038 1052
f 1038 1056 1039
f 1055 1056 1038
f 1053 1056 1057
f 1053 1039 1056
f 1053 1057 1054
f 1056 1055 1058
f 1057 1056 1058
f 1059 1042 1041
f 1043 1059 1041
f 1044 1042 1060
f 1059 1060 1042
f 1061 1060 1059
f 1043 1045 1061
f 1059 1043 1061
f 1046 928 1062
f 1046 927 928
f 929 1062 928
f 1063 1062 929
f 1063 930 1064
f 929 930 1063
f 1064 930 1047
f 1062 1048 1046
f 1062 1065 1048
f 1047 1066 1064
f 1049 1066 1047
f 1066 1049 1067
f 1050 1065 1068
f 1050 1048 1065
f 1051 1067 1049
f 1069 1067 1051
f 1050 1068 1070
f 1050 1070 1052
f 1054 1069 1051
f 1069 1054 1071
f 1055 1070 1072
f 1052 1070 1055
f 1073 1054 1057
f 1054 1074 1071
f 1054 1073 1074
f 1075 1055 1072
f 1075 1058 1055
f 1058 1076 1057
f 1073 1076 1077
f 1073 1057 1076
f 1073 1077 1074
f 1075 1078 1058
f 1076 1078 1079
f 1076 1058 1078
f 1077 1079 1080
f 1077 1076 1079
f 1065 1062 1081
f 1081 1063 1082
f 1062 1063 1081
f 1082 1063 1064
f 1082 1064 1083
f 1064 1084 1083
f 1064 1066 1084
f 1067 1084 1066
f 1081 1068 1065
f 1081 1085 1068
f 1082 1085 1081
f 1082 1086 1085
f 1082 1083 1086
f 1084 1067 1087
f 1087 1069 1088
f 1087 1067 1069
f 1085 1070 1068
f 1089 1085 1086
f 1070 1085 1089
f 1088 1069 1071
f 1088 1071 1090
f 1072 1089 1091
f 1072 1070 1089
f 1074 1090 1071
f 1074 1092 1090
f 1093 1072 1091
f 1093 1075 1072
f 1077 1092 1074
f 1094 1092 1077
f 1095 1075 1093
f 1095 1078 1075
f 1095 1079 1078
f 1094 1080 1096
f 1077 1080 1094
f 1095 1097 1079
f 1079 1098 1080
f 1097 1098 1079
f 1080 1098 1099
f 1080 1099 1096
f 1100 1098 1097
f 1098 1100 1101
f 1098 1101 1099
f 1099 1101 1102
f 1101 1100 1103
f 1102 1101 1103
f 1104 1086 1083
f 1105 1083 1084
f 1105 1104 1083
f 1088 1084 1087
f 1088 1105 1084
f 1086 1106 1089
f 1106 1086 1104
f 1106 1104 1107
f 1105 1107 1104
f 1105 1108 1107
f 1108 1088 1109
f 1105 1088 1108
f 1109 1088 1090
f 1106 1091 1089
f 1107 1091 1106
f 1107 1110 1091
f 1107 1108 1110
f 1090 1111 1109
f 1092 1111 1090
f 1111 1092 1112
f 1093 1110 1113
f 1093 1091 1110
f 1112 1092 1094
f 1112 1094 1114
f 1113 1095 1093
f 1095 1113 1115
f 1096 1114 1094
f 1116 1114 1096
f 1117 1095 1115
f 1097 1095 1117
f 1099 1116 1096
f 1118 1116 1099
f 1119 1097 1117
f 1097 1119 1100
f 1102 1118 1099
f 1118 1102 1120
f 1121 1100 1119
f 1122 1121 1119
f 1121 1103 1100
f 1102 1103 1123
f 1102 1124 1120
f 1102 1123 1124
f 1110 1108 1125
f 1109 1125 1108
f 1126 1125 1109
f 1126 1111 1127
f 1126 1109 1111
f 1127 1112 1128
f 1127 1111 1112
f 1125 1113 1110
f 1125 1129 1113
f 1114 1128 1112
f 1130 1128 1114
f 1115 1129 1131
f 1115 1113 1129
f 1130 1116 1132
f 1114 1116 1130
f 1115 1131 1133
f 1115 1133 1117
f 1132 1116 1118
f 1132 1118 1134
f 1133 1119 1117
f 1133 1135 1119
f 1134 1118 1120
f 1134 1120 1136
f 1122 1135 1137
f 1122 1119 1135
f 1136 1120 1124
f 1136 1124 1138
f 1125 1126 1139
f 1127 1139 1126
f 1139 1140 1129
f 1125 1139 1129
f 1140 1127 1141
f 1139 1127 1140
f 1141 1128 1142
f 1127 1128 1141
f 1128 1144 1142
f 1130 1144 1128
f 1130 1143 1144
f 1145 1144 1143
f 1146 1129 1140
f 1131 1129 1146
f 1132 1143 1130
f 1147 1143 1132
f 1145 1143 1147
f 1148 1145 1147
f 1131 1149 1133
f 1131 1146 1149
f 1146 1150 1149
f 1151 1132 1134
f 1132 1151 1152
f 1132 1152 1147
f 1147 1153 1148
f 1147 1152 1153
f 1154 1133 1149
f 1135 1133 1154
f 1149 1155 1154
f 1150 1155 1149
f 1151 1156 1157
f 1151 1136 1156
f 1151 1134 1136
f 1152 1151 1157
f 1154 1137 1135
f 1137 1154 1155
f 1137 1155 1158
f 1158 1155 1156
f 1158 1156 1159
f 1159 1136 1138
f 1159 1156 1136
f 1160 1140 1141
f 1161 1141 1142
f 1161 1160 1141
f 1162 1142 1144
f 1162 1161 1142
f 1145 1162 1144
f 1162 1145 1163
f 1164 1163 1145
f 1146 1140 1160
f 1146 1160 1165
f 1161 1165 1160
f 1161 1166 1165
f 1161 1162 1166
f 1145 1148 1164
f 1167 1164 1148
f 1150 1146 1165
f 1165 1168 1150
f 1165 1166 1168
f 1169 1148 1153
f 1167 1148 1169
f 1170 1167 1169
f 1156 1150 1168
f 1156 1155 1150
f 1156 1171 1157
f 1168 1171 1156
f 1171 1152 1157
f 1171 1172 1152
f 1153 1172 1173
f 1153 1152 1172
f 1153 1173 1174
f 1153 1174 1169
f 1169 1174 1175
f 1169 1175 1170
f 1170 1175 1176
f 1171 1177 1172
f 1172 1178 1173
f 1177 1178 1172
f 1173 1178 1179
f 1173 1179 1174
f 1174 1179 1180
f 1174 1180 1175
f 1181 1175 1180
f 1176 1175 1181
f 1182 1166 1162
f 1182 1163 1183
f 1162 1163 1182
f 1183 1164 1184
f 1183 1163 1164
f 1164 1185 1184
f 1167 1185 1164
f 1186 1166 1182
f 1168 1166 1186
f 1183 1186 1182
f 1187 1167 1170
f 1185 1167 1187
f 1168 1186 1171
f 1171 1186 1188
f 1176 1187 1170
f 1176 1189 1187
f 1188 1177 1171
f 1178 1188 1190
f 1177 1188 1178
f 1189 1181 1191
f 1176 1181 1189
f 1186 1183 1192
f 1192 1184 1193
f 1183 1184 1192
f 1185 1193 1184
f 1185 1194 1193
f 1185 1187 1195
f 1194 1185 1195
f 1192 1188 1186
f 1193 1188 1192
f 1193 1196 1188
f 1193 1194 1196
f 1187 1189 1197
f 1195 1187 1197
f 1198 1190 1188
f 1196 1198 1188
f 1199 1189 1191
f 1197 1189 1199
f 1196 1194 1200
f 1194 1201 1200
f 1195 1201 1194
f 1197 1201 1195
f 1202 1196 1200
f 1198 1196 1202
f 1202 1200 1201
f 1202 1201 1203
f 1201 1199 1203
f 1197 1199 1201
f 1204 1205 1207
f 1205 1208 1206
f 1205 1204 1208
f 1206 1208 1209
f 1211 1210 1212
f 1213 1211 1212
f 1205 1210 1214
f 1210 1206 1212
f 1205 1206 1210
f 1212 1215 1213
f 1212 1206 1215
f 1213 1215 1216
f 1205 1214 1217
f 1205 1217 1207
f 1209 1215 1206
f 1218 1215 1209
f 1215 1218 1216
f 1220 1219 1211
f 1221 1220 1211
f 1210 1219 1222
f 1210 1211 1219
f 1211 1213 1221
f 1221 1213 1223
f 1210 1222 1224
f 1210 1224 1214
f 1223 1213 1216
f 1223 1216 1225
f 1214 1224 1226
f 1214 1226 1217
f 1225 1216 1218
f 1225 1218 1227
f 1219 1229 1230
f 1220 1229 1219
f 1220 1228 1229
f 1231 1220 1221
f 1231 1228 1220
f 1231 1221 1232
f 1219 1230 1233
f 1219 1233 1222
f 1223 1232 1221
f 1234 1232 1223
f 1222 1233 1235
f 1222 1235 1224
f 1223 1236 1234
f 1223 1225 1236
f 1224 1235 1237
f 1224 1237 1226
f 1238 1225 1227
f 1236 1225 1238
f 1228 1239 1240
f 1228 1241 1239
f 1228 1231 1241
f 1242 1241 1231
f 1229 1243 1230
f 1229 1240 1243
f 1240 1229 1228
f 1231 1232 1242
f 1244 1242 1232
f 1230 1243 1245
f 1230 1245 1233
f 1244 1234 1246
f 1232 1234 1244
f 1233 1245 1247
f 1233 1247 1235
f 1246 1234 1236
f 1246 1236 1248
f 1235 1247 1249
f 1235 1249 1237
f 1250 1236 1238
f 1248 1236 1250
f 1239 1252 1240
f 1239 1251 1252
f 1251 1239 1241
f 1251 1241 1253
f 1241 1254 1253
f 1242 1254 1241
f 1240 1255 1243
f 1255 1240 1252
f 1254 1244 1256
f 1254 1242 1244
f 1255 1245 1243
f 1257 1245 1255
f 1256 1244 1246
f 1256 1246 1258
f 1257 1247 1245
f 1247 1257 1259
f 1248 1258 1246
f 1260 1258 1248
f 1247 1261 1249
f 1247 1259 1261
f 1261 1262 1263
f 1259 1262 1261
f 1260 1248 1250
f 1263 1260 1250
f 1262 1260 1263
f 1251 1266 1252
f 1251 1265 1266
f 1253 1265 1251
f 1253 1264 1265
f 1267 1253 1254
f 1264 1253 1267
f 1267 1254 1268
f 1269 1252 1266
f 1269 1255 1252
f 1268 1254 1256
f 1268 1256 1270
f 1257 1269 1271
f 1257 1255 1269
f 1270 1256 1258
f 1270 1258 1272
f 1271 1259 1257
f 1259 1273 1262
f 1271 1273 1259
f 1260 1273 1272
f 1260 1262 1273
f 1260 1272 1258
f 1264 1274 1275
f 1264 1276 1274
f 1265 1277 1266
f 1265 1275 1277
f 1275 1265 1264
f 1276 1264 1267
f 1276 1268 1278
f 1276 1267 1268
f 1266 1277 1279
f 1266 1279 1269
f 1278 1268 1270
f 1278 1270 1280
f 1279 1271 1269
f 1279 1281 1271
f 1272 1280 1270
f 1282 1280 1272
f 1271 1281 1273
f 1281 1272 1273
f 1282 1272 1281
f 1274 1284 1275
f 1274 1283 1284
f 1283 1274 1276
f 1283 1276 1285
f 1275 1286 1277
f 1275 1284 1286
f 1285 1276 1278
f 1285 1278 1287
f 1277 1286 1288
f 1277 1288 1279
f 1287 1278 1280
f 1287 1280 1289
f 1290 1279 1288
f 1290 1281 1279
f 1282 1290 1291
f 1282 1281 1290
f 1282 1289 1280
f 1282 1291 1289
f 1283 1293 1284
f 1283 1292 1293
f 1292 1283 1285
f 1292 1285 1294
f 1294 1285 1295
f 1284 1296 1286
f 1284 1293 1296
f 1295 1285 1287
f 1295 1287 1297
f 1286 1296 1298
f 1286 1298 1288
f 1297 1287 1289
f 1297 1289 1299
f 1288 1298 1300
f 1288 1300 1290
f 1290 1300 1301
f 1290 1301 1291
f 1291 1299 1289
f 1291 1301 1299
f 1292 1303 1293
f 1292 1302 1303
f 1302 1292 1294
f 1302 1294 1304
f 1304 1295 1305
f 1304 1294 1295
f 1293 1306 1296
f 1293 1303 1306
f 1305 1295 1297
f 1305 1297 1307
f 1306 1298 1296
f 1308 1298 1306
f 1307 1297 1299
f 1307 1299 1309
f 1298 1310 1300
f 1298 1308 1310
f 1300 1310 1311
f 1300 1311 1301
f 1301 1309 1299
f 1301 1311 1309
f 1302 1313 1303
f 1302 1312 1313
f 1312 1302 1304
f 1312 1304 1314
f 1314 1305 1315
f 1314 1304 1305
f 1303 1316 1306
f 1316 1303 1313
f 1307 1315 1305
f 1307 1317 1315
f 1316 1308 1306
f 1308 1316 1318
f 1319 1307 1309
f 1317 1307 1319
f 1320 1308 1318
f 1320 1310 1308
f 1310 1320 1321
f 1310 1321 1311
f 1311 1319 1309
f 1311 1321 1319
f 1312 1323 1313
f 1312 1322 1323
f 1322 1312 1314
f 1322 1314 1324
f 1324 1315 1325
f 1324 1314 1315
f 1323 1316 1313
f 1326 1316 1323
f 1317 1325 1315
f 1325 1317 1327
f 1318 1326 1328
f 1316 1326 1318
f 1317 1329 1327
f 1319 1329 1317
f 1330 1318 1328
f 1330 1320 1318
f 1320 1330 1331
f 1320 1331 1321
f 1329 1321 1331
f 1329 1319 1321
f 1322 1332 1323
f 1332 1322 1324
f 1332 1324 1333
f 1333 1325 1334
f 1333 1324 1325
f 1335 1323 1332
f 1335 1326 1323
f 1334 1327 1336
f 1334 1325 1327
f 1328 1335 1337
f 1328 1326 1335
f 1336 1327 1329
f 1336 1329 1338
f 1339 1328 1337
f 1339 1330 1328
f 1330 1339 1340
f 1330 1340 1331
f 1331 1340 1338
f 1331 1338 1329
f 1341 1332 1333
f 1341 1333 1342
f 1333 1343 1342
f 1334 1343 1333
f 1332 1341 1344
f 1332 1344 1335
f 1343 1336 1345
f 1343 1334 1336
f 1335 1344 1346
f 1335 1346 1337
f 1345 1336 1338
f 1345 1338 1347
f 1348 1337 1346
f 1348 1339 1337
f 1348 1340 1339
f 1340 1349 1338
f 1338 1349 1347
f 1348 1350 1340
f 1349 1340 1350
f 1352 1341 1342
f 1351 1341 1352
f 1352 1342 1343
f 1352 1343 1353
f 1341 1354 1344
f 1351 1354 1341
f 1353 1343 1345
f 1353 1345 1355
f 1344 1354 1356
f 1344 1356 1346
f 1355 1345 1347
f 1355 1347 1357
f 1358 1346 1356
f 1348 1346 1358
f 1347 1359 1357
f 1349 1359 1347
f 1350 1358 1360
f 1348 1358 1350
f 1361 1350 1360
f 1349 1350 1361
f 1359 1349 1361
f 1351 1352 1362
f 1353 1362 1352
f 1351 1363 1354
f 1351 1362 1363
f 1362 1353 1364
f 1365 1353 1355
f 1364 1353 1365
f 1354 1363 1366
f 1354 1366 1356
f 1365 1355 1357
f 1365 1357 1367
f 1356 1366 1368
f 1356 1368 1358
f 1367 1357 1359
f 1367 1359 1369
f 1368 1360 1358
f 1368 1370 1360
f 1360 1371 1361
f 1370 1371 1360
f 1359 1371 1369
f 1361 1371 1359
f 1372 1363 1362
f 1372 1362 1364
f 1372 1364 1373
f 1373 1364 1365
f 1363 1374 1366
f 1363 1372 1374
f 1367 1373 1365
f 1367 1375 1373
f 1366 1374 1376
f 1366 1376 1368
f 1367 1377 1375
f 1367 1369 1377
f 1378 1368 1376
f 1368 1378 1370
f 1379 1369 1371
f 1369 1379 1377
f 1380 1370 1378
f 1380 1371 1370
f 1380 1381 1371
f 1381 1379 1371
f 1382 1372 1373
f 1383 1384 1374
f 1372 1383 1374
f 1372 1382 1383
f 1382 1375 1385
f 1382 1373 1375
f 1374 1386 1376
f 1374 1384 1386
f 1385 1375 1377
f 1385 1377 1387
f 1386 1378 1376
f 1378 1386 1388
f 1387 1377 1379
f 1387 1379 1389
f 1390 1378 1388
f 1390 1380 1378
f 1390 1381 1380
f 1379 1381 1391
f 1379 1391 1389
f 1384 1383 1392
f 1393 1383 1382
f 1392 1383 1393
f 1393 1382 1385
f 1393 1385 1394
f 1392 1395 1386
f 1384 1392 1386
f 1387 1394 1385
f 1387 1396 1394
f 1388 1395 1397
f 1388 1386 1395
f 1389 1396 1387
f 1396 1389 1398
f 1388 1397 1399
f 1388 1399 1390
f 1400 1389 1391
f 1389 1400 1398
f 1395 1392 1401
f 1393 1402 1401
f 1392 1393 1401
f 1402 1394 1403
f 1393 1394 1402
f 1403 1396 1404
f 1403 1394 1396
f 1395 1405 1397
f 1401 1405 1395
f 1404 1396 1398
f 1404 1398 1406
f 1405 1399 1397
f 1407 1399 1405
f 1400 1406 1398
f 1408 1406 1400
f 1401 1402 1409
f 1410 1402 1403
f 1410 1409 1402
f 1410 1403 1404
f 1410 1404 1411
f 1409 1412 1405
f 1401 1409 1405
f 1409 1410 1412
f 1406 1411 1404
f 1406 1413 1411
f 1414 1413 1406
f 1407 1412 1415
f 1407 1405 1412
f 1408 1416 1414
f 1406 1408 1414
f 1410 1417 1412
f 1417 1411 1418
f 1410 1411 1417
f 1418 1413 1419
f 1418 1411 1413
f 1413 1420 1419
f 1414 1420 1413
f 1421 1412 1417
f 1415 1412 1421
f 1420 1414 1416
f 1416 1422 1420
f 1423 1417 1418
f 1424 1418 1419
f 1424 1423 1418
f 1424 1419 1420
f 1424 1420 1425
f 1417 1426 1421
f 1423 1426 1417
f 1420 1427 1425
f 1422 1427 1420
f 1427 1422 1428
f 1426 1423 1429
f 1424 1430 1429
f 1423 1424 1429
f 1430 1425 1431
f 1424 1425 1430
f 1431 1427 1432
f 1431 1425 1427
f 1427 1433 1432
f 1428 1433 1427
f 1434 1433 1428
f 1435 1430 1431
f 1436 1431 1432
f 1435 1431 1436
f 1436 1432 1433
f 1436 1433 1437
f 1433 1438 1437
f 1434 1438 1433
f 1439 1436 1437
f 1440 1437 1438
f 1440 1439 1437
f 1445 1444 1446
f 1447 1446 1448
f 1447 1445 1446
f 1449 1447 1448
f 1452 1451 1453
f 1454 1453 1455
f 1454 1452 1453
f 1443 1455 1456
f 1443 1454 1455
f 1444 1456 1457
f 1443 1456 1444
f 1444 1457 1458
f 1444 1458 1446
f 1446 1458 1459
f 1446 1459 1448
f 1448 1459 1449
f 1450 1464 1465
f 1451 1465 1466
f 1450 1465 1451
f 1451 1466 1467
f 1451 1467 1453
f 1453 1467 1468
f 1453 1468 1455
f 1455 1468 1469
f 1455 1469 1456
f 1456 1469 1470
f 1456 1470 1457
f 1457 1470 1471
f 1457 1471 1458
f 1471 1459 1458
f 1472 1459 1471
f 1475 1474 1476
f 1477 1475 1476
f 1473 1478 1479
f 1473 1479 1474
f 1474 1479 1480
f 1474 1480 1476
f 1481 1476 1480
f 1477 1476 1481
f 1482 1477 1481
f 1483 1478 1484
f 1478 1483 1485
f 1478 1485 1479
f 1485 1480 1479
f 1485 1441 1480
f 1480 1442 1481
f 1441 1442 1480
f 1442 1486 1482
f 1481 1442 1482
f 1483 1487 1488
f 1484 1487 1483
f 1483 1488 1489
f 1483 1489 1485
f 1490 1485 1489
f 1490 1441 1485
f 1441 1491 1442
f 1490 1491 1441
f 1486 1491 1492
f 1486 1442 1491
f 1487 1493 1494
f 1487 1494 1495
f 1487 1495 1488
f 1488 1495 1496
f 1488 1496 1489
f 1489 1496 1497
f 1489 1497 1490
f 1490 1497 1498
f 1490 1498 1491
f 1498 1492 1491
f 1499 1492 1498
f 1500 1501 1502
f 1493 1501 1503
f 1493 1502 1501
f 1493 1503 1504
f 1493 1504 1494
f 1494 1504 1505
f 1494 1505 1495
f 1495 1505 1506
f 1495 1506 1496
f 1496 1506 1507
f 1496 1507 1497
f 1507 1498 1497
f 1500 1509 1445
f 1501 1445 1447
f 1500 1445 1501
f 1501 1447 1510
f 1501 1510 1503
f 1503 1510 1511
f 1503 1511 1504
f 1504 1511 1512
f 1504 1512 1505
f 1505 1512 1513
f 1505 1513 1506
f 1513 1507 1506
f 1515 1514 1454
f 1508 1454 1443
f 1508 1515 1454
f 1444 1509 1508
f 1443 1444 1508
f 1444 1445 1509
f 1447 1449 1510
f 1510 1449 1516
f 1510 1516 1511
f 1511 1516 1517
f 1511 1517 1512
f 1517 1513 1512
f 1518 1451 1519
f 1450 1451 1518
f 1452 1519 1451
f 1452 1514 1519
f 1452 1454 1514
f 1520 1449 1459
f 1449 1520 1521
f 1449 1521 1516
f 1521 1517 1516
f 1522 1461 1462
f 1522 1462 1463
f 1522 1463 1523
f 1523 1463 1464
f 1523 1464 1524
f 1450 1524 1464
f 1450 1518 1524
f 1520 1472 1525
f 1459 1472 1520
f 1525 1521 1520
f 1473 1527 1528
f 1474 1527 1473
f 1474 1526 1527
f 1529 1474 1475
f 1529 1526 1474
f 1529 1477 1530
f 1529 1475 1477
f 1473 1528 1531
f 1473 1531 1478
f 1477 1532 1530
f 1482 1532 1477
f 1531 1484 1478
f 1531 1533 1484
f 1487 1533 1534
f 1487 1484 1533
f 1493 1534 1535
f 1534 1493 1487
f 1536 1502 1535
f 1500 1502 1536
f 1535 1502 1493
f 1498 1507 1537
f 1537 1538 1499
f 1498 1537 1499
f 1509 1540 1508
f 1509 1539 1540
f 1500 1539 1509
f 1500 1536 1539
f 1507 1513 1541
f 1541 1537 1507
f 1542 1514 1515
f 1542 1515 1508
f 1542 1508 1540
f 1543 1513 1517
f 1541 1513 1543
f 1544 1518 1519
f 1545 1518 1544
f 1519 1546 1544
f 1519 1514 1546
f 1514 1542 1546
f 1547 1517 1521
f 1517 1547 1543
f 1548 1522 1523
f 1549 1523 1524
f 1548 1523 1549
f 1524 1545 1549
f 1524 1518 1545
f 1551 1521 1525
f 1550 1521 1551
f 1521 1550 1547
f 1526 1552 1553
f 1527 1554 1528
f 1527 1553 1554
f 1553 1527 1526
f 1526 1555 1552
f 1529 1555 1526
f 1555 1530 1556
f 1555 1529 1530
f 1528 1554 1557
f 1528 1557 1531
f 1556 1530 1532
f 1556 1532 1558
f 1559 1531 1557
f 1559 1533 1531
f 1533 1560 1534
f 1559 1560 1533
f 1534 1561 1535
f 1534 1560 1561
f 1562 1536 1535
f 1562 1535 1561
f 1564 1538 1537
f 1563 1538 1564
f 1536 1565 1539
f 1536 1562 1565
f 1537 1566 1564
f 1537 1541 1566
f 1567 1542 1540
f 1539 1568 1567
f 1540 1539 1567
f 1539 1565 1568
f 1569 1541 1543
f 1566 1541 1569
f 1570 1544 1546
f 1570 1542 1571
f 1546 1542 1570
f 1567 1571 1542
f 1572 1571 1567
f 1567 1568 1572
f 1573 1547 1574
f 1547 1569 1543
f 1547 1573 1569
f 1575 1549 1545
f 1544 1576 1575
f 1545 1544 1575
f 1576 1570 1577
f 1544 1570 1576
f 1570 1571 1577
f 1550 1578 1574
f 1551 1578 1550
f 1550 1574 1547
f 1552 1580 1553
f 1552 1579 1580
f 1553 1581 1554
f 1553 1580 1581
f 1552 1582 1579
f 1555 1582 1552
f 1582 1556 1583
f 1582 1555 1556
f 1554 1581 1584
f 1554 1584 1557
f 1583 1556 1558
f 1583 1558 1585
f 1557 1584 1586
f 1557 1586 1559
f 1560 1559 1587
f 1587 1559 1586
f 1561 1587 1588
f 1560 1587 1561
f 1562 1561 1589
f 1588 1589 1561
f 1564 1590 1591
f 1563 1591 1592
f 1563 1564 1591
f 1565 1562 1593
f 1589 1593 1562
f 1589 1594 1593
f 1566 1595 1590
f 1590 1564 1566
f 1568 1565 1596
f 1596 1565 1593
f 1596 1593 1597
f 1598 1593 1594
f 1597 1593 1598
f 1600 1595 1569
f 1566 1569 1595
f 1572 1568 1601
f 1601 1568 1596
f 1601 1596 1602
f 1602 1596 1597
f 1602 1597 1603
f 1597 1604 1603
f 1597 1598 1604
f 1604 1599 1574
f 1598 1599 1604
f 1600 1573 1574
f 1599 1600 1574
f 1569 1573 1600
f 1605 1577 1571
f 1605 1572 1606
f 1571 1572 1605
f 1606 1572 1601
f 1606 1601 1607
f 1607 1601 1602
f 1607 1602 1608
f 1608 1602 1603
f 1608 1603 1609
f 1604 1609 1603
f 1578 1609 1604
f 1574 1578 1604
f 1580 1610 1581
f 1580 1611 1610
f 1580 1579 1611
f 1611 1582 1612
f 1611 1579 1582
f 1612 1583 1613
f 1612 1582 1583
f 1581 1610 1614
f 1581 1614 1584
f 1613 1583 1585
f 1613 1585 1615
f 1614 1586 1584
f 1616 1586 1614
f 1616 1587 1586
f 1616 1617 1587
f 1616 1618 1617
f 1617 1588 1587
f 1617 1619 1588
f 1619 1617 1618
f 1619 1618 1620
f 1618 1621 1620
f 1618 1622 1621
f 1621 1623 1624
f 1622 1623 1621
f 1624 1625 1592
f 1623 1625 1624
f 1589 1588 1626
f 1626 1619 1627
f 1588 1619 1626
f 1627 1619 1620
f 1627 1620 1628
f 1628 1620 1621
f 1628 1621 1590
f 1624 1590 1621
f 1591 1590 1624
f 1592 1591 1624
f 1594 1626 1629
f 1594 1589 1626
f 1629 1626 1627
f 1629 1627 1630
f 1628 1630 1627
f 1595 1630 1628
f 1590 1595 1628
f 1598 1594 1629
f 1598 1629 1599
f 1630 1599 1629
f 1600 1599 1630
f 1595 1600 1630
f 1631 1610 1611
f 1632 1611 1612
f 1632 1631 1611
f 1613 1632 1612
f 1614 1610 1631
f 1614 1631 1633
f 1633 1631 1632
f 1633 1632 1634
f 1632 1635 1634
f 1613 1635 1632
f 1615 1635 1613
f 1636 1614 1633
f 1616 1614 1636
f 1636 1633 1634
f 1636 1634 1637
f 1637 1634 1635
f 1637 1635 1638
f 1638 1635 1615
f 1638 1615 1639
f 1616 1636 1618
f 1622 1636 1637
f 1618 1636 1622
f 1622 1637 1638
f 1622 1638 1623
f 1623 1638 1639
f 1623 1639 1625
