v -27.6518 -43.9935 -30.9366
v -27.2932 -43.9952 -30.9522
v -26.938 -43.9819 -30.9329
v -28.327 -45.7734 -30.5523
v -28.348 -45.3972 -30.7244
v -28.5529 -45.3972 -30.5301
v -27.9964 -45.3972 -30.731
v -27.9964 -45.7035 -30.4828
v -27.6448 -45.6708 -30.4363
v -27.6448 -45.3972 -30.7103
v -27.2932 -45.5746 -30.5301
v -27.2932 -45.3972 -30.7009
v -26.9416 -45.4708 -30.6051
v -26.59 -45.4418 -30.5785
v -26.268 -45.3774 -30.5301
v -28.348 -45.0456 -30.7346
v -28.633 -45.0456 -30.4445
v -27.9964 -45.0456 -30.7629
v -27.6448 -45.0456 -30.7528
v -27.2932 -45.0456 -30.751
v -26.9416 -45.0456 -30.7441
v -26.59 -45.0456 -30.7242
v -26.2384 -45.0456 -30.6688
v -25.8962 -45.0321 -30.5301
v -28.348 -44.694 -30.7225
v -28.5515 -44.694 -30.5301
v -27.9964 -44.694 -30.7444
v -27.6448 -44.694 -30.7322
v -27.2932 -44.694 -30.7355
v -26.9416 -44.694 -30.7324
v -26.59 -44.694 -30.7279
v -26.2384 -44.694 -30.7058
v -25.8868 -44.694 -30.6331
v -25.6907 -44.694 -30.5301
v -28.388 -44.3043 -30.5686
v -27.9964 -44.3424 -30.699
v -27.6448 -44.3424 -30.719
v -27.2932 -44.3424 -30.7268
v -26.9416 -44.3424 -30.7095
v -26.59 -44.3424 -30.6896
v -26.2384 -44.3424 -30.6849
v -25.8868 -44.3424 -30.6543
v -25.5337 -44.346 -30.5312
v -27.9379 -44.0102 -30.5301
v -26.59 -43.9628 -30.5545
v -26.2384 -43.9557 -30.5553
v -25.8868 -43.9513 -30.5558
v -25.5309 -43.9872 -30.5317
v -27.6448 -43.9679 -30.4737
v -27.2932 -43.9657 -30.4455
v -26.9416 -43.9053 -30.5301
v -20.9944 -40.0879 -30.5548
v -20.9644 -40.437 -30.5174
v -20.5823 -40.1662 -30.5573
v -20.615 -39.7589 -30.5437
v -15.3516 -36.6246 -30.5402
v -14.9872 -36.6388 -30.5565
v -14.6864 -36.5873 -30.5139
v -15.4134 -36.2556 -30.594
v -14.9872 -36.2556 -30.7053
v -14.6356 -36.2556 -30.6836
v -14.284 -36.3174 -30.5755
v -13.9863 -36.1996 -30.4643
v -15.3388 -35.904 -30.6982
v -15.6118 -35.904 -30.4631
v -14.9872 -35.904 -30.7407
v -14.6356 -35.904 -30.7318
v -14.284 -35.904 -30.7112
v -13.8942 -35.904 -30.573
v -15.3388 -35.5524 -30.7205
v -15.6236 -35.5524 -30.4704
v -14.9872 -35.5524 -30.7534
v -14.6356 -35.5524 -30.7371
v -14.284 -35.5524 -30.7207
v -13.8673 -35.5524 -30.595
v -15.3388 -35.2008 -30.7339
v -15.6222 -35.2008 -30.4428
v -14.9872 -35.2008 -30.7592
v -14.6356 -35.2008 -30.7218
v -14.284 -35.2008 -30.6806
v -13.9324 -35.2008 -30.6619
v -13.6207 -35.2008 -30.5301
v -15.3846 -34.8035 -30.5802
v -14.9872 -34.8492 -30.7233
v -14.6356 -34.8492 -30.6913
v -14.284 -34.8492 -30.6038
v -13.9324 -34.7945 -30.5475
v -13.5789 -34.8683 -30.533
v -14.9872 -34.5588 -30.4467
v -14.6728 -34.4693 -30.5524
v -14.2578 -34.4695 -30.5372
v -28.3206 -46.4559 -30.1259
v -28.4017 -46.1004 -30.2026
v -27.9964 -46.1004 -30.2677
v -27.9964 -46.4356 -30.1301
v -27.6387 -46.1067 -30.1233
v -28.5695 -45.7488 -30.1301
v -27.2932 -45.819 -30.1905
v -27.0139 -45.715 -30.1301
v -28.7423 -45.4548 -30.194
v -26.5518 -45.4274 -30.0811
v -28.857 -45.0456 -30.1301
v -26.165 -45.1218 -30.1301
v -28.762 -44.694 -30.2241
v -25.8241 -44.764 -30.1301
v -28.702 -44.34 -30.124
v -25.4917 -44.3895 -30.1301
v -28.348 -44.2287 -30.1301
v -27.9964 -44.1677 -30.1301
v -27.6448 -44.1267 -30.1301
v -27.2932 -44.0603 -30.1301
v -27.0088 -43.9698 -30.1301
v -25.1519 -44.0158 -30.1832
v -26.59 -43.8268 -30.1301
v -26.1866 -43.6598 -30.0956
v -25.8868 -43.6071 -30.1966
v -25.5352 -43.6392 -30.3689
v -25.1836 -43.6392 -30.4112
v -24.832 -43.6392 -30.344
v -24.832 -43.7901 -30.1301
v -24.5416 -43.5926 -30.1301
v -25.5352 -43.3637 -30.0496
v -25.2321 -43.2511 -30.1666
v -24.832 -43.2876 -30.3774
v -24.4804 -43.2876 -30.3517
v -24.1581 -43.2548 -30.1301
v -24.8629 -42.9104 -30.1566
v -24.4804 -42.936 -30.3434
v -24.1288 -42.936 -30.3104
v -23.8329 -42.8485 -30.1301
v -24.4491 -42.6013 -30.1111
v -24.1288 -42.5272 -30.1834
v -23.7772 -42.5844 -30.2139
v -23.4501 -42.5604 -30.1188
v -22.7449 -42.5861 -30.1339
v -23.746 -42.2647 -30.1149
v -23.4256 -42.1561 -30.1684
v -23.074 -42.5701 -30.1144
v -23.074 -42.2328 -30.3017
v -22.7224 -42.2328 -30.444
v -22.3708 -42.2328 -30.4408
v -22.3708 -42.3585 -30.1301
v -22.1745 -42.2328 -30.1301
v -23.3464 -41.8812 -30.0415
v -23.074 -41.8105 -30.1907
v -22.7224 -41.8812 -30.3989
v -22.3708 -41.8812 -30.4554
v -22.0133 -41.896 -30.1426
v -22.76 -41.4968 -30.1612
v -22.3708 -41.5296 -30.3687
v -22.0192 -41.5296 -30.3178
v -21.7475 -41.4461 -30.1301
v -22.3981 -41.1463 -30.1583
v -22.0192 -41.178 -30.3463
v -21.6676 -41.178 -30.2711
v -21.3624 -41.1428 -30.0907
v -22.0508 -40.7999 -30.1582
v -21.6676 -40.8264 -30.3557
v -21.316 -40.8264 -30.3397
v -20.9537 -40.8339 -30.14
v -21.6889 -40.4552 -30.1575
v -21.316 -40.4748 -30.4495
v -20.6128 -40.5403 -30.2277
v -20.3478 -40.3964 -30.1301
v -21.3406 -40.0977 -30.1632
v -20.2612 -40.1232 -30.2948
v -19.936 -40.1016 -30.1073
v -21.0003 -39.7401 -30.183
v -20.2612 -39.7716 -30.3653
v -19.9096 -39.7716 -30.2975
v -19.558 -39.8207 -30.1776
v -19.2496 -39.7483 -30.0981
v -20.5255 -39.48 -30.1301
v -20.2612 -39.3343 -30.2007
v -19.9096 -39.42 -30.3382
v -19.558 -39.42 -30.3373
v -19.2064 -39.42 -30.3088
v -18.8052 -39.4514 -30.1605
v -20.116 -39.0684 -30.1301
v -19.9096 -39.0684 -30.311
v -19.558 -39.0684 -30.3496
v -19.2064 -39.0684 -30.3484
v -18.8548 -39.0684 -30.3375
v -18.5032 -39.0684 -30.2804
v -18.5032 -39.2721 -30.1301
v -18.1793 -39.0444 -30.1013
v -19.9446 -38.6741 -30.1699
v -19.558 -38.7168 -30.3426
v -19.2064 -38.7168 -30.3502
v -18.8548 -38.7168 -30.3583
v -18.5032 -38.7168 -30.3541
v -18.1516 -38.7168 -30.301
v -17.789 -38.7213 -30.1357
v -19.6081 -38.3076 -30.1782
v -19.2064 -38.3652 -30.3516
v -18.8548 -38.3652 -30.3627
v -18.5032 -38.3652 -30.3679
v -18.1516 -38.3652 -30.3568
v -17.8 -38.3652 -30.3194
v -17.4484 -38.3652 -30.276
v -17.4484 -38.5583 -30.1301
v -17.0968 -38.4227 -30.1848
v -16.7421 -38.3675 -30.133
v -19.3891 -38.0136 -30.1301
v -19.2064 -38.0136 -30.2859
v -18.8548 -38.0136 -30.3563
v -18.5032 -38.0136 -30.3641
v -18.1516 -38.0136 -30.365
v -17.8 -38.0136 -30.3624
v -17.4484 -38.0136 -30.3606
v -17.0968 -38.0136 -30.3574
v -16.7452 -38.0136 -30.3194
v -16.3701 -38.029 -30.1489
v -19.2064 -37.8327 -30.1301
v -18.9126 -37.6056 -30.1792
v -18.5032 -37.662 -30.347
v -18.1516 -37.662 -30.3533
v -17.8 -37.662 -30.3571
v -17.4484 -37.662 -30.3631
v -17.0968 -37.662 -30.3641
v -16.7452 -37.662 -30.3526
v -16.3936 -37.662 -30.3167
v -16.0123 -37.6831 -30.153
v -18.5544 -37.2595 -30.173
v -18.1516 -37.3104 -30.3281
v -17.8 -37.3104 -30.3312
v -17.4484 -37.3104 -30.3319
v -17.0968 -37.3104 -30.3359
v -16.7452 -37.3104 -30.3387
v -16.3936 -37.3104 -30.3316
v -16.042 -37.3104 -30.2984
v -15.6366 -37.3423 -30.1568
v -18.1985 -36.9106 -30.1684
v -17.8 -36.9588 -30.3131
v -17.4484 -36.9588 -30.3131
v -17.0968 -36.9588 -30.3106
v -16.7452 -36.9588 -30.3124
v -16.3936 -36.9588 -30.3146
v -16.042 -36.9588 -30.3119
v -15.6904 -36.9588 -30.313
v -15.3388 -36.9588 -30.3471
v -15.3388 -37.25 -30.0681
v -14.9872 -36.9907 -30.18
v -14.6926 -36.9346 -30.1001
v -17.8436 -36.5767 -30.1637
v -17.4484 -36.6072 -30.2829
v -17.0968 -36.6072 -30.3104
v -16.7452 -36.6072 -30.3071
v -16.3936 -36.6072 -30.2966
v -16.042 -36.6072 -30.2978
v -15.6904 -36.6072 -30.3436
v -14.2523 -36.6411 -30.1772
v -17.4484 -36.4186 -30.1301
v -17.1496 -36.2133 -30.1694
v -16.7452 -36.2556 -30.3197
v -16.3936 -36.2556 -30.3143
v -16.042 -36.2556 -30.3101
v -15.6904 -36.2556 -30.3673
v -13.8969 -36.2983 -30.1301
v -16.7896 -35.8592 -30.1719
v -16.3936 -35.904 -30.3366
v -16.042 -35.904 -30.3422
v -13.7402 -35.904 -30.1301
v -16.4396 -35.5132 -30.1731
v -16.042 -35.5524 -30.3244
v -13.7203 -35.5524 -30.1301
v -15.982 -35.256 -30.1301
v -13.6286 -35.1266 -30.1301
v -15.6261 -34.9255 -30.1301
v -13.453 -34.8492 -30.1301
v -15.2527 -34.5636 -30.1301
v -13.9324 -34.4976 -30.4401
v -13.5808 -34.4976 -30.3876
v -13.4519 -34.4976 -30.1301
v -14.9872 -34.3387 -30.1301
v -14.6527 -34.1329 -30.1237
v -14.284 -34.146 -30.4265
v -13.9324 -34.146 -30.407
v -13.5808 -34.146 -30.342
v -13.4566 -34.146 -30.1301
v -14.284 -33.9945 -30.1301
v -13.9654 -33.7677 -30.1646
v -13.5395 -33.7528 -30.1863
v -28.348 -46.3174 -29.7301
v -28.44 -46.1004 -29.7301
v -27.9964 -46.1735 -29.6455
v -27.7303 -46.0385 -29.7301
v -28.5507 -45.7488 -29.7301
v -27.3 -45.7444 -29.7439
v -28.764 -45.4807 -29.7301
v -26.8899 -45.4345 -29.6751
v -28.8756 -45.0456 -29.7301
v -26.59 -45.2633 -29.7301
v -26.2655 -45.0241 -29.7764
v -28.813 -44.694 -29.7301
v -25.8918 -44.6897 -29.7437
v -28.6996 -44.4724 -29.7301
v -28.3414 -44.3442 -29.7348
v -25.5195 -44.3553 -29.6805
v -27.9964 -44.2634 -29.7301
v -27.6448 -44.1516 -29.7301
v -27.2673 -44.0041 -29.6786
v -25.1106 -44.0429 -29.7301
v -26.9416 -43.8578 -29.7301
v -26.5574 -43.657 -29.6834
v -24.832 -43.8398 -29.7301
v -24.5067 -43.62 -29.7301
v -26.2384 -43.5073 -29.7301
v -25.8607 -43.3034 -29.6988
v -24.1208 -43.2948 -29.7312
v -25.5352 -43.1211 -29.7301
v -25.2195 -42.9078 -29.7725
v -23.7436 -42.9549 -29.7924
v -24.8199 -42.5922 -29.7032
v -23.4256 -42.7843 -29.7301
v -23.074 -42.7481 -29.7301
v -22.6556 -42.6324 -29.7301
v -24.4804 -42.4153 -29.7301
v -24.1331 -42.2305 -29.7356
v -22.3708 -42.4209 -29.7301
v -22.074 -42.1544 -29.7301
v -23.7772 -42.0373 -29.7301
v -23.4992 -41.8298 -29.7301
v -21.9063 -41.8812 -29.7301
v -23.0795 -41.525 -29.7403
v -21.6363 -41.5588 -29.7854
v -22.6886 -41.2063 -29.7301
v -21.316 -41.3435 -29.7301
v -21.0005 -41.151 -29.677
v -22.3309 -40.8636 -29.7301
v -20.6064 -40.8314 -29.7397
v -21.947 -40.5313 -29.7301
v -20.2134 -40.5083 -29.7943
v -21.6676 -40.3315 -29.7301
v -21.362 -40.0806 -29.7301
v -19.9096 -40.3212 -29.7301
v -19.564 -40.1191 -29.7229
v -20.9842 -39.7531 -29.7012
v -19.2064 -39.9163 -29.7301
v -18.8775 -39.7584 -29.7067
v -20.5921 -39.4371 -29.7301
v -18.4623 -39.4505 -29.7942
v -20.245 -39.0848 -29.7301
v -18.1516 -39.2345 -29.7301
v -17.8378 -39.0362 -29.6785
v -19.9336 -38.6893 -29.697
v -17.4484 -38.7604 -29.8177
v -17.0859 -38.7224 -29.7444
v -19.6223 -38.3652 -29.6505
v -16.7452 -38.5288 -29.7301
v -16.4217 -38.34 -29.6905
v -19.518 -38.0586 -29.7301
v -16.0354 -38.0178 -29.7398
v -19.145 -37.7158 -29.7301
v -15.652 -37.6824 -29.7699
v -18.7938 -37.3736 -29.7301
v -15.3388 -37.4967 -29.7301
v -14.9593 -37.3209 -29.7481
v -18.4634 -37.0012 -29.7301
v -14.6356 -37.2385 -29.631
v -14.2936 -36.9508 -29.7301
v -18.1529 -36.6061 -29.7311
v -14.0956 -36.6072 -29.7301
v -17.8 -36.5459 -29.6639
v -17.4572 -36.249 -29.7366
v -13.9496 -36.2342 -29.7949
v -17.0968 -36.0872 -29.7301
v -16.8278 -35.8222 -29.7301
v -13.7331 -35.904 -29.7301
v -16.4804 -35.468 -29.7301
v -13.7048 -35.5524 -29.7301
v -16.0723 -35.1768 -29.7431
v -13.6281 -35.1248 -29.7301
v -15.6086 -34.916 -29.7301
v -13.4367 -34.8492 -29.7301
v -15.3388 -34.672 -29.7301
v -15.0371 -34.4562 -29.6824
v -13.3845 -34.4976 -29.7301
v -14.554 -34.2088 -29.7301
v -13.3476 -34.146 -29.7301
v -14.284 -33.9939 -29.7301
v -14.0162 -33.7109 -29.7301
v -13.2179 -33.7919 -29.7209
v -13.5758 -33.431 -29.7236
v -28.348 -46.0201 -29.4191
v -28.44 -45.7488 -29.3301
v -27.9964 -45.9022 -29.3301
v -27.6873 -45.7228 -29.3643
v -28.668 -45.3532 -29.3824
v -27.2665 -45.4145 -29.3049
v -28.835 -45.0456 -29.3301
v -26.9416 -45.2419 -29.3301
v -26.5999 -45.0398 -29.34
v -28.7251 -44.6598 -29.3301
v -26.1955 -44.7265 -29.2686
v -28.2657 -44.3854 -29.3301
v -25.8868 -44.536 -29.3301
v -25.5788 -44.3094 -29.3301
v -27.9964 -44.2525 -29.3301
v -27.6448 -44.0946 -29.3301
v -27.3573 -43.9594 -29.3301
v -25.1701 -44.0006 -29.3022
v -26.9416 -43.7434 -29.3301
v -26.6756 -43.5882 -29.3301
v -24.832 -43.7699 -29.3301
v -24.5613 -43.5826 -29.3301
v -26.1885 -43.316 -29.3301
v -24.1482 -43.2705 -29.3301
v -25.8868 -43.136 -29.3301
v -25.5319 -42.9382 -29.3102
v -23.7192 -42.9605 -29.3301
v -25.1836 -42.7166 -29.3301
v -24.9004 -42.5458 -29.3301
v -23.4256 -42.8255 -29.3301
v -23.074 -42.8032 -29.3301
v -22.7224 -42.7294 -29.3301
v -22.3747 -42.5816 -29.2906
v -24.4804 -42.3459 -29.3301
v -24.193 -42.2017 -29.3301
v -22.0607 -42.1808 -29.3301
v -23.7044 -41.934 -29.3301
v -21.7412 -41.8164 -29.3301
v -23.4256 -41.7408 -29.3301
v -23.0879 -41.519 -29.2938
v -21.3295 -41.5205 -29.302
v -22.6641 -41.2184 -29.3301
v -20.8886 -41.2302 -29.3301
v -22.3708 -40.9803 -29.3301
v -22.1042 -40.7484 -29.3301
v -20.6128 -41.0259 -29.3301
v -20.2863 -40.8066 -29.2875
v -21.6987 -40.4529 -29.2932
v -19.8773 -40.4944 -29.3688
v -21.2789 -40.1469 -29.3934
v -19.558 -40.3105 -29.3301
v -19.2016 -40.1257 -29.3346
v -20.9644 -39.9617 -29.3301
v -20.6336 -39.7555 -29.3134
v -18.8548 -39.945 -29.3301
v -18.5292 -39.7541 -29.3007
v -20.237 -39.4367 -29.3511
v -18.1377 -39.4296 -29.3501
v -19.866 -39.1026 -29.3602
v -17.8 -39.1881 -29.3301
v -17.4683 -39.0581 -29.3149
v -19.558 -38.7854 -29.376
v -19.2648 -38.6721 -29.2969
v -17.0968 -38.9043 -29.3301
v -16.7178 -38.7385 -29.3699
v -19.2064 -38.3652 -29.4572
v -18.8512 -38.3675 -29.3322
v -16.3072 -38.4211 -29.3301
v -19.2064 -38.0136 -29.5697
v -18.8548 -38.0136 -29.5074
v -18.4521 -38.0493 -29.3562
v -16.042 -38.1999 -29.3301
v -15.7075 -37.9995 -29.3104
v -18.8548 -37.662 -29.5943
v -18.5032 -37.662 -29.5023
v -18.0981 -37.7069 -29.3545
v -15.2841 -37.6851 -29.3848
v -18.5032 -37.3104 -29.5613
v -18.1516 -37.3104 -29.4881
v -17.8 -37.3914 -29.3748
v -17.497 -37.2556 -29.2934
v -14.9872 -37.6088 -29.2523
v -14.5786 -37.3642 -29.3301
v -18.1516 -36.9588 -29.5779
v -17.8 -36.9588 -29.4656
v -17.3987 -36.9588 -29.3699
v -14.3184 -36.9201 -29.3301
v -17.4484 -36.6072 -29.5335
v -17.1209 -36.5795 -29.3043
v -14.084 -36.6072 -29.3301
v -17.011 -36.2556 -29.4228
v -13.9735 -36.193 -29.3301
v -16.6983 -35.9572 -29.3886
v -13.7652 -35.904 -29.3301
v -16.3469 -35.5974 -29.3826
v -13.7089 -35.5524 -29.3301
v -16.042 -35.4651 -29.2457
v -15.6528 -35.229 -29.3625
v -13.6994 -35.2008 -29.3301
v -15.3388 -34.9362 -29.4272
v -14.9581 -34.8724 -29.3533
v -13.5943 -34.8317 -29.3594
v -14.5956 -34.5373 -29.3732
v -13.3868 -34.4976 -29.3301
v -14.2464 -34.1879 -29.3893
v -13.3618 -34.146 -29.3301
v -13.8876 -33.8285 -29.379
v -13.372 -33.7944 -29.3301
v -13.5808 -33.5991 -29.3301
v -28.348 -45.6969 -29.0116
v -27.9964 -45.679 -29.0298
v -28.5051 -45.3972 -28.9301
v -27.6493 -45.3947 -28.9341
v -28.7515 -45.1132 -28.9301
v -27.2932 -45.185 -28.9301
v -26.9813 -45.0228 -28.9638
v -28.6931 -44.7043 -28.9549
v -26.542 -44.7233 -28.8822
v -28.348 -44.4974 -28.9301
v -28.0308 -44.3223 -28.8711
v -26.2384 -44.575 -28.9301
v -25.8754 -44.3505 -28.9137
v -27.6448 -44.0917 -28.9301
v -27.3773 -43.9432 -28.9301
v -25.5352 -44.1247 -28.9301
v -25.2665 -43.9286 -28.9301
v -26.8754 -43.6789 -28.9301
v -24.83 -43.6406 -28.9269
v -26.59 -43.5095 -28.9301
v -26.2186 -43.2999 -28.9301
v -24.3992 -43.3486 -28.9301
v -25.8868 -43.0957 -28.9301
v -25.5577 -42.9212 -28.8793
v -24.1288 -43.1277 -28.9301
v -23.7986 -42.9179 -28.9873
v -25.1836 -42.7051 -28.9301
v -24.8722 -42.5657 -28.8833
v -23.4256 -42.7714 -28.9301
v -23.074 -42.787 -28.9301
v -22.7224 -42.7358 -28.9301
v -22.3648 -42.5898 -28.9077
v -24.4804 -42.3903 -28.9301
v -24.1361 -42.2293 -28.9219
v -22.0609 -42.1874 -28.9301
v -23.7772 -42.0545 -28.9301
v -23.4554 -41.8612 -28.8924
v -21.7035 -41.8542 -28.9301
v -23.0064 -41.5711 -28.9301
v -21.2323 -41.5772 -28.9301
v -22.7224 -41.407 -28.9301
v -22.3544 -41.1895 -28.951
v -20.9644 -41.4184 -28.9301
v -20.5983 -41.1875 -28.9517
v -21.974 -40.8649 -28.9878
v -20.2612 -40.9519 -28.9301
v -19.9871 -40.7703 -28.9301
v -21.6676 -40.6479 -28.9301
v -21.3436 -40.4587 -28.9062
v -19.5144 -40.4938 -28.9621
v -20.9644 -40.1866 -29.02
v -20.6606 -40.0949 -28.8944
v -19.2064 -40.4232 -28.8364
v -18.8095 -40.1563 -28.9735
v -20.2379 -39.7876 -28.9494
v -18.5032 -39.9692 -28.9301
v -18.193 -39.7337 -28.869
v -19.9096 -39.4978 -29.022
v -19.6106 -39.3716 -28.8772
v -17.7821 -39.4257 -28.9412
v -19.558 -39.0684 -29.164
v -19.2455 -39.0369 -28.8891
v -17.4484 -39.3532 -28.8474
v -17.0968 -39.1059 -29.006
v -16.7882 -39.0451 -28.8945
v -18.8495 -38.7204 -28.9351
v -16.3751 -38.7353 -28.9569
v -18.5032 -38.4298 -29.0164
v -18.2329 -38.2942 -28.9301
v -16.0086 -38.3841 -28.9766
v -18.1516 -38.0136 -29.1819
v -17.8393 -37.97 -28.8648
v -15.6904 -38.1729 -28.9301
v -15.3369 -38.0151 -28.9327
v -17.8 -37.662 -29.1951
v -17.5192 -37.5822 -28.9301
v -14.9872 -37.76 -28.9301
v -14.6985 -37.6137 -28.9301
v -17.3036 -37.3104 -28.9301
v -14.4362 -37.3104 -28.9301
v -17.0942 -36.9631 -28.9364
v -14.3237 -36.8997 -28.9301
v -16.7906 -36.5531 -28.8876
v -14.1107 -36.6072 -28.9301
v -16.6662 -36.2556 -29.0249
v -14.0539 -36.2556 -28.9301
v -16.3936 -35.904 -29.1256
v -16.3936 -36.1711 -28.8485
v -16.0104 -35.9279 -28.954
v -13.945 -35.8881 -28.9534
v -15.6904 -35.6325 -29.0056
v -15.3112 -35.5731 -28.9518
v -13.7324 -35.5524 -28.9301
v -15.3388 -35.2008 -29.1602
v -14.95 -35.2378 -28.9648
v -13.7065 -35.2008 -28.9301
v -14.6356 -34.9269 -29.0189
v -14.2847 -34.8484 -28.9292
v -13.6284 -34.7937 -28.9301
v -14.2117 -34.4976 -29.018
v -13.4035 -34.4976 -28.9301
v -13.8845 -34.1792 -28.9667
v -13.5394 -34.0987 -28.877
v -13.5808 -33.7944 -29.1495
v -28.3575 -45.4117 -28.5111
v -28.0459 -45.3869 -28.5428
v -28.7008 -45.0436 -28.5285
v -27.5998 -45.0772 -28.4966
v -27.2932 -44.9706 -28.6146
v -28.3931 -44.6694 -28.4864
v -26.947 -44.6895 -28.5331
v -27.9964 -44.4616 -28.5301
v -27.6993 -44.3139 -28.498
v -26.59 -44.4042 -28.4783
v -26.2677 -44.3273 -28.5438
v -27.2426 -44.0226 -28.5776
v -25.8868 -44.0542 -28.4596
v -25.5844 -43.9553 -28.575
v -26.9416 -43.9428 -28.4905
v -26.5739 -43.6539 -28.5498
v -25.1757 -43.6445 -28.5227
v -26.2384 -43.4504 -28.5301
v -25.9255 -43.2619 -28.5013
v -24.7741 -43.3256 -28.4897
v -24.4804 -43.2025 -28.609
v -25.5352 -43.0312 -28.5301
v -25.2402 -42.9118 -28.5011
v -24.1905 -42.936 -28.5726
v -24.832 -42.7517 -28.5301
v -24.4478 -42.5969 -28.5372
v -24.1288 -42.6094 -28.5163
v -23.7543 -42.5771 -28.5287
v -23.3807 -42.5681 -28.5377
v -23.074 -42.6002 -28.517
v -22.6834 -42.6067 -28.5152
v -23.7179 -42.2328 -28.5642
v -22.3708 -42.4136 -28.5301
v -22.308 -42.2328 -28.4757
v -23.4256 -42.1757 -28.483
v -23.0848 -41.8753 -28.5231
v -22.0192 -41.9514 -28.4578
v -21.7539 -41.8249 -28.5301
v -22.7224 -41.6096 -28.6219
v -22.407 -41.5113 -28.5051
v -21.316 -41.577 -28.4303
v -21.03 -41.496 -28.5301
v -21.9847 -41.2102 -28.561
v -20.5284 -41.2295 -28.5301
v -21.6676 -40.8981 -28.608
v -21.3741 -40.7895 -28.4837
v -20.2612 -41.0349 -28.5301
v -19.8927 -40.8334 -28.5283
v -20.9151 -40.5003 -28.5601
v -19.558 -40.6927 -28.5301
v -19.2064 -40.6021 -28.5301
v -18.8439 -40.4831 -28.5404
v -20.6128 -40.4267 -28.4712
v -20.226 -40.147 -28.5504
v -18.4598 -40.1668 -28.5883
v -19.9096 -39.7716 -28.7154
v -19.9096 -40.0471 -28.4595
v -19.5987 -39.7343 -28.4941
v -18.1516 -39.9074 -28.5301
v -17.8668 -39.7229 -28.5301
v -19.2451 -39.3826 -28.4909
v -17.4484 -39.5686 -28.5301
v -17.0739 -39.4374 -28.5525
v -18.8696 -39.0574 -28.5167
v -16.6609 -39.1283 -28.5301
v -18.4663 -38.7455 -28.5616
v -16.3936 -38.9028 -28.5301
v -16.1263 -38.6356 -28.5301
v -18.0998 -38.4149 -28.5965
v -15.7011 -38.357 -28.5008
v -17.7428 -38.0809 -28.5301
v -15.2768 -38.0689 -28.5301
v -17.4293 -37.684 -28.5707
v -14.9872 -37.7921 -28.5301
v -14.7185 -37.5843 -28.5301
v -17.1074 -37.3002 -28.5199
v -14.4635 -37.3104 -28.5301
v -16.7112 -36.994 -28.5706
v -14.3973 -36.9588 -28.5301
v -16.3619 -36.6368 -28.5565
v -14.2927 -36.5948 -28.5474
v -16.042 -36.329 -28.6015
v -15.6706 -36.2712 -28.5459
v -14.0843 -36.2556 -28.5301
v -15.6904 -35.904 -28.7514
v -15.3043 -35.935 -28.5603
v -13.9776 -35.84 -28.5301
v -14.9872 -35.63 -28.6186
v -14.6333 -35.5546 -28.5327
v -13.7657 -35.5524 -28.5301
v -14.5637 -35.2008 -28.618
v -13.7179 -35.2008 -28.5301
v -14.284 -34.9869 -28.5301
v -13.9329 -34.8492 -28.4725
v -13.9324 -34.575 -28.5965
v -13.5892 -34.5 -28.5211
v -28.348 -45.0456 -28.2302
v -27.9964 -45.0456 -28.2654
v -27.9964 -44.694 -28.284
v -27.6448 -44.694 -28.2989
v -27.2932 -44.694 -28.3792
v -27.2932 -44.3424 -28.3705
v -26.9416 -44.3424 -28.3774
v -26.59 -43.9908 -28.3615
v -26.2384 -43.9908 -28.3208
v -26.2384 -43.6392 -28.3581
v -25.8868 -43.6392 -28.2641
v -25.5352 -43.6392 -28.3058
v -25.5352 -43.2876 -28.3076
v -25.1836 -43.2876 -28.3062
v -24.832 -42.936 -28.3711
v -24.4804 -42.936 -28.4074
v -23.074 -42.2328 -28.3612
v -22.7224 -42.2328 -28.3422
v -22.7224 -41.8812 -28.3588
v -22.3708 -41.8812 -28.3005
v -22.0192 -41.5296 -28.3044
v -21.6676 -41.5296 -28.2566
v -21.6676 -41.178 -28.3244
v -21.2669 -41.178 -28.1386
v -20.9339 -41.1628 -28.1196
v -20.6128 -41.178 -28.2789
v -20.9644 -40.8264 -28.2157
v -20.6128 -40.8264 -28.1355
v -20.2612 -40.8264 -28.2067
v -20.2612 -40.4748 -28.2781
v -19.9096 -40.4748 -28.2031
v -19.5668 -40.4659 -28.1287
v -19.2064 -40.4905 -28.1144
v -18.9048 -40.4628 -28.194
v -19.5224 -40.1232 -28.154
v -18.4545 -40.153 -28.1004
v -19.207 -39.771 -28.1296
v -18.1516 -39.8564 -28.0689
v -17.7645 -39.7754 -28.145
v -18.8335 -39.4344 -28.1401
v -17.4484 -39.721 -28.1301
v -17.0968 -39.4771 -28.0362
v -16.8205 -39.3672 -28.1301
v -18.5032 -39.1521 -28.1946
v -18.1911 -39.0318 -28.1095
v -16.3923 -39.0696 -28.1287
v -18.1516 -38.7168 -28.3022
v -17.8712 -38.7168 -28.0853
v -16.0371 -38.7214 -28.1191
v -17.759 -38.4214 -28.1751
v -15.6658 -38.3807 -28.0678
v -17.4394 -38.0257 -28.1405
v -15.2776 -38.0668 -28.1301
v -17.0496 -37.7166 -28.1872
v -15.0027 -37.6454 -28.1584
v -16.7063 -37.3532 -28.1736
v -14.6568 -37.2837 -28.1624
v -16.3936 -37.0344 -28.2124
v -16.0221 -36.9737 -28.1442
v -14.4551 -36.9588 -28.1301
v -16.042 -36.6072 -28.3388
v -15.658 -36.638 -28.1572
v -14.3278 -36.544 -28.1301
v -15.3388 -36.3309 -28.2097
v -14.9841 -36.2589 -28.1334
v -14.1184 -36.2556 -28.1301
v -14.9123 -35.904 -28.2178
v -14.069 -35.904 -28.1301
v -14.6356 -35.6984 -28.1301
v -14.3689 -35.5524 -28.0442
v -13.999 -35.5524 -28.1883
v -14.284 -35.2759 -28.1937
v -13.944 -35.2121 -28.1159
v -19.2064 -40.1232 -27.9916
v -18.8548 -40.1232 -27.9689
v -18.8548 -39.7716 -27.9464
v -18.5032 -39.7716 -27.8978
v -18.5032 -39.42 -27.9862
v -18.1516 -39.42 -27.9179
v -17.8 -39.42 -27.8718
v -17.4484 -39.42 -27.9257
v -17.8 -39.0684 -27.8726
v -17.437 -39.0684 -27.7343
v -17.0968 -39.1157 -27.6899
v -16.7056 -39.0968 -27.6974
v -17.4185 -38.7168 -27.7546
v -16.3936 -38.9046 -27.7301
v -16.107 -38.6601 -27.7301
v -17.4484 -38.3652 -27.9842
v -17.127 -38.3301 -27.7054
v -15.7462 -38.3055 -27.7301
v -17.0968 -38.0136 -27.9317
v -16.9264 -38.0136 -27.7301
v -15.3782 -37.9691 -27.7845
v -16.7452 -37.662 -27.9263
v -16.7452 -37.9319 -27.6516
v -16.3731 -37.678 -27.7448
v -15.071 -37.58 -27.7301
v -16.3936 -37.3104 -27.9364
v -16.042 -37.3777 -27.7907
v -15.6693 -37.3276 -27.7444
v -14.8265 -37.3104 -27.7301
v -15.6904 -36.9588 -27.9277
v -15.3213 -36.9776 -27.7427
v -14.6629 -36.9179 -27.7599
v -15.3388 -36.6072 -27.9337
v -14.9541 -36.6286 -27.7477
v -14.5699 -36.6072 -27.6593
v -14.6981 -36.2556 -27.6666
v -14.3609 -36.2556 -27.7911
v -14.6356 -35.9888 -27.7981
v -14.2936 -35.9134 -27.719
v -17.0968 -38.7168 -27.5996
v -16.7452 -38.7168 -27.5248
v -16.3936 -38.7168 -27.5227
v -16.7452 -38.3652 -27.4811
v -16.3943 -38.3636 -27.3181
v -16.042 -38.3652 -27.4966
v -16.3936 -38.0136 -27.4681
v -16.042 -38.0136 -27.4697
v -15.6904 -38.0136 -27.5393
v -16.042 -37.662 -27.5368
v -15.6904 -37.662 -27.5112
v -15.3388 -37.662 -27.5602
v -15.3388 -37.3104 -27.5347
v -14.9872 -37.3104 -27.5237
v -14.9872 -36.9605 -27.3251

f 4 5 6
f 4 7 5
f 4 8 7
f 7 9 10
f 8 9 7
f 10 11 12
f 9 11 10
f 11 13 12
f 6 16 17
f 5 16 6
f 16 5 7
f 16 7 18
f 18 7 10
f 18 10 19
f 19 10 12
f 19 12 20
f 20 12 13
f 20 13 21
f 21 13 14
f 21 14 22
f 14 23 22
f 14 15 23
f 15 24 23
f 17 25 26
f 16 25 17
f 25 16 18
f 25 18 27
f 27 18 19
f 27 19 28
f 28 19 20
f 28 20 29
f 29 20 21
f 29 21 30
f 30 21 22
f 30 22 31
f 31 22 23
f 31 23 32
f 23 33 32
f 23 24 33
f 24 34 33
f 25 35 26
f 35 25 27
f 35 27 36
f 36 27 28
f 36 28 37
f 37 28 29
f 37 29 38
f 38 29 30
f 38 30 39
f 39 30 31
f 39 31 40
f 40 31 32
f 40 32 41
f 41 32 33
f 41 33 42
f 33 43 42
f 34 43 33
f 35 36 44
f 1 36 37
f 1 44 36
f 2 37 38
f 2 1 37
f 3 38 39
f 3 2 38
f 45 39 40
f 3 39 45
f 45 40 41
f 45 41 46
f 46 41 42
f 46 42 47
f 47 42 43
f 47 43 48
f 1 49 44
f 49 1 2
f 49 2 50
f 50 2 3
f 50 3 51
f 3 45 51
f 53 54 52
f 55 52 54
f 59 56 57
f 59 57 60
f 57 61 60
f 57 58 61
f 58 62 61
f 59 64 65
f 64 59 60
f 64 60 66
f 66 60 61
f 66 61 67
f 67 61 62
f 67 62 68
f 62 69 68
f 62 63 69
f 65 70 71
f 64 70 65
f 70 64 66
f 70 66 72
f 72 66 67
f 72 67 73
f 73 67 68
f 73 68 74
f 74 68 69
f 74 69 75
f 71 76 77
f 70 76 71
f 76 70 72
f 76 72 78
f 78 72 73
f 78 73 79
f 79 73 74
f 79 74 80
f 80 74 75
f 80 75 81
f 81 75 82
f 76 83 77
f 83 76 78
f 83 78 84
f 84 78 79
f 84 79 85
f 85 79 80
f 85 80 86
f 86 80 81
f 86 81 87
f 81 88 87
f 82 88 81
f 83 84 89
f 90 84 85
f 90 89 84
f 90 85 86
f 90 86 91
f 87 91 86
f 92 94 93
f 92 95 94
f 95 96 94
f 93 4 97
f 8 93 94
f 4 93 8
f 8 94 96
f 8 96 9
f 96 98 9
f 6 97 4
f 100 97 6
f 11 9 98
f 11 99 13
f 98 99 11
f 13 99 101
f 13 101 14
f 14 101 15
f 100 17 102
f 17 100 6
f 103 15 101
f 15 103 24
f 17 104 102
f 104 17 26
f 105 24 103
f 24 105 34
f 106 26 35
f 106 104 26
f 107 34 105
f 107 43 34
f 106 35 108
f 108 35 44
f 108 44 109
f 44 110 109
f 44 49 110
f 111 49 50
f 111 110 49
f 112 111 50
f 107 48 43
f 113 48 107
f 112 50 51
f 112 51 45
f 112 45 114
f 114 45 46
f 114 46 115
f 47 115 46
f 116 115 47
f 117 47 48
f 117 116 47
f 117 113 118
f 48 113 117
f 113 119 118
f 113 120 119
f 120 121 119
f 116 117 122
f 123 117 118
f 123 122 117
f 123 118 119
f 123 119 124
f 119 125 124
f 119 121 125
f 121 126 125
f 127 123 124
f 127 124 125
f 127 125 128
f 125 129 128
f 125 126 129
f 126 130 129
f 127 128 131
f 132 128 129
f 132 131 128
f 129 133 132
f 129 130 133
f 130 134 133
f 132 133 136
f 134 137 133
f 133 137 136
f 137 138 139
f 134 138 137
f 139 135 140
f 138 135 139
f 135 141 140
f 135 142 141
f 142 143 141
f 145 137 139
f 144 137 145
f 145 139 140
f 145 140 146
f 146 140 141
f 146 141 147
f 141 148 147
f 143 148 141
f 149 145 146
f 149 146 147
f 149 147 150
f 150 147 148
f 150 148 151
f 151 148 152
f 153 149 150
f 153 150 151
f 153 151 154
f 151 155 154
f 151 152 155
f 152 156 155
f 157 153 154
f 157 154 155
f 157 155 158
f 155 159 158
f 155 156 159
f 156 160 159
f 161 157 158
f 161 158 159
f 161 159 162
f 162 159 160
f 162 160 53
f 160 163 53
f 165 161 162
f 53 165 162
f 53 52 165
f 54 53 163
f 164 166 54
f 163 164 54
f 164 167 166
f 165 52 168
f 55 168 52
f 166 55 54
f 166 169 55
f 166 170 169
f 166 167 170
f 167 171 170
f 168 55 173
f 55 169 173
f 169 174 173
f 174 169 170
f 174 170 175
f 175 170 171
f 175 171 176
f 171 177 176
f 171 172 177
f 172 178 177
f 180 174 175
f 179 174 180
f 180 175 176
f 180 176 181
f 181 176 177
f 181 177 182
f 182 177 178
f 182 178 183
f 178 184 183
f 178 185 184
f 185 186 184
f 180 187 179
f 187 180 181
f 187 181 188
f 188 181 182
f 188 182 189
f 189 182 183
f 189 183 190
f 190 183 184
f 190 184 191
f 184 192 191
f 184 186 192
f 186 193 192
f 194 187 188
f 194 188 189
f 194 189 195
f 195 189 190
f 195 190 196
f 196 190 191
f 196 191 197
f 197 191 192
f 197 192 198
f 198 192 193
f 198 193 199
f 193 200 199
f 193 201 200
f 201 202 200
f 205 194 195
f 204 194 205
f 205 195 196
f 205 196 206
f 206 196 197
f 206 197 207
f 207 197 198
f 207 198 208
f 208 198 199
f 208 199 209
f 209 199 200
f 209 200 210
f 210 200 202
f 210 202 211
f 211 202 203
f 211 203 212
f 203 213 212
f 214 204 205
f 215 205 206
f 215 214 205
f 215 206 207
f 215 207 216
f 216 207 208
f 216 208 217
f 217 208 209
f 217 209 218
f 218 209 210
f 218 210 219
f 219 210 211
f 219 211 220
f 220 211 212
f 220 212 221
f 221 212 213
f 221 213 222
f 213 223 222
f 224 215 216
f 224 216 217
f 224 217 225
f 225 217 218
f 225 218 226
f 226 218 219
f 226 219 227
f 227 219 220
f 227 220 228
f 228 220 221
f 228 221 229
f 229 221 222
f 229 222 230
f 230 222 223
f 230 223 231
f 223 232 231
f 233 224 225
f 233 225 226
f 233 226 234
f 234 226 227
f 234 227 235
f 235 227 228
f 235 228 236
f 236 228 229
f 236 229 237
f 237 229 230
f 237 230 238
f 238 230 231
f 238 231 239
f 239 231 232
f 239 232 240
f 232 241 240
f 232 242 241
f 242 243 241
f 245 233 234
f 245 234 235
f 245 235 246
f 246 235 236
f 246 236 247
f 247 236 237
f 247 237 248
f 248 237 238
f 248 238 249
f 249 238 239
f 249 239 250
f 250 239 240
f 250 240 251
f 241 251 240
f 56 251 241
f 57 241 243
f 57 56 241
f 244 58 57
f 243 244 57
f 244 252 58
f 245 246 253
f 254 246 247
f 254 253 246
f 254 247 248
f 254 248 255
f 255 248 249
f 255 249 256
f 256 249 250
f 256 250 257
f 257 250 251
f 257 251 258
f 258 56 59
f 258 251 56
f 62 58 252
f 259 63 62
f 252 259 62
f 260 254 255
f 260 255 256
f 260 256 261
f 261 256 257
f 261 257 262
f 262 257 258
f 262 258 65
f 65 258 59
f 69 259 263
f 69 63 259
f 264 260 261
f 264 261 262
f 264 262 265
f 265 262 65
f 265 65 71
f 69 263 266
f 69 266 75
f 264 265 267
f 77 265 71
f 77 267 265
f 75 266 268
f 75 268 82
f 269 267 77
f 269 77 83
f 268 88 82
f 88 268 270
f 83 271 269
f 89 271 83
f 91 87 272
f 273 87 88
f 273 272 87
f 274 88 270
f 273 88 274
f 275 271 89
f 275 90 276
f 89 90 275
f 277 90 91
f 277 276 90
f 277 272 278
f 91 272 277
f 278 272 273
f 278 273 279
f 280 273 274
f 279 273 280
f 276 277 281
f 282 277 278
f 282 281 277
f 282 278 279
f 282 279 283
f 283 279 280
f 285 92 93
f 284 92 285
f 95 284 286
f 92 284 95
f 286 96 95
f 287 96 286
f 285 93 97
f 285 97 288
f 289 98 96
f 287 289 96
f 289 99 98
f 100 288 97
f 100 290 288
f 99 289 291
f 291 101 99
f 290 100 102
f 290 102 292
f 291 293 101
f 294 103 101
f 293 294 101
f 292 102 104
f 292 104 295
f 105 103 294
f 296 105 294
f 106 295 104
f 106 297 295
f 298 297 106
f 107 296 299
f 105 296 107
f 106 108 298
f 300 108 109
f 300 298 108
f 300 109 110
f 300 110 301
f 301 110 111
f 301 111 302
f 302 111 112
f 303 107 299
f 303 113 107
f 112 304 302
f 304 112 114
f 304 114 305
f 115 305 114
f 306 113 303
f 306 120 113
f 121 306 307
f 120 306 121
f 308 305 115
f 308 116 309
f 308 115 116
f 122 309 116
f 310 121 307
f 310 126 121
f 311 309 122
f 311 123 312
f 122 123 311
f 127 312 123
f 313 130 126
f 310 313 126
f 312 127 314
f 131 314 127
f 315 134 130
f 313 315 130
f 134 316 138
f 315 316 134
f 135 316 317
f 135 138 316
f 318 314 131
f 131 132 319
f 318 131 319
f 136 319 132
f 320 135 317
f 320 142 135
f 143 320 321
f 142 320 143
f 319 136 322
f 137 144 323
f 136 137 323
f 322 136 323
f 321 148 143
f 148 321 324
f 144 145 325
f 323 144 325
f 149 325 145
f 324 152 148
f 326 152 324
f 325 149 327
f 327 149 153
f 328 156 152
f 326 328 152
f 328 329 156
f 153 330 327
f 330 153 157
f 156 329 160
f 331 160 329
f 157 332 330
f 332 157 161
f 160 331 163
f 333 164 163
f 331 333 163
f 161 334 332
f 334 165 335
f 334 161 165
f 336 167 164
f 333 336 164
f 336 337 167
f 335 168 338
f 335 165 168
f 167 337 171
f 339 171 337
f 339 172 171
f 339 340 172
f 338 168 173
f 338 173 341
f 172 340 178
f 342 178 340
f 173 343 341
f 174 343 173
f 343 174 179
f 178 342 185
f 344 186 185
f 342 344 185
f 344 345 186
f 343 179 187
f 343 187 346
f 186 345 193
f 347 193 345
f 346 194 349
f 346 187 194
f 193 347 201
f 202 347 348
f 202 201 347
f 202 350 203
f 348 350 202
f 203 350 351
f 194 352 349
f 352 194 204
f 351 213 203
f 353 213 351
f 204 354 352
f 214 354 204
f 354 214 215
f 213 353 223
f 353 355 223
f 215 356 354
f 356 215 224
f 223 355 232
f 357 242 232
f 355 357 232
f 357 358 242
f 224 359 356
f 359 224 233
f 243 242 358
f 360 244 243
f 358 360 243
f 360 361 244
f 233 362 359
f 245 362 233
f 244 361 252
f 252 361 363
f 362 245 364
f 253 364 245
f 365 364 253
f 254 365 253
f 366 252 363
f 366 259 252
f 365 254 367
f 367 260 368
f 367 254 260
f 259 369 263
f 259 366 369
f 368 264 370
f 368 260 264
f 263 369 371
f 263 371 266
f 267 370 264
f 372 370 267
f 266 371 373
f 266 373 268
f 372 269 374
f 372 267 269
f 270 373 375
f 268 373 270
f 269 376 374
f 271 376 269
f 376 271 377
f 270 375 378
f 270 378 274
f 275 377 271
f 275 379 377
f 276 379 275
f 274 378 380
f 274 380 280
f 381 276 281
f 379 276 381
f 381 282 382
f 381 281 282
f 380 283 280
f 383 283 380
f 283 382 282
f 384 382 283
f 283 383 384
f 284 285 385
f 385 286 284
f 386 285 288
f 386 385 285
f 286 385 387
f 388 287 286
f 387 388 286
f 388 289 287
f 288 389 386
f 290 389 288
f 289 388 390
f 390 291 289
f 391 290 292
f 391 389 290
f 390 392 291
f 393 293 291
f 392 393 291
f 393 294 293
f 391 292 295
f 391 295 394
f 294 393 395
f 294 395 296
f 297 394 295
f 394 297 298
f 394 298 396
f 397 296 395
f 397 299 296
f 398 299 397
f 298 399 396
f 300 399 298
f 399 300 301
f 399 301 400
f 302 400 301
f 302 401 400
f 303 398 402
f 299 398 303
f 401 304 403
f 401 302 304
f 305 403 304
f 305 404 403
f 405 303 402
f 405 306 303
f 307 405 406
f 306 405 307
f 404 308 407
f 404 305 308
f 309 407 308
f 406 310 307
f 408 310 406
f 409 407 309
f 409 311 410
f 409 309 311
f 410 311 312
f 313 408 411
f 310 408 313
f 312 412 410
f 314 412 312
f 314 413 412
f 414 313 411
f 414 315 313
f 315 414 415
f 315 415 316
f 316 415 416
f 316 416 317
f 317 416 417
f 413 318 418
f 413 314 318
f 418 319 419
f 418 318 319
f 417 320 317
f 321 417 420
f 320 417 321
f 419 319 322
f 419 322 421
f 421 322 323
f 324 420 422
f 321 420 324
f 323 423 421
f 423 325 424
f 423 323 325
f 422 326 324
f 326 422 425
f 424 325 327
f 424 327 426
f 425 328 326
f 427 328 425
f 427 329 328
f 327 428 426
f 330 428 327
f 428 330 429
f 329 430 331
f 329 427 430
f 331 430 431
f 332 429 330
f 429 332 432
f 431 333 331
f 433 333 431
f 334 432 332
f 334 434 432
f 335 434 334
f 333 433 336
f 435 337 336
f 433 435 336
f 435 436 337
f 338 437 434
f 335 338 434
f 438 437 338
f 339 337 436
f 439 340 339
f 436 439 339
f 439 440 340
f 438 338 341
f 341 441 438
f 340 440 342
f 442 342 440
f 441 341 343
f 343 443 441
f 342 442 344
f 444 345 344
f 442 444 344
f 444 445 345
f 346 443 343
f 446 443 346
f 345 445 347
f 347 445 448
f 347 448 348
f 449 348 448
f 346 349 446
f 450 446 349
f 447 446 450
f 451 447 450
f 348 449 350
f 452 351 350
f 449 452 350
f 349 453 450
f 349 352 453
f 450 453 454
f 450 454 451
f 455 451 454
f 351 456 353
f 351 452 456
f 353 456 457
f 453 352 354
f 453 458 454
f 453 354 458
f 454 458 459
f 454 459 455
f 460 455 459
f 457 355 353
f 461 355 457
f 458 354 356
f 458 462 459
f 458 356 462
f 459 462 463
f 459 463 460
f 464 460 463
f 355 461 357
f 357 466 358
f 461 466 357
f 467 358 466
f 360 358 467
f 462 356 359
f 462 468 463
f 462 359 468
f 463 468 469
f 463 469 464
f 470 464 469
f 465 464 470
f 361 467 471
f 361 360 467
f 362 468 359
f 468 362 364
f 468 364 469
f 469 364 472
f 469 472 470
f 470 472 473
f 363 471 474
f 361 471 363
f 364 365 472
f 475 472 365
f 473 472 475
f 363 474 476
f 363 476 366
f 365 367 475
f 368 477 475
f 367 368 475
f 369 476 478
f 366 476 369
f 370 479 477
f 368 370 477
f 369 478 480
f 369 480 371
f 372 481 479
f 370 372 479
f 482 481 372
f 371 480 483
f 371 483 373
f 372 374 482
f 374 484 482
f 486 373 483
f 486 375 373
f 484 374 376
f 484 377 485
f 376 377 484
f 487 485 377
f 375 488 378
f 375 486 488
f 377 379 487
f 379 489 487
f 378 488 490
f 378 490 380
f 489 379 381
f 382 491 489
f 381 382 489
f 492 380 490
f 383 380 492
f 384 493 491
f 382 384 491
f 383 492 493
f 384 383 493
f 385 386 494
f 385 495 387
f 494 495 385
f 495 388 387
f 496 386 389
f 496 494 386
f 497 388 495
f 497 390 388
f 498 389 391
f 389 498 496
f 390 497 499
f 500 392 390
f 499 500 390
f 500 393 392
f 394 498 391
f 394 501 498
f 393 500 502
f 502 395 393
f 503 394 396
f 503 501 394
f 503 396 504
f 502 505 395
f 397 505 506
f 395 505 397
f 397 506 398
f 399 504 396
f 504 399 400
f 504 400 507
f 507 401 508
f 507 400 401
f 509 398 506
f 509 402 398
f 510 402 509
f 508 401 403
f 508 403 511
f 511 403 404
f 405 510 512
f 402 510 405
f 405 512 406
f 404 513 511
f 513 404 407
f 513 407 514
f 515 406 512
f 406 515 408
f 407 516 514
f 409 516 407
f 410 516 409
f 410 517 516
f 518 408 515
f 518 411 408
f 518 519 411
f 517 412 520
f 517 410 412
f 520 413 521
f 520 412 413
f 414 519 522
f 411 519 414
f 414 522 523
f 414 523 415
f 415 523 524
f 415 524 416
f 525 416 524
f 525 417 416
f 521 413 418
f 521 418 526
f 526 419 527
f 526 418 419
f 420 525 528
f 420 417 525
f 527 419 421
f 527 421 529
f 529 421 530
f 422 528 531
f 420 528 422
f 423 530 421
f 423 532 530
f 424 532 423
f 533 422 531
f 533 425 422
f 534 424 426
f 532 424 534
f 426 535 534
f 425 536 427
f 425 533 536
f 537 427 536
f 535 426 428
f 429 538 535
f 428 429 535
f 427 537 430
f 539 431 430
f 537 539 430
f 539 540 431
f 432 541 538
f 429 432 538
f 542 541 432
f 431 540 433
f 543 433 540
f 542 432 434
f 434 544 542
f 433 543 435
f 435 546 436
f 543 546 435
f 547 436 546
f 544 434 437
f 544 438 545
f 437 438 544
f 548 545 438
f 436 547 439
f 549 440 439
f 547 549 439
f 549 550 440
f 438 441 548
f 441 551 548
f 440 550 442
f 553 442 550
f 551 441 443
f 443 554 552
f 551 443 552
f 555 552 554
f 442 553 444
f 556 445 444
f 553 556 444
f 556 557 445
f 554 443 446
f 554 447 555
f 446 447 554
f 559 555 447
f 448 445 557
f 448 558 449
f 557 558 448
f 560 449 558
f 447 451 559
f 451 561 559
f 449 560 452
f 560 563 452
f 561 451 455
f 455 564 562
f 561 455 562
f 565 562 564
f 452 563 456
f 566 457 456
f 563 566 456
f 566 567 457
f 564 455 460
f 460 568 565
f 564 460 565
f 569 565 568
f 461 457 567
f 570 466 461
f 567 570 461
f 570 571 466
f 568 460 464
f 568 465 569
f 464 465 568
f 572 569 465
f 466 571 467
f 467 571 573
f 470 574 572
f 465 470 572
f 467 573 575
f 467 575 471
f 473 574 470
f 574 473 576
f 474 575 577
f 471 575 474
f 475 578 576
f 473 475 576
f 474 577 579
f 474 579 476
f 578 475 477
f 580 581 578
f 477 580 578
f 582 581 580
f 583 476 579
f 583 478 476
f 580 477 479
f 580 481 582
f 580 479 481
f 584 582 481
f 478 586 480
f 478 583 586
f 481 482 584
f 584 587 585
f 584 482 587
f 588 585 587
f 480 586 589
f 480 589 483
f 587 482 484
f 587 485 588
f 484 485 587
f 485 590 588
f 483 589 592
f 483 592 486
f 590 485 487
f 487 593 591
f 590 487 591
f 488 592 594
f 486 592 488
f 593 487 489
f 489 595 593
f 488 594 596
f 488 596 490
f 595 489 491
f 597 596 595
f 491 597 595
f 596 492 490
f 596 597 492
f 597 491 493
f 493 492 597
f 598 494 496
f 598 495 494
f 598 599 495
f 599 497 495
f 498 598 496
f 498 600 598
f 497 599 601
f 601 499 497
f 601 602 499
f 602 500 499
f 501 600 498
f 600 501 603
f 604 500 602
f 604 502 500
f 503 603 501
f 503 605 603
f 504 605 503
f 606 605 504
f 502 604 607
f 608 505 502
f 607 608 502
f 608 506 505
f 606 504 507
f 507 609 606
f 508 609 507
f 506 608 610
f 611 509 506
f 610 611 506
f 611 510 509
f 612 508 511
f 612 609 508
f 511 613 612
f 510 611 614
f 614 512 510
f 613 511 513
f 615 513 514
f 615 613 513
f 615 514 616
f 614 617 512
f 618 515 512
f 617 618 512
f 516 616 514
f 516 619 616
f 517 619 516
f 620 619 517
f 518 515 618
f 621 518 618
f 621 519 518
f 620 517 520
f 520 622 620
f 521 622 520
f 623 622 521
f 519 624 625
f 519 621 624
f 625 522 519
f 625 626 522
f 522 627 523
f 522 626 627
f 523 627 628
f 523 628 524
f 628 525 524
f 521 526 623
f 527 624 623
f 526 527 623
f 625 527 629
f 625 624 527
f 628 630 525
f 525 631 528
f 525 630 631
f 527 529 629
f 530 632 629
f 529 530 629
f 633 632 530
f 634 528 631
f 531 634 635
f 528 634 531
f 633 530 532
f 532 636 633
f 531 635 638
f 531 638 533
f 533 638 639
f 636 532 534
f 637 534 535
f 637 636 534
f 535 640 637
f 639 536 533
f 536 639 641
f 536 641 537
f 640 535 538
f 538 642 640
f 644 537 641
f 644 539 537
f 645 539 644
f 645 540 539
f 642 538 541
f 642 542 643
f 541 542 642
f 646 643 542
f 540 647 543
f 645 647 540
f 648 543 647
f 546 543 648
f 648 649 546
f 542 544 646
f 545 650 646
f 544 545 646
f 651 650 545
f 547 546 649
f 649 652 547
f 545 548 651
f 653 654 651
f 548 653 651
f 655 654 653
f 547 652 549
f 656 550 549
f 652 656 549
f 656 657 550
f 653 548 551
f 653 552 655
f 551 552 653
f 658 655 552
f 550 657 553
f 659 553 657
f 556 553 659
f 659 660 556
f 552 555 658
f 661 658 555
f 557 556 660
f 662 558 557
f 660 662 557
f 661 555 559
f 559 663 661
f 558 664 560
f 558 662 664
f 560 664 665
f 663 559 561
f 562 666 663
f 561 562 663
f 665 563 560
f 563 665 667
f 565 668 666
f 562 565 666
f 667 566 563
f 566 667 669
f 566 669 567
f 569 670 668
f 565 569 668
f 671 567 669
f 671 570 567
f 571 671 672
f 570 671 571
f 670 572 673
f 670 569 572
f 573 672 674
f 571 672 573
f 574 673 572
f 574 675 673
f 573 674 676
f 573 676 575
f 576 675 574
f 677 675 576
f 678 575 676
f 678 577 575
f 576 581 677
f 576 578 581
f 679 677 581
f 577 681 579
f 577 678 681
f 581 582 679
f 679 682 680
f 679 582 682
f 683 680 682
f 579 681 684
f 579 684 583
f 682 582 584
f 682 585 683
f 584 585 682
f 585 685 683
f 586 684 687
f 583 684 586
f 685 585 588
f 685 688 686
f 685 588 688
f 586 687 689
f 586 689 589
f 688 588 590
f 591 690 688
f 590 591 688
f 691 690 591
f 589 689 691
f 589 691 592
f 593 692 691
f 591 593 691
f 693 592 691
f 592 693 594
f 692 593 595
f 595 596 693
f 692 595 693
f 693 596 594
f 598 600 694
f 695 598 694
f 695 599 598
f 695 601 599
f 600 603 694
f 694 603 696
f 694 696 695
f 695 696 697
f 695 697 601
f 698 601 697
f 602 601 698
f 698 604 602
f 603 605 696
f 696 606 697
f 605 606 696
f 697 606 699
f 697 699 698
f 700 698 699
f 700 604 698
f 700 607 604
f 606 609 699
f 699 612 700
f 699 609 612
f 700 612 701
f 700 701 607
f 702 607 701
f 702 608 607
f 702 610 608
f 612 613 701
f 701 703 702
f 701 613 703
f 702 703 704
f 702 704 610
f 705 610 704
f 705 611 610
f 705 614 611
f 703 613 615
f 703 616 704
f 615 616 703
f 704 616 706
f 704 706 705
f 705 706 707
f 705 707 614
f 617 614 707
f 616 619 706
f 706 620 707
f 619 620 706
f 707 620 708
f 707 708 617
f 709 617 708
f 618 617 709
f 709 621 618
f 620 622 708
f 708 623 709
f 622 623 708
f 621 709 624
f 623 624 709
f 626 625 632
f 629 632 625
f 627 632 710
f 627 626 632
f 627 710 711
f 627 711 628
f 631 628 711
f 630 628 631
f 632 633 710
f 710 633 712
f 710 712 711
f 711 712 713
f 711 713 631
f 634 631 713
f 633 636 712
f 712 637 713
f 636 637 712
f 713 637 714
f 713 714 634
f 715 634 714
f 715 635 634
f 715 638 635
f 637 640 714
f 714 716 715
f 714 640 716
f 715 716 717
f 715 717 638
f 639 717 718
f 639 638 717
f 718 641 639
f 718 719 641
f 716 640 642
f 716 643 717
f 642 643 716
f 720 717 643
f 718 717 720
f 719 720 721
f 718 720 719
f 722 719 721
f 722 641 719
f 644 641 722
f 722 645 644
f 643 646 720
f 720 650 721
f 720 646 650
f 721 650 723
f 721 723 722
f 722 723 724
f 722 724 645
f 645 725 647
f 645 724 725
f 647 725 726
f 647 726 648
f 726 649 648
f 726 727 649
f 650 651 723
f 723 654 724
f 723 651 654
f 728 724 654
f 725 724 728
f 652 727 729
f 649 727 652
f 654 655 728
f 728 655 730
f 731 652 729
f 731 656 652
f 732 656 731
f 732 657 656
f 655 658 730
f 733 730 658
f 657 734 659
f 732 734 657
f 659 734 735
f 659 735 660
f 660 735 736
f 658 661 733
f 737 733 661
f 736 662 660
f 739 662 736
f 661 663 737
f 663 740 738
f 737 663 738
f 741 738 740
f 662 739 664
f 742 665 664
f 739 742 664
f 740 663 666
f 666 743 741
f 740 666 741
f 744 667 665
f 742 744 665
f 743 666 668
f 668 745 743
f 667 746 669
f 667 744 746
f 745 668 670
f 670 747 745
f 748 669 746
f 748 671 669
f 748 672 671
f 673 747 670
f 749 747 673
f 750 672 748
f 750 674 672
f 673 675 749
f 675 751 749
f 674 753 676
f 674 750 753
f 751 675 677
f 751 754 752
f 751 677 754
f 755 752 754
f 676 753 756
f 676 756 678
f 754 677 679
f 754 680 755
f 679 680 754
f 680 757 755
f 681 756 759
f 678 756 681
f 757 680 683
f 757 760 758
f 757 683 760
f 681 759 761
f 681 761 684
f 760 683 685
f 762 685 686
f 762 760 685
f 762 686 763
f 764 684 761
f 764 687 684
f 688 763 686
f 688 765 763
f 687 766 689
f 764 766 687
f 765 688 690
f 765 691 766
f 690 691 765
f 766 691 689
f 693 691 692
f 725 767 726
f 725 728 767
f 768 726 767
f 768 727 726
f 768 729 727
f 730 767 728
f 767 730 769
f 767 769 768
f 768 769 770
f 768 770 729
f 731 729 770
f 730 733 769
f 769 771 770
f 769 733 771
f 770 771 772
f 770 772 731
f 731 772 773
f 731 773 732
f 774 732 773
f 734 732 774
f 774 735 734
f 771 733 737
f 771 738 772
f 737 738 771
f 772 738 775
f 772 775 773
f 773 775 776
f 773 776 774
f 776 735 774
f 776 777 735
f 736 777 778
f 736 735 777
f 778 739 736
f 738 741 775
f 775 741 779
f 775 779 776
f 778 780 739
f 780 742 739
f 781 742 780
f 741 782 779
f 741 743 782
f 779 782 783
f 781 744 742
f 784 744 781
f 782 743 745
f 745 785 783
f 782 745 783
f 786 783 785
f 787 746 744
f 784 787 744
f 785 745 747
f 788 789 786
f 747 788 786
f 785 747 786
f 790 789 788
f 746 791 748
f 746 787 791
f 788 747 749
f 788 792 790
f 788 749 792
f 793 790 792
f 750 791 795
f 748 791 750
f 792 749 751
f 792 752 793
f 751 752 792
f 793 796 794
f 793 752 796
f 797 794 796
f 798 750 795
f 798 753 750
f 796 752 755
f 796 799 797
f 796 755 799
f 800 797 799
f 753 801 756
f 753 798 801
f 799 755 757
f 799 758 800
f 757 758 799
f 800 758 802
f 803 756 801
f 803 759 756
f 760 802 758
f 760 804 802
f 759 805 761
f 803 805 759
f 804 760 762
f 804 763 805
f 762 763 804
f 805 764 761
f 805 763 764
f 764 763 766
f 766 763 765
f 779 777 776
f 806 777 779
f 777 806 807
f 777 807 778
f 808 778 807
f 780 778 808
f 808 781 780
f 783 806 779
f 806 783 809
f 806 809 807
f 809 808 807
f 810 808 809
f 811 781 808
f 810 811 808
f 811 784 781
f 783 789 809
f 783 786 789
f 812 809 789
f 810 809 812
f 811 812 813
f 810 812 811
f 814 811 813
f 814 784 811
f 814 787 784
f 789 790 812
f 812 815 813
f 812 790 815
f 813 815 816
f 813 816 814
f 817 814 816
f 817 787 814
f 817 791 787
f 815 790 793
f 815 794 816
f 793 794 815
f 816 818 817
f 816 794 818
f 819 817 818
f 819 791 817
f 819 795 791
f 818 794 797
f 819 818 820
f 818 797 820
f 795 820 798
f 819 820 795
f 800 820 797
f 800 801 820
f 798 820 801
f 802 801 800
f 801 802 803
f 803 802 805
f 805 802 804
