# 3ds Max Wavefront OBJ Exporter v0.97b - (c)2007 guruware
# 作成したファイル : 18.04.2018 18:48:05

mtllib VIII.mtl

#
# object default
#

v  -32.9274 16.9435 -570.8580
v  -32.5322 16.6228 -570.5480
v  -33.1069 16.4282 -570.6420
v  -33.5464 16.8324 -570.7430
v  -33.1506 17.4215 -570.6970
v  -32.5091 17.2755 -570.5370
v  -33.6651 17.3546 -570.4620
v  -32.8306 16.3211 -570.1030
v  -33.1451 16.4178 -569.6050
v  -33.4689 16.3611 -570.2110
v  -32.1955 16.4612 -570.0660
v  -33.8395 16.8403 -570.1810
v  -32.0335 16.9258 -570.4660
v  -31.6186 16.7341 -570.0660
v  -33.7142 17.3893 -569.8780
v  -31.9659 17.5818 -570.4700
v  -31.5296 17.2189 -570.4210
v  -31.0700 17.0616 -570.1850
v  -33.2752 17.7278 -570.1300
v  -32.7752 17.7475 -570.3680
v  -32.2951 17.9872 -570.2790
v  -31.3216 17.7534 -570.4660
v  -31.6777 18.1576 -570.3010
v  -30.8087 17.5885 -570.3250
v  -30.6462 17.2417 -569.8220
v  -30.4636 17.8516 -569.9470
v  -32.0871 18.2547 -569.8290
v  -31.4547 18.5179 -569.8990
v  -30.9627 18.2204 -570.1920
v  -30.3416 18.3996 -569.9180
v  -33.6731 16.4940 -569.6680
v  -32.5317 16.4413 -569.5640
v  -31.8881 16.6234 -569.5500
v  -31.2435 16.8844 -569.6210
v  -30.7796 17.2465 -569.2780
v  -33.2737 17.6951 -569.5510
v  -30.2689 17.6250 -569.4450
v  -32.7347 17.9932 -569.8000
v  -32.8693 17.7846 -569.2010
v  -29.8489 18.0025 -569.7400
v  -29.9058 17.8732 -569.0060
v  -32.3759 18.1149 -569.3040
v  -31.7974 18.4374 -569.3650
v  -29.2794 18.3889 -569.7290
v  -29.4460 18.0697 -569.2880
v  -29.7686 18.6601 -569.8640
v  -31.2499 18.7262 -569.3550
v  -30.8437 18.7051 -569.7840
v  -30.2776 18.9978 -569.7780
v  -29.6663 19.2832 -569.8030
v  -29.1642 19.0136 -569.8660
v  -30.0589 19.3532 -569.3570
v  -29.4446 19.6834 -569.4000
v  -28.9916 19.5850 -569.7740
v  -28.7522 18.6685 -569.7170
v  -28.4724 19.2390 -569.8610
v  -28.3518 18.7369 -569.3710
v  -27.9489 19.0590 -569.5450
v  -27.8852 19.6149 -569.6460
v  -27.4538 19.2683 -569.2870
v  -33.9373 16.9382 -569.5640
v  -33.5139 16.7333 -569.0810
v  -32.9592 16.7094 -569.1210
v  -32.3637 16.7374 -569.0980
v  -31.7750 16.8390 -569.0460
v  -31.2718 17.0399 -569.0890
v  -33.6317 17.3020 -569.2870
v  -30.5049 17.6102 -568.8990
v  -31.0537 17.4533 -568.7110
v  -29.3526 18.2373 -568.7290
v  -28.9183 18.3926 -569.1590
v  -30.6490 19.0628 -569.2690
v  -28.5014 18.6637 -568.8360
v  -31.0110 18.8661 -568.8510
v  -27.9296 18.9422 -568.9040
v  -30.2966 19.2876 -568.7970
v  -29.7632 19.5985 -568.9140
v  -29.2666 19.9609 -568.8530
v  -26.9229 19.4810 -568.9270
v  -27.4299 19.2053 -568.7080
v  -27.2922 19.8112 -569.4470
v  -28.8861 20.0203 -569.3100
v  -28.4097 19.8598 -569.6310
v  -28.3174 20.3874 -569.2710
v  -27.7988 20.2049 -569.4920
v  -26.7062 19.9327 -569.3960
v  -26.3603 19.7494 -568.8400
v  -27.7150 20.7637 -569.1800
v  -28.1061 20.6346 -568.7430
v  -27.2045 20.4497 -569.4700
v  -26.1107 20.1197 -569.3280
v  -25.7905 20.0668 -568.7720
v  -25.4626 20.3448 -569.2430
v  -26.1834 20.0047 -568.2580
v  -25.6970 20.3494 -568.2020
v  -26.6200 20.5812 -569.4910
v  -26.0040 20.7023 -569.4820
v  -25.3871 20.9499 -569.4400
v  -25.2617 20.4471 -568.5840
v  -24.8920 20.6681 -569.0250
v  -24.8362 20.8145 -568.2920
v  -27.1705 21.0396 -569.1630
v  -26.6074 21.1810 -569.3470
v  -25.9705 21.2954 -569.4640
v  -24.8179 21.1968 -569.3880
v  -26.8759 21.2606 -568.6390
v  -26.2908 21.5769 -569.0520
v  -25.4837 21.6156 -569.4160
v  -25.8463 21.9547 -568.8730
v  -24.2653 21.4763 -569.2140
v  -24.4050 21.0265 -568.7750
v  -23.8981 21.4804 -568.6190
v  -24.8559 21.8202 -569.4230
v  -25.3064 22.1291 -569.1200
v  -24.8192 22.4714 -569.0490
v  -24.3370 22.1155 -569.3390
v  -23.7652 21.8824 -569.0980
v  -23.3254 21.9394 -568.3900
v  -24.0358 22.5997 -569.2140
v  -23.3294 22.2056 -569.0290
v  -17.2057 27.4228 -568.8550
v  -17.2781 28.0419 -569.1810
v  -16.7109 27.8451 -569.0570
v  -16.2901 28.2521 -569.1080
v  -16.9471 28.5855 -569.2020
v  -16.0565 27.8390 -568.6940
v  -16.2999 28.8027 -569.2230
v  -15.7195 28.5940 -568.9350
v  -16.6866 29.2309 -569.0710
v  -15.9277 29.2604 -569.2300
v  -15.3288 29.2310 -568.9820
v  -15.6201 29.8444 -569.2210
v  -32.8119 17.1286 -568.7700
v  -33.2221 17.3378 -568.9490
v  -32.2092 17.1306 -568.6930
v  -31.5969 17.2932 -568.6560
v  -32.5302 17.6891 -568.7880
v  -31.9967 18.1248 -568.8670
v  -29.8733 18.1936 -568.4360
v  -29.5088 18.4995 -568.1630
v  -31.5226 18.4773 -568.8210
v  -28.9218 18.5908 -568.4460
v  -28.2989 18.9296 -568.3750
v  -27.8380 19.2141 -568.2340
v  -27.2552 19.4722 -568.2160
v  -26.7319 19.6855 -568.2890
v  -29.7345 19.5930 -568.3760
v  -28.6950 20.3188 -568.7960
v  -25.3365 20.7169 -567.8520
v  -28.6926 20.3128 -568.2550
v  -27.5154 20.9219 -568.5280
v  -28.1196 20.5749 -568.2060
v  -24.3354 21.2030 -568.1150
v  -26.6637 21.3045 -568.0070
v  -27.2036 21.0017 -567.9760
v  -26.3045 21.6097 -568.4840
v  -23.8167 21.6412 -568.0200
v  -25.4355 22.4255 -568.5930
v  -23.6964 22.0028 -567.5380
v  -25.0104 22.7875 -568.3970
v  -22.8439 22.4058 -568.7460
v  -22.7687 22.4690 -568.1550
v  -24.4789 22.8511 -568.7610
v  -23.9564 23.0265 -568.5780
v  -23.4988 22.7907 -568.9560
v  -22.9755 23.0136 -568.7790
v  -22.4084 22.9658 -568.6220
v  -20.0377 25.1991 -568.5640
v  -20.5013 25.5873 -568.7180
v  -20.0655 25.9935 -568.7470
v  -19.5521 26.3467 -568.7870
v  -19.5055 25.6109 -568.6730
v  -20.0483 27.0469 -567.8300
v  -19.5975 26.9876 -568.4720
v  -20.0838 26.5819 -568.3290
v  -18.9426 25.9682 -568.6010
v  -18.9873 26.6027 -568.8630
v  -18.4524 26.3538 -568.3870
v  -18.5616 25.8559 -567.9350
v  -18.9897 27.2401 -568.7980
v  -19.3400 27.5567 -568.3620
v  -18.3760 26.8717 -568.7830
v  -18.3856 27.5356 -568.9050
v  -18.8033 27.8968 -568.5300
v  -17.7754 27.1449 -568.7720
v  -17.1965 26.9828 -568.3120
v  -17.8555 26.6924 -568.2990
v  -18.2486 28.2485 -568.7700
v  -18.5725 28.4644 -568.2560
v  -17.8111 27.7894 -569.0120
v  -16.5863 27.4137 -568.5940
v  -17.6514 28.5043 -568.9160
v  -17.9772 28.8748 -568.4490
v  -18.4005 28.9716 -567.8540
v  -17.3254 29.0573 -568.8510
v  -15.5320 28.1258 -568.4760
v  -16.9766 29.6921 -568.7820
v  -16.3154 29.7941 -569.0810
v  -14.8101 30.1147 -568.3320
v  -14.8579 29.7996 -567.7750
v  -14.9624 29.4428 -568.4320
v  -16.5985 30.2567 -568.6910
v  -15.3373 30.4920 -569.1480
v  -15.9596 30.3718 -568.9810
v  -15.0360 29.8952 -568.9290
v  -15.0799 31.1775 -569.0650
v  -14.7846 30.5754 -568.8580
v  -15.6512 31.0210 -568.8470
v  -14.6557 31.2905 -568.6240
v  -15.8666 31.3406 -568.3200
v  -16.2034 30.7786 -568.5470
v  -15.3489 31.6546 -568.5610
v  -14.5604 30.7302 -568.2910
v  -31.9939 17.6602 -568.5900
v  -31.4868 17.9309 -568.4530
v  -30.8853 17.8984 -568.4070
v  -30.3228 17.9553 -568.5230
v  -31.1144 18.4606 -568.4020
v  -30.5543 18.3807 -568.2050
v  -30.6247 18.9126 -568.4430
v  -30.1662 19.2126 -568.2200
v  -27.7078 19.6172 -567.7620
v  -27.1313 19.8686 -567.7060
v  -29.2376 20.0234 -568.3250
v  -26.5380 20.0822 -567.7890
v  -25.9843 20.4466 -567.6800
v  -27.7316 20.7164 -567.8230
v  -24.8352 21.1113 -567.6220
v  -26.1792 21.7030 -567.9120
v  -24.2932 21.5559 -567.5440
v  -25.8408 22.0783 -568.2020
v  -23.2145 22.2415 -567.7770
v  -25.5300 22.5218 -567.9120
v  -24.4606 23.0668 -568.1060
v  -22.3483 22.9527 -567.9240
v  -25.0007 22.9150 -567.7700
v  -23.8652 23.2773 -567.9410
v  -23.3976 23.2362 -568.3970
v  -23.2558 23.6203 -567.9080
v  -22.7867 23.5234 -568.4230
v  -22.0354 23.2986 -568.3640
v  -22.2948 23.8727 -568.3700
v  -21.5964 23.6812 -568.2800
v  -21.8057 24.2136 -568.3500
v  -22.1881 24.3512 -567.8920
v  -22.7414 24.0002 -567.8900
v  -21.1975 24.0589 -568.2870
v  -21.6341 24.7098 -568.1730
v  -20.9289 24.4630 -568.4780
v  -21.2929 25.1448 -568.3290
v  -20.7413 24.3812 -567.7490
v  -21.3544 25.6814 -567.8630
v  -21.6537 25.2192 -567.7190
v  -20.7643 25.0782 -568.6240
v  -20.4042 24.6939 -568.2900
v  -20.1423 24.8778 -567.8380
v  -20.9601 25.7125 -568.3050
v  -19.6276 25.1971 -568.0790
v  -20.5517 26.1686 -568.2530
v  -19.0519 25.4960 -568.1270
v  -18.0303 26.2104 -567.8280
v  -19.6528 27.5417 -567.8280
v  -17.4105 26.4845 -567.8300
v  -16.5293 27.0730 -568.1260
v  -19.1518 28.0326 -567.9320
v  -15.9344 27.4199 -568.1670
v  -15.2307 28.7842 -568.4810
v  -15.2283 28.4598 -567.9110
v  -15.4478 27.8064 -567.9270
v  -17.5257 29.4753 -568.4200
v  -14.9733 29.1166 -567.8760
v  -17.9784 29.3868 -567.9750
v  -17.6397 29.8914 -567.8780
v  -17.7423 30.0725 -567.2940
v  -18.2196 29.5654 -567.3920
v  -17.1489 30.0769 -568.3000
v  -16.7459 30.6021 -568.1210
v  -14.6185 30.4374 -567.6980
v  -16.3025 31.0317 -567.9610
v  -14.5055 31.1188 -567.8120
v  -15.7525 31.6594 -567.8060
v  -16.1753 31.2886 -567.4560
v  -14.6226 31.7016 -568.1900
v  -15.2327 32.0158 -568.0670
v  -14.7181 32.0546 -567.6420
v  -30.0967 18.6390 -568.0270
v  -29.7081 19.0952 -567.8690
v  -29.1865 18.8492 -567.9380
v  -28.6633 19.0196 -567.9850
v  -29.0559 19.3163 -567.6350
v  -29.4640 19.6367 -567.8760
v  -28.2826 19.3962 -567.7590
v  -28.4929 20.3294 -567.7280
v  -29.0141 20.0082 -567.7790
v  -26.6880 20.3289 -567.2820
v  -25.5127 20.8930 -567.2440
v  -23.3404 22.5552 -567.1340
v  -22.8208 22.7538 -567.5040
v  -25.4676 22.5606 -567.2970
v  -22.3469 23.2775 -567.3280
v  -22.8312 23.1078 -566.9260
v  -23.6597 23.5441 -567.3910
v  -21.8524 23.4870 -567.7480
v  -21.3107 23.9980 -567.6170
v  -22.0093 24.7867 -567.4940
v  -20.9229 24.4633 -567.0410
v  -22.5470 24.3763 -567.3430
v  -20.3961 24.7920 -567.2630
v  -19.8154 25.1324 -567.3490
v  -19.2550 25.2206 -567.5360
v  -20.9717 26.1624 -567.6750
v  -20.5163 26.5872 -567.6920
v  -18.7080 25.4031 -567.4450
v  -17.6214 26.0465 -567.3030
v  -18.1712 25.7418 -567.3020
v  -16.8335 26.7630 -567.6860
v  -16.2531 27.1236 -567.5460
v  -15.7803 27.5566 -567.4370
v  -19.4743 27.9988 -567.3050
v  -18.8590 28.5139 -567.6750
v  -15.3235 28.1348 -567.3330
v  -15.1463 28.8360 -567.3240
v  -14.7614 30.1951 -567.0910
v  -14.9035 29.5089 -567.2330
v  -17.2313 30.4176 -567.7260
v  -16.7096 30.8269 -567.4250
v  -14.5499 30.7941 -567.0770
v  -14.5342 31.4828 -567.3390
v  -28.6808 19.7378 -567.4270
v  -28.1192 19.9444 -567.3170
v  -27.7576 20.0281 -567.3110
v  -28.1192 20.3221 -567.4060
v  -27.8107 20.3549 -567.2430
v  -27.3959 20.2289 -567.1700
v  -27.0343 20.2710 -567.1900
v  -27.4011 20.7023 -567.2680
v  -26.1304 20.6327 -567.1590
v  -26.8824 21.1136 -567.4100
v  -26.3665 21.5225 -567.4000
v  -25.9029 21.9999 -567.4330
v  -24.0329 22.0747 -567.0530
v  -24.8971 22.9056 -567.2060
v  -24.3199 23.1773 -567.4470
v  -21.8744 23.7635 -567.1950
v  -22.2863 23.6832 -566.7270
v  -21.4746 24.1496 -566.9880
v  -22.1605 24.7016 -566.8750
v  -21.6826 25.2501 -567.0680
v  -21.3424 25.8077 -567.2400
v  -19.2336 25.2878 -566.8510
v  -17.1269 26.4919 -567.1820
v  -20.3675 26.8984 -567.1470
v  -16.6856 26.9611 -567.0060
v  -19.9512 27.4575 -567.2260
v  -16.2517 27.4319 -566.9230
v  -15.7431 27.9365 -566.8710
v  -16.2317 27.8393 -566.4280
v  -17.3750 30.0383 -566.6330
v  -17.2422 30.4441 -567.1140
v  -15.7479 31.5315 -567.0680
v  -15.3874 32.0180 -567.3970
v  -14.9872 31.8051 -566.9820
v  -27.0343 20.6998 -566.8930
v  -26.6547 20.6951 -566.7860
v  -26.6658 21.0386 -566.7970
v  -26.3111 21.3755 -566.8830
v  -25.9494 20.9881 -566.7110
v  -25.0612 21.2882 -567.0440
v  -24.5675 21.6918 -567.0190
v  -26.0062 21.4906 -566.7650
v  -25.5933 22.0521 -566.8990
v  -25.0527 22.4876 -566.7510
v  -23.7797 22.5083 -566.6920
v  -23.9289 23.3221 -566.8880
v  -24.4700 22.9385 -566.8000
v  -23.3944 23.7155 -566.7600
v  -23.1165 23.9576 -567.3290
v  -21.1566 25.7497 -566.6590
v  -19.9071 25.2218 -566.7540
v  -18.5974 25.5501 -566.8060
v  -19.0470 25.6607 -566.2660
v  -17.9411 25.8546 -566.6080
v  -20.8204 26.3122 -566.9880
v  -17.4584 26.2276 -566.7070
v  -20.3448 26.5762 -566.5360
v  -17.1423 26.7856 -566.5340
v  -20.0115 27.1812 -566.5950
v  -16.7606 27.3214 -566.3730
v  -19.6131 27.7504 -566.6610
v  -19.1904 28.2408 -566.5870
v  -19.0782 28.4925 -567.1300
v  -15.3646 28.5542 -566.7790
v  -18.6860 29.0611 -567.2630
v  -14.8688 29.8807 -566.5880
v  -15.0734 29.1884 -566.7170
v  -17.9617 29.8058 -566.7620
v  -16.7532 30.5740 -566.7870
v  -16.2378 31.0326 -566.8640
v  -14.6992 31.2550 -566.6780
v  -15.3621 31.3618 -566.6600
v  -26.3111 21.0774 -566.6480
v  -25.5878 21.4551 -566.6300
v  -25.0554 21.8261 -566.6190
v  -24.5163 22.1966 -566.5540
v  -24.1413 22.5881 -566.4960
v  -23.7797 22.9658 -566.4310
v  -23.4180 22.9658 -566.4830
v  -23.0539 23.3494 -566.4230
v  -22.6948 23.7212 -566.3900
v  -22.7948 24.1940 -566.8010
v  -22.3331 24.0988 -566.3790
v  -21.9715 24.0988 -566.4870
v  -21.9715 24.4765 -566.3860
v  -21.4076 24.4788 -566.4660
v  -21.5366 25.1117 -566.5120
v  -20.9419 24.8104 -566.3400
v  -20.4712 24.9418 -566.6510
v  -20.9095 25.3993 -566.2070
v  -19.6335 25.5390 -566.2340
v  -20.5658 26.0074 -566.2860
v  -18.1512 26.2596 -565.9030
v  -18.4471 25.8396 -566.2410
v  -17.6115 26.4342 -566.1470
v  -17.3212 27.0741 -565.9600
v  -17.8628 26.8263 -565.6450
v  -18.7508 28.7988 -566.6320
v  -15.7926 28.3722 -566.3390
v  -18.3819 29.3505 -566.7270
v  -18.1273 28.8975 -566.3200
v  -18.5862 28.3667 -566.1820
v  -15.4154 28.9615 -566.1910
v  -17.7162 29.3516 -566.3430
v  -15.0798 29.4983 -566.1150
v  -16.7681 30.0394 -566.3800
v  -17.1795 29.5520 -566.2120
v  -15.1005 30.1417 -565.9790
v  -14.7322 30.5378 -566.2990
v  -16.2444 30.4691 -566.4040
v  -15.1005 30.8731 -566.3240
v  -15.7301 30.8599 -566.4680
v  -20.2624 25.4214 -566.2050
v  -20.0285 26.0939 -566.0570
v  -19.4504 26.1144 -565.8430
v  -18.8289 26.1668 -565.8040
v  -19.8071 26.7204 -566.1090
v  -19.2241 26.7641 -565.7630
v  -19.4446 27.3025 -566.1810
v  -19.0070 27.8404 -566.1310
v  -16.6567 27.8285 -565.9700
v  -18.8428 27.3214 -565.8260
v  -18.2952 27.8892 -565.8210
v  -17.9312 28.4860 -565.9500
v  -16.2936 28.3249 -565.9140
v  -15.8992 28.8533 -565.8480
v  -17.3527 28.8892 -565.8870
v  -16.7473 29.3513 -565.9270
v  -16.2668 29.8674 -566.0160
v  -16.1618 29.3514 -565.6840
v  -15.5889 29.6047 -565.7440
v  -15.7251 30.2441 -566.0680
v  -15.1005 30.5193 -566.1010
v  -18.5639 26.7107 -565.5530
v  -18.2990 27.3016 -565.5450
v  -17.7252 27.5197 -565.5280
v  -17.1211 27.6256 -565.6920
v  -17.5838 28.1604 -565.6060
v  -16.9698 28.3263 -565.5990
v  -16.6040 28.8248 -565.6360
# 468 vertices

vn 0.1958 -0.0121 -0.9806
vn 0.3992 -0.5458 -0.7367
vn -0.0303 -0.7657 -0.6425
vn -0.5759 -0.1930 -0.7944
vn -0.1164 0.5638 -0.8176
vn 0.2285 0.2206 -0.9482
vn -0.7253 0.5005 -0.4726
vn 0.1166 -0.9895 -0.0854
vn -0.0677 -0.9407 0.3325
vn -0.4443 -0.8773 -0.1818
vn 0.3438 -0.9083 -0.2385
vn -0.9454 -0.1967 -0.2598
vn 0.2927 -0.3552 -0.8878
vn 0.4028 -0.8342 -0.3766
vn -0.8030 0.5960 0.0013
vn -0.0135 0.1697 -0.9854
vn 0.2370 -0.3070 -0.9217
vn 0.4614 -0.6640 -0.5884
vn -0.4425 0.8670 -0.2291
vn -0.1077 0.7253 -0.6799
vn -0.2351 0.6885 -0.6860
vn 0.1510 0.1214 -0.9811
vn -0.1306 0.6236 -0.7708
vn 0.5426 -0.1343 -0.8292
vn 0.7083 -0.6692 -0.2248
vn 0.6113 -0.2205 -0.7601
vn -0.3857 0.8946 -0.2257
vn -0.2470 0.8553 -0.4555
vn 0.2324 0.4614 -0.8562
vn 0.1722 0.1345 -0.9758
vn -0.5802 -0.7909 0.1945
vn 0.1332 -0.9345 0.3302
vn 0.3158 -0.9237 0.2167
vn 0.4545 -0.8862 0.0898
vn 0.5334 -0.7925 0.2956
vn -0.5302 0.8145 0.2356
vn 0.6220 -0.7761 -0.1038
vn -0.4015 0.9124 -0.0795
vn -0.4809 0.7409 0.4688
vn 0.4183 -0.6161 -0.6674
vn 0.4386 -0.8734 0.2118
vn -0.4692 0.8478 0.2471
vn -0.4785 0.8754 0.0680
vn 0.3663 -0.5676 -0.7374
vn 0.4829 -0.8696 -0.1030
vn 0.0547 -0.0382 -0.9978
vn -0.4506 0.8856 -0.1127
vn -0.1862 0.7362 -0.6506
vn -0.2776 0.5584 -0.7818
vn -0.2487 0.4913 -0.8347
vn 0.0348 -0.0395 -0.9986
vn -0.4604 0.8345 -0.3029
vn -0.4328 0.8019 -0.4119
vn -0.1488 0.5067 -0.8492
vn 0.3872 -0.5974 -0.7023
vn 0.2328 -0.0954 -0.9678
vn 0.4964 -0.8071 -0.3197
vn 0.4893 -0.6056 -0.6275
vn 0.3094 0.0197 -0.9507
vn 0.5453 -0.6584 -0.5189
vn -0.9708 -0.0287 0.2381
vn -0.4605 -0.4771 0.7485
vn 0.0105 -0.7640 0.6451
vn 0.0629 -0.8007 0.5957
vn 0.2368 -0.8212 0.5192
vn 0.3995 -0.7971 0.4528
vn -0.7070 0.4831 0.5165
vn 0.4303 -0.7848 0.4459
vn 0.2912 -0.6395 0.7115
vn 0.4246 -0.8428 0.3309
vn 0.4936 -0.8691 -0.0309
vn -0.4647 0.8580 -0.2187
vn 0.4489 -0.8755 0.1789
vn -0.5470 0.8045 0.2315
vn 0.4663 -0.8822 0.0654
vn -0.5343 0.8413 0.0825
vn -0.5326 0.8429 -0.0762
vn -0.5461 0.8236 -0.1534
vn 0.4771 -0.8501 -0.2229
vn 0.4533 -0.8808 0.1371
vn 0.2923 -0.2545 -0.9218
vn -0.3947 0.7766 -0.4911
vn -0.0628 0.4839 -0.8729
vn -0.3652 0.7424 -0.5617
vn -0.0256 0.3502 -0.9363
vn 0.2253 -0.5010 -0.8356
vn 0.4555 -0.8818 -0.1225
vn -0.3609 0.7704 -0.5255
vn -0.4559 0.8879 -0.0607
vn -0.0696 0.2228 -0.9724
vn 0.2993 -0.6031 -0.7394
vn 0.5003 -0.8657 0.0138
vn 0.4561 -0.6688 -0.5871
vn 0.4699 -0.8106 0.3495
vn 0.4833 -0.7978 0.3604
vn -0.0443 0.0627 -0.9971
vn 0.0614 -0.1127 -0.9917
vn 0.2107 -0.1922 -0.9585
vn 0.5320 -0.8290 0.1723
vn 0.5889 -0.7228 -0.3617
vn 0.5251 -0.8132 0.2509
vn -0.3717 0.7616 -0.5309
vn -0.3536 0.5435 -0.7613
vn -0.1616 0.3389 -0.9268
vn 0.3415 -0.3217 -0.8831
vn -0.4900 0.8706 -0.0438
vn -0.4723 0.7797 -0.4111
vn -0.1797 0.3592 -0.9158
vn -0.5629 0.7234 -0.3997
vn 0.5032 -0.4387 -0.7445
vn 0.6396 -0.7481 -0.1770
vn 0.6629 -0.7358 -0.1388
vn 0.0077 0.2085 -0.9780
vn -0.3722 0.6228 -0.6882
vn -0.3194 0.6457 -0.6936
vn 0.1081 0.1430 -0.9838
vn 0.5245 -0.4310 -0.7342
vn 0.6347 -0.7728 -0.0032
vn 0.0546 0.4741 -0.8788
vn 0.5246 -0.3246 -0.7870
vn 0.1529 -0.6057 -0.7809
vn -0.1364 -0.1268 -0.9825
vn 0.2218 -0.4521 -0.8640
vn 0.2996 -0.3317 -0.8945
vn -0.1707 0.1059 -0.9796
vn 0.4762 -0.5641 -0.6746
vn 0.0831 -0.0564 -0.9949
vn 0.5279 -0.3623 -0.7682
vn -0.2992 0.2457 -0.9220
vn 0.0964 -0.0746 -0.9925
vn 0.6235 -0.3018 -0.7213
vn 0.1102 0.0404 -0.9931
vn -0.2188 -0.1620 0.9622
vn -0.4288 0.4145 0.8027
vn -0.0658 -0.4222 0.9041
vn 0.1439 -0.5016 0.8530
vn -0.4529 0.4237 0.7844
vn -0.4757 0.6632 0.5778
vn 0.2243 -0.7592 0.6110
vn 0.1931 -0.6865 0.7010
vn -0.5683 0.6970 0.4374
vn 0.3976 -0.8183 0.4150
vn 0.4015 -0.8158 0.4162
vn 0.3461 -0.8202 0.4555
vn 0.3869 -0.8278 0.4063
vn 0.4133 -0.8484 0.3308
vn -0.6226 0.7408 0.2522
vn -0.4868 0.8622 -0.1397
vn 0.4602 -0.8101 0.3633
vn -0.4693 0.8771 0.1023
vn -0.4497 0.8927 0.0278
vn -0.4367 0.8931 0.1078
vn 0.5721 -0.7737 0.2722
vn -0.5620 0.8241 0.0710
vn -0.4731 0.8691 0.1443
vn -0.6151 0.7884 -0.0143
vn 0.6036 -0.7439 0.2868
vn -0.5744 0.7445 -0.3404
vn 0.5594 -0.7152 0.4189
vn -0.4509 0.8385 -0.3060
vn 0.6678 -0.4629 -0.5828
vn 0.7024 -0.6977 0.1411
vn -0.2613 0.8387 -0.4779
vn -0.1522 0.8794 -0.4511
vn 0.1564 0.5368 -0.8291
vn 0.1016 0.4086 -0.9070
vn 0.6713 -0.1738 -0.7206
vn 0.3269 -0.5801 -0.7461
vn -0.2779 0.1201 -0.9531
vn -0.2619 0.1904 -0.9461
vn -0.1848 0.1302 -0.9741
vn 0.2768 -0.4859 -0.8290
vn -0.7135 0.5864 -0.3835
vn -0.5827 0.4125 -0.7002
vn -0.5853 0.5305 -0.6132
vn 0.4698 -0.4661 -0.7497
vn 0.0385 -0.1239 -0.9916
vn 0.5182 -0.5744 -0.6337
vn 0.5981 -0.6446 -0.4763
vn -0.3454 0.2179 -0.9128
vn -0.6428 0.5166 -0.5656
vn 0.2232 -0.3933 -0.8919
vn -0.2116 0.0446 -0.9763
vn -0.5560 0.4846 -0.6753
vn 0.1848 -0.5404 -0.8209
vn 0.3047 -0.7564 -0.5788
vn 0.3615 -0.6969 -0.6193
vn -0.4643 0.4004 -0.7900
vn -0.6418 0.5705 -0.5125
vn -0.1780 -0.0980 -0.9792
vn 0.3300 -0.6990 -0.6344
vn -0.4210 0.3360 -0.8425
vn -0.5757 0.5218 -0.6295
vn -0.6827 0.5610 -0.4683
vn -0.4847 0.3777 -0.7890
vn 0.7284 -0.4519 -0.5150
vn -0.5184 0.4088 -0.7511
vn -0.3216 0.2730 -0.9067
vn 0.9413 -0.2918 -0.1694
vn 0.9704 -0.2393 -0.0314
vn 0.9302 -0.2654 -0.2535
vn -0.5201 0.5199 -0.6776
vn 0.0817 0.1046 -0.9912
vn -0.3755 0.3698 -0.8499
vn 0.7360 -0.2041 -0.6455
vn 0.1768 0.4127 -0.8935
vn 0.7821 -0.1426 -0.6067
vn -0.4871 0.4518 -0.7474
vn 0.7738 0.3571 -0.5232
vn -0.6446 0.6408 -0.4170
vn -0.5819 0.5762 -0.5739
vn -0.2264 0.7563 -0.6138
vn 0.9703 -0.1632 -0.1786
vn -0.2599 0.1046 0.9600
vn -0.2670 0.0273 0.9633
vn 0.0415 -0.4574 0.8883
vn 0.2655 -0.6968 0.6664
vn -0.4505 0.3546 0.8194
vn -0.1713 -0.1592 0.9723
vn -0.5300 0.5873 0.6117
vn -0.5689 0.5692 0.5936
vn 0.2689 -0.7340 0.6236
vn 0.2920 -0.7783 0.5559
vn -0.5850 0.8039 0.1077
vn 0.3941 -0.7847 0.4784
vn 0.4262 -0.8030 0.4167
vn -0.4414 0.8632 0.2451
vn 0.5046 -0.7656 0.3989
vn -0.6947 0.7191 0.0184
vn 0.5349 -0.7220 0.4388
vn -0.7393 0.6696 -0.0710
vn 0.5852 -0.7302 0.3526
vn -0.6979 0.7123 -0.0751
vn -0.2953 0.9326 -0.2073
vn 0.6921 -0.7018 0.1687
vn -0.4690 0.8821 -0.0437
vn -0.3587 0.8886 -0.2858
vn -0.2769 0.7922 -0.5439
vn -0.4805 0.7753 -0.4099
vn -0.1860 0.5930 -0.7834
vn 0.6205 -0.4141 -0.6659
vn -0.1912 0.3960 -0.8981
vn 0.5474 -0.5572 -0.6244
vn -0.1632 0.2899 -0.9430
vn -0.5528 0.6651 -0.5020
vn -0.5012 0.7351 -0.4566
vn 0.4523 -0.5764 -0.6806
vn -0.5574 0.3305 -0.7616
vn 0.1400 -0.4957 -0.8571
vn -0.6075 0.2370 -0.7581
vn 0.6084 -0.7922 0.0470
vn -0.7611 0.5434 -0.3541
vn -0.8248 0.4787 -0.3009
vn -0.1824 -0.1354 -0.9739
vn 0.5533 -0.7062 -0.4418
vn 0.5942 -0.8040 -0.0225
vn -0.5953 0.4732 -0.6494
vn 0.4103 -0.8715 -0.2686
vn -0.5848 0.5790 -0.5682
vn 0.5027 -0.7535 -0.4238
vn 0.4431 -0.7137 -0.5426
vn -0.7227 0.5829 -0.3714
vn 0.4383 -0.7621 -0.4765
vn 0.3924 -0.8234 -0.4098
vn -0.6773 0.6177 -0.3997
vn 0.5718 -0.7424 -0.3491
vn 0.8411 -0.3793 -0.3855
vn 0.9364 -0.3334 -0.1092
vn 0.8135 -0.5654 -0.1363
vn -0.6209 0.4878 -0.6136
vn 0.9548 -0.2944 -0.0408
vn -0.6693 0.5383 -0.5121
vn -0.6694 0.5967 -0.4426
vn -0.6566 0.7539 -0.0235
vn -0.7294 0.6485 -0.2178
vn -0.6189 0.5694 -0.5410
vn -0.5919 0.7016 -0.3967
vn 0.9575 -0.2886 -0.0024
vn -0.6638 0.6947 -0.2772
vn 0.9988 0.0054 -0.0480
vn -0.6710 0.7296 -0.1318
vn -0.6611 0.7488 0.0487
vn 0.7446 0.5350 -0.3993
vn -0.1773 0.9090 -0.3773
vn 0.5598 0.8272 0.0498
vn -0.2338 -0.2417 0.9418
vn -0.3845 0.0165 0.9230
vn 0.1344 -0.6329 0.7625
vn 0.3078 -0.7095 0.6339
vn -0.1458 -0.2774 0.9496
vn -0.6223 0.4561 0.6362
vn 0.2444 -0.6867 0.6846
vn -0.4750 0.7498 0.4606
vn -0.5548 0.6117 0.5640
vn 0.2879 -0.7700 0.5694
vn 0.4428 -0.7630 0.4710
vn 0.5581 -0.6876 0.4645
vn 0.6032 -0.6894 0.4011
vn -0.6690 0.6921 0.2710
vn 0.6038 -0.6921 0.3956
vn 0.5620 -0.6685 0.4870
vn -0.5368 0.8372 -0.1047
vn 0.6550 -0.7254 0.2117
vn 0.5958 -0.7786 0.1968
vn -0.7211 0.6425 -0.2592
vn 0.5291 -0.7848 0.3228
vn -0.5989 0.7780 -0.1899
vn 0.5628 -0.8000 0.2079
vn 0.3553 -0.9288 0.1055
vn 0.2791 -0.9571 -0.0783
vn -0.6832 0.6927 -0.2309
vn -0.7053 0.6528 -0.2766
vn 0.4784 -0.8650 -0.1516
vn 0.5525 -0.8007 -0.2317
vn 0.5068 -0.8320 -0.2257
vn 0.5100 -0.8354 -0.2050
vn 0.5944 -0.7997 0.0851
vn 0.6693 -0.7079 0.2258
vn -0.7514 0.6473 -0.1279
vn -0.7287 0.5829 -0.3594
vn 0.8702 -0.4417 0.2182
vn 0.9352 -0.3322 0.1223
vn 0.9570 -0.2817 0.0687
vn 0.9631 -0.2629 0.0581
vn -0.6176 0.7396 -0.2675
vn -0.6009 0.7991 0.0198
vn 0.9833 -0.1176 0.1386
vn 0.9356 0.2851 0.2085
vn -0.2528 -0.0544 0.9660
vn -0.1021 -0.1903 0.9764
vn -0.0048 -0.4956 0.8686
vn -0.4562 0.4848 0.7463
vn -0.4160 0.2770 0.8662
vn -0.0828 -0.4326 0.8978
vn 0.2091 -0.6788 0.7039
vn -0.5567 0.6211 0.5516
vn 0.3408 -0.7941 0.5033
vn -0.5860 0.7802 0.2188
vn -0.6587 0.7378 0.1476
vn -0.7492 0.6375 0.1796
vn 0.4982 -0.6798 0.5382
vn -0.4626 0.8402 0.2830
vn -0.4143 0.9097 0.0278
vn 0.5774 -0.7187 0.3874
vn 0.5232 -0.6567 0.5432
vn 0.5075 -0.7722 0.3823
vn -0.6646 0.7033 0.2522
vn -0.7858 0.6041 0.1325
vn -0.7873 0.6110 0.0825
vn 0.2425 -0.9290 0.2796
vn 0.6839 -0.7288 0.0333
vn -0.7937 0.6068 0.0431
vn 0.6409 -0.7075 0.2979
vn -0.7852 0.6164 -0.0593
vn 0.6220 -0.6605 0.4205
vn 0.6624 -0.5938 0.4568
vn 0.6070 -0.5850 0.5379
vn -0.4336 0.6525 0.6215
vn -0.5697 0.7886 0.2315
vn -0.5221 0.7218 0.4543
vn -0.3732 0.8921 0.2545
vn 0.2199 0.7438 0.6312
vn -0.4732 0.0328 0.8804
vn -0.0231 -0.5037 0.8636
vn -0.5471 0.4530 0.7039
vn -0.5381 0.6766 0.5026
vn 0.2224 -0.5075 0.8325
vn 0.4441 -0.6819 0.5812
vn 0.4845 -0.6648 0.5685
vn -0.3846 0.4704 0.7942
vn -0.5722 0.4846 0.6616
vn -0.4225 0.4706 0.7746
vn 0.3943 -0.6479 0.6517
vn -0.5360 0.7629 0.3615
vn -0.4411 0.6599 0.6083
vn -0.5530 0.6754 0.4879
vn -0.5935 0.7921 -0.1426
vn -0.6764 0.5580 0.4808
vn 0.3060 -0.8824 0.3575
vn 0.3684 -0.8982 0.2398
vn 0.1957 -0.7787 0.5961
vn 0.4884 -0.8277 0.2762
vn -0.7227 0.6516 0.2304
vn 0.6949 -0.6750 0.2480
vn -0.6854 0.4857 0.5425
vn 0.7038 -0.5822 0.4072
vn -0.7255 0.5197 0.4512
vn 0.6327 -0.5895 0.5021
vn -0.7241 0.5765 0.3786
vn -0.7071 0.5707 0.4175
vn -0.7912 0.6099 -0.0462
vn 0.8186 -0.4498 0.3573
vn -0.7895 0.5968 -0.1432
vn 0.9481 -0.2459 0.2015
vn 0.8992 -0.3913 0.1957
vn -0.5702 0.6947 0.4384
vn -0.4705 0.6982 0.5396
vn -0.5090 0.6914 0.5127
vn 0.6612 0.4250 0.6182
vn -0.1956 0.6130 0.7655
vn -0.1155 -0.0172 0.9932
vn 0.0591 -0.1425 0.9880
vn 0.0479 -0.2093 0.9767
vn 0.1367 -0.2417 0.9607
vn -0.0555 -0.1758 0.9829
vn -0.1227 0.1258 0.9844
vn 0.3043 -0.3090 0.9011
vn 0.0790 -0.1948 0.9777
vn 0.0361 -0.0824 0.9959
vn -0.5702 0.7313 0.3743
vn -0.1246 0.0586 0.9905
vn 0.3803 -0.5584 0.7373
vn -0.2598 0.2403 0.9353
vn 0.2861 -0.4788 0.8300
vn -0.5475 0.3858 0.7426
vn 0.2367 -0.4699 0.8504
vn 0.4640 -0.7301 0.5017
vn -0.2433 0.0302 0.9695
vn 0.1020 -0.6962 0.7106
vn -0.4842 0.3717 0.7921
vn 0.3335 -0.6198 0.7104
vn 0.2803 -0.7918 0.5426
vn 0.6095 -0.5798 0.5407
vn 0.6015 -0.4761 0.6415
vn 0.3659 -0.3529 0.8611
vn -0.6718 0.5752 0.4666
vn 0.6283 -0.5457 0.5544
vn -0.6638 0.6003 0.4461
vn -0.4289 0.4801 0.7652
vn -0.4472 0.4784 0.7557
vn 0.6827 -0.4761 0.5543
vn -0.4102 0.4735 0.7794
vn 0.7821 -0.3122 0.5392
vn -0.3556 0.5383 0.7641
vn -0.3358 0.5092 0.7924
vn 0.4807 0.0913 0.8721
vn 0.8096 0.0574 0.5841
vn -0.3602 0.5486 0.7545
vn 0.0752 0.5196 0.8511
vn -0.2952 0.5549 0.7778
vn 0.0745 -0.4752 0.8767
vn -0.3663 0.0340 0.9299
vn -0.1913 -0.2863 0.9388
vn 0.0319 -0.5090 0.8602
vn -0.5513 0.3140 0.7730
vn -0.3783 0.1510 0.9133
vn -0.5485 0.4246 0.7204
vn -0.5130 0.4174 0.7501
vn 0.5717 -0.4696 0.6728
vn -0.4167 0.3317 0.8464
vn -0.3588 0.3728 0.8557
vn -0.3949 0.4567 0.7972
vn 0.4852 -0.4367 0.7576
vn 0.4460 -0.3637 0.8178
vn -0.3236 0.4270 0.8444
vn -0.3225 0.4548 0.8301
vn -0.2991 0.4889 0.8195
vn -0.0530 0.1951 0.9794
vn 0.2301 0.0527 0.9717
vn -0.1922 0.4712 0.8608
vn 0.1382 0.4282 0.8931
vn -0.0873 -0.1658 0.9823
vn -0.1928 0.1685 0.9667
vn 0.1012 -0.0331 0.9943
vn 0.4283 -0.3407 0.8370
vn -0.1767 0.2366 0.9554
vn 0.1331 -0.0133 0.9910
vn 0.0159 0.0689 0.9975
# 468 vertex normals

vt 0.9480 0.0396 1.0000
vt 0.9277 0.0192 0.9418
vt 0.9573 0.0068 0.9595
vt 0.9799 0.0325 0.9784
vt 0.9595 0.0699 0.9698
vt 0.9265 0.0607 0.9398
vt 0.9860 0.0657 0.9257
vt 0.9430 0.8584 0.0000
vt 0.9592 0.7649 0.0061
vt 0.9759 0.8786 0.0025
vt 0.9573 0.9595 0.0068
vt 0.9430 0.0000 0.8584
vt 0.9104 0.0089 0.8514
vt 0.9759 0.0025 0.8786
vt 0.9950 0.0330 0.8730
vt 0.9020 0.0384 0.9265
vt 0.8807 0.0262 0.8514
vt 0.1270 0.0330 0.0050
vt 0.1839 0.0679 0.0115
vt 0.0743 0.0657 0.0140
vt 0.8985 0.0801 0.9272
vt 0.8761 0.0571 0.9180
vt 0.8524 0.0471 0.8737
vt 0.9659 0.0894 0.8634
vt 0.0140 0.9257 0.0657
vt 0.0115 0.8161 0.0679
vt 0.0341 0.8634 0.0894
vt 0.9402 0.0907 0.9081
vt 0.9155 0.1059 0.8914
vt 0.8654 0.0910 0.9265
vt 0.8837 0.1167 0.8955
vt 0.8390 0.0806 0.9000
vt 0.8306 0.0585 0.8056
vt 0.8212 0.0973 0.8291
vt 0.9048 0.1229 0.8069
vt 0.8722 0.1396 0.8201
vt 0.8469 0.1207 0.8751
vt 0.8150 0.1321 0.8236
vt 0.9864 0.7767 0.0110
vt 0.9277 0.7572 0.0076
vt 0.9104 0.8514 0.0089
vt 0.8945 0.7546 0.0192
vt 0.1214 0.0025 0.0241
vt 0.2233 0.0110 0.0136
vt 0.8807 0.8514 0.0262
vt 0.8614 0.7679 0.0358
vt 0.8524 0.8737 0.0471
vt 0.8306 0.8056 0.0585
vt 0.8375 0.7036 0.0588
vt 0.0342 0.7548 0.0873
vt 0.8112 0.7349 0.0829
vt 0.8112 0.0829 0.7349
vt 0.0619 0.8015 0.1063
vt 0.9381 0.1063 0.8015
vt 0.0550 0.6891 0.0930
vt 0.7896 0.1069 0.7902
vt 0.7896 0.7902 0.1069
vt 0.7925 0.6525 0.0986
vt 0.0804 0.7085 0.1140
vt 0.0952 0.8069 0.1229
vt 0.1101 0.7199 0.1345
vt 0.1278 0.8201 0.1396
vt 0.7603 0.1314 0.7882
vt 0.7689 0.1111 0.7055
vt 0.7855 0.1487 0.8135
vt 0.1383 0.7180 0.1529
vt 0.1592 0.7985 0.1515
vt 0.8408 0.1515 0.7985
vt 0.8117 0.1701 0.7974
vt 0.7802 0.1883 0.8021
vt 0.7544 0.1711 0.8139
vt 0.8004 0.1927 0.7184
vt 0.7688 0.2137 0.7265
vt 0.7455 0.2074 0.7966
vt 0.7332 0.1492 0.7859
vt 0.7188 0.1855 0.8130
vt 0.7126 0.1535 0.7210
vt 0.6918 0.1740 0.7537
vt 0.6885 0.2093 0.7726
vt 0.6663 0.1873 0.7053
vt 0.0000 0.0392 0.7572
vt 0.0136 0.0110 0.7767
vt 0.0218 0.0262 0.6666
vt 0.0408 0.0061 0.7649
vt 0.0723 0.0076 0.7572
vt 0.0503 0.0247 0.6741
vt 0.0810 0.0265 0.6698
vt 0.1055 0.0192 0.7546
vt 0.2428 0.0392 0.0000
vt 0.1113 0.0329 0.6600
vt 0.8628 0.6681 0.0457
vt 0.8887 0.6600 0.0329
vt 0.2947 0.0623 0.0157
vt 0.0157 0.7053 0.0623
vt 0.1888 0.0829 0.7349
vt 0.1766 0.0819 0.6325
vt 0.1625 0.0588 0.7036
vt 0.1484 0.0720 0.5972
vt 0.8234 0.6325 0.0819
vt 0.7689 0.7055 0.1111
vt 0.7641 0.6006 0.1218
vt 0.7417 0.1317 0.6812
vt 0.7417 0.6812 0.1317
vt 0.8617 0.1529 0.7180
vt 0.8308 0.1743 0.7019
vt 0.7603 0.7882 0.1314
vt 0.7332 0.7859 0.1492
vt 0.7126 0.7210 0.1535
vt 0.7203 0.6206 0.1489
vt 0.1506 0.6235 0.1618
vt 0.1692 0.7019 0.1743
vt 0.6908 0.6334 0.1666
vt 0.6918 0.7537 0.1740
vt 0.6663 0.7053 0.1873
vt 0.1996 0.7184 0.1927
vt 0.1874 0.6133 0.1885
vt 0.2148 0.6353 0.2083
vt 0.2312 0.7265 0.2137
vt 0.2404 0.6238 0.2313
vt 0.6390 0.6377 0.2008
vt 0.6651 0.5966 0.1833
vt 0.6580 0.2218 0.7353
vt 0.6390 0.2008 0.6377
vt 0.2599 0.7096 0.2351
vt 0.7401 0.2351 0.7096
vt 0.7155 0.2249 0.7698
vt 0.7108 0.2584 0.7023
vt 0.6841 0.2468 0.7437
vt 0.6279 0.2295 0.7257
vt 0.6101 0.2179 0.6214
vt 0.3202 0.6852 0.2824
vt 0.2892 0.7023 0.2584
vt 0.3001 0.6032 0.2742
vt 0.6535 0.2624 0.7396
vt 0.5972 0.2414 0.7130
vt 0.5807 0.2381 0.6086
vt 0.5972 0.7130 0.2414
vt 0.5639 0.6970 0.2557
vt 0.5807 0.6086 0.2381
vt 0.3990 0.2341 0.5122
vt 0.4193 0.2381 0.6086
vt 0.4241 0.2560 0.5017
vt 0.6798 0.2824 0.6852
vt 0.6234 0.2708 0.7435
vt 0.5917 0.2785 0.7418
vt 0.5639 0.2557 0.6970
vt 0.5600 0.2942 0.7340
vt 0.5535 0.5734 0.2622
vt 0.5345 0.6561 0.2763
vt 0.5316 0.5186 0.2856
vt 0.6518 0.2999 0.6820
vt 0.6228 0.3089 0.7165
vt 0.5900 0.3162 0.7385
vt 0.5307 0.3099 0.7242
vt 0.5345 0.2763 0.6561
vt 0.3482 0.6820 0.2999
vt 0.3634 0.5837 0.3139
vt 0.3772 0.7165 0.3089
vt 0.6065 0.3341 0.6612
vt 0.6366 0.3139 0.5837
vt 0.5650 0.3365 0.7295
vt 0.5836 0.3581 0.6276
vt 0.5023 0.3277 0.6916
vt 0.5094 0.2991 0.6092
vt 0.4834 0.3279 0.5799
vt 0.5327 0.3495 0.7308
vt 0.5558 0.3691 0.6739
vt 0.5308 0.3909 0.6606
vt 0.5059 0.3683 0.7150
vt 0.4765 0.3535 0.6698
vt 0.4539 0.3571 0.5370
vt 0.4904 0.3991 0.6916
vt 0.4541 0.3740 0.6569
vt 0.1390 0.7056 0.6242
vt 0.1427 0.7450 0.6854
vt 0.1135 0.7324 0.6621
vt 0.0918 0.7583 0.6717
vt 0.1256 0.7795 0.6893
vt 0.0798 0.7321 0.5940
vt 0.0923 0.7933 0.6933
vt 0.0625 0.7800 0.6392
vt 0.1122 0.8205 0.6647
vt 0.0732 0.8224 0.6946
vt 0.0424 0.8205 0.6480
vt 0.0574 0.8595 0.6929
vt 0.0157 0.0623 0.7053
vt 0.0579 0.0513 0.6083
vt 0.0368 0.0646 0.6418
vt 0.0889 0.0515 0.5938
vt 0.1372 0.0457 0.6681
vt 0.1204 0.0618 0.5869
vt 0.0342 0.0873 0.7548
vt 0.0550 0.0930 0.6891
vt 0.0724 0.0869 0.6116
vt 0.0804 0.1140 0.7085
vt 0.0999 0.1146 0.6265
vt 0.2091 0.1190 0.5456
vt 0.2075 0.0986 0.6525
vt 0.2359 0.1218 0.6006
vt 0.2279 0.1385 0.4944
vt 0.1101 0.1345 0.7199
vt 0.1243 0.6178 0.1370
vt 0.7419 0.5475 0.1443
vt 0.2581 0.1443 0.5475
vt 0.2797 0.1489 0.6206
vt 0.3092 0.1666 0.6334
vt 0.2902 0.1658 0.5341
vt 0.3349 0.1833 0.5966
vt 0.3139 0.1839 0.5077
vt 0.6561 0.5043 0.2003
vt 0.6292 0.5180 0.2138
vt 0.6101 0.6214 0.2179
vt 0.2163 0.5343 0.2080
vt 0.6010 0.5122 0.2341
vt 0.7596 0.2313 0.6238
vt 0.7302 0.2541 0.6131
vt 0.4465 0.2622 0.5734
vt 0.4426 0.2794 0.4360
vt 0.2698 0.6131 0.2541
vt 0.2699 0.5116 0.2537
vt 0.3305 0.5629 0.2924
vt 0.5094 0.6092 0.2991
vt 0.2994 0.5024 0.2704
vt 0.5059 0.4854 0.3103
vt 0.3743 0.4651 0.3167
vt 0.3465 0.4593 0.2975
vt 0.3928 0.5546 0.3361
vt 0.3935 0.6612 0.3341
vt 0.4834 0.5799 0.3279
vt 0.4792 0.4675 0.3381
vt 0.4164 0.6276 0.3581
vt 0.4539 0.5370 0.3571
vt 0.5625 0.3880 0.5751
vt 0.5208 0.3381 0.4675
vt 0.5461 0.3571 0.5370
vt 0.5270 0.3611 0.3771
vt 0.5406 0.4110 0.5383
vt 0.4291 0.6038 0.3867
vt 0.4252 0.4929 0.3908
vt 0.4291 0.3867 0.6038
vt 0.5133 0.4150 0.6066
vt 0.4864 0.4262 0.5722
vt 0.4628 0.4112 0.6432
vt 0.4359 0.4254 0.6099
vt 0.4067 0.4223 0.5805
vt 0.2847 0.5643 0.5696
vt 0.3086 0.5889 0.5985
vt 0.2861 0.6148 0.6039
vt 0.2597 0.6372 0.6114
vt 0.2573 0.5904 0.5901
vt 0.2852 0.6817 0.4319
vt 0.2620 0.6779 0.5523
vt 0.2871 0.6522 0.5255
vt 0.2283 0.6132 0.5766
vt 0.2306 0.6535 0.6257
vt 0.2031 0.6377 0.5364
vt 0.2087 0.6060 0.4516
vt 0.2308 0.6940 0.6135
vt 0.2488 0.7141 0.5317
vt 0.1992 0.6706 0.6107
vt 0.1997 0.7128 0.6336
vt 0.2212 0.7357 0.5632
vt 0.1683 0.6879 0.6086
vt 0.1385 0.6776 0.5223
vt 0.1724 0.6592 0.5199
vt 0.1926 0.7581 0.6083
vt 0.2093 0.7718 0.5118
vt 0.1701 0.7289 0.6537
vt 0.1071 0.7050 0.5752
vt 0.1619 0.7743 0.6357
vt 0.1787 0.7979 0.5480
vt 0.2004 0.8040 0.4364
vt 0.1451 0.8095 0.6235
vt 0.0528 0.7503 0.5531
vt 0.1272 0.8498 0.6105
vt 0.0931 0.8563 0.6666
vt 0.5261 0.8767 0.9843
vt 0.4216 0.8567 0.9819
vt 0.5448 0.8340 0.9765
vt 0.1077 0.8857 0.5934
vt 0.0428 0.9007 0.6792
vt 0.0748 0.8930 0.6479
vt 0.0273 0.8628 0.6381
vt 0.0235 0.8340 0.5448
vt 0.0296 0.9443 0.6636
vt 0.0144 0.9060 0.6248
vt 0.0590 0.9343 0.6227
vt 0.0077 0.9514 0.5809
vt 0.0700 0.9546 0.5238
vt 0.0874 0.9189 0.5664
vt 0.0434 0.9746 0.5690
vt 0.0028 0.9158 0.5184
vt 0.1000 0.0851 0.5745
vt 0.1261 0.1023 0.5488
vt 0.1571 0.1003 0.5401
vt 0.1243 0.1370 0.6178
vt 0.1860 0.1039 0.5619
vt 0.1453 0.1360 0.5392
vt 0.1506 0.1618 0.6235
vt 0.0999 0.6265 0.1146
vt 0.1741 0.1309 0.5023
vt 0.1705 0.1647 0.5469
vt 0.1705 0.5469 0.1647
vt 0.1941 0.5051 0.1838
vt 0.1874 0.1885 0.6133
vt 0.6861 0.5077 0.1839
vt 0.7098 0.5341 0.1658
vt 0.3439 0.2003 0.5043
vt 0.3206 0.2095 0.4191
vt 0.3503 0.2255 0.4086
vt 0.3708 0.2138 0.5180
vt 0.2419 0.5248 0.2353
vt 0.3808 0.2391 0.4242
vt 0.4093 0.2622 0.4038
vt 0.4684 0.2856 0.5186
vt 0.3194 0.4306 0.2794
vt 0.4941 0.3103 0.4854
vt 0.4684 0.3045 0.3929
vt 0.3992 0.4473 0.3421
vt 0.4963 0.3327 0.3782
vt 0.4167 0.5017 0.3659
vt 0.5518 0.3763 0.4220
vt 0.4375 0.5751 0.3880
vt 0.5748 0.3908 0.4929
vt 0.4327 0.4473 0.3941
vt 0.4594 0.5383 0.4110
vt 0.4877 0.4837 0.4287
vt 0.4867 0.6066 0.4150
vt 0.5136 0.5722 0.4262
vt 0.4929 0.3908 0.5748
vt 0.6038 0.3867 0.5709
vt 0.5805 0.4223 0.5933
vt 0.4036 0.4495 0.4215
vt 0.4067 0.5805 0.4223
vt 0.4599 0.4206 0.4191
vt 0.5123 0.4287 0.4837
vt 0.4817 0.4421 0.4527
vt 0.4576 0.4395 0.5383
vt 0.4503 0.4639 0.4465
vt 0.4262 0.4578 0.5432
vt 0.3875 0.4435 0.5321
vt 0.3875 0.5321 0.4435
vt 0.4009 0.4800 0.5332
vt 0.3649 0.4678 0.5163
vt 0.3757 0.5016 0.5294
vt 0.3954 0.5104 0.4435
vt 0.4238 0.4881 0.4432
vt 0.3444 0.4918 0.5176
vt 0.3669 0.5332 0.4962
vt 0.3306 0.5175 0.5535
vt 0.3493 0.5608 0.5255
vt 0.3209 0.5123 0.4167
vt 0.3525 0.5949 0.4381
vt 0.3679 0.5656 0.4111
vt 0.3221 0.5566 0.5809
vt 0.3036 0.5322 0.5182
vt 0.3306 0.5535 0.5175
vt 0.3036 0.5182 0.5322
vt 0.3209 0.4167 0.5123
vt 0.2901 0.4334 0.5439
vt 0.3322 0.5969 0.5210
vt 0.2847 0.5696 0.5643
vt 0.2901 0.5439 0.4334
vt 0.2636 0.5641 0.4786
vt 0.3111 0.6259 0.5113
vt 0.2340 0.5831 0.4876
vt 0.1814 0.6286 0.4315
vt 0.2649 0.7132 0.4315
vt 0.1495 0.6460 0.4319
vt 0.1041 0.6834 0.4874
vt 0.2391 0.7444 0.4510
vt 0.0735 0.7054 0.4951
vt 0.0373 0.7921 0.5540
vt 0.0372 0.7715 0.4471
vt 0.0485 0.7300 0.4501
vt 0.1554 0.8361 0.5426
vt 0.4405 0.8133 0.9759
vt 0.5540 0.7921 0.9627
vt 0.1787 0.8304 0.4591
vt 0.1613 0.8625 0.4409
vt 0.1666 0.8740 0.3313
vt 0.1911 0.8418 0.3497
vt 0.0157 0.8767 0.5261
vt 0.1360 0.8743 0.5201
vt 0.1153 0.9077 0.4865
vt 0.6381 0.8628 0.9727
vt 0.6248 0.9060 0.9856
vt 0.5184 0.9158 0.9972
vt 0.4071 0.8972 0.9942
vt 0.0925 0.9350 0.4565
vt 0.5809 0.9514 0.9923
vt 0.4285 0.9405 1.0000
vt 0.0642 0.9749 0.4274
vt 0.9141 0.3617 0.9513
vt 0.9358 0.4274 0.9749
vt 0.9075 0.4565 0.9350
vt 0.0060 0.9776 0.4994
vt 0.4994 0.9776 0.9940
vt 0.0374 0.9975 0.4764
vt 0.0109 1.0000 0.3966
vt 0.1976 0.1473 0.4688
vt 0.1941 0.1838 0.5051
vt 0.2176 0.1763 0.4392
vt 0.2445 0.1607 0.4522
vt 0.2714 0.1715 0.4610
vt 0.2512 0.1904 0.3953
vt 0.2302 0.2107 0.4405
vt 0.2910 0.1954 0.4186
vt 0.2163 0.2080 0.5343
vt 0.2419 0.2353 0.5248
vt 0.2802 0.4128 0.2548
vt 0.2534 0.4223 0.2343
vt 0.3731 0.2547 0.3291
vt 0.4335 0.2906 0.3220
vt 0.5453 0.3962 0.3013
vt 0.5721 0.4089 0.3707
vt 0.4359 0.3319 0.3966
vt 0.5964 0.4215 0.4495
vt 0.5965 0.4421 0.3377
vt 0.5715 0.4314 0.2623
vt 0.5497 0.4465 0.4639
vt 0.5183 0.4527 0.4421
vt 0.5289 0.3495 0.4591
vt 0.6219 0.4555 0.4165
vt 0.3649 0.5163 0.4678
vt 0.3781 0.4165 0.4555
vt 0.3502 0.3919 0.4879
vt 0.3444 0.5176 0.4918
vt 0.3862 0.5381 0.3689
vt 0.3303 0.2839 0.5175
vt 0.4138 0.5120 0.3405
vt 0.3031 0.3255 0.5384
vt 0.2733 0.3417 0.5600
vt 0.2636 0.4786 0.5641
vt 0.2340 0.4876 0.5831
vt 0.2444 0.3767 0.5656
vt 0.3328 0.6255 0.4028
vt 0.3093 0.6525 0.4060
vt 0.2163 0.5772 0.3597
vt 0.1604 0.6181 0.3330
vt 0.1886 0.5988 0.3328
vt 0.1198 0.6637 0.4049
vt 0.1198 0.4049 0.6637
vt 0.1041 0.4874 0.6834
vt 0.0899 0.3786 0.6866
vt 0.0735 0.4951 0.7054
vt 0.0656 0.3582 0.7141
vt 0.2557 0.7422 0.3334
vt 0.0485 0.4501 0.7300
vt 0.2240 0.7750 0.4028
vt 0.0421 0.3387 0.7509
vt 0.5531 0.7503 0.9472
vt 0.4471 0.7715 0.9628
vt 0.3370 0.7954 0.9670
vt 0.2932 0.8818 0.9868
vt 0.3199 0.8382 0.9795
vt 0.1403 0.8960 0.4124
vt 0.8866 0.3559 0.9220
vt 0.8847 0.4865 0.9077
vt 0.2906 0.9199 0.9977
vt 0.3398 0.9637 0.9985
vt 0.2534 0.2343 0.4223
vt 0.2705 0.2172 0.3563
vt 0.2994 0.2303 0.3356
vt 0.3180 0.2356 0.3345
vt 0.2802 0.2548 0.4128
vt 0.2994 0.2543 0.3523
vt 0.3153 0.2564 0.3218
vt 0.3366 0.2484 0.3081
vt 0.3552 0.2511 0.3118
vt 0.3364 0.2785 0.3265
vt 0.3194 0.2794 0.4306
vt 0.4018 0.2740 0.3060
vt 0.3364 0.3265 0.2785
vt 0.3631 0.3531 0.3046
vt 0.3896 0.3512 0.3306
vt 0.6426 0.3609 0.4135
vt 0.5527 0.3941 0.4327
vt 0.4983 0.3659 0.4167
vt 0.4135 0.3574 0.3609
vt 0.5097 0.3657 0.2861
vt 0.4652 0.3148 0.4185
vt 0.4949 0.3600 0.4358
vt 0.6208 0.4730 0.3128
vt 0.5996 0.4679 0.2250
vt 0.6498 0.4879 0.3919
vt 0.6414 0.4976 0.2739
vt 0.6061 0.2527 0.5327
vt 0.6138 0.3689 0.5381
vt 0.5862 0.3405 0.5120
vt 0.6307 0.2889 0.5675
vt 0.5889 0.5656 0.6321
vt 0.7111 0.5675 0.6307
vt 0.6788 0.6030 0.6482
vt 0.5619 0.5949 0.6475
vt 0.2163 0.3597 0.5772
vt 0.2433 0.2482 0.5699
vt 0.6475 0.4381 0.5949
vt 0.6482 0.3212 0.6030
vt 0.6672 0.4028 0.6255
vt 0.1349 0.6464 0.3103
vt 0.6983 0.3037 0.6723
vt 0.7148 0.4319 0.6817
vt 0.6907 0.4060 0.6525
vt 0.1495 0.4319 0.6460
vt 0.1349 0.3103 0.6464
vt 0.1122 0.2773 0.6763
vt 0.2802 0.7078 0.3186
vt 0.9101 0.7062 0.2617
vt 0.8878 0.6763 0.2773
vt 0.9101 0.6866 0.3786
vt 0.9344 0.7141 0.3582
vt 0.9363 0.7383 0.2520
vt 0.9112 0.7321 0.1689
vt 0.9579 0.7509 0.3387
vt 0.4501 0.7300 0.9515
vt 0.3387 0.7509 0.9579
vt 0.8523 0.8718 0.2073
vt 0.8592 0.8976 0.2976
vt 0.8334 0.8740 0.3313
vt 0.8334 0.3313 0.8740
vt 0.8592 0.2976 0.8976
vt 0.8597 0.4124 0.8960
vt 0.9361 0.2889 0.9668
vt 0.9546 0.3507 0.9977
vt 0.9891 1.0000 0.3966
vt 0.9752 0.9841 0.2728
vt 0.9985 0.9637 0.3398
vt 0.3966 1.0000 0.9891
vt 0.9626 0.4764 0.9975
vt 0.9891 0.3966 1.0000
vt 0.9546 0.9977 0.3507
vt 0.3552 0.2783 0.2561
vt 0.3748 0.2780 0.2360
vt 0.3631 0.3046 0.3531
vt 0.3742 0.2998 0.2381
vt 0.3925 0.3213 0.2542
vt 0.3896 0.3306 0.3512
vt 0.4111 0.2966 0.2219
vt 0.4568 0.3157 0.2844
vt 0.4822 0.3414 0.2797
vt 0.4082 0.3286 0.2321
vt 0.4135 0.3609 0.3574
vt 0.4294 0.3643 0.2572
vt 0.6681 0.3966 0.4359
vt 0.4572 0.3919 0.2295
vt 0.4359 0.3966 0.3319
vt 0.5227 0.3933 0.2184
vt 0.4652 0.4185 0.3148
vt 0.5151 0.2552 0.4450
vt 0.4872 0.2386 0.4206
vt 0.5426 0.2311 0.4700
vt 0.5569 0.3379 0.4854
vt 0.4431 0.4854 0.3379
vt 0.4711 0.4591 0.3495
vt 0.6311 0.5381 0.6138
vt 0.6307 0.5675 0.2889
vt 0.6577 0.5993 0.2122
vt 0.6482 0.6030 0.3212
vt 0.2780 0.2300 0.5657
vt 0.2106 0.2398 0.5866
vt 0.7567 0.5699 0.2482
vt 0.7894 0.5866 0.2398
vt 0.7663 0.5936 0.1385
vt 0.1886 0.3328 0.5988
vt 0.1768 0.2026 0.6059
vt 0.6750 0.2739 0.6350
vt 0.6750 0.6350 0.2739
vt 0.1520 0.2212 0.6296
vt 0.1604 0.3330 0.6181
vt 0.5940 0.6525 0.6907
vt 0.7261 0.6350 0.6750
vt 0.6963 0.6723 0.6983
vt 0.6983 0.6723 0.3037
vt 0.6995 0.6518 0.1891
vt 0.8643 0.6651 0.1887
vt 0.8651 0.6464 0.3103
vt 0.8480 0.6296 0.2212
vt 0.7998 0.6903 0.7167
vt 0.6814 0.7078 0.7198
vt 0.8839 0.6992 0.1585
vt 0.3017 0.6723 0.3037
vt 0.7372 0.2126 0.7264
vt 0.7443 0.3334 0.7422
vt 0.7198 0.3186 0.7078
vt 0.6666 0.7422 0.7443
vt 0.8013 0.7576 0.7589
vt 0.6994 0.7736 0.7647
vt 0.9558 0.7775 0.2347
vt 0.2353 0.7736 0.3006
vt 0.2151 0.8097 0.3255
vt 0.1989 0.8618 0.9813
vt 0.2231 0.8178 0.9708
vt 0.8089 0.3497 0.8418
vt 0.8221 0.2315 0.8571
vt 0.8523 0.2073 0.8718
vt 0.8843 0.9059 0.2362
vt 0.8866 0.9220 0.3559
vt 0.9109 0.9350 0.2507
vt 0.9141 0.9513 0.3617
vt 0.9361 0.9668 0.2889
vt 0.9900 0.9492 0.2158
vt 0.9559 0.9560 0.2124
vt 0.3925 0.3023 0.2101
vt 0.4297 0.3263 0.2068
vt 0.4571 0.3499 0.2047
vt 0.4848 0.3734 0.1925
vt 0.5041 0.3983 0.1816
vt 0.4872 0.4206 0.2386
vt 0.5227 0.4223 0.1694
vt 0.5151 0.4450 0.2552
vt 0.5413 0.4223 0.1792
vt 0.5426 0.4700 0.2311
vt 0.5601 0.4467 0.1679
vt 0.5786 0.4703 0.1617
vt 0.5734 0.2388 0.5004
vt 0.5734 0.5004 0.2388
vt 0.5972 0.4943 0.1597
vt 0.6158 0.4943 0.1799
vt 0.6061 0.5327 0.2527
vt 0.6158 0.5183 0.1610
vt 0.6448 0.5185 0.1760
vt 0.6697 0.5175 0.2839
vt 0.6382 0.5587 0.1846
vt 0.6688 0.5396 0.1524
vt 0.6930 0.5479 0.2107
vt 0.6969 0.5384 0.3255
vt 0.3070 0.2107 0.5479
vt 0.6704 0.5770 0.1274
vt 0.7361 0.5859 0.1325
vt 0.7220 0.5657 0.2300
vt 0.6881 0.6156 0.1422
vt 0.8232 0.6059 0.2026
vt 0.8124 0.6317 0.0704
vt 0.7972 0.6050 0.1338
vt 0.8402 0.6428 0.1161
vt 0.8551 0.6834 0.0811
vt 0.8272 0.6677 0.0219
vt 0.7167 0.6903 0.2002
vt 0.7874 0.7264 0.7372
vt 0.7589 0.1987 0.7576
vt 0.7929 0.7931 0.7815
vt 0.9338 0.7660 0.1522
vt 0.6745 0.8097 0.7849
vt 0.7750 0.8281 0.8005
vt 0.8136 0.7993 0.1486
vt 0.8005 0.8281 0.2250
vt 0.7815 0.7931 0.2071
vt 0.7900 0.7656 0.1227
vt 0.2347 0.7775 0.9558
vt 0.9708 0.8178 0.2231
vt 0.9532 0.8034 0.1244
vt 0.7849 0.3255 0.8097
vt 0.8005 0.2250 0.8281
vt 0.8348 0.8282 0.1529
vt 0.8221 0.8571 0.2315
vt 0.9704 0.8375 0.1101
vt 0.1101 0.8375 0.9704
vt 0.8836 0.8719 0.1599
vt 0.8624 0.8409 0.1283
vt 0.9694 0.8784 0.0846
vt 0.9813 0.8618 0.1989
vt 0.1447 0.9036 0.9883
vt 0.9105 0.8992 0.1644
vt 0.9883 0.9036 0.1447
vt 0.9694 0.9249 0.1493
vt 0.9370 0.9241 0.1764
vt 0.2158 0.9492 0.9900
vt 0.9977 0.9199 0.2906
vt 0.7037 0.5784 0.1270
vt 0.7158 0.6211 0.0993
vt 0.7455 0.6224 0.0591
vt 0.7775 0.6258 0.0518
vt 0.7272 0.6610 0.1090
vt 0.7572 0.6637 0.0441
vt 0.7458 0.6980 0.1225
vt 0.7372 0.7264 0.2126
vt 0.7683 0.7322 0.1131
vt 0.7589 0.7576 0.1987
vt 0.8893 0.7314 0.0829
vt 0.7768 0.6992 0.0559
vt 0.8050 0.7353 0.0550
vt 0.8237 0.7732 0.0792
vt 0.9080 0.7629 0.0724
vt 0.9283 0.7965 0.0600
vt 0.8535 0.7988 0.0674
vt 0.8846 0.8282 0.0749
vt 0.9094 0.8610 0.0916
vt 0.9148 0.8282 0.0293
vt 0.9442 0.8443 0.0405
vt 0.9372 0.8849 0.1013
vt 0.9694 0.9024 0.1075
vt 0.7911 0.6603 0.0047
vt 0.8048 0.6979 0.0032
vt 0.8343 0.7118 0.0000
vt 0.8654 0.7185 0.0308
vt 0.8416 0.7525 0.0146
vt 0.8732 0.7630 0.0133
vt 0.8920 0.7947 0.0203
# 699 texture coords

o default
g default
usemtl default
s 1
f 1/1/1 2/2/2 3/3/3 
f 4/4/4 1/1/1 3/3/3 
f 1/1/1 5/5/5 6/6/6 
f 4/4/4 5/5/5 1/1/1 
f 7/7/7 5/5/5 4/4/4 
f 8/8/8 9/9/9 10/10/10 
f 3/11/3 8/8/8 10/10/10 
f 3/3/3 2/2/2 8/12/8 
f 11/13/11 8/12/8 2/2/2 
f 10/14/10 4/4/4 3/3/3 
f 10/14/10 12/15/12 4/4/4 
f 13/16/13 11/13/11 2/2/2 
f 6/6/6 13/16/13 2/2/2 
f 11/13/11 13/16/13 14/17/14 
f 12/15/12 7/7/7 4/4/4 
f 12/18/12 15/19/15 7/20/7 
f 6/6/6 2/2/2 1/1/1 
f 6/6/6 16/21/16 13/16/13 
f 17/22/17 14/17/14 13/16/13 
f 16/21/16 17/22/17 13/16/13 
f 17/22/17 18/23/18 14/17/14 
f 7/7/7 19/24/19 5/5/5 
f 7/25/7 15/26/15 19/27/19 
f 19/24/19 20/28/20 5/5/5 
f 5/5/5 20/28/20 6/6/6 
f 20/28/20 21/29/21 6/6/6 
f 21/29/21 16/21/16 6/6/6 
f 16/21/16 22/30/22 17/22/17 
f 23/31/23 22/30/22 16/21/16 
f 22/30/22 18/23/18 17/22/17 
f 22/30/22 24/32/24 18/23/18 
f 24/32/24 25/33/25 18/23/18 
f 24/32/24 26/34/26 25/33/25 
f 21/29/21 23/31/23 16/21/16 
f 27/35/27 23/31/23 21/29/21 
f 27/35/27 28/36/28 23/31/23 
f 23/31/23 29/37/29 22/30/22 
f 28/36/28 29/37/29 23/31/23 
f 22/30/22 29/37/29 24/32/24 
f 29/37/29 30/38/30 26/34/26 
f 10/10/10 9/9/9 31/39/31 
f 9/9/9 8/8/8 32/40/32 
f 8/8/8 11/41/11 32/40/32 
f 11/41/11 33/42/33 32/40/32 
f 12/18/12 10/43/10 31/44/31 
f 33/42/33 11/41/11 14/45/14 
f 14/45/14 34/46/34 33/42/33 
f 14/45/14 18/47/18 34/46/34 
f 34/46/34 18/47/18 25/48/25 
f 25/48/25 35/49/35 34/46/34 
f 19/27/19 15/26/15 36/50/36 
f 35/49/35 25/48/25 37/51/37 
f 37/52/37 25/33/25 26/34/26 
f 19/27/19 36/50/36 38/53/38 
f 38/54/38 20/28/20 19/24/19 
f 39/55/39 38/53/38 36/50/36 
f 38/54/38 21/29/21 20/28/20 
f 26/34/26 40/56/40 37/52/37 
f 26/34/26 30/38/30 40/56/40 
f 37/51/37 40/57/40 41/58/41 
f 21/29/21 38/54/38 27/35/27 
f 42/59/42 27/60/27 38/53/38 
f 43/61/43 28/62/28 27/60/27 
f 29/37/29 26/34/26 24/32/24 
f 40/56/40 44/63/44 45/64/45 
f 40/56/40 46/65/46 44/63/44 
f 47/66/47 48/67/48 28/62/28 
f 48/68/48 29/37/29 28/36/28 
f 48/68/48 30/38/30 29/37/29 
f 49/69/49 30/38/30 48/68/48 
f 46/65/46 40/56/40 30/38/30 
f 46/65/46 30/38/30 49/69/49 
f 50/70/50 46/65/46 49/69/49 
f 51/71/51 44/63/44 46/65/46 
f 52/72/52 50/70/50 49/69/49 
f 52/72/52 53/73/53 50/70/50 
f 51/71/51 46/65/46 50/70/50 
f 54/74/54 51/71/51 50/70/50 
f 51/71/51 55/75/55 44/63/44 
f 56/76/56 57/77/57 55/75/55 
f 54/74/54 50/70/50 53/73/53 
f 54/74/54 56/76/56 51/71/51 
f 56/76/56 55/75/55 51/71/51 
f 56/76/56 58/78/58 57/77/57 
f 56/76/56 59/79/59 58/78/58 
f 59/79/59 60/80/60 58/78/58 
f 61/81/61 31/82/31 62/83/62 
f 31/82/31 9/84/9 62/83/62 
f 9/84/9 32/85/32 63/86/63 
f 62/83/62 9/84/9 63/86/63 
f 63/86/63 32/85/32 64/87/64 
f 64/87/64 32/85/32 33/88/33 
f 31/44/31 61/89/61 12/18/12 
f 33/88/33 65/90/65 64/87/64 
f 34/46/34 66/91/66 65/92/65 
f 33/42/33 34/46/34 65/92/65 
f 61/89/61 15/19/15 12/18/12 
f 61/89/61 67/93/67 15/19/15 
f 35/49/35 66/91/66 34/46/34 
f 36/50/36 15/26/15 67/94/67 
f 37/95/37 68/96/68 35/97/35 
f 35/97/35 68/96/68 69/98/69 
f 39/55/39 42/59/42 38/53/38 
f 41/58/41 68/99/68 37/51/37 
f 41/58/41 40/57/40 45/100/45 
f 70/101/70 41/58/41 45/100/45 
f 42/59/42 43/61/43 27/60/27 
f 45/64/45 44/63/44 71/102/71 
f 45/100/45 71/103/71 70/101/70 
f 47/66/47 28/62/28 43/61/43 
f 47/104/47 72/105/72 48/68/48 
f 44/106/44 55/107/55 71/103/71 
f 55/75/55 57/77/57 71/102/71 
f 71/103/71 57/108/57 73/109/73 
f 72/105/72 49/69/49 48/68/48 
f 74/110/74 72/111/72 47/66/47 
f 73/109/73 57/108/57 75/112/75 
f 75/112/75 57/108/57 58/113/58 
f 75/112/75 58/113/58 60/114/60 
f 52/115/52 72/111/72 76/116/76 
f 77/117/77 53/118/53 52/115/52 
f 52/72/52 49/69/49 72/105/72 
f 53/118/53 77/117/77 78/119/78 
f 60/114/60 79/120/79 80/121/80 
f 60/80/60 81/122/81 79/123/79 
f 78/119/78 82/124/82 53/118/53 
f 82/125/82 54/74/54 53/73/53 
f 56/76/56 54/74/54 83/126/83 
f 83/126/83 54/74/54 82/125/82 
f 59/79/59 56/76/56 83/126/83 
f 84/127/84 85/128/85 83/126/83 
f 59/79/59 81/122/81 60/80/60 
f 81/122/81 59/79/59 85/128/85 
f 81/122/81 86/129/86 79/123/79 
f 79/123/79 86/129/86 87/130/87 
f 85/128/85 59/79/59 83/126/83 
f 84/127/84 83/126/83 82/125/82 
f 88/131/88 84/132/84 89/133/89 
f 90/134/90 81/122/81 85/128/85 
f 91/135/91 87/130/87 86/129/86 
f 91/135/91 92/136/92 87/130/87 
f 91/137/91 93/138/93 92/139/92 
f 94/140/94 92/141/92 95/142/95 
f 84/127/84 88/143/88 85/128/85 
f 90/134/90 86/129/86 81/122/81 
f 88/143/88 90/134/90 85/128/85 
f 96/144/96 91/135/91 86/129/86 
f 90/134/90 96/144/96 86/129/86 
f 97/145/97 91/135/91 96/144/96 
f 97/145/97 93/146/93 91/135/91 
f 97/145/97 98/147/98 93/146/93 
f 99/148/99 100/149/100 101/150/101 
f 88/143/88 102/151/102 90/134/90 
f 102/151/102 96/144/96 90/134/90 
f 102/151/102 103/152/103 96/144/96 
f 103/152/103 97/145/97 96/144/96 
f 103/152/103 104/153/104 97/145/97 
f 104/153/104 98/147/98 97/145/97 
f 100/149/100 99/148/99 93/138/93 
f 98/147/98 105/154/105 100/155/100 
f 98/147/98 100/155/100 93/146/93 
f 102/156/102 106/157/106 103/158/103 
f 107/159/107 103/152/103 106/160/106 
f 107/159/107 104/153/104 103/152/103 
f 108/161/108 98/147/98 104/153/104 
f 109/162/109 108/161/108 104/153/104 
f 108/161/108 105/154/105 98/147/98 
f 105/154/105 110/163/110 111/164/111 
f 111/164/111 110/163/110 112/165/112 
f 113/166/113 105/154/105 108/161/108 
f 114/167/114 113/166/113 108/161/108 
f 111/164/111 100/155/100 105/154/105 
f 113/166/113 110/163/110 105/154/105 
f 114/167/114 115/168/115 113/166/113 
f 116/169/116 110/163/110 113/166/113 
f 115/168/115 116/169/116 113/166/113 
f 117/170/117 112/165/112 110/163/110 
f 116/169/116 117/170/117 110/163/110 
f 112/165/112 117/170/117 118/171/118 
f 119/172/119 117/170/117 116/169/116 
f 119/172/119 120/173/120 117/170/117 
f 120/173/120 118/171/118 117/170/117 
f 121/174/121 122/175/122 123/176/123 
f 124/177/124 123/176/123 125/178/125 
f 123/176/123 124/177/124 126/179/126 
f 127/180/127 128/181/128 124/177/124 
f 129/182/129 127/180/127 125/178/125 
f 130/183/130 127/180/127 129/182/129 
f 128/181/128 127/180/127 130/183/130 
f 131/184/131 128/181/128 130/183/130 
f 130/183/130 132/185/132 131/184/131 
f 62/83/62 67/186/67 61/81/61 
f 63/86/63 64/87/64 133/187/133 
f 67/186/67 62/83/62 134/188/134 
f 62/83/62 133/187/133 134/188/134 
f 62/83/62 63/86/63 133/187/133 
f 133/187/133 64/87/64 135/189/135 
f 65/90/65 135/189/135 64/87/64 
f 66/190/66 136/191/136 65/90/65 
f 69/98/69 66/190/66 35/97/35 
f 136/191/136 66/190/66 69/98/69 
f 67/186/67 134/188/134 36/192/36 
f 39/193/39 134/188/134 133/187/133 
f 134/188/134 39/193/39 36/192/36 
f 133/187/133 137/194/137 39/193/39 
f 39/193/39 137/194/137 42/195/42 
f 138/196/138 42/195/42 137/194/137 
f 139/197/139 41/198/41 70/199/70 
f 139/197/139 70/199/70 140/200/140 
f 42/195/42 138/196/138 43/201/43 
f 43/61/43 141/202/141 47/66/47 
f 71/103/71 142/203/142 70/101/70 
f 70/199/70 142/204/142 140/200/140 
f 73/109/73 142/203/142 71/103/71 
f 141/202/141 74/110/74 47/66/47 
f 73/205/73 75/206/75 143/207/143 
f 76/116/76 72/111/72 74/110/74 
f 60/114/60 80/121/80 75/112/75 
f 80/208/80 144/209/144 75/206/75 
f 76/116/76 77/117/77 52/115/52 
f 80/121/80 79/120/79 145/210/145 
f 146/211/146 145/210/145 79/120/79 
f 146/211/146 79/120/79 87/212/87 
f 78/119/78 77/117/77 147/213/147 
f 87/212/87 92/139/92 94/214/94 
f 146/211/146 87/212/87 94/214/94 
f 78/215/78 148/216/148 82/125/82 
f 148/216/148 84/127/84 82/125/82 
f 92/141/92 99/217/99 95/142/95 
f 99/217/99 149/218/149 95/142/95 
f 93/138/93 99/148/99 92/139/92 
f 84/132/84 148/219/148 89/133/89 
f 89/133/89 148/219/148 150/220/150 
f 151/221/151 88/131/88 89/133/89 
f 101/150/101 100/149/100 111/222/111 
f 89/133/89 152/223/152 151/221/151 
f 151/221/151 102/156/102 88/131/88 
f 101/150/101 111/222/111 153/224/153 
f 102/156/102 151/221/151 106/157/106 
f 154/225/154 106/157/106 155/226/155 
f 156/227/156 107/228/107 106/157/106 
f 153/224/153 111/222/111 112/229/112 
f 153/224/153 112/229/112 157/230/157 
f 106/157/106 154/225/154 156/227/156 
f 156/227/156 109/231/109 107/228/107 
f 109/162/109 104/153/104 107/159/107 
f 157/230/157 112/229/112 118/232/118 
f 114/167/114 108/161/108 109/162/109 
f 158/233/158 114/167/114 109/162/109 
f 115/168/115 114/167/114 158/233/158 
f 157/234/157 118/235/118 159/236/159 
f 158/233/158 160/237/160 115/168/115 
f 116/169/116 115/168/115 119/172/119 
f 161/238/161 162/239/162 118/232/118 
f 120/173/120 161/240/161 118/171/118 
f 163/241/163 164/242/164 119/172/119 
f 115/168/115 163/241/163 119/172/119 
f 120/173/120 119/172/119 165/243/165 
f 164/242/164 165/243/165 119/172/119 
f 165/243/165 161/240/161 120/173/120 
f 165/243/165 166/244/166 161/240/161 
f 166/244/166 167/245/167 161/240/161 
f 168/246/168 169/247/169 170/248/170 
f 170/248/170 171/249/171 172/250/172 
f 173/251/173 174/252/174 175/253/175 
f 176/254/176 171/249/171 177/255/177 
f 176/254/176 172/250/172 171/249/171 
f 176/254/176 178/256/178 179/257/179 
f 177/255/177 178/256/178 176/254/176 
f 174/252/174 177/255/177 171/249/171 
f 180/258/180 174/252/174 181/259/181 
f 182/260/182 178/256/178 177/255/177 
f 180/258/180 182/260/182 177/255/177 
f 183/261/183 182/260/182 180/258/180 
f 184/262/184 183/261/183 180/258/180 
f 183/261/183 185/263/185 182/260/182 
f 185/263/185 186/264/186 187/265/187 
f 185/263/185 121/174/121 186/264/186 
f 188/266/188 184/262/184 189/267/189 
f 190/268/190 185/263/185 183/261/183 
f 188/266/188 190/268/190 183/261/183 
f 121/174/121 185/263/185 190/268/190 
f 122/175/122 121/174/121 190/268/190 
f 186/264/186 121/174/121 191/269/191 
f 188/266/188 183/261/183 184/262/184 
f 188/266/188 192/270/192 190/268/190 
f 192/270/192 122/175/122 190/268/190 
f 123/176/123 191/269/191 121/174/121 
f 123/176/123 126/179/126 191/269/191 
f 193/271/193 188/266/188 189/267/189 
f 193/271/193 189/267/189 194/272/194 
f 192/270/192 188/266/188 193/271/193 
f 125/178/125 122/175/122 192/270/192 
f 195/273/195 125/178/125 192/270/192 
f 125/178/125 123/176/123 122/175/122 
f 128/181/128 126/179/126 124/177/124 
f 124/177/124 125/178/125 127/180/127 
f 128/181/128 196/274/196 126/179/126 
f 192/270/192 193/271/193 195/273/195 
f 125/178/125 195/273/195 129/182/129 
f 197/275/197 129/182/129 195/273/195 
f 130/183/130 129/182/129 198/276/198 
f 132/185/132 130/183/130 198/276/198 
f 199/277/199 200/278/200 201/279/201 
f 198/276/198 129/182/129 197/275/197 
f 202/280/202 198/276/198 197/275/197 
f 203/281/203 132/185/132 204/282/204 
f 131/184/131 132/185/132 205/283/205 
f 205/283/205 201/284/201 131/184/131 
f 203/281/203 205/283/205 132/185/132 
f 132/185/132 198/276/198 204/282/204 
f 206/285/206 207/286/207 203/281/203 
f 205/283/205 203/281/203 207/286/207 
f 208/287/208 203/281/203 204/282/204 
f 208/287/208 206/285/206 203/281/203 
f 209/288/209 207/286/207 206/285/206 
f 210/289/210 208/287/208 211/290/211 
f 212/291/212 206/285/206 208/287/208 
f 213/292/213 207/286/207 209/288/209 
f 212/291/212 208/287/208 210/289/210 
f 209/288/209 206/285/206 212/291/212 
f 135/189/135 136/191/136 214/293/214 
f 135/189/135 65/90/65 136/191/136 
f 135/189/135 137/194/137 133/187/133 
f 135/189/135 214/293/214 137/194/137 
f 214/293/214 215/294/215 138/196/138 
f 136/191/136 215/294/215 214/293/214 
f 216/295/216 215/294/215 69/98/69 
f 69/98/69 215/294/215 136/191/136 
f 216/295/216 69/98/69 68/96/68 
f 214/293/214 138/196/138 137/194/137 
f 215/294/215 141/296/141 138/196/138 
f 216/295/216 68/96/68 217/297/217 
f 41/198/41 217/297/217 68/96/68 
f 217/297/217 41/198/41 139/197/139 
f 141/296/141 218/298/218 74/299/74 
f 141/202/141 43/61/43 138/300/138 
f 215/294/215 218/298/218 141/296/141 
f 215/294/215 216/295/216 218/298/218 
f 218/298/218 216/295/216 219/301/219 
f 219/301/219 216/295/216 217/297/217 
f 74/299/74 218/298/218 220/302/220 
f 220/302/220 218/298/218 219/301/219 
f 76/116/76 220/303/220 221/304/221 
f 74/299/74 220/302/220 76/305/76 
f 75/112/75 144/306/144 143/307/143 
f 144/209/144 80/208/80 145/308/145 
f 77/117/77 76/116/76 147/213/147 
f 145/308/145 222/309/222 144/209/144 
f 223/310/223 145/308/145 146/311/146 
f 224/312/224 148/219/148 78/119/78 
f 94/140/94 225/313/225 146/311/146 
f 94/140/94 95/142/95 226/314/226 
f 226/314/226 95/142/95 149/218/149 
f 149/218/149 99/217/99 101/315/101 
f 89/133/89 150/220/150 152/223/152 
f 151/221/151 152/223/152 227/316/227 
f 227/316/227 155/226/155 151/221/151 
f 155/226/155 106/157/106 151/221/151 
f 153/317/153 228/318/228 101/315/101 
f 101/315/101 228/318/228 149/218/149 
f 229/319/229 156/227/156 154/225/154 
f 157/234/157 230/320/230 153/317/153 
f 153/317/153 230/320/230 228/318/228 
f 156/227/156 231/321/231 109/231/109 
f 118/235/118 232/322/232 159/236/159 
f 231/321/231 158/323/158 109/231/109 
f 118/235/118 162/324/162 232/322/232 
f 158/323/158 233/325/233 160/326/160 
f 160/326/160 234/327/234 163/328/163 
f 163/241/163 115/168/115 160/237/160 
f 164/329/164 163/328/163 234/327/234 
f 162/330/162 161/331/161 167/332/167 
f 235/333/235 162/239/162 167/334/167 
f 236/335/236 234/327/234 160/326/160 
f 234/336/234 237/337/237 164/242/164 
f 238/338/238 165/243/165 164/242/164 
f 237/337/237 238/338/238 164/242/164 
f 238/338/238 237/337/237 239/339/239 
f 166/244/166 165/243/165 238/338/238 
f 240/340/240 241/341/241 167/245/167 
f 235/333/235 167/334/167 241/342/241 
f 240/340/240 166/244/166 238/338/238 
f 240/340/240 167/245/167 166/244/166 
f 240/340/240 242/343/242 241/341/241 
f 241/341/241 242/343/242 243/344/243 
f 244/345/244 242/343/242 245/346/245 
f 242/343/242 246/347/246 245/346/245 
f 244/345/244 243/344/243 242/343/242 
f 243/344/243 244/345/244 247/348/247 
f 248/349/248 247/348/247 244/345/244 
f 248/349/248 249/350/249 247/348/247 
f 248/349/248 250/351/250 249/350/249 
f 247/348/247 249/350/249 251/352/251 
f 252/353/252 250/351/250 253/354/253 
f 254/355/254 255/356/255 249/350/249 
f 249/357/249 255/358/255 251/359/251 
f 251/359/251 255/358/255 256/360/256 
f 248/349/248 253/354/253 250/351/250 
f 254/355/254 249/350/249 250/351/250 
f 257/361/257 254/355/254 250/351/250 
f 168/246/168 255/356/255 254/355/254 
f 254/355/254 169/247/169 168/246/168 
f 255/358/255 168/362/168 256/360/256 
f 256/363/256 168/246/168 258/364/258 
f 257/361/257 250/351/250 252/353/252 
f 257/361/257 259/365/259 169/247/169 
f 172/250/172 258/364/258 168/246/168 
f 172/250/172 176/254/176 260/366/260 
f 168/246/168 170/248/170 172/250/172 
f 176/254/176 179/257/179 260/366/260 
f 169/247/169 254/355/254 257/361/257 
f 259/365/259 170/248/170 169/247/169 
f 170/248/170 175/253/175 171/249/171 
f 259/365/259 175/253/175 170/248/170 
f 171/249/171 175/253/175 174/252/174 
f 179/257/179 178/256/178 261/367/261 
f 187/265/187 261/367/261 178/256/178 
f 173/251/173 262/368/262 174/252/174 
f 262/368/262 181/259/181 174/252/174 
f 177/255/177 174/252/174 180/258/180 
f 182/260/182 187/265/187 178/256/178 
f 187/265/187 186/264/186 263/369/263 
f 182/260/182 185/263/185 187/265/187 
f 180/258/180 181/259/181 184/262/184 
f 191/269/191 264/370/264 186/264/186 
f 184/262/184 181/259/181 265/371/265 
f 266/372/266 264/370/264 191/269/191 
f 191/269/191 126/179/126 266/372/266 
f 266/372/266 126/179/126 196/274/196 
f 128/181/128 267/373/267 196/274/196 
f 131/184/131 267/373/267 128/181/128 
f 268/374/268 269/375/269 196/274/196 
f 267/373/267 131/184/131 201/284/201 
f 270/376/270 195/273/195 193/271/193 
f 201/279/201 271/377/271 267/378/267 
f 272/379/272 273/380/273 270/376/270 
f 274/381/274 273/380/273 275/382/275 
f 197/275/197 195/273/195 270/376/270 
f 201/279/201 200/278/200 271/377/271 
f 205/283/205 199/383/199 201/284/201 
f 270/376/270 276/384/276 197/275/197 
f 202/280/202 276/384/276 277/385/277 
f 197/275/197 276/384/276 202/280/202 
f 198/276/198 202/280/202 204/282/204 
f 199/277/199 205/386/205 207/387/207 
f 213/388/213 278/389/278 199/277/199 
f 277/385/277 211/290/211 202/280/202 
f 204/282/204 211/290/211 208/287/208 
f 207/286/207 213/292/213 199/383/199 
f 202/280/202 211/290/211 204/282/204 
f 279/390/279 211/290/211 277/385/277 
f 213/388/213 209/391/209 280/392/280 
f 210/289/210 281/393/281 212/291/212 
f 282/394/282 281/395/281 279/396/279 
f 212/291/212 283/397/283 209/288/209 
f 283/398/283 280/392/280 209/391/209 
f 281/393/281 284/399/284 212/291/212 
f 283/397/283 284/399/284 285/400/285 
f 212/291/212 284/399/284 283/397/283 
f 219/301/219 139/197/139 286/401/286 
f 286/401/286 221/402/221 220/302/220 
f 217/297/217 139/197/139 219/301/219 
f 140/200/140 287/403/287 286/401/286 
f 139/197/139 140/200/140 286/401/286 
f 288/404/288 287/403/287 140/200/140 
f 142/204/142 288/404/288 140/200/140 
f 288/404/288 142/204/142 289/405/289 
f 286/401/286 220/302/220 219/301/219 
f 286/401/286 287/403/287 221/402/221 
f 288/404/288 290/406/290 287/403/287 
f 290/406/290 291/407/291 287/403/287 
f 143/207/143 289/405/289 142/204/142 
f 289/405/289 290/406/290 288/404/288 
f 142/204/142 73/205/73 143/207/143 
f 289/405/289 143/207/143 292/408/292 
f 292/408/292 143/207/143 144/209/144 
f 147/213/147 76/116/76 221/304/221 
f 147/409/147 291/407/291 224/410/224 
f 287/403/287 291/407/291 147/409/147 
f 221/402/221 287/403/287 147/409/147 
f 144/209/144 222/309/222 292/408/292 
f 145/308/145 223/310/223 222/309/222 
f 147/213/147 224/312/224 78/119/78 
f 225/313/225 223/310/223 146/311/146 
f 225/313/225 94/140/94 226/314/226 
f 293/411/293 150/220/150 294/412/294 
f 150/220/150 148/219/148 224/312/224 
f 226/314/226 295/413/295 225/313/225 
f 293/411/293 152/223/152 150/220/150 
f 149/218/149 228/318/228 296/414/296 
f 229/319/229 231/321/231 156/227/156 
f 230/320/230 157/234/157 159/236/159 
f 297/415/297 159/236/159 232/322/232 
f 297/415/297 232/322/232 298/416/298 
f 298/416/298 232/322/232 162/324/162 
f 160/326/160 233/325/233 236/335/236 
f 236/335/236 233/325/233 299/417/299 
f 298/416/298 162/324/162 235/418/235 
f 298/416/298 300/419/300 301/420/301 
f 239/421/239 237/422/237 302/423/302 
f 303/424/303 300/419/300 235/418/235 
f 240/340/240 238/338/238 239/339/239 
f 243/425/243 303/426/303 241/342/241 
f 241/342/241 303/426/303 235/333/235 
f 246/347/246 242/343/242 240/340/240 
f 304/427/304 303/426/303 243/425/243 
f 304/427/304 243/425/243 247/428/247 
f 245/346/245 248/349/248 244/345/244 
f 305/429/305 248/349/248 245/346/245 
f 304/427/304 247/428/247 251/359/251 
f 251/359/251 306/430/306 304/427/304 
f 305/429/305 245/346/245 307/431/307 
f 248/349/248 305/429/305 253/354/253 
f 251/359/251 308/432/308 306/430/306 
f 309/433/309 308/432/308 256/360/256 
f 258/434/258 260/435/260 310/436/310 
f 258/364/258 172/250/172 260/366/260 
f 259/365/259 257/361/257 311/437/311 
f 311/437/311 312/438/312 259/365/259 
f 260/366/260 179/257/179 313/439/313 
f 314/440/314 261/367/261 263/369/263 
f 179/257/179 261/367/261 315/441/315 
f 261/367/261 187/265/187 263/369/263 
f 186/264/186 316/442/316 263/369/263 
f 186/264/186 264/370/264 316/442/316 
f 316/443/316 264/444/264 317/445/317 
f 264/444/264 266/446/266 317/445/317 
f 317/445/317 266/446/266 318/447/318 
f 262/368/262 319/448/319 265/371/265 
f 265/371/265 181/259/181 262/368/262 
f 318/447/318 266/446/266 269/449/269 
f 184/262/184 265/371/265 189/267/189 
f 320/450/320 189/267/189 265/371/265 
f 269/449/269 321/451/321 318/447/318 
f 269/375/269 266/372/266 196/274/196 
f 189/267/189 320/450/320 194/272/194 
f 196/452/196 267/378/267 268/453/268 
f 193/271/193 194/272/194 272/379/272 
f 271/377/271 322/454/322 268/453/268 
f 267/378/267 271/377/271 268/453/268 
f 323/455/323 324/456/324 200/278/200 
f 199/277/199 278/389/278 200/278/200 
f 276/384/276 325/457/325 277/385/277 
f 326/458/326 279/396/279 277/459/277 
f 278/389/278 327/460/327 323/455/323 
f 278/389/278 213/388/213 280/392/280 
f 210/289/210 211/290/211 279/390/279 
f 281/393/281 210/289/210 279/390/279 
f 328/461/328 280/392/280 283/398/283 
f 291/407/291 294/462/294 224/410/224 
f 290/406/290 329/463/329 294/462/294 
f 292/408/292 290/406/290 289/405/289 
f 290/406/290 294/462/294 291/407/291 
f 290/406/290 292/408/292 329/463/329 
f 222/309/222 330/464/330 292/408/292 
f 292/408/292 330/464/330 329/463/329 
f 331/465/331 330/464/330 222/309/222 
f 331/465/331 222/309/222 223/310/223 
f 294/412/294 150/220/150 224/312/224 
f 294/462/294 329/463/329 293/466/293 
f 330/464/330 332/467/332 293/466/293 
f 329/463/329 330/464/330 293/466/293 
f 332/467/332 330/464/330 331/465/331 
f 333/468/333 332/467/332 331/465/331 
f 223/310/223 334/469/334 331/465/331 
f 295/413/295 335/470/335 223/310/223 
f 335/470/335 334/469/334 223/310/223 
f 223/310/223 225/313/225 295/413/295 
f 293/411/293 227/316/227 152/223/152 
f 336/471/336 227/472/227 333/468/333 
f 227/472/227 293/466/293 332/467/332 
f 333/468/333 227/472/227 332/467/332 
f 296/414/296 226/314/226 149/218/149 
f 226/314/226 296/414/296 337/473/337 
f 155/226/155 227/316/227 336/474/336 
f 338/475/338 154/225/154 155/226/155 
f 336/474/336 338/475/338 155/226/155 
f 154/225/154 338/475/338 339/476/339 
f 229/319/229 154/225/154 339/476/339 
f 340/477/340 233/478/233 231/479/231 
f 340/480/340 231/321/231 229/319/229 
f 159/236/159 341/481/341 230/320/230 
f 341/481/341 159/236/159 297/415/297 
f 231/321/231 233/325/233 158/323/158 
f 236/335/236 342/482/342 343/483/343 
f 343/483/343 237/422/237 234/327/234 
f 236/335/236 343/483/343 234/327/234 
f 300/419/300 298/416/298 235/418/235 
f 237/422/237 343/483/343 302/423/302 
f 300/419/300 344/484/344 345/485/345 
f 300/419/300 303/424/303 344/484/344 
f 240/340/240 239/339/239 246/347/246 
f 304/486/304 344/484/344 303/424/303 
f 304/486/304 346/487/346 344/484/344 
f 347/488/347 305/489/305 307/490/307 
f 348/491/348 305/489/305 347/488/347 
f 256/360/256 308/432/308 251/359/251 
f 256/360/256 258/434/258 309/433/309 
f 258/434/258 310/436/310 309/433/309 
f 253/492/253 348/493/348 349/494/349 
f 349/494/349 252/495/252 253/492/253 
f 310/436/310 313/496/313 350/497/350 
f 310/436/310 260/435/260 313/496/313 
f 252/498/252 349/499/349 311/500/311 
f 257/361/257 252/353/252 311/437/311 
f 315/441/315 313/439/313 179/257/179 
f 314/440/314 315/441/315 261/367/261 
f 351/501/351 314/440/314 263/369/263 
f 259/365/259 312/438/312 175/253/175 
f 175/253/175 312/438/312 173/251/173 
f 352/502/352 173/503/173 312/504/312 
f 263/505/263 316/443/316 351/506/351 
f 351/506/351 316/443/316 353/507/353 
f 262/368/262 173/251/173 354/508/354 
f 353/507/353 316/443/316 317/445/317 
f 355/509/355 353/510/353 317/511/317 
f 355/509/355 317/511/317 318/512/318 
f 355/509/355 356/513/356 357/514/357 
f 318/512/318 356/513/356 355/509/355 
f 318/512/318 321/515/321 356/513/356 
f 269/516/269 268/453/268 321/517/321 
f 268/453/268 322/454/322 321/517/321 
f 272/379/272 275/382/275 273/380/273 
f 272/379/272 270/376/270 193/271/193 
f 200/278/200 324/456/324 271/377/271 
f 271/377/271 324/456/324 322/454/322 
f 274/381/274 325/457/325 273/380/273 
f 358/518/358 359/519/359 274/520/274 
f 276/384/276 270/376/270 273/380/273 
f 278/389/278 323/455/323 200/278/200 
f 274/521/274 359/522/359 325/523/325 
f 276/384/276 273/380/273 325/457/325 
f 326/458/326 277/459/277 325/523/325 
f 360/524/360 361/525/361 281/395/281 
f 285/526/285 362/527/362 328/528/328 
f 283/398/283 285/529/285 328/461/328 
f 284/530/284 281/395/281 361/525/361 
f 361/525/361 285/531/285 284/530/284 
f 361/532/361 362/527/362 285/526/285 
f 333/468/333 331/465/331 334/469/334 
f 333/468/333 334/469/334 336/471/336 
f 334/469/334 363/533/363 336/471/336 
f 334/469/334 335/470/335 363/533/363 
f 295/413/295 364/534/364 363/533/363 
f 295/413/295 363/533/363 335/470/335 
f 364/534/364 295/413/295 337/473/337 
f 295/413/295 226/314/226 337/473/337 
f 336/471/336 363/533/363 338/535/338 
f 363/533/363 364/534/364 365/536/365 
f 363/533/363 365/536/365 338/535/338 
f 366/537/366 338/535/338 365/536/365 
f 338/535/338 366/537/366 339/538/339 
f 339/476/339 340/480/340 229/319/229 
f 337/473/337 296/414/296 367/539/367 
f 368/540/368 296/414/296 228/318/228 
f 368/540/368 228/318/228 369/541/369 
f 366/537/366 370/542/370 340/543/340 
f 339/538/339 366/537/366 340/543/340 
f 371/544/371 340/543/340 370/542/370 
f 299/545/299 233/478/233 340/477/340 
f 371/544/371 372/546/372 299/547/299 
f 371/544/371 299/547/299 340/543/340 
f 373/548/373 341/481/341 297/415/297 
f 342/549/342 299/547/299 372/546/372 
f 342/482/342 236/335/236 299/417/299 
f 374/550/374 343/483/343 375/551/375 
f 343/483/343 342/482/342 375/551/375 
f 302/423/302 343/483/343 374/550/374 
f 376/552/376 377/553/377 302/423/302 
f 377/554/377 239/339/239 302/555/302 
f 239/339/239 377/554/377 246/347/246 
f 246/347/246 377/554/377 307/431/307 
f 245/346/245 246/347/246 307/431/307 
f 348/493/348 253/492/253 305/556/305 
f 309/433/309 310/436/310 350/497/350 
f 348/557/348 378/558/378 349/559/349 
f 350/497/350 379/560/379 309/433/309 
f 313/496/313 380/561/380 350/497/350 
f 350/562/350 380/563/380 381/564/381 
f 315/565/315 382/566/382 380/561/380 
f 313/496/313 315/565/315 380/561/380 
f 311/500/311 349/499/349 383/567/383 
f 378/558/378 383/568/383 349/559/349 
f 384/569/384 382/566/382 314/570/314 
f 382/566/382 315/565/315 314/570/314 
f 314/570/314 351/506/351 384/569/384 
f 312/571/312 383/572/383 352/573/352 
f 352/574/352 383/568/383 385/575/385 
f 386/576/386 351/577/351 353/510/353 
f 384/578/384 351/577/351 386/576/386 
f 387/579/387 354/580/354 352/573/352 
f 388/581/388 353/510/353 355/509/355 
f 354/508/354 173/251/173 352/582/352 
f 354/508/354 319/448/319 262/368/262 
f 389/583/389 319/584/319 354/585/354 
f 319/586/319 390/587/390 391/588/391 
f 320/450/320 265/371/265 319/448/319 
f 356/513/356 321/515/321 392/589/392 
f 320/450/320 319/448/319 391/590/391 
f 393/591/393 194/272/194 320/450/320 
f 391/590/391 393/591/393 320/450/320 
f 393/591/393 275/382/275 194/272/194 
f 275/382/275 272/379/272 194/272/194 
f 324/456/324 394/592/394 395/593/395 
f 322/454/322 324/456/324 395/593/395 
f 274/521/274 275/594/275 396/595/396 
f 396/595/396 358/596/358 274/521/274 
f 359/519/359 358/518/358 397/597/397 
f 324/456/324 323/455/323 394/592/394 
f 326/458/326 325/523/325 359/522/359 
f 359/519/359 397/597/397 326/598/326 
f 280/392/280 327/460/327 278/389/278 
f 326/598/326 397/597/397 398/599/398 
f 326/458/326 282/394/282 279/396/279 
f 282/600/282 326/598/326 398/599/398 
f 398/599/398 360/601/360 282/600/282 
f 327/460/327 280/392/280 328/461/328 
f 399/602/399 328/528/328 362/527/362 
f 282/394/282 360/524/360 281/395/281 
f 360/601/360 362/527/362 361/532/361 
f 400/603/400 362/527/362 360/601/360 
f 337/473/337 401/604/401 364/534/364 
f 365/536/365 364/534/364 401/604/401 
f 401/604/401 337/473/337 367/539/367 
f 401/604/401 366/537/366 365/536/365 
f 401/604/401 367/539/367 370/542/370 
f 366/537/366 401/604/401 370/542/370 
f 367/539/367 402/605/402 370/542/370 
f 296/414/296 368/540/368 402/605/402 
f 402/605/402 367/539/367 296/414/296 
f 370/542/370 402/605/402 371/544/371 
f 402/605/402 403/606/403 371/544/371 
f 402/605/402 368/540/368 403/606/403 
f 369/541/369 403/606/403 368/540/368 
f 230/320/230 369/541/369 228/318/228 
f 369/541/369 230/320/230 341/481/341 
f 371/544/371 403/606/403 372/546/372 
f 403/606/403 404/607/404 372/546/372 
f 404/607/404 403/606/403 369/541/369 
f 404/607/404 369/541/369 341/481/341 
f 404/607/404 341/481/341 405/608/405 
f 372/546/372 375/609/375 342/549/342 
f 341/481/341 373/548/373 405/608/405 
f 372/546/372 404/607/404 375/609/375 
f 404/607/404 405/608/405 375/609/375 
f 406/610/406 375/609/375 405/608/405 
f 406/610/406 374/611/374 375/609/375 
f 405/608/405 373/548/373 406/610/406 
f 407/612/407 406/610/406 373/548/373 
f 407/612/407 373/548/373 297/415/297 
f 407/612/407 297/415/297 301/420/301 
f 406/610/406 376/613/376 374/611/374 
f 406/610/406 407/612/407 376/613/376 
f 408/614/408 376/613/376 407/612/407 
f 408/614/408 407/612/407 301/420/301 
f 297/415/297 298/416/298 301/420/301 
f 374/550/374 376/552/376 302/423/302 
f 408/614/408 409/615/409 376/613/376 
f 408/614/408 301/420/301 409/615/409 
f 345/485/345 409/615/409 301/420/301 
f 376/552/376 410/616/410 377/553/377 
f 409/615/409 410/617/410 376/613/376 
f 409/615/409 411/618/411 410/617/410 
f 409/615/409 345/485/345 411/618/411 
f 412/619/412 411/618/411 345/485/345 
f 344/484/344 412/619/412 345/485/345 
f 301/420/301 300/419/300 345/485/345 
f 410/616/410 307/490/307 377/553/377 
f 410/617/410 411/618/411 347/620/347 
f 307/490/307 410/616/410 347/488/347 
f 411/618/411 413/621/413 347/620/347 
f 411/618/411 412/619/412 413/621/413 
f 414/622/414 413/621/413 412/619/412 
f 414/622/414 412/619/412 346/487/346 
f 412/619/412 344/484/344 346/487/346 
f 346/487/346 304/486/304 306/623/306 
f 413/621/413 415/624/415 347/620/347 
f 413/621/413 414/622/414 415/624/415 
f 415/624/415 414/622/414 416/625/416 
f 414/622/414 306/623/306 416/625/416 
f 414/622/414 346/487/346 306/623/306 
f 416/625/416 306/623/306 417/626/417 
f 417/626/417 306/623/306 308/627/308 
f 347/620/347 415/624/415 348/557/348 
f 415/624/415 378/558/378 348/557/348 
f 379/560/379 308/432/308 309/433/309 
f 417/628/417 308/432/308 379/560/379 
f 415/624/415 418/629/418 378/558/378 
f 350/562/350 381/564/381 419/630/419 
f 379/631/379 350/562/350 419/630/419 
f 385/575/385 383/568/383 420/632/420 
f 382/633/382 421/634/421 422/635/422 
f 382/633/382 422/635/422 380/563/380 
f 423/636/423 382/633/382 384/578/384 
f 383/567/383 312/504/312 311/500/311 
f 423/636/423 424/637/424 425/638/425 
f 386/576/386 423/636/423 384/578/384 
f 386/576/386 353/510/353 388/581/388 
f 352/574/352 385/575/385 387/639/387 
f 389/640/389 354/580/354 387/579/387 
f 390/641/390 319/584/319 389/583/389 
f 391/588/391 390/587/390 426/642/426 
f 427/643/427 356/513/356 392/589/392 
f 357/514/357 356/513/356 427/643/427 
f 393/644/393 391/588/391 426/642/426 
f 428/645/428 393/644/393 426/642/426 
f 429/646/429 428/647/428 426/648/426 
f 429/646/429 426/648/426 430/649/430 
f 321/517/321 322/454/322 392/650/392 
f 395/651/395 431/652/431 392/589/392 
f 393/653/393 428/654/428 275/594/275 
f 432/655/432 428/647/428 429/646/429 
f 322/454/322 395/593/395 392/650/392 
f 275/594/275 428/654/428 396/595/396 
f 428/647/428 432/655/432 396/656/396 
f 395/651/395 433/657/433 431/652/431 
f 395/593/395 394/592/394 433/658/433 
f 432/655/432 358/518/358 396/656/396 
f 358/518/358 434/659/434 397/597/397 
f 435/660/435 434/659/434 358/518/358 
f 436/661/436 433/657/433 394/662/394 
f 323/455/323 327/460/327 437/663/437 
f 438/664/438 398/599/398 397/597/397 
f 437/665/437 399/602/399 439/666/439 
f 394/592/394 323/455/323 437/663/437 
f 398/599/398 440/667/440 360/601/360 
f 438/664/438 440/667/440 398/599/398 
f 440/667/440 439/666/439 400/603/400 
f 439/666/439 399/602/399 400/603/400 
f 437/663/437 327/460/327 399/668/399 
f 327/669/327 328/528/328 399/602/399 
f 360/601/360 440/667/440 400/603/400 
f 400/603/400 399/602/399 362/527/362 
f 418/629/418 415/624/415 416/625/416 
f 418/629/418 416/625/416 417/626/417 
f 418/629/418 420/632/420 378/558/378 
f 418/629/418 441/670/441 420/632/420 
f 441/670/441 418/629/418 417/626/417 
f 441/670/441 417/626/417 379/631/379 
f 441/670/441 379/631/379 419/630/419 
f 378/558/378 420/632/420 383/568/383 
f 441/670/441 442/671/442 420/632/420 
f 420/632/420 442/671/442 385/575/385 
f 419/630/419 442/671/442 441/670/441 
f 419/630/419 381/564/381 443/672/443 
f 444/673/444 381/564/381 422/635/422 
f 443/672/443 381/564/381 444/673/444 
f 381/564/381 380/563/380 422/635/422 
f 382/633/382 423/636/423 421/634/421 
f 442/671/442 419/630/419 443/672/443 
f 445/674/445 442/671/442 443/672/443 
f 421/634/421 423/636/423 425/638/425 
f 424/637/424 423/636/423 386/576/386 
f 385/575/385 442/671/442 445/674/445 
f 385/575/385 445/674/445 387/639/387 
f 446/675/446 445/674/445 443/672/443 
f 445/674/445 447/676/447 387/639/387 
f 387/639/387 447/676/447 389/677/389 
f 447/676/447 448/678/448 389/677/389 
f 389/677/389 448/678/448 390/679/390 
f 448/678/448 430/649/430 390/679/390 
f 449/680/449 388/581/388 357/514/357 
f 388/581/388 355/509/355 357/514/357 
f 450/681/450 451/682/451 448/678/448 
f 390/679/390 430/649/430 426/648/426 
f 452/683/452 429/646/429 430/649/430 
f 453/684/453 449/680/449 357/514/357 
f 452/683/452 430/649/430 451/682/451 
f 453/684/453 357/514/357 427/643/427 
f 453/684/453 427/643/427 454/685/454 
f 431/652/431 427/643/427 392/589/392 
f 454/685/454 427/643/427 431/652/431 
f 455/686/455 432/655/432 429/646/429 
f 435/660/435 358/518/358 432/655/432 
f 455/686/455 456/687/456 435/660/435 
f 457/688/457 456/687/456 458/689/458 
f 459/690/459 454/685/454 431/652/431 
f 431/652/431 433/657/433 459/690/459 
f 459/690/459 436/661/436 460/691/460 
f 459/690/459 433/657/433 436/661/436 
f 438/664/438 397/597/397 434/659/434 
f 456/687/456 457/688/457 434/659/434 
f 434/659/434 457/688/457 438/664/438 
f 457/688/457 460/691/460 438/664/438 
f 436/661/436 461/692/461 460/691/460 
f 460/691/460 440/667/440 438/664/438 
f 437/665/437 461/692/461 436/661/436 
f 437/665/437 436/661/436 394/662/394 
f 460/691/460 461/692/461 440/667/440 
f 440/667/440 461/692/461 439/666/439 
f 439/666/439 461/692/461 437/665/437 
f 444/673/444 422/635/422 421/634/421 
f 444/673/444 462/693/462 446/675/446 
f 443/672/443 444/673/444 446/675/446 
f 425/638/425 463/694/463 462/693/462 
f 444/673/444 421/634/421 462/693/462 
f 425/638/425 462/693/462 421/634/421 
f 446/675/446 447/676/447 445/674/445 
f 450/681/450 448/678/448 447/676/447 
f 462/693/462 463/694/463 450/681/450 
f 464/695/464 463/694/463 425/638/425 
f 450/681/450 447/676/447 446/675/446 
f 462/693/462 450/681/450 446/675/446 
f 450/681/450 463/694/463 451/682/451 
f 424/637/424 465/696/465 464/695/464 
f 425/638/425 424/637/424 464/695/464 
f 424/637/424 388/581/388 465/696/465 
f 451/682/451 430/649/430 448/678/448 
f 463/694/463 464/695/464 451/682/451 
f 464/695/464 465/696/465 466/697/466 
f 449/680/449 465/696/465 388/581/388 
f 424/637/424 386/576/386 388/581/388 
f 466/697/466 452/683/452 451/682/451 
f 464/695/464 466/697/466 451/682/451 
f 466/697/466 467/698/467 455/686/455 
f 465/696/465 467/698/467 466/697/466 
f 465/696/465 449/680/449 467/698/467 
f 453/684/453 467/698/467 449/680/449 
f 466/697/466 455/686/455 452/683/452 
f 467/698/467 453/684/453 468/699/468 
f 455/686/455 429/646/429 452/683/452 
f 432/655/432 455/686/455 435/660/435 
f 468/699/468 455/686/455 467/698/467 
f 468/699/468 456/687/456 455/686/455 
f 454/685/454 468/699/468 453/684/453 
f 456/687/456 468/699/468 458/689/458 
f 468/699/468 454/685/454 458/689/458 
f 434/659/434 435/660/435 456/687/456 
f 458/689/458 459/690/459 457/688/457 
f 458/689/458 454/685/454 459/690/459 
f 459/690/459 460/691/460 457/688/457 
# 0 polygons - 932 triangles

