v 10.4484 -37.5993 5.80868
v 9.96523 -37.6711 5.95485
v 10.9555 -37.8471 5.88524
v 10.3771 -37.0711 5.78326
v 11.4196 -37.5158 5.83399
v 10.8813 -37.3377 5.69246
v 10.099 -36.8191 6.33755
v 10.8271 -36.7972 5.60159
v 11.7776 -36.8916 5.73251
v 11.3082 -37.0488 5.66116
v 12.2485 -36.8859 5.86806
v 10.9194 -36.3219 5.79474
v 11.3707 -36.5395 5.57921
v 11.8582 -36.3058 5.7498
v 12.2766 -36.3751 6.05984
v 11.3742 -36.0631 5.81716
v 12.0301 -39.464 6.21828
v 12.5406 -39.2012 6.22342
v 11.5241 -39.0906 6.19649
v 12.5453 -38.6876 6.19547
v 10.9788 -38.8055 6.26141
v 11.5321 -38.5414 6.11575
v 12.0253 -38.9026 6.15182
v 9.96384 -38.3673 6.47368
v 10.5547 -38.4426 6.26289
v 10.3578 -38.0576 6.06255
v 11.0547 -38.2731 6.0718
v 12.0729 -38.3486 6.10112
v 9.74011 -37.9357 6.2666
v 11.6208 -37.9739 6.01261
v 12.2372 -37.8247 6.07311
v 11.9359 -37.4027 5.92174
v 9.94718 -37.1992 6.0565
v 12.4958 -37.3509 6.09644
v 12.7035 -36.7808 6.13993
v 10.5333 -36.6211 6.05478
v 11.0331 -36.4088 6.28125
v 11.1611 -36.6755 6.72695
v 11.5389 -36.2618 6.32905
v 11.9843 -36.344 6.50712
v 12.2926 -44.371 6.6226
v 12.8232 -44.693 6.62603
v 13.2833 -45.0895 6.72376
v 12.8957 -44.2241 6.51475
v 13.4903 -44.5484 6.61628
v 12.4196 -43.8822 6.58706
v 12.4904 -43.3036 6.6177
v 12.9528 -43.6611 6.53203
v 13.3953 -44.0405 6.51071
v 13.0117 -43.1123 6.58001
v 13.4984 -43.5057 6.5969
v 12.5026 -42.7457 6.5941
v 13.1105 -42.5813 6.56246
v 12.1569 -42.2456 6.58785
v 12.7077 -42.2513 6.52271
v 13.6054 -42.4316 6.7197
v 12.0728 -41.6287 6.54396
v 12.5982 -41.765 6.4671
v 13.2092 -41.9675 6.51958
v 13.6616 -41.9219 6.89922
v 11.5635 -41.3569 6.71148
v 11.9627 -41.0433 6.50066
v 13.014 -41.391 6.42092
v 13.5068 -41.4458 6.65286
v 11.4585 -40.776 6.63723
v 13.3281 -40.9006 6.55929
v 11.8501 -40.4968 6.43341
v 12.4706 -41.2051 6.42256
v 12.8453 -40.7997 6.38472
v 13.1663 -40.3575 6.55878
v 11.4571 -40.1561 6.47241
v 12.3491 -40.5993 6.39121
v 11.0484 -39.8012 6.67063
v 11.5324 -39.6598 6.31242
v 12.0771 -40.0278 6.31422
v 12.7168 -40.1915 6.36989
v 10.7517 -39.4843 7.07907
v 12.5692 -39.7303 6.30313
v 10.7066 -39.1749 6.67154
v 11.098 -39.323 6.40827
v 12.9357 -39.4332 6.5627
v 10.3959 -38.7701 6.60009
v 12.9224 -38.8825 6.63418
v 12.8209 -38.4782 6.63418
v 10.0923 -38.5233 6.9937
v 12.6128 -38.1526 6.25741
v 10.0003 -37.9391 6.84945
v 12.7443 -37.713 6.54505
v 9.9755 -37.4737 6.54621
v 12.8567 -37.2357 6.47071
v 10.2694 -37.0895 6.7729
v 10.6263 -36.7052 6.57841
v 12.9463 -36.787 6.63658
v 11.2867 -36.9257 7.24178
v 11.6314 -36.5993 6.89868
v 12.1264 -36.638 6.99865
v 12.5143 -36.4321 6.57337
v 12.0908 -50.5212 7.50004
v 12.4465 -50.4834 7.05833
v 12.9129 -50.8035 7.18567
v 12.9234 -50.2206 6.97938
v 13.3177 -50.5514 6.98689
v 13.7513 -50.3545 6.99071
v 14.2148 -50.3025 7.04158
v 12.5427 -49.8809 7.13526
v 13.4172 -49.9387 6.9739
v 12.9878 -49.6256 7.00595
v 13.9476 -49.7582 6.98526
v 13.5062 -49.3595 7.00788
v 13.033 -49.0897 7.03249
v 14.0062 -49.1684 7.03612
v 14.0963 -48.6221 7.12086
v 12.5139 -46.0049 6.96079
v 12.6804 -46.5442 7.05486
v 13.0778 -46.1313 6.97415
v 13.6474 -46.1869 7.04623
v 12.9121 -45.5929 6.87227
v 13.4423 -45.6894 6.89148
v 12.3058 -45.4803 6.88863
v 12.6898 -45.1317 6.77899
v 13.7812 -45.3088 6.87717
v 11.7979 -45.3019 7.07962
v 12.1578 -44.9084 6.78767
v 11.5907 -44.8181 7.19257
v 13.9223 -44.8303 6.85749
v 11.8048 -44.4704 6.84377
v 11.7221 -43.9536 6.8296
v 13.8869 -43.9518 6.69023
v 12.0175 -43.5638 6.69385
v 13.9787 -43.3971 6.89069
v 11.568 -43.2995 6.91798
v 11.9886 -42.9693 6.68677
v 13.5544 -42.9805 6.68003
v 13.9668 -42.8782 7.01769
v 11.724 -42.5237 6.77858
v 13.8371 -42.353 7.22316
v 11.4016 -42.1723 7.1314
v 13.5764 -41.949 7.51304
v 11.6685 -41.9275 6.74946
v 13.5588 -41.4876 7.22405
v 11.2057 -41.0493 7.04222
v 13.4519 -40.9705 7.03976
v 11.16 -40.4061 6.90519
v 13.2536 -40.4298 7.04666
v 11.0658 -39.9585 7.19483
v 12.9986 -39.8795 6.86846
v 12.6974 -39.2596 7.02799
v 10.3341 -39.0376 7.10639
v 12.5135 -38.8305 7.01169
v 12.5807 -38.4782 6.90785
v 12.5807 -38.126 6.87176
v 10.3679 -37.5288 7.07246
v 10.8592 -37.3237 7.43887
v 10.7487 -37.0016 7.03811
v 12.9789 -50.8521 7.7395
v 13.4957 -50.7919 7.42979
v 14.0085 -50.5339 7.44852
v 12.2341 -50.0792 7.44353
v 12.2337 -49.6151 7.62792
v 12.5415 -49.3443 7.26365
v 12.2559 -48.5005 7.48497
v 12.6002 -48.8284 7.32172
v 13.0768 -48.6043 7.22329
v 13.5713 -48.7731 7.17919
v 11.944 -48.1474 7.69851
v 12.6958 -48.2041 7.27303
v 13.7957 -48.202 7.31257
v 12.2511 -47.8842 7.3632
v 12.9323 -47.6737 7.22595
v 13.2691 -48.1481 7.33055
v 12.4117 -47.4427 7.23099
v 12.8263 -47.0938 7.15797
v 13.53 -47.669 7.35599
v 11.937 -47.2895 7.47525
v 13.3508 -47.1765 7.24929
v 13.9058 -47.1798 7.36079
v 12.2775 -46.9133 7.20156
v 13.2311 -46.6498 7.10992
v 13.7636 -46.6762 7.24163
v 12.1314 -46.3907 7.16086
v 11.712 -46.2186 7.49719
v 11.9634 -45.8616 7.10364
v 11.5913 -45.6858 7.48457
v 11.5079 -45.1554 7.61389
v 11.4343 -44.6474 7.82485
v 11.4219 -44.3089 7.27065
v 11.3797 -43.727 7.26729
v 11.337 -43.1792 7.46653
v 11.4122 -42.778 7.13029
v 11.3922 -42.4475 7.58217
v 13.5847 -42.4269 7.76677
v 11.3182 -41.5918 7.16028
v 13.1961 -41.1549 7.4614
v 11.3657 -40.735 7.35828
v 12.9544 -40.7057 7.39781
v 11.466 -40.2568 7.46508
v 12.3986 -40.6831 7.48111
v 12.7167 -40.2103 7.29659
v 11.5344 -39.7772 7.45002
v 11.0623 -39.4892 7.50439
v 11.5339 -39.2275 7.47026
v 12.0903 -40.1771 7.41557
v 10.5633 -39.2048 7.56776
v 11.9793 -39.6425 7.2973
v 12.5057 -39.7211 7.20919
v 10.2823 -38.6331 7.52988
v 12.1067 -39.1746 7.17414
v 10.306 -38.1241 7.3035
v 12.101 -38.597 7.20431
v 12.2291 -38.1163 7.25899
v 10.5979 -37.7828 7.50718
v 12.5587 -37.6665 7.16872
v 10.9903 -37.7626 7.84613
v 12.8336 -37.2649 7.03236
v 12.3957 -36.9936 7.33908
v 12.6595 -36.7235 7.02349
v 11.8293 -36.9776 7.4238
v 12.4895 -50.8387 7.5385
v 13.3908 -50.6985 7.96391
v 12.1167 -50.7286 7.9608
v 13.8513 -50.5228 7.91604
v 11.9865 -50.1411 7.93459
v 11.9154 -49.5806 8.04042
v 11.8004 -49.0891 8.16182
v 12.1792 -49.072 7.69088
v 11.7922 -47.6738 7.7747
v 11.8054 -46.7693 7.49728
v 11.5662 -46.5841 7.93093
v 11.584 -45.5461 8.02423
v 11.3605 -44.0655 7.76309
v 11.4617 -43.5401 7.84705
v 13.7143 -43.038 7.9352
v 11.5427 -42.8527 7.8749
v 13.908 -42.8044 7.53025
v 12.3725 -42.2143 7.81884
v 13.2394 -42.7279 8.03607
v 11.8346 -42.3192 7.88386
v 11.9933 -41.7476 7.73287
v 13.0524 -42.1449 7.80786
v 12.7385 -42.5698 7.91757
v 11.4809 -41.8648 7.63044
v 12.5709 -41.7403 7.66259
v 13.1193 -41.6398 7.61923
v 12.1196 -41.2301 7.60885
v 12.6636 -41.2053 7.55481
v 11.5275 -41.2587 7.60329
v 11.8564 -40.7177 7.54887
v 11.7552 -38.8017 7.49153
v 10.6685 -38.2484 7.84598
v 11.9433 -38.3546 7.7178
v 12.2334 -37.8453 7.67748
v 11.3671 -37.305 7.66366
v 11.8738 -37.4237 7.85485
v 12.3541 -37.3599 7.59453
v 11.9166 -50.5711 8.36446
v 12.5866 -50.8512 8.13475
v 13.0596 -50.7559 8.3709
v 14.4347 -50.2711 8.72541
v 11.8768 -48.6303 7.8932
v 11.7296 -48.1179 8.18947
v 11.6514 -47.1783 7.99473
v 11.5626 -46.0457 8.01588
v 11.7085 -45.0824 8.18264
v 11.669 -44.224 8.1706
v 11.9307 -44.6247 8.31041
v 13.8943 -44.0709 8.13605
v 12.7914 -43.6416 8.25398
v 14.2153 -43.8198 7.7273
v 11.8507 -43.7458 8.18983
v 12.3208 -43.4421 8.13759
v 13.8042 -43.5404 8.03516
v 11.8552 -43.2089 8.05139
v 12.7358 -43.0802 8.06849
v 13.2617 -43.2668 8.21975
v 12.1979 -42.7929 7.96501
v 10.5926 -38.797 7.92623
v 11.0684 -39.1064 7.87097
v 11.0008 -38.6412 8.21843
v 11.4913 -38.7906 7.95604
v 11.1951 -38.1996 8.22352
v 11.6718 -38.3645 8.19504
v 11.4787 -37.7897 7.97672
v 11.9544 -37.9321 8.10335
v 12.3804 -50.8117 8.61956
v 13.2985 -50.2796 8.78141
v 13.5913 -50.4817 8.4208
v 13.8724 -50.1204 8.80281
v 11.863 -49.9959 8.45124
v 11.8889 -49.5156 8.61563
v 11.9811 -49.0209 8.6833
v 11.8349 -48.5661 8.44698
v 12.1168 -48.1127 8.65919
v 11.7811 -47.6455 8.38045
v 12.3105 -47.5976 8.6622
v 12.0016 -47.1836 8.51933
v 11.727 -46.7684 8.37612
v 12.5671 -47.0724 8.59849
v 13.1036 -46.9356 8.84071
v 12.2343 -46.647 8.54066
v 12.7851 -46.5465 8.65253
v 11.8336 -46.2346 8.4348
v 12.3811 -46.1154 8.54978
v 12.9669 -46.0704 8.72778
v 12.5521 -45.6235 8.52514
v 13.1041 -45.5993 8.69675
v 14.1219 -46.081 8.581
v 11.9448 -45.6679 8.43924
v 12.2356 -45.1581 8.43192
v 14.0453 -45.5952 8.54313
v 12.8651 -45.1467 8.51041
v 13.9778 -45.0887 8.44489
v 12.4708 -44.6474 8.38138
v 12.9903 -44.6458 8.46831
v 13.4487 -44.8811 8.55536
v 13.4288 -44.3173 8.41612
v 13.9133 -44.566 8.30594
v 12.2859 -44.08 8.29721
v 12.8475 -44.1553 8.36135
v 13.354 -43.8005 8.33136
v 12.0714 -50.325 8.78578
v 12.8744 -50.596 8.79741
v 12.5181 -50.3278 8.96535
v 12.8842 -49.9502 8.96032
v 13.4239 -49.7424 8.85729
v 12.3167 -49.8228 8.89604
v 12.3666 -49.3238 8.9055
v 12.952 -49.4213 8.9687
v 12.6714 -48.9547 8.99536
v 13.5273 -49.1793 8.8863
v 12.2843 -48.6167 8.79999
v 13.1746 -48.8359 8.93911
v 13.6848 -48.5453 8.9155
v 12.7396 -48.4367 8.97593
v 13.2446 -48.3 9.01448
v 14.1938 -48.2753 8.86997
v 12.6446 -47.9775 8.8776
v 13.7328 -47.9409 8.87774
v 13.1825 -47.832 8.99865
v 12.8562 -47.4535 8.81299
v 13.4205 -47.3933 8.91117
v 13.9335 -47.3973 8.79408
v 13.6783 -46.9103 8.8875
v 13.9406 -46.4922 8.7612
v 13.3529 -46.4312 8.95961
v 13.6007 -45.9429 8.83194
v 13.5425 -45.3739 8.68488
v 14.455 -49.9533 7.17089
v 14.1092 -44.3423 6.90538
v 14.3076 -43.7587 7.10892
v 14.6148 -50.4434 7.41465
v 14.388 -49.5009 7.29541
v 14.8621 -49.3532 7.60907
v 14.5025 -49.0243 7.29128
v 14.5697 -48.5438 7.345
v 14.3568 -48.0917 7.2573
v 14.0976 -47.6683 7.38389
v 14.6642 -47.6959 7.57263
v 14.4545 -47.2158 7.57489
v 14.253 -46.7131 7.50641
v 14.1444 -46.1926 7.37488
v 14.0224 -45.7433 7.12874
v 14.2423 -45.24 7.20906
v 14.3824 -44.7012 7.28222
v 14.4413 -44.1905 7.37308
v 14.1325 -43.3093 7.49965
v 14.415 -50.5001 7.90029
v 14.9521 -50.2638 7.8641
v 14.8114 -49.8876 7.50824
v 15.066 -47.8633 7.95652
v 14.6668 -46.7754 7.8842
v 14.503 -46.2555 7.80293
v 14.4336 -45.6766 7.59892
v 14.4885 -45.0538 7.67473
v 14.3869 -44.385 7.88243
v 14.1403 -50.4708 8.37672
v 14.7713 -50.4379 8.3435
v 15.2136 -49.7362 7.83734
v 15.1912 -49.1121 8.0206
v 14.9018 -48.8106 7.66529
v 15.1433 -48.4475 7.97064
v 14.8235 -48.2075 7.61367
v 14.8988 -47.3158 7.98111
v 14.7214 -46.9581 8.37471
v 14.456 -45.9001 8.18559
v 14.4275 -45.3791 8.13909
v 14.3462 -44.8367 8.13335
v 15.2628 -50.0994 8.32211
v 15.2986 -49.6607 8.74801
v 15.4119 -49.5493 8.25946
v 15.4003 -49.1235 8.60007
v 15.3733 -48.6879 8.34753
v 15.2495 -48.1362 8.43749
v 15.0888 -47.6297 8.44923
v 14.7148 -47.3943 8.64299
v 14.4788 -46.4682 8.39743
v 14.9532 -50.121 8.80202
v 14.372 -49.8043 8.85916
v 14.8344 -49.5889 8.90998
v 13.9395 -49.513 8.84881
v 14.436 -49.226 8.90413
v 14.967 -49.0705 8.87078
v 14.041 -48.9008 8.91294
v 15.0814 -48.5419 8.77103
v 14.5671 -48.6454 8.88484
v 14.7639 -48.0451 8.76842
v 14.308 -47.7266 8.77063
v 14.2694 -46.9829 8.69845

f 4 1 6
f 3 5 6
f 6 1 3
f 7 33 4
f 8 4 6
f 10 6 5
f 10 5 9
f 4 8 36
f 10 8 6
f 13 8 10
f 12 8 13
f 13 10 9
f 13 9 14
f 14 9 11
f 11 15 14
f 16 13 14
f 23 19 17
f 23 18 20
f 21 19 22
f 23 17 18
f 26 25 27
f 25 21 27
f 27 21 22
f 22 23 28
f 28 23 20
f 28 20 86
f 26 24 25
f 29 24 26
f 2 29 26
f 2 26 1
f 3 26 27
f 1 26 3
f 3 27 30
f 30 27 22
f 22 28 30
f 31 28 86
f 30 28 31
f 5 3 30
f 32 30 31
f 1 33 2
f 1 4 33
f 5 30 32
f 9 5 32
f 34 11 32
f 11 9 32
f 35 11 34
f 4 36 7
f 8 12 36
f 12 37 36
f 16 37 12
f 11 35 15
f 16 12 13
f 37 39 38
f 16 39 37
f 39 14 40
f 16 14 39
f 14 15 40
f 42 45 44
f 43 45 42
f 44 41 42
f 48 46 44
f 44 46 41
f 48 44 49
f 49 44 45
f 48 47 46
f 49 45 128
f 48 49 51
f 48 51 50
f 50 47 48
f 133 53 50
f 55 52 53
f 52 55 54
f 56 59 53
f 50 53 52
f 58 55 59
f 59 55 53
f 58 57 54
f 60 59 56
f 57 62 61
f 68 57 58
f 68 58 63
f 63 58 59
f 63 59 64
f 64 59 60
f 72 62 68
f 68 62 57
f 63 64 66
f 67 65 62
f 62 72 67
f 69 63 66
f 69 68 63
f 69 66 70
f 65 67 71
f 71 143 65
f 73 143 71
f 75 67 72
f 72 68 69
f 74 73 71
f 71 67 75
f 76 72 69
f 75 72 76
f 76 69 70
f 73 79 77
f 80 73 74
f 75 74 71
f 78 17 75
f 75 17 74
f 18 17 78
f 78 75 76
f 73 80 79
f 19 80 74
f 17 19 74
f 18 78 81
f 80 21 79
f 19 21 80
f 19 23 22
f 18 81 83
f 18 83 20
f 24 82 25
f 79 21 82
f 82 21 25
f 20 83 84
f 20 84 86
f 24 87 85
f 24 29 87
f 86 88 31
f 87 29 89
f 29 2 89
f 34 88 90
f 31 88 34
f 89 2 33
f 89 33 7
f 31 34 32
f 7 91 89
f 7 92 91
f 90 93 35
f 92 7 36
f 38 92 37
f 37 92 36
f 92 38 154
f 38 94 154
f 40 97 96
f 35 34 90
f 35 93 97
f 38 39 95
f 39 40 95
f 97 40 15
f 96 95 40
f 97 15 35
f 99 100 101
f 102 156 103
f 99 105 158
f 105 99 101
f 106 101 102
f 107 101 106
f 106 102 103
f 106 103 108
f 108 103 104
f 109 106 108
f 107 105 101
f 109 107 106
f 351 108 347
f 109 164 110
f 351 111 108
f 114 178 115
f 178 116 115
f 115 113 114
f 117 113 115
f 115 116 118
f 117 115 118
f 118 361 121
f 117 120 119
f 42 123 120
f 43 117 118
f 116 361 118
f 123 122 119
f 121 43 118
f 43 120 117
f 124 122 123
f 123 119 120
f 42 120 43
f 43 121 125
f 125 121 362
f 126 124 123
f 126 123 41
f 42 41 123
f 45 43 125
f 45 125 348
f 41 127 126
f 127 46 129
f 348 128 45
f 129 46 47
f 46 127 41
f 128 130 51
f 129 47 132
f 51 49 128
f 132 131 129
f 52 47 50
f 133 51 130
f 133 130 134
f 47 52 132
f 132 52 54
f 51 133 50
f 134 136 56
f 54 135 132
f 133 56 53
f 56 133 134
f 54 55 58
f 138 60 136
f 139 54 57
f 139 137 135
f 56 136 60
f 140 60 138
f 61 139 57
f 60 140 64
f 61 62 65
f 64 140 142
f 64 142 66
f 65 141 61
f 143 141 65
f 66 142 144
f 70 66 144
f 145 143 73
f 70 144 146
f 70 146 76
f 77 145 73
f 146 78 76
f 77 79 148
f 81 146 147
f 146 81 78
f 82 148 79
f 83 81 147
f 149 83 147
f 148 82 85
f 24 85 82
f 150 149 209
f 83 150 84
f 149 150 83
f 151 150 210
f 210 150 209
f 84 151 86
f 150 151 84
f 212 151 210
f 86 151 88
f 151 212 88
f 89 152 87
f 88 214 90
f 88 212 214
f 152 89 91
f 93 90 214
f 154 153 152
f 92 154 91
f 94 38 95
f 218 155 100
f 99 218 100
f 155 219 156
f 100 156 102
f 155 156 100
f 99 98 218
f 101 100 102
f 157 156 221
f 103 157 104
f 158 98 99
f 160 107 110
f 158 105 159
f 105 160 159
f 107 160 105
f 225 162 161
f 162 110 163
f 110 107 109
f 110 164 163
f 111 164 109
f 112 164 111
f 161 168 165
f 162 166 161
f 168 161 166
f 166 162 163
f 170 166 163
f 167 164 112
f 356 167 355
f 164 170 163
f 169 166 170
f 170 164 167
f 167 112 355
f 169 168 166
f 171 168 169
f 173 170 167
f 175 169 173
f 173 167 356
f 358 356 357
f 172 171 169
f 177 171 172
f 173 169 170
f 176 173 356
f 175 173 176
f 177 174 171
f 175 172 169
f 178 172 175
f 114 177 172
f 180 177 114
f 114 172 178
f 179 175 176
f 178 175 179
f 182 180 113
f 114 113 180
f 116 178 179
f 360 179 359
f 116 179 360
f 180 182 181
f 113 117 119
f 361 116 360
f 182 119 122
f 119 182 113
f 184 183 122
f 122 183 182
f 185 184 124
f 124 184 122
f 185 124 186
f 126 186 124
f 186 127 187
f 186 126 127
f 131 127 129
f 187 127 131
f 187 131 188
f 135 189 132
f 188 131 189
f 189 131 132
f 189 135 137
f 134 234 136
f 234 365 232
f 139 135 54
f 136 234 191
f 190 189 137
f 241 137 192
f 136 191 138
f 192 137 139
f 243 140 138
f 191 239 138
f 192 139 61
f 192 61 141
f 140 243 193
f 193 142 140
f 141 143 194
f 193 195 142
f 143 196 194
f 143 145 196
f 198 197 202
f 195 197 198
f 198 144 195
f 144 142 195
f 145 199 196
f 196 199 202
f 198 202 205
f 198 146 144
f 77 200 145
f 145 200 199
f 205 202 204
f 199 201 204
f 200 77 203
f 203 77 148
f 205 147 146
f 198 205 146
f 203 148 206
f 248 207 201
f 204 207 205
f 207 149 147
f 207 147 205
f 148 85 206
f 206 85 208
f 207 209 149
f 85 87 208
f 152 211 208
f 211 152 153
f 211 153 213
f 152 91 154
f 215 216 214
f 216 93 214
f 94 217 252
f 154 94 153
f 217 94 95
f 215 217 96
f 96 217 95
f 216 96 97
f 215 96 216
f 97 93 216
f 155 218 256
f 155 257 219
f 220 218 98
f 256 218 220
f 221 156 219
f 103 156 157
f 222 98 158
f 220 98 222
f 158 159 222
f 222 159 223
f 225 159 160
f 223 225 224
f 162 160 110
f 225 223 159
f 162 225 160
f 174 168 171
f 168 226 165
f 261 174 227
f 168 174 226
f 174 177 227
f 227 177 180
f 227 180 181
f 181 262 228
f 183 181 182
f 183 229 262
f 186 187 230
f 230 187 231
f 231 187 188
f 233 190 237
f 134 365 234
f 190 233 188
f 234 232 191
f 137 241 190
f 239 240 235
f 239 235 242
f 236 240 239
f 236 239 191
f 241 237 190
f 238 241 246
f 237 241 238
f 238 244 242
f 235 238 242
f 239 242 243
f 243 138 239
f 141 246 192
f 246 241 192
f 238 246 244
f 244 197 245
f 244 245 242
f 243 245 193
f 242 245 243
f 194 246 141
f 244 247 197
f 244 246 247
f 245 197 195
f 195 193 245
f 246 194 247
f 247 196 202
f 194 196 247
f 202 197 247
f 199 204 202
f 201 199 200
f 203 276 277
f 200 203 277
f 201 200 277
f 206 276 203
f 201 277 279
f 204 201 207
f 87 152 208
f 209 207 248
f 209 250 210
f 209 248 250
f 276 206 249
f 251 210 250
f 251 254 212
f 251 253 254
f 254 215 212
f 251 212 210
f 213 153 252
f 252 153 94
f 252 217 253
f 254 217 215
f 253 217 254
f 215 214 212
f 155 256 257
f 220 255 284
f 257 285 286
f 221 219 286
f 219 257 286
f 375 286 287
f 224 225 259
f 225 161 259
f 259 165 260
f 259 161 165
f 260 165 226
f 293 226 261
f 261 226 174
f 261 227 228
f 227 181 228
f 181 183 262
f 229 183 184
f 229 184 263
f 184 185 263
f 263 185 265
f 230 185 186
f 185 264 265
f 230 264 185
f 269 264 230
f 269 230 231
f 270 317 269
f 231 188 233
f 269 272 270
f 273 274 267
f 271 232 365
f 188 189 190
f 231 272 269
f 275 270 272
f 273 270 275
f 267 270 273
f 271 274 232
f 231 233 272
f 275 233 237
f 272 233 275
f 273 275 240
f 274 273 236
f 274 236 232
f 235 237 238
f 275 237 235
f 275 235 240
f 240 236 273
f 236 191 232
f 208 211 249
f 208 249 206
f 278 277 276
f 248 201 279
f 249 278 276
f 280 278 249
f 281 250 279
f 279 250 248
f 213 280 249
f 281 282 283
f 281 280 282
f 251 250 283
f 283 250 281
f 249 211 213
f 280 213 282
f 213 252 282
f 282 253 283
f 252 253 282
f 253 251 283
f 220 284 256
f 284 257 256
f 220 222 255
f 284 321 257
f 257 321 285
f 375 287 258
f 222 288 255
f 223 288 222
f 289 288 223
f 224 289 223
f 259 291 224
f 290 289 224
f 291 290 224
f 260 291 259
f 293 292 260
f 291 260 292
f 226 293 260
f 294 292 293
f 296 295 261
f 293 261 295
f 293 295 294
f 228 296 261
f 296 299 295
f 298 297 300
f 262 301 228
f 301 296 228
f 296 301 299
f 295 299 297
f 339 297 298
f 297 299 300
f 301 302 299
f 299 302 300
f 300 302 303
f 229 307 262
f 307 301 262
f 302 307 304
f 301 307 302
f 302 304 303
f 303 304 305
f 263 307 229
f 307 308 304
f 312 310 308
f 305 304 310
f 308 263 265
f 307 263 308
f 304 308 310
f 308 265 312
f 312 318 313
f 312 313 310
f 310 313 314
f 346 314 311
f 265 317 312
f 312 317 318
f 318 315 313
f 314 315 316
f 313 315 314
f 265 264 317
f 318 317 267
f 315 318 319
f 315 266 316
f 264 269 317
f 317 270 267
f 318 267 319
f 319 266 315
f 319 271 266
f 267 274 319
f 274 271 319
f 266 271 268
f 278 279 277
f 278 280 279
f 279 280 281
f 320 255 288
f 255 320 284
f 322 284 320
f 325 320 288
f 321 322 323
f 284 322 321
f 285 323 324
f 323 285 321
f 324 287 285
f 286 285 287
f 289 325 288
f 325 322 320
f 323 325 327
f 322 325 323
f 323 327 324
f 324 327 329
f 326 325 289
f 325 326 327
f 402 329 332
f 324 329 399
f 290 326 289
f 330 326 290
f 327 328 331
f 326 328 327
f 399 329 402
f 291 330 290
f 330 328 326
f 328 330 333
f 327 331 329
f 332 331 334
f 332 334 337
f 329 331 332
f 292 330 291
f 330 292 333
f 328 333 331
f 334 333 336
f 331 333 334
f 292 336 333
f 334 336 338
f 334 338 337
f 335 337 406
f 332 337 335
f 292 294 336
f 336 294 339
f 336 339 338
f 338 340 337
f 406 341 407
f 337 341 406
f 294 295 297
f 339 340 338
f 341 340 342
f 337 340 341
f 297 339 294
f 339 298 340
f 342 298 344
f 340 298 342
f 298 300 344
f 342 344 343
f 300 303 344
f 344 345 343
f 344 303 345
f 303 305 345
f 345 306 343
f 305 310 346
f 345 346 309
f 305 346 345
f 346 311 309
f 310 314 346
f 104 347 108
f 348 125 363
f 363 125 362
f 128 348 349
f 130 128 349
f 157 350 104
f 367 368 350
f 347 350 368
f 104 350 347
f 108 111 109
f 351 353 111
f 353 351 352
f 354 353 379
f 112 111 353
f 353 352 379
f 354 112 353
f 355 112 354
f 354 381 355
f 357 356 355
f 356 358 176
f 359 176 358
f 359 179 176
f 361 372 362
f 361 362 121
f 348 363 364
f 349 348 364
f 268 349 364
f 349 268 365
f 130 349 365
f 130 365 134
f 366 221 375
f 366 350 157
f 366 367 350
f 351 368 352
f 347 368 351
f 368 377 352
f 379 380 381
f 379 381 354
f 355 381 357
f 369 357 381
f 358 357 382
f 382 357 369
f 358 382 370
f 370 359 358
f 359 371 360
f 371 359 370
f 384 372 371
f 372 360 371
f 372 361 360
f 372 373 362
f 362 373 363
f 363 373 374
f 363 374 364
f 374 268 364
f 365 268 271
f 221 286 375
f 157 221 366
f 376 366 375
f 376 367 366
f 367 376 387
f 387 377 367
f 367 377 368
f 352 377 378
f 379 352 378
f 369 381 380
f 382 369 393
f 382 383 370
f 395 370 383
f 372 384 385
f 373 385 386
f 372 385 373
f 386 316 374
f 311 316 386
f 386 374 373
f 266 374 316
f 266 268 374
f 258 376 375
f 376 396 387
f 387 388 389
f 389 377 387
f 377 389 378
f 389 390 378
f 390 391 378
f 378 391 380
f 378 380 379
f 391 392 380
f 380 392 369
f 392 393 369
f 394 382 393
f 383 394 407
f 383 382 394
f 371 370 395
f 306 395 343
f 371 395 384
f 395 306 384
f 306 345 309
f 384 309 385
f 306 309 384
f 385 311 386
f 309 311 385
f 314 316 311
f 287 397 258
f 324 399 287
f 258 396 376
f 397 396 258
f 287 399 397
f 396 397 398
f 388 387 396
f 398 388 396
f 398 397 400
f 397 399 400
f 388 398 401
f 398 400 401
f 399 402 400
f 401 390 388
f 390 389 388
f 400 402 404
f 401 404 403
f 400 404 401
f 391 390 403
f 403 390 401
f 404 335 405
f 332 335 402
f 402 335 404
f 403 404 405
f 403 392 391
f 335 406 405
f 405 393 392
f 405 392 403
f 406 394 405
f 405 394 393
f 407 394 406
f 407 342 343
f 341 342 407
f 407 395 383
f 343 395 407
