v 18.084 -39.1563 1.69294
v 17.3109 -38.539 1.68612
v 17.2875 -38.1947 1.6249
v 17.2102 -37.8566 1.62858
v 17.4514 -37.6492 1.70536
v 20.4638 -40.9011 1.8378
v 20.7026 -41.1091 1.81118
v 20.22 -40.9673 2.06162
v 20.7517 -40.7482 1.76311
v 20.2086 -40.7029 1.89364
v 20.4658 -40.5549 1.8217
v 18.9183 -40.097 2.16946
v 19.2032 -40.0968 1.90951
v 18.891 -39.9483 1.91972
v 19.4326 -39.8618 1.84304
v 19.2755 -39.5751 1.81847
v 18.7498 -39.7148 1.77073
v 19.0913 -39.7941 1.75744
v 18.2356 -39.4578 1.82691
v 18.4416 -39.6696 1.93074
v 18.5878 -39.4671 1.6808
v 18.9872 -39.4451 1.73113
v 17.9588 -39.3342 1.94937
v 18.7872 -39.1985 1.73416
v 19.0528 -39.1185 1.91928
v 17.6875 -39.1979 2.05496
v 17.7805 -39.048 1.78239
v 18.4072 -39.2132 1.64571
v 17.491 -38.9775 1.93599
v 17.6031 -38.744 1.70083
v 17.9666 -38.8185 1.65532
v 18.2952 -38.888 1.65181
v 18.6029 -38.9668 1.73858
v 18.5302 -38.6748 1.81632
v 17.2516 -38.7635 1.86718
v 17.8773 -38.509 1.68326
v 18.2222 -38.5728 1.71352
v 16.9695 -38.5876 1.85221
v 17.5743 -38.3813 1.66366
v 17.7922 -38.1708 1.75512
v 18.1027 -38.2745 1.80066
v 17.0443 -38.3609 1.68018
v 16.7504 -38.2923 1.77244
v 17.5161 -38.007 1.66995
v 17.984 -37.9764 1.93141
v 16.9682 -38.0546 1.70222
v 17.7039 -37.8294 1.83684
v 16.8781 -37.75 1.70186
v 17.1326 -37.5401 1.72271
v 16.8181 -37.4284 1.70339
v 17.6081 -37.5185 1.96166
v 17.0271 -37.2195 1.82108
v 16.7108 -37.0803 1.72093
v 20.7266 -41.3754 2.04819
v 20.4642 -41.1794 2.05392
v 19.937 -40.6814 2.03181
v 19.7825 -40.3971 1.95279
v 20.1257 -40.3924 1.88533
v 19.1592 -40.2585 2.20891
v 19.4262 -40.3238 2.02982
v 19.9261 -40.1054 1.92947
v 20.4441 -40.2713 1.9576
v 20.6766 -40.1803 2.13798
v 19.5987 -40.1124 1.89006
v 19.7872 -39.8278 1.96425
v 20.208 -40.0718 1.99565
v 18.6315 -39.8904 2.11131
v 20.1131 -39.7915 2.11091
v 19.3048 -39.3126 1.9401
v 18.833 -38.8527 1.94426
v 17.2662 -38.8848 2.14276
v 16.9865 -38.6863 2.14704
v 18.6861 -38.4948 2.00936
v 18.4175 -38.3476 1.89456
v 18.2813 -38.0609 2.00798
v 17.8704 -37.6921 2.07736
v 17.1638 -37.1859 2.13477
v 17.3299 -37.3649 1.90474
v 20.5424 -41.3329 2.34853
v 20.2923 -41.1407 2.36071
v 20.026 -40.9157 2.28068
v 19.6046 -40.5384 2.17783
v 19.354 -40.4237 2.35869
v 18.7731 -40.0275 2.42493
v 18.3632 -39.735 2.23574
v 18.1235 -39.5443 2.17792
v 19.5641 -39.5796 1.94656
v 19.8534 -39.5313 2.08992
v 20.1161 -39.489 2.22107
v 17.8397 -39.3602 2.27455
v 19.6204 -39.2961 2.0822
v 19.9592 -39.1979 2.17317
v 17.5076 -39.1139 2.2957
v 19.3785 -39.0485 2.11221
v 19.5282 -38.7612 2.26765
v 19.6994 -39.012 2.17938
v 17.2365 -38.8978 2.41625
v 19.1534 -38.8505 2.12403
v 19.2944 -38.5805 2.27989
v 18.9595 -38.6071 2.1434
v 19.0837 -38.3532 2.34148
v 18.5665 -38.1446 2.13568
v 18.1424 -37.8096 2.19313
v 18.4118 -37.9185 2.30309
v 17.7222 -37.4684 2.26173
v 17.4323 -37.3577 2.23194
v 16.9074 -37.0179 2.04362
v 20.1316 -40.9887 2.5803
v 19.2973 -40.3724 2.65566
v 19.0862 -40.1368 2.82569
v 20.662 -39.9559 2.42935
v 20.4322 -39.9651 2.18336
v 20.3788 -39.705 2.36506
v 20.2899 -39.3729 2.38669
v 16.975 -38.6868 2.4615
v 19.8607 -38.841 2.3771
v 18.8231 -38.3114 2.19922
v 18.7702 -38.1041 2.40734
v 18.514 -37.9695 2.58644
v 17.9967 -37.608 2.39534
v 17.2165 -37.2011 2.45396
v 17.4802 -37.3394 2.55958
v 17.0368 -37.0798 2.6816
v 16.9696 -36.9826 2.35921
v 20.7395 -41.4572 2.64687
v 20.4693 -41.2386 2.65711
v 19.8857 -40.8008 2.57598
v 19.7809 -40.7181 2.30945
v 19.5724 -40.5854 2.54485
v 19.0325 -40.2029 2.5121
v 20.5849 -40.1085 2.74168
v 18.5387 -39.8592 2.47625
v 20.5071 -39.8093 2.6844
v 18.2686 -39.6536 2.54246
v 20.3661 -39.5442 2.679
v 18.0127 -39.4752 2.53281
v 17.6676 -39.1129 2.84351
v 20.3083 -39.2714 2.63886
v 17.4539 -39.0471 2.61658
v 20.11 -39.0693 2.41334
v 19.8363 -38.8713 2.68086
v 19.614 -38.6267 2.57532
v 19.3413 -38.4372 2.57351
v 19.0459 -38.2341 2.61179
v 18.7583 -38.1227 2.70728
v 18.3232 -37.9831 2.84842
v 18.2254 -37.7674 2.5638
v 17.745 -37.4462 2.56068
v 20.2934 -41.0173 2.80614
v 20.0709 -40.7661 2.87326
v 19.7877 -40.6331 2.79052
v 19.5694 -40.439 2.87203
v 18.8069 -39.9616 2.75067
v 20.2097 -39.7111 2.89165
v 18.2435 -39.5036 2.85709
v 20.0527 -39.3971 2.85305
v 17.7206 -39.262 2.55406
v 20.0411 -39.1046 2.71695
v 19.4678 -39.1345 3.03673
v 17.2089 -38.82 2.70458
v 19.5715 -38.8638 2.86606
v 19.159 -38.4293 2.85488
v 18.8758 -38.3439 2.89368
v 18.5452 -38.1972 2.90566
v 18.0434 -38.0175 3.05199
v 17.9198 -37.5843 2.72803
v 17.5908 -37.4696 2.87871
v 17.2939 -37.4669 3.073
v 17.2939 -37.2719 2.80442
v 16.8119 -37.0125 2.8874
v 20.713 -41.3383 2.91059
v 20.5274 -41.0969 2.98864
v 20.3587 -40.8199 3.05703
v 19.8933 -40.4401 2.9977
v 20.8585 -40.218 2.61075
v 20.7354 -40.366 2.88165
v 20.4299 -40.2813 2.99977
v 19.4008 -39.9971 3.08458
v 20.3136 -39.9966 2.91581
v 19.9262 -39.6399 3.01561
v 18.5219 -39.7477 2.77157
v 18.5584 -39.5632 3.01388
v 17.9556 -39.3323 2.82366
v 19.7718 -39.1518 2.88816
v 17.9017 -39.0933 3.03405
v 17.4389 -38.8757 2.92309
v 18.988 -38.6577 3.03667
v 17.2037 -38.662 2.99865
v 19.3695 -38.6338 2.87013
v 16.7955 -38.4067 2.94702
v 18.6597 -38.4674 3.04591
v 18.0783 -37.7934 2.85266
v 17.0255 -37.2456 2.9951
v 20.691 -40.841 3.15415
v 20.5559 -40.5559 3.0993
v 20.2073 -40.5318 3.07688
v 20.1004 -40.2165 3.06201
v 19.3699 -40.2323 2.93719
v 19.7094 -40.1568 3.06926
v 19.976 -39.9405 3.05572
v 19.0726 -39.9078 3.04273
v 19.6587 -39.7831 3.12242
v 18.8049 -39.7373 3.0172
v 19.4194 -39.437 3.14172
v 19.3371 -39.7168 3.16213
v 18.8046 -39.3623 3.15904
v 19.0637 -39.5615 3.15812
v 19.715 -39.4245 3.04325
v 18.4338 -39.3251 3.11062
v 19.1505 -39.2322 3.15803
v 18.1802 -39.1927 3.08422
v 18.6047 -39.0901 3.18541
v 18.9266 -39.0031 3.15614
v 19.2341 -38.8943 3.04172
v 18.0255 -38.8554 3.18802
v 18.3408 -38.9025 3.20101
v 18.6826 -38.7761 3.15184
v 17.6911 -38.8607 3.10449
v 18.123 -38.5563 3.20448
v 18.4106 -38.5816 3.15231
v 17.4632 -38.6091 3.17249
v 17.7968 -38.5827 3.22434
v 17.9521 -38.2791 3.19433
v 17.0684 -38.4329 3.13833
v 17.7395 -37.9869 3.18444
v 18.2844 -38.2718 3.07261
v 17.7966 -37.7224 3.00403
v 17.1823 -37.7597 3.26146
v 17.5057 -37.7039 3.1475
v 16.9917 -37.5118 3.19469
v 17.3276 -38.3292 3.26864
v 17.6333 -38.2964 3.25867
v 17.1123 -38.0878 3.29664
v 17.4286 -38.0025 3.28041
v 22.2217 -41.8887 1.51736
v 21.725 -41.946 1.79107
v 22.019 -42.0575 1.67179
v 22.4122 -42.1107 1.58619
v 22.9479 -41.8118 1.77404
v 21.9245 -41.8026 1.58293
v 21.9484 -41.5435 1.62921
v 22.5449 -41.8319 1.53503
v 22.7128 -41.9888 1.6865
v 21.6244 -41.664 1.62708
v 22.2772 -41.6276 1.64759
v 21.4658 -41.4156 1.63538
v 21.7633 -41.3193 1.70545
v 22.2217 -42.2137 1.78852
v 21.9294 -42.1705 1.93887
v 22.5142 -42.1783 1.87822
v 21.4537 -41.8066 1.86827
v 23.1071 -41.8702 1.92171
v 21.2186 -41.7409 2.04699
v 22.6422 -41.6444 1.77252
v 20.989 -41.5165 1.96431
v 21.2395 -41.5387 1.77368
v 22.0872 -41.3532 1.79686
v 22.3995 -41.4516 1.85674
v 22.5774 -41.3201 2.04444
v 20.9606 -41.2841 1.7693
v 21.5348 -41.1317 1.80615
v 21.884 -41.1195 1.95267
v 21.2368 -41.1844 1.6622
v 21.2938 -40.8885 1.83485
v 20.9968 -40.9407 1.71303
v 21.0682 -40.6197 1.88401
v 21.9404 -42.2467 2.23673
v 22.8035 -42.087 1.94815
v 21.2198 -41.8187 2.36925
v 23.3433 -41.8607 2.00444
v 23.1114 -41.6 2.04763
v 22.824 -41.5066 1.99631
v 22.2276 -41.2027 2.00932
v 21.6157 -40.8844 1.96597
v 21.4034 -40.6309 2.00857
v 20.7551 -40.4556 1.91915
v 22.215 -42.2874 2.06714
v 22.4998 -42.2196 2.17068
v 21.6731 -42.0637 2.08269
v 21.443 -41.9447 2.20481
v 23.0323 -42.0144 2.12469
v 23.3355 -41.9531 2.23531
v 20.9866 -41.6459 2.23709
v 23.3924 -41.5852 2.24345
v 23.0101 -41.4085 2.27426
v 22.7015 -41.3226 2.33574
v 22.1327 -40.9619 2.19772
v 22.4237 -41.1069 2.22605
v 21.8569 -40.8756 2.1726
v 21.6621 -40.655 2.21652
v 21.4653 -40.4426 2.34074
v 20.9761 -40.3333 2.09262
v 21.2382 -40.4092 2.14059
v 21.9955 -42.2447 2.55453
v 22.2417 -42.3335 2.36841
v 22.7815 -42.1593 2.24494
v 23.0825 -42.0427 2.38197
v 23.3609 -41.8257 2.45978
v 20.779 -41.5071 2.35819
v 23.1412 -41.636 2.44033
v 23.3449 -41.632 2.36637
v 22.5205 -41.4056 2.61415
v 22.8333 -41.5712 2.54461
v 22.1701 -40.9975 2.51602
v 21.8862 -40.863 2.49237
v 21.6372 -40.665 2.5325
v 21.1897 -40.256 2.45242
v 20.915 -40.1554 2.33083
v 21.7187 -42.1214 2.41141
v 22.5408 -42.2858 2.47297
v 21.4975 -41.9864 2.53861
v 22.8136 -42.1692 2.53062
v 23.1039 -42.0532 2.63954
v 21.2658 -41.8364 2.66764
v 23.1139 -41.8319 2.61664
v 22.5878 -41.6206 2.75914
v 22.4121 -41.182 2.49162
v 21.943 -41.1237 2.74229
v 21.6933 -40.9277 2.76984
v 21.4478 -40.7603 2.7615
v 21.3372 -40.4993 2.63229
v 22.0638 -42.2135 2.85678
v 22.3072 -42.3383 2.68283
v 22.8836 -42.0875 2.78822
v 22.7316 -41.8481 2.83227
v 22.9449 -41.8319 2.75432
v 21.0048 -41.6671 2.57662
v 21.9778 -41.4003 2.98078
v 22.2155 -41.2672 2.73683
v 21.033 -40.4529 2.72524
v 21.7726 -42.1012 2.759
v 22.3604 -42.2599 2.99174
v 22.6238 -42.2876 2.7928
v 21.5121 -41.9477 2.87226
v 21.7759 -41.9669 3.07304
v 22.6446 -42.0745 3.0442
v 22.3389 -41.9965 3.1401
v 21.2376 -41.7651 2.94808
v 22.2921 -41.5164 2.89002
v 20.9746 -41.5993 2.87498
v 21.7103 -41.1761 2.97324
v 21.387 -40.9801 2.97911
v 21.1725 -40.7123 2.87475
v 20.8858 -40.6144 3.00593
v 22.0482 -42.0506 3.09903
v 22.1413 -41.7246 3.09603
v 22.4635 -41.7714 3.00011
v 21.5254 -41.7364 3.12833
v 21.8588 -41.67 3.16759
v 21.4422 -41.2594 3.11951
v 21.2734 -41.5205 3.13533
v 21.6659 -41.4402 3.17768
v 20.9803 -41.3986 3.09146
v 21.1645 -41.1642 3.17056
v 21.0509 -40.8797 3.10991
v 20.8318 -41.1174 3.12095
v 8.64652 -32.3154 1.66578
v 8.9381 -32.2915 1.50981
v 8.58619 -32.0389 1.81769
v 8.69025 -31.7686 1.73367
v 8.84478 -32.7843 1.83664
v 8.58884 -32.5848 1.86455
v 8.83777 -31.7164 1.50603
v 8.72385 -31.3879 1.99893
v 8.48502 -32.3086 1.95158
v 8.37968 -32.2627 2.2396
v 8.53011 -32.0209 2.11117
v 8.59535 -31.713 1.9809
v 8.75999 -32.7078 2.11264
v 8.74474 -32.5472 2.39337
v 8.49838 -32.5418 2.18836
v 8.55169 -31.8011 2.30333
v 8.62403 -31.5357 2.21068
v 8.65596 -31.5282 2.48694
v 8.7519 -31.2719 2.30288
v 9.03418 -32.5424 2.5279
v 8.39271 -32.0358 2.4378
v 8.5253 -32.3542 2.49191
v 8.60579 -32.0921 2.65963
v 8.56286 -31.7963 2.60289
v 8.8439 -31.3028 2.59154
v 8.88351 -32.0759 2.79183
v 8.76495 -31.582 2.75422
v 8.67085 -31.8535 2.88553
v 10.0541 -31.6301 1.0657
v 10.2272 -31.3988 1.01584
v 10.3844 -31.6347 1.12036
v 9.93913 -31.3054 1.05575
v 9.19142 -30.9495 1.13765
v 9.47207 -30.9753 1.0421
v 10.052 -32.5642 1.25262
v 9.87518 -32.2898 1.2531
v 10.3114 -32.4096 1.22938
v 10.5874 -32.2632 1.26391
v 9.91226 -31.902 1.14615
v 10.0997 -32.1866 1.12699
v 10.395 -32.1044 1.15286
v 10.8736 -32.3671 1.30113
v 10.7971 -32.0741 1.30116
v 9.59468 -31.793 1.20209
v 9.76695 -31.5709 1.08194
v 10.2259 -31.8849 1.09345
v 10.5911 -31.8758 1.16364
v 10.6022 -31.604 1.33621
v 9.47032 -31.5208 1.09472
v 9.18488 -31.4862 1.21692
v 9.3419 -31.2434 1.07943
v 9.66862 -31.2322 1.077
v 10.4297 -31.4325 1.54289
v 9.05318 -31.2345 1.19781
v 10.4006 -31.3512 1.26431
v 9.14792 -30.7227 1.35257
v 9.9298 -31.0346 1.27789
v 10.171 -31.151 1.16635
v 9.36497 -30.6344 1.57409
v 9.69513 -30.8874 1.19659
v 9.40415 -30.6928 1.19084
v 12.0585 -34.3987 1.50801
v 11.845 -34.1558 1.45151
v 11.5916 -34.1189 1.61576
v 12.172 -34.1134 1.40184
v 12.446 -33.9902 1.439
v 11.9625 -33.8889 1.37636
v 12.2276 -33.7564 1.37678
v 11.4144 -33.6478 1.42239
v 11.6706 -33.8349 1.41187
v 11.0368 -33.3028 1.37234
v 10.8138 -33.5018 1.42311
v 11.1123 -33.6436 1.47016
v 11.6521 -33.4763 1.35457
v 11.9345 -33.5887 1.33132
v 12.187 -33.4335 1.47059
v 10.0008 -33.1438 1.38924
v 10.1972 -33.363 1.44079
v 10.4879 -33.3891 1.47763
v 11.3358 -33.3687 1.37064
v 11.9057 -33.2648 1.39752
v 10.3699 -33.0959 1.33779
v 10.701 -33.1993 1.35404
v 10.9525 -33.0005 1.32456
v 11.2872 -33.0639 1.32724
v 11.5994 -33.15 1.35296
v 9.86651 -32.8427 1.35926
v 10.1382 -32.8889 1.28348
v 10.3627 -32.7278 1.28089
v 10.6336 -32.8923 1.3081
v 11.1919 -32.7827 1.35649
v 11.5223 -32.8586 1.48999
v 11.674 -32.7829 1.78833
v 9.58806 -32.8059 1.46925
v 9.74386 -32.5564 1.34823
v 10.6115 -32.5624 1.30027
v 10.8971 -32.6881 1.28991
v 9.43239 -32.5291 1.46198
v 9.55227 -32.306 1.32598
v 11.105 -32.4693 1.43686
v 11.3398 -32.6288 1.55798
v 9.24168 -32.2775 1.45311
v 9.69335 -32.0575 1.26269
v 9.37436 -32.0492 1.29221
v 9.06856 -31.9919 1.41385
v 9.29552 -31.7694 1.26391
v 10.7938 -31.8428 1.44275
v 9.00988 -31.6997 1.30545
v 10.4627 -31.5287 1.82266
v 8.91301 -31.402 1.42001
v 10.1765 -31.2136 1.44744
v 8.98808 -31.0195 1.36106
v 9.79824 -30.883 1.53375
v 9.58838 -30.7073 1.4288
v 12.0218 -34.6034 1.7439
v 12.2909 -34.6375 1.5935
v 12.6049 -34.5651 1.59923
v 12.9013 -34.4152 1.60435
v 11.7847 -34.3617 1.70254
v 12.3808 -34.3513 1.46735
v 12.652 -34.2226 1.53056
v 12.6748 -33.8629 1.59106
v 10.5904 -33.674 1.52806
v 10.8639 -33.7971 1.59799
v 11.1276 -33.8633 1.76912
v 11.3808 -33.8773 1.58187
v 10.0029 -33.5425 1.55428
v 10.0547 -33.6901 1.78373
v 10.2964 -33.6842 1.56512
v 12.4409 -33.6415 1.55318
v 9.80554 -33.3491 1.54594
v 12.3519 -33.3849 1.74887
v 9.54421 -33.2969 1.72107
v 9.39572 -33.0483 1.63069
v 9.6818 -33.0896 1.4849
v 12.091 -33.1726 1.65467
v 9.32031 -32.7756 1.57121
v 9.12032 -32.562 1.56937
v 11.4667 -32.559 1.79079
v 8.84783 -32.5587 1.66504
v 8.78798 -32.028 1.56694
v 11.001 -32.1514 1.53472
v 10.6765 -31.6462 1.6358
v 8.76158 -31.4626 1.70996
v 10.2194 -31.3076 1.73414
v 8.85664 -31.1481 1.58986
v 9.99395 -31.0772 1.63704
v 8.87838 -30.8702 1.84859
v 8.96831 -30.8325 1.5877
v 9.6234 -30.7307 1.76922
v 9.09787 -30.5571 1.62265
v 12.6403 -34.8424 1.74299
v 12.3525 -34.8383 1.80744
v 11.3954 -34.0239 1.84075
v 10.5581 -33.8882 1.73613
v 10.3081 -33.796 1.89534
v 11.0817 -33.9282 2.10492
v 10.0721 -33.6269 2.0653
v 13.0436 -33.8596 2.08822
v 9.81039 -33.492 1.84545
v 9.26656 -33.1384 1.89792
v 9.11518 -32.8686 1.7413
v 11.2391 -32.3433 1.68508
v 11.3716 -32.2881 1.97196
v 10.9086 -31.8964 1.72071
v 10.7458 -31.7076 1.92291
v 10.0653 -31.1446 1.94996
v 8.76669 -31.1495 1.85001
v 9.84146 -30.9263 1.87301
v 9.37065 -30.6122 1.89173
v 9.0273 -30.5902 1.87432
v 12.6119 -35.0714 1.98551
v 12.9178 -35.4371 2.19549
v 12.1057 -34.734 1.99819
v 11.6062 -34.2376 1.96466
v 10.8345 -33.9332 1.89266
v 10.3263 -33.7496 2.23569
v 12.6124 -33.6046 1.81297
v 9.57192 -33.3335 2.00739
v 12.1914 -33.1976 1.96174
v 9.18423 -32.9845 2.26832
v 11.936 -32.9756 1.8801
v 9.02969 -32.9327 2.03413
v 11.8095 -33.0012 1.57404
v 11.7352 -32.7966 2.10976
v 11.5535 -32.5427 2.06577
v 11.1162 -32.1106 1.84602
v 10.9711 -31.9078 2.04362
v 10.5187 -31.5966 2.10455
v 8.76896 -31.039 2.12219
v 8.94063 -30.7928 2.1343
v 9.3997 -30.6837 2.18449
v 9.14926 -30.5547 2.12669
v 12.7143 -35.2081 2.26603
v 12.5089 -34.9944 2.36921
v 12.3693 -34.9339 2.09542
v 12.2256 -34.7693 2.29599
v 11.9867 -34.5626 2.26544
v 11.7602 -34.3331 2.25767
v 11.8428 -34.489 1.98945
v 11.3513 -34.0182 2.108
v 10.5468 -33.8885 2.07228
v 11.2548 -33.9665 2.41514
v 12.7543 -33.6665 2.0892
v 12.4716 -33.4245 2.05156
v 9.6393 -33.2483 2.3065
v 12.1606 -33.2628 2.2492
v 9.38577 -33.1527 2.16283
v 9.45635 -32.9948 2.42923
v 11.3941 -32.34 2.29256
v 11.1917 -32.0961 2.16536
v 10.7605 -31.7826 2.23453
v 10.2906 -31.3696 2.0279
v 8.89433 -31.0057 2.4215
v 10.123 -31.2375 2.25773
v 9.88717 -31.0309 2.18333
v 9.63902 -30.8277 2.10135
v 9.12921 -30.763 2.35522
v 12.207 -34.5334 2.52077
v 11.9891 -34.3309 2.50779
v 11.5394 -34.1224 2.29332
v 10.9524 -33.8648 2.43905
v 10.7946 -33.8874 2.2059
v 12.6332 -33.6194 2.35746
v 9.83157 -33.4613 2.17108
v 10.0929 -33.5637 2.36957
v 12.3968 -33.4376 2.33178
v 9.90015 -33.3403 2.46843
v 11.9405 -33.048 2.18799
v 8.96819 -32.7705 2.32054
v 11.536 -32.6335 2.35426
v 11.1936 -32.1513 2.46846
v 10.9804 -31.9213 2.38211
v 10.5633 -31.6482 2.39835
v 10.3443 -31.4538 2.32625
v 10.1233 -31.4596 2.52155
v 9.90208 -31.2428 2.46665
v 9.17161 -30.965 2.54405
v 9.43398 -30.8831 2.3862
v 12.7276 -35.0922 2.58584
v 12.6299 -34.8147 2.72302
v 12.4087 -34.7612 2.53979
v 11.7693 -34.1239 2.52143
v 11.1263 -33.8125 2.67267
v 11.5182 -33.9693 2.58501
v 12.6603 -33.8246 2.63575
v 10.6105 -33.7659 2.42777
v 10.8146 -33.6303 2.62932
v 12.1084 -33.7291 2.66517
v 12.3991 -33.6407 2.58005
v 10.3953 -33.5699 2.49576
v 10.5972 -33.3816 2.60983
v 12.1459 -33.4337 2.5094
v 10.2078 -33.3606 2.60129
v 10.399 -33.1247 2.63089
v 11.9081 -33.184 2.49252
v 10.0466 -33.0991 2.6173
v 11.7282 -32.9068 2.40453
v 9.55831 -32.7641 2.61847
v 9.73844 -33.0614 2.52155
v 10.185 -32.8452 2.64114
v 9.24438 -32.7724 2.49549
v 9.85287 -32.8248 2.62214
v 11.5316 -32.7251 2.63991
v 9.11871 -32.3019 2.69275
v 11.3387 -32.4618 2.59244
v 10.6486 -31.8963 2.54375
v 10.8777 -32.0976 2.61802
v 11.0887 -32.3119 2.69248
v 9.85259 -31.5489 2.63309
v 10.0783 -31.7642 2.63913
v 10.3685 -31.6601 2.60524
v 9.63535 -31.3433 2.58243
v 9.41387 -31.1498 2.55639
v 9.67275 -31.0487 2.39168
v 9.11302 -31.2226 2.63748
v 12.8558 -34.7903 2.90686
v 12.7486 -34.4892 2.8556
v 12.4803 -34.4946 2.71964
v 12.2871 -34.2549 2.67338
v 12.3671 -33.9479 2.68344
v 12.6166 -34.1612 2.75472
v 12.9312 -33.9544 2.67484
v 11.4004 -33.7293 2.71231
v 12.0488 -34.0395 2.65373
v 11.0892 -33.522 2.75087
v 11.793 -33.8205 2.66551
v 11.1302 -33.2046 2.79013
v 11.3775 -33.3885 2.75882
v 11.6326 -33.5644 2.70897
v 10.8631 -33.286 2.7136
v 11.6655 -33.2594 2.71618
v 11.9076 -33.4788 2.67034
v 10.6811 -33.0484 2.75976
v 10.9989 -32.9321 2.80935
v 11.659 -32.9856 2.67935
v 10.4542 -32.8227 2.77047
v 11.3685 -33.0343 2.77723
v 10.5229 -32.4915 2.82618
v 11.271 -32.7375 2.78006
v 9.35064 -32.5265 2.6467
v 9.95987 -32.6005 2.70929
v 10.2412 -32.5626 2.78023
v 10.7975 -32.3837 2.77698
v 10.7498 -32.7237 2.82272
v 11.0357 -32.5848 2.80692
v 9.43088 -32.2651 2.79461
v 9.73276 -32.1617 2.82553
v 9.67702 -32.4739 2.7098
v 9.98278 -32.3375 2.81904
v 10.2919 -32.25 2.8213
v 10.5823 -32.1583 2.74523
v 8.81648 -32.3313 2.62924
v 9.19456 -32.0376 2.82232
v 9.49776 -31.95 2.82803
v 10.0456 -32.041 2.77765
v 10.3441 -31.9613 2.6706
v 8.9827 -31.7909 2.84458
v 9.80056 -31.8417 2.79099
v 9.28094 -31.7236 2.82186
v 9.57173 -31.6386 2.73763
v 9.05539 -31.4917 2.77741
v 9.34828 -31.4318 2.69467
v 13.6976 -34.9655 1.65195
v 13.9676 -35.1077 1.70088
v 13.4774 -34.7711 1.65525
v 13.8006 -34.4767 1.92065
v 12.9119 -34.0748 1.6171
v 13.1712 -34.2597 1.62086
v 13.4228 -34.2593 1.8084
v 13.5952 -34.4964 1.7063
v 16.4513 -38.2137 1.87926
v 16.6956 -38.483 2.0081
v 16.6284 -37.9832 1.72602
v 16.3258 -37.8685 1.86742
v 16.5478 -37.6703 1.70894
v 16.2631 -37.5269 1.86168
v 16.5229 -37.3588 1.71896
v 16.3449 -37.1711 1.84654
v 16.4277 -36.8761 1.83049
v 16.2207 -36.5625 1.90451
v 16.6994 -36.8475 1.96255
v 13.4742 -35.9658 2.0135
v 13.2375 -35.8122 2.11736
v 13.6647 -35.847 1.80556
v 13.1117 -35.2515 1.74574
v 13.3485 -35.7309 1.80612
v 13.6603 -35.5831 1.69854
v 13.0901 -35.5531 1.92886
v 13.3617 -35.4338 1.70228
v 13.9407 -35.4408 1.79204
v 14.2159 -35.2654 1.85004
v 12.8663 -35.28 1.95512
v 12.8856 -35.0247 1.77529
v 13.6758 -35.2764 1.6842
v 14.1636 -34.9004 1.82587
v 13.1751 -34.8933 1.71825
v 13.4047 -35.1042 1.69596
v 13.8717 -34.7315 1.72086
v 12.928 -34.693 1.71867
v 13.2429 -34.5559 1.64362
v 14.062 -34.6555 1.99377
v 13.1587 -34.0131 1.81905
v 12.8786 -33.8178 1.82416
v 16.4446 -38.3423 2.17514
v 16.1763 -38.1155 2.02238
v 15.9892 -37.8024 1.9245
v 15.9409 -37.9789 2.1885
v 15.6748 -37.5937 1.9434
v 15.4326 -37.3605 1.94047
v 15.9571 -37.4895 1.8835
v 15.4745 -36.9938 1.8769
v 15.7162 -37.2496 1.87737
v 15.2288 -37.1179 1.97216
v 16.0386 -37.1941 1.87409
v 15.1368 -36.8187 1.90961
v 15.7833 -36.9288 1.87216
v 16.119 -36.8848 1.87543
v 14.917 -36.5776 2.04188
v 15.4436 -36.2987 1.87795
v 15.4948 -36.6744 1.87353
v 15.8939 -36.6443 1.87494
v 16.0044 -36.3086 1.91113
v 16.4865 -36.6298 2.03334
v 15.1933 -36.4893 1.88588
v 15.7068 -36.4236 1.87679
v 13.7541 -36.0943 1.95664
v 13.723 -36.2742 2.17754
v 14.0206 -36.3501 2.02481
v 14.3218 -36.248 1.9148
v 14.6062 -36.3563 1.99602
v 14.5983 -36.0384 1.88259
v 14.899 -36.2846 1.92093
v 15.1736 -36.1289 1.88244
v 15.7327 -36.0994 1.90809
v 15.9527 -36.0786 2.1569
v 14.0377 -36.0746 1.88936
v 14.2319 -35.5756 1.87462
v 14.2827 -35.9118 1.87873
v 14.8982 -35.9693 1.88401
v 15.4372 -35.9591 1.90694
v 13.9564 -35.7643 1.86493
v 14.5046 -35.7078 1.88011
v 14.7806 -35.6809 1.88885
v 15.1363 -35.7688 1.94511
v 15.6758 -35.882 2.15466
v 14.9452 -35.4963 2.03131
v 15.1967 -35.5654 2.23394
v 15.4053 -35.743 2.12887
v 14.5534 -35.3814 1.89661
v 14.4172 -35.0662 1.93758
v 14.5583 -35.0722 2.19699
v 13.6198 -34.2628 2.07704
v 16.7127 -38.5122 2.31948
v 16.4539 -38.3356 2.51539
v 15.6776 -37.8028 2.16646
v 15.4194 -37.5979 2.18131
v 15.1902 -37.3644 2.17501
v 14.6974 -37.0991 2.31973
v 14.9841 -37.094 2.13771
v 14.4518 -36.8691 2.24651
v 14.8023 -36.8664 2.09869
v 14.2915 -36.5328 2.10678
v 14.5934 -36.6353 2.10339
v 13.9273 -36.5018 2.27214
v 16.2031 -36.3263 2.16413
v 13.4713 -36.0812 2.28641
v 13.5011 -36.0538 2.62478
v 13.2713 -35.879 2.44765
v 15.7759 -35.9279 2.44364
v 13.0823 -35.6356 2.30827
v 14.7522 -35.2815 2.11954
v 13.7147 -34.2999 2.42406
v 13.4463 -34.1349 2.35006
v 13.3385 -34.0587 2.06728
v 13.1719 -33.9545 2.35382
v 16.722 -38.4844 2.63504
v 16.2159 -38.1981 2.3381
v 15.4718 -37.7165 2.48431
v 15.7254 -37.8811 2.4687
v 14.7915 -37.2077 2.65806
v 14.9563 -37.3048 2.39596
v 14.5413 -37.0313 2.58745
v 14.1661 -36.6625 2.36326
v 16.6931 -36.786 2.28443
v 16.4354 -36.5283 2.28828
v 16.2405 -36.3795 2.48203
v 13.6708 -36.2932 2.47194
v 16.0153 -36.1525 2.45456
v 15.4835 -35.7204 2.44032
v 15.1992 -35.5693 2.55367
v 14.954 -35.3954 2.35418
v 14.7084 -35.1966 2.46061
v 14.3096 -34.8351 2.14983
v 14.1229 -34.6415 2.29975
v 13.8821 -34.4524 2.21962
v 13.9638 -34.5133 2.55113
v 12.8974 -33.7952 2.3844
v 16.2226 -38.1272 2.6962
v 16.0002 -38.0563 2.47085
v 15.1979 -37.5394 2.45118
v 15.3559 -37.5542 2.75471
v 15.068 -37.3774 2.71304
v 14.3304 -36.8341 2.53378
v 16.553 -36.6036 2.55798
v 13.9203 -36.4624 2.58062
v 13.7795 -36.1898 2.75684
v 16.0547 -36.2721 2.75592
v 13.4036 -35.7717 2.75048
v 15.8277 -36.0565 2.75862
v 15.358 -35.7513 2.78874
v 13.1473 -35.6085 2.61047
v 12.909 -35.3621 2.50682
v 14.5496 -35.0154 2.68302
v 14.4631 -34.8883 2.43414
v 14.224 -34.7127 2.5586
v 13.2146 -34.0633 2.6278
v 16.9776 -38.6198 2.78493
v 16.3146 -38.0012 2.97476
v 15.9157 -37.9214 2.70888
v 15.6648 -37.717 2.78597
v 16.0401 -37.8376 2.9182
v 14.9825 -37.119 2.92977
v 14.4513 -36.7759 2.81125
v 16.7904 -36.8373 2.60671
v 16.5439 -36.7634 2.84194
v 14.1694 -36.6112 2.69912
v 16.2963 -36.5066 2.74442
v 14.0587 -36.3317 2.85163
v 15.6149 -35.8553 2.72024
v 15.0954 -35.6116 2.87498
v 14.816 -35.4991 2.95977
v 14.9515 -35.3781 2.66793
v 12.914 -35.0916 2.83166
v 14.2698 -34.8915 2.77526
v 14.7074 -35.2392 2.80397
v 13.6507 -34.7132 2.9232
v 13.9628 -34.739 2.81165
v 13.7204 -34.4666 2.7262
v 13.2095 -34.2589 2.85982
v 13.4809 -34.2392 2.64829
v 12.916 -34.2163 2.85412
v 16.5161 -38.2667 2.83445
v 15.2633 -37.2846 2.96347
v 15.2114 -36.9509 3.10694
v 16.5657 -37.0091 3.0433
v 16.715 -37.2796 3.12639
v 14.6616 -36.6396 3.01152
v 14.7118 -36.9539 2.87521
v 16.0199 -36.4494 3.00334
v 14.3616 -36.4848 2.92571
v 14.3038 -36.1804 2.99736
v 14.6119 -36.3258 3.06685
v 15.7669 -36.2433 3.01064
v 13.991 -36.0109 2.94746
v 14.5864 -36.0134 3.07355
v 15.508 -36.03 3.00157
v 14.2657 -35.8827 3.03693
v 15.1907 -35.9151 3.02599
v 13.6913 -35.8919 2.87308
v 13.9472 -35.6753 3.01033
v 14.5708 -35.7122 3.04995
v 13.3247 -35.4893 2.88448
v 13.6266 -35.5892 2.95812
v 14.2649 -35.6021 3.03797
v 14.505 -35.4089 2.99238
v 13.0641 -35.3492 2.76602
v 13.2128 -35.1891 2.99598
v 13.533 -35.2709 3.02318
v 13.8404 -35.3359 3.01566
v 14.1403 -35.3501 3.01271
v 14.377 -35.1527 2.9156
v 13.7623 -35.0025 2.99516
v 14.0547 -35.0485 2.94674
v 13.1145 -34.8889 3.02785
v 13.3402 -34.6803 3.03101
v 13.0658 -34.5332 2.95575
v 13.4372 -34.4501 2.88474
v 16.8547 -38.1991 3.18189
v 16.1983 -37.694 3.12008
v 16.5944 -38.1042 3.10711
v 16.8449 -37.8726 3.2743
v 15.8598 -37.5871 3.02747
v 16.4967 -37.8162 3.18791
v 16.7107 -37.588 3.23446
v 16.4245 -37.4852 3.20388
v 15.5558 -37.4453 2.98905
v 16.0322 -37.0768 3.19026
v 16.0869 -37.3968 3.17649
v 16.3572 -37.2011 3.1776
v 15.7752 -37.2718 3.15475
v 16.2882 -36.9078 3.09712
v 15.4647 -36.7493 3.17995
v 15.4837 -37.1185 3.13309
v 15.9955 -36.7528 3.13533
v 16.2606 -36.6545 2.97847
v 14.9379 -36.793 3.07318
v 15.1989 -36.5849 3.15889
v 15.7348 -36.5664 3.14195
v 15.7332 -36.9244 3.19435
v 14.9175 -36.4458 3.12496
v 15.4774 -36.3777 3.12438
v 15.2071 -36.2301 3.11743
v 14.8992 -36.122 3.10032
v 14.8807 -35.81 3.04614
v 13.4496 -34.9649 3.06041

f 2 39 3
f 44 3 39
f 4 3 44
f 47 5 44
f 6 7 9
f 10 8 6
f 11 6 9
f 10 6 11
f 18 13 15
f 18 15 16
f 17 14 18
f 17 67 14
f 18 14 13
f 87 16 15
f 19 20 21
f 20 17 21
f 24 21 22
f 22 17 18
f 22 18 16
f 22 16 69
f 1 19 28
f 28 19 21
f 28 21 24
f 22 21 17
f 24 22 25
f 69 94 25
f 1 27 23
f 19 1 23
f 70 24 25
f 29 27 30
f 29 26 27
f 30 27 31
f 31 1 32
f 31 27 1
f 32 28 33
f 1 28 32
f 24 33 28
f 24 70 33
f 35 29 30
f 31 37 36
f 32 37 31
f 37 32 34
f 33 34 32
f 74 34 73
f 38 35 2
f 2 35 30
f 2 30 39
f 36 30 31
f 39 30 36
f 41 36 37
f 40 36 41
f 74 37 34
f 43 38 42
f 42 2 3
f 42 38 2
f 39 36 40
f 37 74 41
f 43 689 38
f 43 42 46
f 46 42 3
f 44 39 40
f 41 45 40
f 40 45 47
f 41 74 75
f 46 3 4
f 44 40 47
f 46 4 48
f 4 49 48
f 5 49 4
f 44 5 4
f 47 76 51
f 50 48 49
f 47 51 5
f 49 52 50
f 49 78 52
f 78 49 5
f 78 5 51
f 52 77 107
f 55 54 7
f 7 6 55
f 6 8 55
f 56 10 58
f 57 56 58
f 82 56 57
f 56 8 10
f 10 11 58
f 276 11 9
f 64 57 61
f 61 57 58
f 66 58 62
f 62 58 11
f 276 63 62
f 276 62 11
f 12 59 13
f 13 60 64
f 13 59 60
f 15 13 64
f 64 60 57
f 64 61 65
f 66 61 58
f 68 61 66
f 13 14 12
f 15 64 65
f 61 68 65
f 17 20 67
f 67 12 14
f 16 87 69
f 87 15 65
f 68 88 65
f 23 86 19
f 86 85 20
f 67 20 85
f 23 26 90
f 86 20 19
f 25 22 69
f 69 91 94
f 23 27 26
f 93 26 29
f 71 93 29
f 33 70 34
f 35 72 71
f 71 29 35
f 70 100 73
f 770 72 689
f 72 38 689
f 35 38 72
f 75 45 41
f 74 102 75
f 74 73 102
f 45 76 47
f 51 76 105
f 78 77 52
f 51 105 106
f 53 52 107
f 107 801 698
f 107 698 53
f 80 79 55
f 79 54 55
f 80 55 8
f 8 81 80
f 82 128 56
f 8 56 81
f 60 82 57
f 60 59 83
f 83 82 60
f 84 130 12
f 63 112 62
f 112 63 111
f 67 132 84
f 67 84 12
f 113 68 112
f 62 112 66
f 132 67 85
f 89 68 113
f 66 112 68
f 91 87 88
f 88 87 65
f 88 68 89
f 23 90 86
f 91 69 87
f 91 88 92
f 92 88 89
f 93 90 26
f 94 91 96
f 98 25 94
f 95 94 96
f 96 91 92
f 71 97 93
f 70 25 98
f 98 94 95
f 99 98 95
f 97 72 115
f 71 72 97
f 70 98 100
f 770 115 72
f 98 99 100
f 100 99 101
f 34 70 73
f 100 117 73
f 102 117 118
f 45 75 103
f 75 104 103
f 75 102 104
f 76 45 103
f 76 103 120
f 78 106 77
f 78 51 106
f 121 124 77
f 80 108 126
f 79 80 126
f 108 80 81
f 149 126 108
f 128 82 129
f 56 128 81
f 81 128 127
f 83 109 129
f 83 129 82
f 130 109 83
f 130 83 59
f 12 130 59
f 109 130 110
f 134 85 86
f 136 90 157
f 113 114 89
f 139 93 97
f 93 139 157
f 90 93 157
f 89 114 92
f 140 92 114
f 140 116 92
f 116 96 92
f 142 99 95
f 95 116 142
f 95 96 116
f 770 793 115
f 99 143 101
f 99 142 143
f 100 101 117
f 73 117 102
f 118 104 102
f 119 104 118
f 145 119 118
f 119 147 104
f 120 105 76
f 148 105 120
f 147 103 104
f 121 77 106
f 121 106 122
f 148 122 105
f 122 106 105
f 77 124 107
f 121 123 124
f 124 801 107
f 79 126 125
f 150 149 108
f 108 127 150
f 81 127 108
f 111 131 133
f 111 133 113
f 134 132 85
f 112 111 113
f 113 133 135
f 90 136 86
f 86 136 134
f 135 114 113
f 114 135 138
f 139 137 157
f 138 140 114
f 141 116 140
f 116 141 142
f 101 143 144
f 101 118 117
f 145 118 144
f 144 118 101
f 164 119 145
f 147 119 146
f 147 120 103
f 169 121 122
f 169 123 121
f 193 123 169
f 124 841 801
f 124 123 841
f 171 125 126
f 128 129 127
f 150 127 151
f 152 129 109
f 151 129 152
f 151 127 129
f 109 110 198
f 176 131 175
f 130 84 153
f 130 153 110
f 179 133 131
f 181 153 132
f 133 179 154
f 179 131 177
f 132 134 181
f 135 133 154
f 155 134 136
f 135 154 156
f 136 157 183
f 135 156 138
f 156 158 138
f 141 158 184
f 141 140 158
f 140 138 158
f 160 139 97
f 161 141 184
f 115 834 160
f 97 115 160
f 142 141 161
f 115 793 834
f 162 143 189
f 189 142 161
f 189 143 142
f 143 162 144
f 226 146 164
f 164 145 163
f 146 119 164
f 144 163 145
f 162 163 144
f 165 146 226
f 147 146 192
f 192 146 165
f 148 166 167
f 120 166 148
f 120 147 166
f 166 147 192
f 167 169 122
f 168 169 167
f 167 122 148
f 123 170 841
f 149 172 126
f 171 126 172
f 150 173 149
f 150 151 174
f 149 173 172
f 152 199 174
f 174 196 150
f 197 196 174
f 152 109 198
f 198 199 152
f 152 174 151
f 197 199 200
f 197 174 199
f 110 153 201
f 201 178 110
f 198 110 178
f 203 201 153
f 179 200 154
f 181 155 182
f 84 132 153
f 203 153 181
f 154 180 156
f 208 156 180
f 155 181 134
f 209 182 155
f 157 137 183
f 155 183 211
f 183 155 136
f 184 158 156
f 184 156 208
f 137 139 186
f 185 183 137
f 186 218 137
f 184 159 161
f 160 186 139
f 159 214 161
f 224 834 190
f 834 188 160
f 186 160 188
f 189 161 214
f 187 163 162
f 187 162 189
f 190 834 793
f 187 191 163
f 226 164 191
f 164 163 191
f 166 192 227
f 169 168 193
f 170 193 863
f 862 170 863
f 170 123 193
f 842 170 862
f 171 172 356
f 172 173 194
f 172 194 356
f 196 195 173
f 194 173 195
f 195 176 344
f 173 150 196
f 196 177 195
f 177 176 195
f 197 177 196
f 177 131 176
f 200 179 197
f 179 177 197
f 178 201 205
f 178 205 202
f 178 202 199
f 198 178 199
f 200 202 180
f 199 202 200
f 200 180 154
f 201 203 207
f 205 207 204
f 201 207 205
f 202 205 204
f 208 180 202
f 203 182 206
f 181 182 203
f 203 206 207
f 207 210 204
f 204 159 208
f 204 208 202
f 206 209 212
f 206 212 213
f 182 209 206
f 210 213 214
f 206 213 210
f 206 210 207
f 204 210 159
f 211 185 215
f 183 185 211
f 155 211 209
f 209 211 216
f 210 214 159
f 208 159 184
f 185 218 215
f 211 215 216
f 212 216 217
f 209 216 212
f 212 217 213
f 213 217 187
f 213 187 214
f 187 189 214
f 186 188 221
f 186 221 218
f 137 218 185
f 215 218 222
f 216 215 219
f 216 219 220
f 216 220 217
f 221 224 231
f 188 834 224
f 224 221 188
f 218 221 222
f 222 223 219
f 215 222 219
f 219 223 226
f 219 226 220
f 220 226 191
f 191 217 220
f 191 187 217
f 190 859 897
f 895 224 190
f 232 223 222
f 223 225 165
f 895 233 224
f 225 227 165
f 165 226 223
f 227 229 167
f 229 227 225
f 167 166 227
f 192 165 227
f 168 230 193
f 230 168 228
f 229 168 167
f 228 168 229
f 863 230 901
f 863 193 230
f 221 231 232
f 223 232 225
f 221 232 222
f 231 233 234
f 224 233 231
f 232 234 225
f 231 234 232
f 233 895 898
f 234 233 228
f 233 898 228
f 234 228 229
f 229 225 234
f 898 901 230
f 230 228 898
f 238 235 237
f 240 236 237
f 235 240 237
f 245 240 235
f 235 238 242
f 243 238 250
f 242 238 243
f 244 240 241
f 240 245 241
f 245 242 254
f 235 242 245
f 242 243 254
f 246 244 247
f 241 247 244
f 257 247 241
f 241 245 257
f 236 251 279
f 249 237 236
f 237 249 248
f 237 248 238
f 248 250 238
f 250 268 243
f 243 268 239
f 244 236 240
f 268 252 239
f 246 251 244
f 236 244 251
f 245 254 258
f 272 239 271
f 243 239 254
f 239 252 271
f 256 253 251
f 246 256 251
f 245 258 257
f 259 258 254
f 255 256 260
f 246 263 256
f 261 263 246
f 247 261 246
f 257 262 247
f 262 257 273
f 257 258 273
f 7 54 260
f 263 260 256
f 263 261 264
f 261 274 264
f 261 247 262
f 265 7 260
f 9 7 265
f 265 260 263
f 265 263 264
f 264 266 265
f 267 249 279
f 248 249 277
f 249 267 277
f 249 236 279
f 279 251 280
f 278 250 277
f 277 250 248
f 250 278 268
f 281 252 268
f 281 270 252
f 280 253 269
f 272 254 239
f 270 271 252
f 253 256 255
f 54 283 255
f 259 254 272
f 272 271 285
f 54 255 260
f 258 259 273
f 261 262 274
f 262 273 287
f 264 274 275
f 274 289 290
f 274 262 289
f 266 264 275
f 275 274 290
f 266 9 265
f 266 292 276
f 9 266 276
f 266 275 293
f 267 294 295
f 278 296 268
f 253 280 251
f 281 282 270
f 253 283 269
f 284 270 282
f 284 271 270
f 54 79 299
f 255 283 253
f 285 286 272
f 271 284 285
f 272 286 259
f 287 273 288
f 273 259 288
f 259 286 288
f 305 287 304
f 262 287 289
f 293 292 266
f 275 291 293
f 275 290 291
f 292 63 276
f 267 279 309
f 267 295 277
f 295 278 277
f 309 279 280
f 278 310 296
f 278 295 310
f 281 296 297
f 268 296 281
f 269 327 314
f 269 311 280
f 282 297 298
f 281 297 282
f 283 299 327
f 283 327 269
f 298 300 301
f 298 284 282
f 298 301 284
f 125 299 79
f 299 283 54
f 285 300 303
f 300 285 301
f 285 284 301
f 288 286 317
f 302 286 303
f 286 285 303
f 288 304 287
f 288 317 304
f 317 286 302
f 305 289 287
f 305 306 290
f 305 290 289
f 306 291 290
f 292 293 307
f 307 293 291
f 321 291 306
f 308 63 292
f 111 63 308
f 292 307 308
f 294 267 309
f 294 322 323
f 295 294 323
f 295 323 310
f 310 312 296
f 313 297 312
f 312 297 296
f 269 314 311
f 280 311 309
f 315 297 313
f 315 298 297
f 300 315 303
f 300 298 315
f 339 302 316
f 304 317 329
f 319 305 318
f 305 304 318
f 306 319 320
f 306 305 319
f 306 320 321
f 307 321 330
f 307 291 321
f 308 175 111
f 175 131 111
f 308 307 175
f 322 294 331
f 294 309 331
f 310 333 312
f 323 333 310
f 324 313 312
f 314 334 311
f 324 325 326
f 326 313 324
f 315 313 326
f 302 303 316
f 325 303 326
f 316 303 325
f 303 315 326
f 340 171 353
f 317 302 329
f 328 341 318
f 318 329 328
f 318 304 329
f 330 321 343
f 175 330 176
f 175 307 330
f 321 320 343
f 331 345 322
f 332 323 322
f 332 333 323
f 331 334 335
f 331 311 334
f 331 309 311
f 337 336 332
f 324 333 336
f 324 312 333
f 334 338 348
f 316 325 347
f 347 336 337
f 325 324 336
f 125 327 299
f 338 314 340
f 340 314 327
f 347 325 336
f 171 340 125
f 339 328 329
f 329 302 339
f 342 319 341
f 319 318 341
f 343 320 342
f 320 319 342
f 330 343 344
f 176 330 344
f 331 335 345
f 345 335 349
f 332 345 337
f 322 345 332
f 333 332 336
f 314 338 334
f 335 348 349
f 335 334 348
f 345 349 346
f 337 346 347
f 346 337 345
f 347 339 316
f 340 351 338
f 348 351 352
f 338 351 348
f 349 328 346
f 346 339 347
f 340 353 351
f 352 349 348
f 346 328 339
f 352 328 349
f 340 327 125
f 350 351 354
f 351 353 354
f 350 354 342
f 350 342 341
f 350 352 351
f 341 328 352
f 354 356 355
f 171 356 353
f 353 356 354
f 355 342 354
f 350 341 352
f 356 194 355
f 343 342 355
f 195 344 194
f 194 344 355
f 344 343 355
f 358 497 357
f 361 496 362
f 362 357 365
f 365 357 359
f 371 369 362
f 369 361 362
f 362 365 371
f 367 366 365
f 367 365 359
f 368 359 360
f 367 359 368
f 500 360 363
f 360 500 368
f 371 370 369
f 371 365 366
f 373 372 368
f 372 367 368
f 373 368 364
f 373 364 375
f 373 375 374
f 524 546 364
f 378 370 371
f 669 370 378
f 586 370 376
f 378 371 366
f 378 366 377
f 377 366 367
f 367 372 377
f 374 372 373
f 379 669 378
f 379 378 377
f 372 380 377
f 380 379 377
f 383 374 381
f 372 374 380
f 375 381 374
f 379 380 384
f 374 383 380
f 380 383 384
f 384 382 379
f 385 387 386
f 385 386 388
f 389 407 390
f 408 416 390
f 444 445 391
f 396 391 393
f 391 445 393
f 393 445 452
f 392 391 396
f 397 393 394
f 396 393 397
f 394 399 403
f 394 398 399
f 395 392 396
f 402 395 396
f 385 395 402
f 402 396 397
f 397 394 403
f 399 463 403
f 400 395 401
f 403 402 397
f 387 402 403
f 405 400 401
f 408 405 401
f 407 405 408
f 385 401 395
f 388 401 385
f 387 385 402
f 404 387 403
f 404 409 411
f 406 405 407
f 388 408 401
f 387 411 386
f 387 404 411
f 410 406 407
f 410 407 389
f 390 407 408
f 408 388 413
f 413 388 414
f 414 388 386
f 414 386 411
f 468 389 412
f 389 417 412
f 413 416 408
f 415 412 417
f 417 389 390
f 417 390 416
f 469 470 416
f 423 419 421
f 421 419 418
f 421 418 476
f 426 419 423
f 424 421 422
f 423 421 424
f 426 420 419
f 431 423 424
f 428 429 427
f 429 425 436
f 436 425 430
f 426 425 482
f 430 426 431
f 431 426 423
f 431 424 432
f 432 424 486
f 427 429 436
f 441 427 436
f 437 430 431
f 442 430 437
f 432 437 431
f 438 433 434
f 438 434 435
f 438 435 439
f 439 427 440
f 439 435 428
f 447 440 441
f 441 436 442
f 430 442 436
f 443 433 444
f 446 438 439
f 444 438 445
f 445 438 446
f 446 439 440
f 440 427 441
f 447 441 448
f 442 448 441
f 540 448 442
f 450 443 451
f 391 451 443
f 446 440 453
f 453 440 447
f 452 446 453
f 457 447 448
f 451 454 450
f 455 454 451
f 443 444 391
f 445 446 452
f 447 457 456
f 453 447 456
f 455 451 392
f 391 392 451
f 392 459 455
f 394 393 452
f 456 398 453
f 394 452 398
f 398 452 453
f 455 458 454
f 460 458 455
f 460 455 459
f 395 459 392
f 398 498 399
f 456 498 398
f 461 460 462
f 400 460 459
f 462 460 400
f 395 400 459
f 463 399 498
f 404 403 463
f 464 461 462
f 400 405 462
f 404 463 499
f 462 406 464
f 406 466 464
f 405 406 462
f 404 499 409
f 465 409 499
f 466 406 410
f 411 409 467
f 465 501 409
f 501 467 409
f 468 410 389
f 466 410 468
f 467 503 413
f 467 414 411
f 507 412 415
f 414 467 413
f 469 416 413
f 415 417 470
f 470 417 416
f 475 471 418
f 418 471 472
f 418 472 476
f 477 473 474
f 420 475 419
f 418 419 475
f 476 472 473
f 476 473 477
f 482 510 420
f 475 420 531
f 476 422 421
f 422 476 477
f 422 477 478
f 420 426 482
f 422 478 486
f 484 485 483
f 479 480 428
f 480 429 428
f 480 481 429
f 429 481 482
f 429 482 425
f 426 430 425
f 424 422 486
f 478 720 534
f 433 487 434
f 434 483 485
f 434 485 435
f 428 435 479
f 435 485 479
f 486 488 432
f 491 487 433
f 483 434 487
f 439 428 427
f 490 489 491
f 487 491 489
f 433 438 444
f 492 540 437
f 437 432 492
f 450 490 491
f 433 443 491
f 442 437 540
f 493 490 450
f 450 491 443
f 448 449 495
f 494 493 454
f 450 454 493
f 448 495 457
f 358 496 494
f 358 357 496
f 458 358 494
f 454 458 494
f 461 358 458
f 359 357 497
f 458 460 461
f 519 456 457
f 497 360 359
f 461 363 497
f 358 461 497
f 498 521 463
f 363 461 464
f 360 497 363
f 499 463 521
f 500 363 466
f 363 464 466
f 569 501 465
f 466 502 500
f 466 468 502
f 501 523 503
f 505 502 468
f 413 503 469
f 502 505 504
f 468 412 505
f 506 415 470
f 470 469 506
f 525 469 503
f 507 505 412
f 415 506 526
f 528 508 509
f 530 509 471
f 509 472 471
f 473 472 509
f 716 473 508
f 508 473 509
f 556 475 531
f 420 510 531
f 511 479 485
f 480 511 532
f 479 511 480
f 513 481 532
f 532 481 480
f 482 481 510
f 557 481 513
f 516 484 483
f 484 514 512
f 484 512 485
f 485 512 511
f 720 515 560
f 483 487 516
f 484 516 514
f 486 534 488
f 486 478 534
f 535 516 489
f 516 487 489
f 488 536 492
f 535 517 564
f 490 517 489
f 488 492 432
f 538 492 536
f 518 490 493
f 518 517 490
f 492 538 540
f 361 518 496
f 496 518 494
f 493 494 518
f 542 449 541
f 449 540 538
f 448 540 449
f 496 357 362
f 495 449 542
f 495 519 457
f 456 519 498
f 498 519 543
f 543 519 520
f 521 498 543
f 522 499 521
f 364 368 500
f 545 465 522
f 522 465 499
f 364 500 524
f 569 523 501
f 524 500 502
f 467 501 503
f 503 523 525
f 502 504 524
f 525 506 469
f 573 506 525
f 505 527 504
f 526 507 415
f 527 507 526
f 709 528 550
f 552 509 530
f 552 528 509
f 530 553 552
f 556 554 530
f 556 471 475
f 558 511 512
f 511 558 532
f 532 579 513
f 513 559 557
f 510 557 531
f 481 557 510
f 514 533 512
f 514 516 581
f 562 535 564
f 488 561 536
f 560 561 534
f 561 488 534
f 535 489 517
f 517 539 537
f 539 517 518
f 517 537 564
f 369 539 361
f 539 518 361
f 495 542 520
f 520 519 495
f 544 521 543
f 544 522 521
f 568 522 544
f 545 569 465
f 546 375 364
f 569 571 523
f 546 524 504
f 546 504 547
f 571 572 523
f 507 527 505
f 504 527 547
f 527 549 547
f 549 527 526
f 549 526 548
f 551 550 528
f 550 529 709
f 552 551 528
f 554 553 530
f 555 554 556
f 556 530 471
f 577 531 557
f 531 577 555
f 558 579 532
f 513 579 578
f 513 578 559
f 558 512 533
f 581 516 535
f 582 514 581
f 582 533 514
f 563 536 561
f 537 565 564
f 538 536 585
f 585 536 563
f 541 585 614
f 541 538 585
f 586 539 369
f 542 541 587
f 449 538 541
f 542 587 566
f 614 587 541
f 542 566 520
f 567 544 543
f 567 520 566
f 544 567 589
f 520 567 543
f 568 545 522
f 545 591 569
f 545 568 590
f 375 546 570
f 574 570 547
f 570 546 547
f 526 506 573
f 525 523 572
f 573 525 572
f 548 526 573
f 574 547 549
f 549 548 574
f 553 554 575
f 553 598 551
f 553 575 598
f 554 555 576
f 576 575 554
f 599 577 601
f 555 556 531
f 578 600 559
f 559 600 640
f 559 577 557
f 607 533 582
f 533 607 603
f 533 603 558
f 579 558 603
f 583 561 580
f 580 561 560
f 581 562 584
f 562 581 535
f 563 609 612
f 563 583 609
f 563 561 583
f 564 565 562
f 616 562 565
f 612 585 563
f 618 537 586
f 539 586 537
f 618 565 537
f 586 369 370
f 622 587 620
f 566 587 622
f 566 588 567
f 566 622 588
f 589 568 544
f 589 567 588
f 568 589 623
f 545 590 591
f 571 592 593
f 591 592 571
f 572 571 593
f 591 571 569
f 574 594 570
f 594 574 595
f 574 548 595
f 548 573 595
f 596 551 597
f 550 551 596
f 551 552 553
f 598 597 551
f 576 555 599
f 576 599 641
f 576 636 575
f 577 599 555
f 641 636 576
f 559 640 601
f 601 577 559
f 599 601 643
f 641 599 643
f 603 604 578
f 579 603 578
f 642 600 604
f 602 606 580
f 582 581 584
f 607 582 610
f 607 608 603
f 603 608 604
f 642 604 647
f 609 606 605
f 609 583 606
f 583 580 606
f 610 582 584
f 610 611 608
f 607 610 608
f 650 608 611
f 647 608 650
f 562 616 584
f 613 616 619
f 584 616 613
f 584 613 610
f 610 613 611
f 585 612 614
f 565 615 616
f 613 619 617
f 657 618 376
f 615 618 657
f 565 618 615
f 615 657 665
f 615 619 616
f 587 614 620
f 657 376 621
f 586 376 618
f 657 621 663
f 376 370 669
f 382 621 669
f 589 624 623
f 628 590 623
f 624 589 588
f 624 588 625
f 673 628 623
f 590 568 623
f 626 629 593
f 626 593 592
f 626 592 627
f 592 628 627
f 592 591 628
f 591 590 628
f 570 632 381
f 375 570 381
f 629 630 631
f 593 631 572
f 679 630 629
f 629 631 593
f 594 632 570
f 630 632 594
f 631 595 573
f 630 595 631
f 573 572 631
f 594 595 630
f 633 850 597
f 635 634 597
f 598 635 597
f 598 575 635
f 633 597 634
f 637 638 636
f 635 636 638
f 575 636 635
f 638 639 858
f 640 646 643
f 640 643 601
f 606 637 605
f 637 641 605
f 636 641 637
f 637 606 602
f 638 602 639
f 637 602 638
f 645 642 644
f 600 578 604
f 640 642 645
f 600 642 640
f 640 645 646
f 641 643 605
f 608 647 604
f 642 647 644
f 645 648 646
f 643 646 649
f 649 605 643
f 647 651 644
f 648 654 652
f 644 654 645
f 645 654 648
f 648 649 646
f 649 609 605
f 612 609 649
f 611 613 617
f 650 611 653
f 650 651 647
f 644 651 654
f 612 652 614
f 648 652 612
f 649 648 612
f 653 617 659
f 653 611 617
f 653 661 650
f 650 661 651
f 654 651 656
f 652 654 620
f 619 658 617
f 658 659 617
f 655 653 659
f 655 660 661
f 653 655 661
f 656 651 662
f 656 620 654
f 620 614 652
f 615 665 619
f 658 619 665
f 659 667 655
f 655 667 668
f 655 668 660
f 661 662 651
f 662 622 656
f 622 620 656
f 376 669 621
f 663 621 670
f 663 664 665
f 657 663 665
f 665 664 666
f 658 666 659
f 659 666 667
f 668 624 660
f 662 660 625
f 660 624 625
f 660 662 661
f 625 588 622
f 625 622 662
f 379 382 669
f 670 671 663
f 664 671 675
f 663 671 664
f 664 675 672
f 664 672 666
f 658 665 666
f 667 672 673
f 666 672 667
f 668 673 623
f 667 673 668
f 623 624 668
f 674 382 384
f 621 382 670
f 674 676 670
f 671 676 677
f 670 676 671
f 675 677 626
f 671 677 675
f 627 675 626
f 675 627 672
f 672 627 673
f 627 628 673
f 674 383 678
f 674 678 676
f 676 678 679
f 676 679 677
f 679 629 677
f 677 629 626
f 678 383 381
f 678 381 632
f 632 630 679
f 678 632 679
f 382 674 670
f 383 674 384
f 681 715 680
f 682 715 687
f 687 715 683
f 685 717 686
f 717 687 686
f 682 680 715
f 477 474 684
f 478 477 684
f 720 684 719
f 685 719 684
f 478 684 720
f 43 688 689
f 690 688 43
f 46 690 43
f 48 690 46
f 692 691 690
f 692 690 48
f 50 692 48
f 694 692 50
f 694 693 692
f 53 50 52
f 53 694 50
f 695 694 53
f 734 696 697
f 53 698 696
f 695 53 696
f 700 783 699
f 703 706 705
f 703 699 701
f 704 703 701
f 706 703 704
f 758 704 701
f 711 704 707
f 704 758 707
f 707 754 708
f 709 702 710
f 709 705 702
f 706 702 705
f 714 713 702
f 711 706 704
f 508 528 710
f 713 710 702
f 714 702 706
f 714 706 711
f 711 707 681
f 681 707 708
f 681 708 712
f 715 681 712
f 508 710 716
f 716 710 713
f 714 711 680
f 681 680 711
f 712 767 810
f 718 712 810
f 474 473 716
f 716 713 717
f 682 713 714
f 717 713 682
f 680 682 714
f 715 718 683
f 715 712 718
f 474 716 717
f 685 474 717
f 685 684 474
f 682 687 717
f 791 686 769
f 686 687 769
f 685 686 719
f 721 689 688
f 689 721 770
f 722 721 688
f 690 691 688
f 723 722 691
f 722 688 691
f 722 723 724
f 693 691 692
f 729 725 727
f 727 725 723
f 693 723 691
f 727 723 693
f 728 730 726
f 729 726 725
f 731 727 693
f 695 693 694
f 730 774 726
f 728 726 729
f 733 729 731
f 731 729 727
f 731 693 695
f 732 728 737
f 733 728 729
f 737 728 733
f 733 731 734
f 696 734 695
f 734 731 695
f 732 730 728
f 737 733 738
f 738 733 734
f 738 697 739
f 740 697 696
f 740 782 697
f 801 740 698
f 740 696 698
f 749 748 747
f 749 735 741
f 741 735 732
f 736 741 737
f 741 732 737
f 697 738 734
f 742 738 739
f 739 697 782
f 753 745 746
f 744 745 743
f 750 749 741
f 756 749 750
f 750 741 736
f 742 737 738
f 736 737 742
f 739 752 751
f 742 739 751
f 739 782 752
f 758 701 743
f 758 743 753
f 753 743 745
f 748 746 747
f 753 746 755
f 755 746 748
f 754 758 755
f 756 748 749
f 760 748 756
f 750 736 757
f 751 736 742
f 757 736 751
f 783 743 699
f 699 743 701
f 758 753 755
f 760 759 748
f 759 755 748
f 756 750 761
f 761 750 757
f 757 762 765
f 757 751 762
f 786 752 805
f 705 700 703
f 703 700 699
f 758 754 707
f 760 756 761
f 761 763 760
f 761 765 764
f 764 763 761
f 761 757 765
f 759 754 755
f 759 760 766
f 763 766 760
f 763 764 808
f 787 705 529
f 766 754 759
f 766 708 754
f 712 708 767
f 767 708 766
f 766 763 788
f 710 528 709
f 766 788 768
f 767 766 768
f 767 768 810
f 687 683 769
f 686 791 719
f 515 720 719
f 721 771 770
f 794 722 724
f 722 794 721
f 721 794 771
f 772 723 725
f 724 772 796
f 772 724 723
f 773 772 725
f 726 774 773
f 773 725 726
f 776 774 730
f 776 798 774
f 780 777 778
f 778 775 776
f 778 776 732
f 732 776 730
f 779 777 780
f 778 777 775
f 735 778 732
f 780 778 735
f 802 740 801
f 744 781 745
f 781 779 745
f 745 779 746
f 747 779 780
f 746 779 747
f 747 780 735
f 735 749 747
f 802 782 740
f 743 783 744
f 782 805 752
f 803 805 782
f 784 783 785
f 785 783 700
f 786 762 752
f 752 762 751
f 705 787 700
f 700 787 785
f 762 786 806
f 709 529 705
f 764 806 807
f 764 765 806
f 807 808 764
f 809 768 788
f 831 768 809
f 718 812 683
f 811 718 810
f 812 718 811
f 683 812 769
f 769 789 790
f 789 769 812
f 791 769 790
f 719 791 515
f 515 791 792
f 792 814 515
f 560 534 720
f 560 515 814
f 794 816 815
f 724 816 794
f 772 795 796
f 773 795 772
f 724 796 816
f 817 773 774
f 817 795 773
f 819 817 798
f 798 775 797
f 775 799 797
f 775 798 776
f 799 775 777
f 800 820 777
f 800 777 779
f 804 822 781
f 804 781 744
f 822 800 781
f 800 779 781
f 782 802 803
f 804 744 783
f 823 822 804
f 804 783 784
f 806 765 762
f 550 596 829
f 788 763 808
f 809 788 808
f 813 789 812
f 790 792 791
f 814 580 560
f 771 815 859
f 770 771 793
f 794 815 771
f 815 835 859
f 819 798 797
f 774 798 817
f 817 819 818
f 799 777 820
f 801 821 802
f 801 841 821
f 822 843 800
f 821 803 802
f 844 803 821
f 844 824 803
f 824 805 803
f 825 876 784
f 804 784 823
f 825 784 785
f 786 826 846
f 826 805 824
f 785 828 825
f 787 828 785
f 846 806 786
f 827 806 846
f 826 786 805
f 529 829 787
f 807 847 849
f 827 807 806
f 847 807 827
f 829 529 550
f 828 787 829
f 852 809 849
f 849 808 807
f 808 849 809
f 809 830 831
f 768 831 810
f 831 811 810
f 832 811 831
f 812 811 813
f 811 832 813
f 855 789 813
f 789 857 790
f 790 857 833
f 602 814 639
f 639 814 792
f 639 792 833
f 833 792 790
f 580 814 602
f 771 859 793
f 815 816 836
f 835 838 896
f 796 836 816
f 838 815 836
f 795 817 818
f 837 838 836
f 795 837 796
f 836 796 837
f 837 795 818
f 819 797 839
f 819 839 860
f 865 797 799
f 839 797 865
f 820 840 799
f 799 840 865
f 867 840 843
f 800 843 820
f 843 840 820
f 821 842 844
f 823 845 822
f 843 822 845
f 823 784 876
f 823 876 871
f 879 825 828
f 879 880 825
f 883 879 828
f 847 848 849
f 829 883 828
f 596 850 829
f 851 831 830
f 830 809 852
f 888 830 852
f 596 597 850
f 832 831 851
f 854 832 851
f 854 855 813
f 855 854 853
f 813 832 854
f 857 789 855
f 858 634 638
f 856 858 833
f 833 857 856
f 639 833 858
f 793 859 190
f 900 835 896
f 835 815 838
f 818 903 837
f 819 860 818
f 903 818 860
f 861 860 839
f 865 913 839
f 865 840 864
f 842 821 841
f 842 841 170
f 840 867 864
f 867 843 845
f 864 867 869
f 844 842 912
f 867 845 868
f 869 867 868
f 866 870 824
f 824 844 866
f 871 845 823
f 868 871 874
f 868 874 872
f 845 871 868
f 868 872 869
f 826 824 870
f 871 877 874
f 873 875 827
f 827 846 873
f 873 846 826
f 873 826 870
f 877 876 880
f 877 880 886
f 871 876 877
f 874 877 881
f 875 921 847
f 847 827 875
f 880 879 885
f 880 885 886
f 876 825 880
f 877 887 881
f 887 877 886
f 882 852 848
f 882 848 878
f 848 847 921
f 879 883 884
f 879 884 885
f 882 887 888
f 882 888 852
f 881 887 882
f 849 848 852
f 850 883 829
f 884 883 850
f 885 922 889
f 886 885 889
f 886 889 890
f 886 890 887
f 888 890 851
f 887 890 888
f 851 830 888
f 850 633 891
f 889 853 854
f 889 854 890
f 854 851 890
f 633 634 893
f 894 892 893
f 891 633 893
f 892 891 893
f 889 922 853
f 634 858 893
f 894 855 853
f 894 853 892
f 893 858 856
f 634 635 638
f 856 894 893
f 856 857 894
f 857 855 894
f 859 835 897
f 190 897 895
f 898 895 897
f 896 838 899
f 896 899 905
f 896 902 900
f 835 900 897
f 897 900 898
f 898 900 901
f 837 899 838
f 902 905 906
f 896 905 902
f 901 900 902
f 899 903 907
f 905 907 904
f 837 903 899
f 899 907 905
f 901 902 863
f 902 906 863
f 860 861 910
f 860 910 903
f 903 910 907
f 907 916 904
f 904 911 908
f 904 908 906
f 906 908 862
f 905 904 906
f 862 863 906
f 861 839 913
f 861 914 909
f 861 909 910
f 910 916 907
f 904 916 911
f 908 911 912
f 908 912 842
f 842 862 908
f 861 913 914
f 909 914 918
f 909 915 916
f 910 909 916
f 911 916 915
f 911 866 912
f 866 844 912
f 917 913 864
f 865 864 913
f 914 917 919
f 913 917 914
f 909 918 915
f 915 918 870
f 915 866 911
f 917 864 869
f 917 869 920
f 917 920 919
f 914 919 918
f 918 919 873
f 873 870 918
f 870 866 915
f 921 872 878
f 869 872 920
f 920 875 919
f 872 874 878
f 921 875 920
f 875 873 919
f 881 882 878
f 920 872 921
f 881 878 874
f 878 848 921
f 850 891 884
f 884 922 885
f 884 891 922
f 892 922 891
f 892 853 922
