v 30.471 -46.7802 -34.6477
v 30.894 -46.7774 -34.725
v 30.2644 -46.4186 -34.6773
v 30.6452 -46.4342 -34.847
v 31.0409 -46.3928 -34.6991
v 30.0045 -46.0842 -34.6892
v 30.3791 -46.0874 -34.9454
v 30.7834 -46.0356 -34.8133
v 30.1163 -45.7511 -34.9411
v 29.8087 -45.7014 -34.6601
v 30.5042 -45.6643 -34.8358
v 30.8571 -45.68 -34.6158
v 30.1085 -45.3646 -34.7689
v 30.479 -45.2964 -34.6411
v 30.0564 -44.9459 -34.5985
v 30.7049 -47.4062 -34.3266
v 31.0921 -47.5332 -34.285
v 30.7266 -47.0984 -34.5773
v 30.447 -47.0573 -34.2883
v 31.1056 -47.1814 -34.5008
v 31.4926 -47.1662 -34.3418
v 30.245 -46.703 -34.308
v 31.2548 -46.789 -34.5493
v 31.6128 -46.7387 -34.4016
v 31.9643 -46.6028 -34.2688
v 30.025 -46.3621 -34.3467
v 31.4085 -46.3633 -34.5192
v 31.719 -46.2973 -34.264
v 29.7709 -46.0222 -34.3185
v 31.1501 -46.0049 -34.5689
v 31.454 -45.9765 -34.2661
v 29.6481 -45.6639 -34.2757
v 31.179 -45.6558 -34.3145
v 29.803 -45.3013 -34.4832
v 30.8304 -45.3482 -34.4225
v 29.6784 -44.927 -34.3177
v 30.467 -44.9884 -34.4041
v 30.7846 -45.0545 -34.163
v 29.8827 -44.5926 -34.2336
v 30.238 -44.7146 -34.2705
v 30.7415 -47.6239 -33.9823
v 31.0812 -47.8479 -33.9875
v 31.4445 -47.9128 -33.8959
v 31.8143 -47.7439 -34.0468
v 32.0632 -48.3296 -33.7036
v 32.138 -47.9433 -33.9714
v 32.4155 -48.1899 -33.8857
v 32.5502 -47.7946 -33.9814
v 30.4757 -47.2995 -33.9526
v 31.4588 -47.5714 -34.1714
v 31.8663 -47.3736 -34.2032
v 32.2461 -47.5457 -34.1101
v 32.6329 -47.3554 -33.8807
v 30.2309 -46.9624 -33.9324
v 31.9318 -46.9969 -34.2619
v 32.3125 -47.1443 -34.1217
v 32.5573 -46.9017 -33.8242
v 30.0141 -46.6267 -33.9659
v 32.2971 -46.7162 -34.0932
v 32.3478 -46.4994 -33.7116
v 29.7952 -46.3036 -34.0141
v 32.0578 -46.3305 -33.982
v 29.564 -46.0357 -33.8844
v 31.7031 -46.0583 -33.9118
v 29.5411 -45.6383 -33.9064
v 31.4036 -45.7171 -33.9136
v 29.6038 -45.2805 -34.0943
v 31.118 -45.3342 -34.0943
v 31.2199 -45.3684 -33.7257
v 29.5174 -44.996 -33.8351
v 30.9516 -45.034 -33.7975
v 29.5887 -44.6442 -33.9719
v 30.5411 -44.7968 -33.9525
v 29.7946 -44.299 -33.8701
v 30.1627 -44.5038 -33.9133
v 43.0957 -53.5055 -33.3928
v 42.0812 -53.1509 -33.3957
v 42.3849 -53.0903 -33.5746
v 42.6962 -53.3661 -33.4465
v 42.7285 -52.9552 -33.6101
v 43.0333 -53.1972 -33.5673
v 43.4194 -53.1571 -33.4949
v 40.9066 -52.791 -33.4562
v 41.2843 -52.9795 -33.3429
v 41.2623 -52.6619 -33.6201
v 41.7297 -53.0922 -33.3516
v 41.5999 -52.8424 -33.5663
v 42.0026 -52.8226 -33.6285
v 42.385 -52.6874 -33.655
v 42.7469 -52.5823 -33.4898
v 40.205 -52.3688 -33.4382
v 40.5731 -52.529 -33.4643
v 40.9327 -52.4192 -33.6327
v 41.3251 -52.2784 -33.6994
v 41.6769 -52.5064 -33.6859
v 42.0627 -52.4034 -33.6948
v 42.4136 -52.2997 -33.5207
v 39.8573 -52.1391 -33.4418
v 40.2202 -51.9947 -33.6266
v 40.5752 -52.1792 -33.6252
v 40.9643 -52.0324 -33.7014
v 41.3581 -51.8971 -33.6606
v 41.7258 -52.1218 -33.7005
v 42.0955 -52.0101 -33.5418
v 39.1921 -51.6325 -33.4146
v 39.5472 -51.5393 -33.605
v 39.5151 -51.9081 -33.439
v 39.8813 -51.7661 -33.628
v 40.2709 -51.5811 -33.6676
v 40.6107 -51.7855 -33.6944
v 40.996 -51.6427 -33.6405
v 41.3534 -51.5997 -33.4277
v 41.7229 -51.8226 -33.4511
v 39.2607 -51.2267 -33.5519
v 39.6289 -51.1562 -33.6152
v 39.9468 -51.3532 -33.6806
v 40.3065 -51.2035 -33.4859
v 40.6501 -51.3772 -33.5868
v 40.9683 -51.3866 -33.3411
v 39.2298 -50.8055 -33.3697
v 39.5862 -50.8527 -33.4356
v 39.9907 -50.9679 -33.4879
v 33.8318 -49.5607 -33.4612
v 34.1911 -49.7668 -33.4255
v 34.1787 -49.4395 -33.6794
v 34.6056 -49.9338 -33.4225
v 34.5202 -49.6449 -33.6265
v 34.9953 -50.017 -33.3883
v 34.9281 -49.6474 -33.5642
v 33.1236 -49.1311 -33.4755
v 33.5079 -49.2994 -33.4471
v 33.8418 -49.2021 -33.6955
v 34.2421 -49.0481 -33.6906
v 34.6062 -49.2961 -33.6528
v 34.9511 -49.2441 -33.4416
v 32.3968 -48.8091 -33.3975
v 32.7644 -48.937 -33.4737
v 33.1327 -48.8169 -33.7368
v 33.4951 -48.9753 -33.7065
v 33.8857 -48.7835 -33.7176
v 34.2172 -48.7054 -33.4902
v 34.5986 -48.9529 -33.4814
v 32.065 -48.5782 -33.3757
v 32.4122 -48.5431 -33.698
v 32.777 -48.6191 -33.7563
v 33.158 -48.4177 -33.8037
v 33.535 -48.5525 -33.7415
v 33.8486 -48.4229 -33.4717
v 31.4543 -48.2037 -33.5796
v 31.7216 -48.3884 -33.3975
v 31.7819 -48.1042 -33.7927
v 32.7861 -48.1923 -33.8639
v 33.132 -48.035 -33.7469
v 33.4738 -48.1537 -33.5816
v 31.1306 -48.0403 -33.5702
v 30.8363 -47.7906 -33.6136
v 32.8793 -47.7307 -33.7899
v 33.221 -47.7745 -33.4783
v 30.5482 -47.4793 -33.5981
v 32.9236 -47.4549 -33.5042
v 30.2717 -47.1609 -33.5638
v 32.701 -47.1133 -33.4957
v 30.0147 -46.809 -33.5745
v 32.4979 -46.7369 -33.3972
v 29.7572 -46.4719 -33.6444
v 32.0159 -46.1964 -33.6007
v 29.5712 -46.1919 -33.4603
v 31.7024 -45.8922 -33.5438
v 29.4737 -45.767 -33.5296
v 31.3853 -45.6222 -33.4802
v 29.4744 -45.3601 -33.6115
v 31.0435 -45.2275 -33.3945
v 29.4885 -45.0232 -33.3984
v 30.7518 -44.8311 -33.5288
v 29.5532 -44.627 -33.5551
v 30.4128 -44.5763 -33.6159
v 29.6799 -44.2569 -33.4804
v 30.0984 -44.2976 -33.5104
v 42.7574 -53.5067 -33.0525
v 43.1466 -53.6281 -33.0609
v 43.4682 -53.4206 -33.1915
v 41.2126 -53.0334 -32.9607
v 41.5736 -53.1401 -33.0342
v 42.0096 -53.2415 -33.0191
v 42.3958 -53.3095 -33.1987
v 43.6599 -53.0606 -33.1576
v 40.5676 -52.7323 -33.1594
v 40.9055 -52.9147 -33.0889
v 43.0992 -52.8489 -33.4642
v 43.4633 -52.7523 -33.338
v 43.7425 -52.6538 -33.0539
v 39.891 -52.3661 -33.1081
v 40.2335 -52.5705 -33.0886
v 42.7346 -52.2473 -33.2861
v 43.1101 -52.5029 -33.3202
v 43.4637 -52.3646 -33.1612
v 39.5573 -52.1368 -33.1063
v 42.3773 -52 -33.2393
v 42.6651 -51.9806 -32.9963
v 43.0744 -52.1979 -33.1117
v 38.8447 -51.6868 -33.1189
v 39.2243 -51.8984 -33.1201
v 41.6726 -51.6275 -33.1233
v 42.0296 -51.8433 -33.1524
v 38.5391 -51.3919 -33.1667
v 38.8993 -51.3816 -33.3485
v 40.9308 -51.2836 -32.9722
v 41.3016 -51.4636 -33.0914
v 37.1718 -50.8888 -33.1546
v 37.5541 -50.925 -33.1793
v 37.8721 -51.11 -33.1003
v 38.2121 -51.3155 -32.9789
v 38.2227 -51.0404 -33.2339
v 38.6061 -51.0525 -33.3164
v 38.9578 -51.0337 -33.4408
v 40.2533 -50.9628 -33.1379
v 40.6028 -51.1728 -33.1793
v 36.0491 -50.6458 -33.0604
v 36.4101 -50.518 -33.1976
v 36.7757 -50.7039 -33.1712
v 37.15 -50.4949 -33.2087
v 37.5445 -50.5581 -33.2167
v 37.9463 -50.709 -33.2602
v 38.4048 -50.7213 -33.2305
v 38.6463 -50.4993 -33.0118
v 38.8374 -50.7268 -33.246
v 39.0987 -50.5214 -33.0389
v 39.4656 -50.6104 -33.1182
v 39.8428 -50.7917 -33.1484
v 35.0614 -50.2771 -33.0963
v 35.3727 -50.2482 -33.2702
v 35.6804 -50.4746 -33.1561
v 35.7202 -50.1156 -33.3821
v 36.0577 -50.3218 -33.3091
v 36.4021 -50.101 -33.2222
v 36.7644 -50.3063 -33.2184
v 37.096 -50.1379 -33.0608
v 37.4763 -50.2228 -33.0111
v 37.8601 -50.3187 -33.0793
v 38.2352 -50.4262 -33.0978
v 34.3276 -49.9877 -33.1244
v 34.7032 -50.148 -33.1044
v 35.3426 -49.8887 -33.4725
v 35.6712 -49.7283 -33.3142
v 36.0648 -49.8915 -33.296
v 36.3477 -49.7301 -33.0117
v 36.7238 -49.9395 -33.0299
v 33.9324 -49.7842 -33.1046
v 33.5897 -49.5492 -33.1143
v 35.276 -49.5053 -33.3932
v 35.5497 -49.4077 -33.1259
v 35.9649 -49.5443 -33.0914
v 33.2444 -49.2746 -33.1214
v 35.2163 -49.1835 -33.1035
v 32.5217 -48.9174 -33.0297
v 32.8685 -49.0775 -33.0832
v 34.4814 -48.765 -33.1645
v 34.8526 -48.9807 -33.1475
v 32.1432 -48.6876 -33.0032
v 31.7988 -48.4003 -32.987
v 34.1127 -48.5412 -33.1549
v 31.3876 -48.1577 -33.1613
v 33.8044 -48.3389 -33.0122
v 33.6559 -48.1068 -33.2587
v 31.0376 -47.863 -33.2047
v 33.4381 -47.8187 -33.1436
v 30.7437 -47.5988 -33.261
v 33.1131 -47.6026 -33.1041
v 32.82 -47.3334 -33.1087
v 30.4696 -47.2929 -33.2061
v 32.5524 -47.0344 -33.0935
v 30.1638 -46.947 -33.2047
v 32.2189 -46.7793 -33.0283
v 29.849 -46.5898 -33.2357
v 32.1779 -46.4522 -33.2923
v 29.6572 -46.2241 -33.0511
v 31.4307 -45.9821 -33.2304
v 31.815 -46.2173 -33.2273
v 29.5204 -45.8686 -33.1656
v 31.1054 -45.6611 -33.1956
v 29.458 -45.4585 -33.1519
v 30.8623 -45.3699 -33.0448
v 29.5696 -45.0989 -33.012
v 30.7012 -45.0368 -33.1787
v 29.5635 -44.6805 -33.1222
v 30.4036 -44.6921 -33.2562
v 29.7291 -44.3028 -33.1145
v 30.0728 -44.464 -33.1265
v 42.695 -53.5271 -32.6222
v 42.3943 -53.4018 -32.8216
v 43.0388 -53.6584 -32.7181
v 43.4602 -53.6084 -32.8124
v 43.6684 -53.3119 -32.8205
v 41.389 -53.1001 -32.6411
v 41.7533 -53.2104 -32.697
v 42.0978 -53.2997 -32.618
v 43.8508 -52.9459 -32.8079
v 40.6636 -52.7973 -32.7922
v 40.9925 -52.9229 -32.6326
v 43.8935 -52.5942 -32.6446
v 39.9933 -52.4649 -32.724
v 40.3334 -52.6483 -32.7109
v 43.607 -52.3848 -32.7734
v 39.6629 -52.252 -32.7341
v 39.3122 -52.0498 -32.7419
v 42.9732 -52.0043 -32.816
v 43.3113 -52.1736 -32.8006
v 38.9678 -51.8521 -32.8036
v 38.5193 -51.6109 -32.8417
v 41.949 -51.679 -32.7948
v 42.3159 -51.8724 -32.8069
v 42.6594 -51.9492 -32.5777
v 37.8441 -51.3128 -32.746
v 38.1707 -51.3937 -32.6398
v 41.2513 -51.3799 -32.7511
v 41.5993 -51.5431 -32.748
v 36.8289 -50.9533 -32.8934
v 37.1595 -51.0985 -32.8115
v 37.5249 -51.1579 -32.8627
v 40.6372 -51.1446 -32.7356
v 40.3183 -50.9941 -32.7419
v 40.9358 -51.3883 -32.5779
v 35.7068 -50.6265 -32.7888
v 36.033 -50.7816 -32.6968
v 36.4162 -50.8127 -32.9079
v 39.9547 -50.893 -32.8314
v 39.592 -50.6354 -32.7826
v 34.9393 -50.2479 -32.7481
v 35.3454 -50.4298 -32.8559
v 38.1596 -50.2726 -32.7547
v 38.4554 -50.3116 -32.7265
v 38.8628 -50.3777 -32.7265
v 39.2144 -50.5534 -32.6499
v 34.2121 -49.8221 -32.801
v 34.5803 -50.0197 -32.7617
v 37.1048 -49.8741 -32.8076
v 37.4245 -49.9572 -32.7265
v 37.808 -50.0911 -32.7265
v 33.9001 -49.4964 -32.7986
v 36.395 -49.5723 -32.6613
v 36.7532 -49.7018 -32.7265
v 33.526 -49.2597 -32.8416
v 33.875 -49.0888 -32.7543
v 35.681 -49.3142 -32.8072
v 36.0584 -49.4236 -32.74
v 32.4259 -48.7359 -32.6756
v 32.791 -48.8618 -32.6357
v 33.1487 -49.0156 -32.8036
v 33.5142 -48.8773 -32.7068
v 33.8366 -48.698 -32.8642
v 34.2551 -49.173 -32.7022
v 34.1943 -48.8569 -32.9122
v 34.5858 -48.9732 -32.8201
v 34.9705 -49.0034 -32.7576
v 35.3468 -49.1036 -32.7265
v 32.1421 -48.4757 -32.625
v 33.5186 -48.4687 -32.7142
v 31.8571 -48.2049 -32.6051
v 33.5094 -48.0848 -32.8362
v 31.5321 -48.0771 -32.7859
v 31.1869 -47.8128 -32.8653
v 33.2403 -47.8143 -32.7068
v 30.8053 -47.4747 -32.9099
v 32.5787 -47.3658 -32.7635
v 32.8772 -47.6515 -32.7651
v 30.4496 -47.1026 -32.8759
v 32.2389 -47.1407 -32.8394
v 30.147 -46.7715 -32.8552
v 31.5179 -46.6992 -32.795
v 31.8936 -46.9996 -32.7291
v 31.8724 -46.5806 -32.9633
v 29.8928 -46.4763 -32.8408
v 31.5061 -46.3041 -32.9571
v 29.7906 -46.1383 -32.6462
v 31.1347 -45.9998 -32.9267
v 29.6212 -45.7805 -32.8082
v 30.7965 -45.7078 -32.8462
v 29.6623 -45.4106 -32.68
v 30.4844 -45.3604 -32.8399
v 29.7433 -45.0148 -32.7005
v 30.0728 -45.0919 -32.7784
v 30.3839 -44.9685 -32.9591
v 29.7219 -44.661 -32.7245
v 30.0728 -44.6632 -32.9396
v 42.7273 -53.4792 -32.2333
v 42.3878 -53.393 -32.3468
v 43.0399 -53.6333 -32.3274
v 43.3808 -53.6897 -32.4724
v 43.7152 -53.5166 -32.4027
v 41.691 -53.1149 -32.3228
v 42.0571 -53.1905 -32.2627
v 43.8562 -53.1818 -32.5069
v 40.9566 -52.7655 -32.2723
v 40.6148 -52.6932 -32.406
v 41.3114 -52.9444 -32.3141
v 43.9481 -52.8303 -32.3711
v 40.2281 -52.4674 -32.3694
v 39.8598 -52.2805 -32.3668
v 43.7544 -52.3185 -32.4068
v 44.0743 -52.4346 -32.2576
v 39.5074 -52.0491 -32.3871
v 43.4334 -52.1077 -32.4399
v 38.7571 -51.7059 -32.5463
v 39.1644 -51.7616 -32.4405
v 40.9833 -51.6825 -32.3111
v 41.3266 -51.615 -32.471
v 41.7067 -51.7474 -32.3926
v 42.0727 -51.8262 -32.462
v 42.3828 -51.9725 -32.3311
v 42.7391 -52.1128 -32.1719
v 43.0439 -52.0065 -32.469
v 38.4971 -51.3918 -32.4789
v 38.883 -51.3827 -32.4048
v 39.2529 -51.3442 -32.4068
v 39.5375 -51.654 -32.3008
v 39.6146 -51.2858 -32.4434
v 39.9394 -51.5111 -32.3295
v 39.9866 -51.1619 -32.5368
v 40.2708 -51.7133 -32.2163
v 40.3016 -51.3312 -32.4644
v 40.6503 -51.7644 -32.1983
v 40.6168 -51.4586 -32.4134
v 37.016 -50.9685 -32.4464
v 37.4159 -51.0321 -32.5025
v 37.811 -51.0258 -32.4872
v 38.2144 -51.0304 -32.4829
v 38.613 -51.0188 -32.4538
v 38.9912 -51.0066 -32.474
v 39.3289 -50.9263 -32.5386
v 39.6796 -50.939 -32.5803
v 35.9098 -50.5983 -32.3449
v 36.3106 -50.7612 -32.4747
v 36.6438 -50.918 -32.5824
v 37.0588 -50.6045 -32.3041
v 37.4276 -50.6837 -32.3781
v 37.808 -50.6404 -32.4678
v 38.1596 -50.6404 -32.4836
v 38.5112 -50.6404 -32.4816
v 38.8628 -50.6404 -32.5148
v 35.2213 -50.2877 -32.4621
v 35.5596 -50.4734 -32.4781
v 37.4564 -50.2888 -32.422
v 37.1474 -50.2407 -32.3191
v 37.808 -50.2888 -32.5079
v 34.886 -50.0066 -32.4456
v 36.7826 -49.9258 -32.3228
v 37.1048 -49.9372 -32.4495
v 34.2956 -49.5075 -32.6497
v 34.5943 -49.7094 -32.5352
v 34.9334 -49.6226 -32.3529
v 36.0756 -49.544 -32.3391
v 36.4016 -49.7225 -32.3265
v 34.6578 -49.2905 -32.5525
v 35.0419 -49.2598 -32.4533
v 35.4271 -49.3007 -32.4624
v 35.7437 -49.4544 -32.4334
v 32.5217 -48.5412 -32.3175
v 32.9031 -48.5364 -32.3206
v 33.184 -48.6821 -32.5523
v 32.1749 -48.1768 -32.3213
v 32.5621 -48.1557 -32.3075
v 32.8684 -48.0628 -32.5508
v 33.1938 -48.2553 -32.5684
v 31.4427 -47.7616 -32.5212
v 31.7967 -47.8655 -32.3823
v 32.1824 -47.8276 -32.4661
v 32.5498 -47.7635 -32.5503
v 31.079 -47.5007 -32.6128
v 31.4254 -47.3937 -32.3983
v 31.8252 -47.4204 -32.4737
v 32.1994 -47.4392 -32.586
v 30.7414 -47.1724 -32.6087
v 31.1228 -47.1069 -32.4848
v 31.5328 -47.0489 -32.568
v 30.4299 -46.8336 -32.5481
v 30.8116 -46.8185 -32.364
v 31.1925 -46.7152 -32.5382
v 30.1498 -46.4673 -32.5196
v 30.5101 -46.4935 -32.3157
v 30.871 -46.4028 -32.4508
v 31.202 -46.333 -32.6863
v 30.0861 -46.0904 -32.3498
v 30.4661 -46.1046 -32.4285
v 30.8284 -46.0333 -32.6147
v 29.9804 -45.7625 -32.5465
v 30.4417 -45.7162 -32.5751
v 30.1156 -45.4093 -32.5914
v 43.0605 -53.4406 -31.9714
v 43.402 -53.6014 -32.0964
v 43.7485 -53.5014 -31.9677
v 42.3597 -53.0986 -32.0127
v 42.7117 -53.2243 -31.9832
v 43.8734 -53.177 -32.1266
v 41.2894 -52.6116 -32.1002
v 41.6493 -52.7851 -32.0973
v 42.018 -52.8677 -32.0675
v 42.3587 -52.6768 -31.9387
v 44.0014 -52.8149 -32.0012
v 40.54 -52.4062 -32.1444
v 40.9063 -52.4277 -32.0694
v 41.2781 -52.2348 -32.0408
v 41.6472 -52.3982 -31.999
v 42.0099 -52.4728 -32.0016
v 42.3705 -52.2789 -32.0615
v 42.7203 -52.4539 -31.93
v 44.0338 -52.4135 -31.9265
v 39.8714 -51.8934 -32.2231
v 40.1818 -52.1315 -32.1302
v 40.5451 -52.0544 -32.0215
v 40.9372 -52.0206 -32.0366
v 41.3046 -51.8829 -32.2034
v 41.6452 -52.0386 -32.1328
v 42.0128 -52.08 -32.1444
v 43.1177 -52.0544 -32.1289
v 43.0906 -52.333 -31.8972
v 43.453 -52.186 -32.0543
v 43.7423 -52.3444 -31.9763
v 36.6782 -50.6935 -32.2805
v 35.6199 -50.18 -32.2355
v 35.9851 -50.2727 -32.1216
v 36.3233 -50.4618 -32.2513
v 36.738 -50.3092 -32.2561
v 35.2552 -49.9544 -32.2543
v 35.6672 -49.7861 -32.2326
v 36.0292 -49.8863 -32.1312
v 36.3825 -50.0876 -32.2263
v 35.3204 -49.5801 -32.2712
v 43.0501 -53.0974 -31.7762
v 43.4128 -53.3293 -31.7736
v 43.79 -53.1499 -31.7295
v 42.7034 -52.8568 -31.8651
v 43.0694 -52.7019 -31.7894
v 43.4162 -52.9282 -31.6853
v 43.786 -52.7565 -31.7145
v 43.4457 -52.5182 -31.7682

f 3 1 4
f 4 1 2
f 4 2 5
f 6 3 7
f 7 3 4
f 7 4 8
f 8 4 5
f 6 9 10
f 9 6 7
f 9 7 11
f 8 11 7
f 8 12 11
f 9 13 10
f 13 9 11
f 13 11 14
f 14 11 12
f 13 14 15
f 16 18 19
f 20 16 17
f 18 16 20
f 17 21 20
f 1 22 19
f 18 2 1
f 19 18 1
f 23 2 20
f 2 18 20
f 23 20 21
f 23 21 24
f 21 55 24
f 22 1 3
f 26 22 3
f 23 5 2
f 27 23 24
f 5 23 27
f 25 28 24
f 24 28 27
f 26 6 29
f 3 6 26
f 5 30 8
f 30 5 27
f 30 27 31
f 31 27 28
f 10 32 29
f 10 29 6
f 12 30 33
f 12 8 30
f 31 33 30
f 34 10 13
f 34 32 10
f 12 35 14
f 33 35 12
f 34 15 36
f 13 15 34
f 37 15 14
f 14 35 37
f 37 35 38
f 39 36 15
f 39 15 40
f 37 40 15
f 44 151 46
f 46 47 48
f 45 47 46
f 41 16 49
f 41 17 16
f 41 42 17
f 50 42 43
f 17 42 50
f 50 43 44
f 50 44 51
f 52 44 46
f 51 44 52
f 52 46 48
f 52 48 53
f 19 49 16
f 19 54 49
f 17 50 21
f 55 21 51
f 21 50 51
f 56 51 52
f 55 51 56
f 56 52 53
f 56 53 57
f 54 22 58
f 54 19 22
f 24 55 25
f 59 25 55
f 59 55 56
f 59 56 57
f 59 57 60
f 58 26 61
f 26 58 22
f 28 25 62
f 25 59 62
f 60 62 59
f 29 63 61
f 29 61 26
f 28 64 31
f 28 62 64
f 63 29 32
f 65 63 32
f 31 66 33
f 66 31 64
f 67 32 34
f 65 32 67
f 35 33 68
f 69 68 66
f 68 33 66
f 67 34 36
f 67 36 70
f 68 71 38
f 68 69 71
f 35 68 38
f 72 36 39
f 70 36 72
f 37 73 40
f 37 38 73
f 73 38 71
f 39 74 72
f 75 39 40
f 74 39 75
f 75 40 73
f 78 79 80
f 80 79 81
f 79 76 81
f 76 82 81
f 83 84 85
f 85 84 87
f 84 86 87
f 87 86 88
f 86 77 88
f 88 78 89
f 88 77 78
f 89 78 80
f 89 80 90
f 81 189 80
f 92 83 93
f 93 83 85
f 93 85 94
f 95 85 87
f 94 85 95
f 95 87 88
f 95 88 96
f 96 88 89
f 96 89 97
f 90 97 89
f 98 91 99
f 99 91 100
f 100 91 92
f 100 92 93
f 100 93 101
f 101 93 94
f 101 94 102
f 103 94 95
f 102 94 103
f 103 95 96
f 103 96 104
f 97 104 96
f 106 105 107
f 106 107 108
f 107 98 108
f 108 98 99
f 108 99 109
f 110 99 100
f 109 99 110
f 110 100 101
f 110 101 111
f 111 101 102
f 111 102 112
f 103 113 102
f 113 112 102
f 103 104 113
f 114 106 115
f 114 105 106
f 116 106 108
f 115 106 116
f 116 108 109
f 116 109 117
f 118 109 110
f 117 109 118
f 111 119 118
f 111 118 110
f 111 112 119
f 121 114 115
f 120 114 121
f 122 115 116
f 121 115 122
f 117 122 116
f 123 124 125
f 125 124 127
f 124 126 127
f 127 126 129
f 126 128 129
f 131 123 132
f 132 123 125
f 132 125 133
f 134 125 127
f 133 125 134
f 129 134 127
f 129 135 134
f 137 130 138
f 138 130 139
f 139 130 131
f 139 131 132
f 139 132 140
f 140 132 133
f 140 133 141
f 134 142 133
f 133 142 141
f 134 135 142
f 143 136 144
f 144 136 145
f 145 136 137
f 145 137 138
f 145 138 146
f 147 138 139
f 146 138 147
f 147 139 140
f 147 140 148
f 141 148 140
f 149 150 151
f 151 150 45
f 150 143 45
f 45 143 144
f 45 144 47
f 152 144 145
f 47 144 152
f 152 145 146
f 152 146 153
f 147 154 146
f 146 154 153
f 147 148 154
f 156 155 42
f 156 42 41
f 155 43 42
f 149 43 155
f 44 43 151
f 151 43 149
f 45 46 151
f 157 48 152
f 48 47 152
f 157 152 153
f 157 153 158
f 158 153 154
f 159 41 49
f 156 41 159
f 157 53 48
f 157 160 53
f 158 160 157
f 159 49 161
f 54 161 49
f 53 162 57
f 160 162 53
f 58 163 54
f 54 163 161
f 57 162 164
f 57 164 60
f 165 58 61
f 165 163 58
f 60 166 62
f 60 164 275
f 165 61 63
f 167 165 63
f 166 64 62
f 168 64 166
f 169 63 65
f 167 63 169
f 66 64 168
f 66 168 170
f 171 65 67
f 169 65 171
f 66 170 69
f 170 172 69
f 173 171 70
f 171 67 70
f 69 172 71
f 71 172 174
f 175 70 72
f 173 70 175
f 174 176 73
f 174 73 71
f 175 72 74
f 175 74 177
f 74 75 178
f 75 176 178
f 75 73 176
f 74 178 177
f 76 179 180
f 181 76 180
f 86 84 183
f 86 184 77
f 183 184 86
f 78 77 185
f 185 77 184
f 185 79 78
f 179 79 185
f 76 79 179
f 76 181 82
f 82 181 186
f 83 187 188
f 84 188 182
f 83 188 84
f 182 183 84
f 90 80 189
f 190 189 82
f 82 189 81
f 82 186 190
f 190 186 191
f 91 192 193
f 193 187 92
f 91 193 92
f 83 92 187
f 97 90 194
f 194 90 195
f 90 189 195
f 195 189 190
f 195 190 196
f 191 196 190
f 98 107 197
f 192 98 197
f 192 91 98
f 104 97 198
f 198 194 199
f 97 194 198
f 195 200 194
f 200 199 194
f 195 196 200
f 201 202 105
f 202 107 105
f 202 197 107
f 112 113 203
f 204 113 104
f 203 113 204
f 104 198 204
f 205 201 206
f 105 206 201
f 114 206 105
f 217 119 207
f 208 119 112
f 207 119 208
f 112 203 208
f 211 212 213
f 213 205 214
f 212 205 213
f 214 205 206
f 214 206 215
f 215 114 120
f 215 206 114
f 122 117 216
f 217 117 118
f 216 117 217
f 118 119 217
f 220 209 221
f 221 209 222
f 222 209 210
f 223 210 211
f 222 210 223
f 223 211 213
f 223 213 224
f 224 213 214
f 224 214 226
f 226 214 215
f 225 224 226
f 215 120 226
f 120 227 226
f 228 120 121
f 228 227 120
f 229 121 122
f 228 121 229
f 122 216 229
f 231 232 233
f 233 232 234
f 232 218 234
f 234 219 235
f 234 218 219
f 236 219 220
f 235 219 236
f 236 220 221
f 236 221 237
f 222 238 221
f 221 238 237
f 238 222 239
f 222 223 239
f 239 223 240
f 223 224 240
f 224 225 240
f 241 242 126
f 126 242 128
f 242 230 128
f 128 230 231
f 243 128 231
f 243 231 233
f 243 233 244
f 245 233 234
f 244 233 245
f 245 234 235
f 245 235 246
f 236 247 235
f 235 247 246
f 236 237 247
f 248 123 249
f 248 124 123
f 241 124 248
f 126 124 241
f 250 129 243
f 129 128 243
f 250 243 244
f 250 244 251
f 252 244 245
f 251 244 252
f 246 252 245
f 131 253 249
f 131 130 253
f 131 249 123
f 250 254 135
f 129 250 135
f 250 251 254
f 137 255 256
f 137 136 255
f 256 130 137
f 253 130 256
f 142 258 257
f 142 135 258
f 135 254 258
f 260 143 150
f 259 136 143
f 255 136 259
f 141 261 148
f 141 142 257
f 141 257 261
f 150 262 260
f 149 262 150
f 143 260 259
f 263 264 148
f 264 154 148
f 263 148 261
f 265 155 156
f 155 262 149
f 155 265 262
f 154 266 158
f 154 264 266
f 267 156 159
f 156 267 265
f 158 268 160
f 160 268 269
f 268 158 266
f 270 159 161
f 159 270 267
f 160 269 162
f 162 269 271
f 163 272 161
f 161 272 270
f 273 164 271
f 271 164 162
f 165 274 163
f 163 274 272
f 164 273 275
f 166 60 275
f 274 165 167
f 274 167 276
f 278 277 168
f 166 275 278
f 168 166 278
f 279 167 169
f 276 167 279
f 277 280 170
f 170 168 277
f 281 279 169
f 281 169 171
f 172 280 282
f 172 170 280
f 283 281 173
f 281 171 173
f 172 282 284
f 174 172 284
f 285 173 175
f 283 173 285
f 174 284 286
f 176 174 286
f 287 285 177
f 285 175 177
f 287 178 288
f 178 286 288
f 178 176 286
f 178 287 177
f 289 179 290
f 179 289 291
f 179 291 180
f 180 291 292
f 180 292 181
f 181 292 293
f 183 294 295
f 182 294 183
f 184 295 296
f 183 295 184
f 184 296 290
f 184 290 185
f 185 290 179
f 293 186 181
f 297 186 293
f 188 298 299
f 187 298 188
f 299 182 188
f 294 182 299
f 186 297 191
f 191 297 300
f 193 301 302
f 193 192 301
f 193 302 187
f 187 302 298
f 191 303 196
f 303 191 300
f 304 197 305
f 304 192 197
f 301 192 304
f 199 200 306
f 307 200 196
f 306 200 307
f 307 196 303
f 308 201 309
f 202 308 305
f 201 308 202
f 202 305 197
f 204 310 203
f 311 204 198
f 310 204 311
f 311 198 199
f 311 199 312
f 199 306 312
f 212 313 314
f 205 212 309
f 309 212 314
f 205 309 201
f 208 315 207
f 316 208 203
f 315 208 316
f 316 203 310
f 317 318 209
f 210 209 319
f 319 209 318
f 211 319 313
f 210 319 211
f 313 212 211
f 217 320 321
f 216 217 321
f 320 217 207
f 320 207 322
f 322 207 315
f 323 324 218
f 219 218 325
f 325 218 324
f 325 317 220
f 325 220 219
f 209 220 317
f 229 327 228
f 229 326 327
f 326 229 216
f 326 216 321
f 231 230 329
f 230 328 329
f 329 232 231
f 323 232 329
f 218 232 323
f 330 239 240
f 331 240 225
f 331 330 240
f 227 225 226
f 331 225 332
f 332 225 227
f 332 227 333
f 327 333 228
f 333 227 228
f 241 334 335
f 242 241 335
f 335 328 242
f 328 230 242
f 336 247 237
f 237 337 336
f 237 238 337
f 337 238 338
f 238 239 338
f 239 330 338
f 248 249 339
f 248 334 241
f 248 339 334
f 345 246 340
f 246 341 340
f 246 247 341
f 247 336 341
f 253 342 249
f 342 339 249
f 342 343 339
f 344 355 251
f 344 251 252
f 344 252 345
f 252 246 345
f 255 347 256
f 255 346 347
f 348 256 347
f 253 256 348
f 342 253 348
f 343 349 350
f 351 343 352
f 352 343 350
f 353 352 257
f 353 351 352
f 353 258 354
f 257 258 353
f 258 254 354
f 354 254 355
f 254 251 355
f 356 259 260
f 346 259 356
f 346 255 259
f 350 357 263
f 349 357 350
f 263 261 350
f 350 261 352
f 261 257 352
f 262 360 260
f 260 358 356
f 359 264 263
f 359 263 357
f 361 360 262
f 265 361 262
f 358 260 360
f 266 359 362
f 266 264 359
f 363 361 265
f 267 363 265
f 364 269 365
f 365 268 362
f 269 268 365
f 362 268 266
f 270 366 363
f 267 270 363
f 364 367 271
f 271 269 364
f 272 366 270
f 272 368 366
f 370 369 371
f 273 370 371
f 273 367 370
f 273 271 367
f 274 368 272
f 274 372 368
f 371 373 278
f 369 373 371
f 278 275 371
f 371 275 273
f 374 372 276
f 372 274 276
f 277 373 375
f 277 278 373
f 376 276 279
f 374 276 376
f 280 375 377
f 280 277 375
f 376 279 281
f 376 281 378
f 377 379 282
f 377 282 280
f 378 281 283
f 378 283 380
f 379 381 382
f 382 284 379
f 379 284 282
f 383 380 285
f 380 283 285
f 384 380 383
f 384 381 380
f 384 382 381
f 384 286 382
f 286 284 382
f 287 383 285
f 288 384 383
f 287 288 383
f 288 286 384
f 386 289 290
f 385 289 386
f 289 385 387
f 289 387 291
f 292 291 388
f 291 387 388
f 389 292 388
f 389 293 292
f 294 390 295
f 296 390 391
f 295 390 296
f 296 391 386
f 296 386 290
f 293 389 392
f 297 293 392
f 298 394 299
f 299 394 393
f 395 299 393
f 294 299 395
f 390 294 395
f 300 297 396
f 297 392 396
f 301 398 397
f 302 301 397
f 394 302 397
f 298 302 394
f 400 300 396
f 400 399 300
f 399 303 300
f 401 304 305
f 398 304 401
f 301 304 398
f 307 402 411
f 307 303 402
f 303 399 402
f 308 309 403
f 308 404 305
f 403 404 308
f 305 404 401
f 407 310 408
f 408 310 311
f 408 311 409
f 409 311 312
f 409 312 410
f 411 312 306
f 410 312 411
f 411 306 307
f 314 412 309
f 403 412 413
f 403 309 412
f 414 404 413
f 404 403 413
f 415 414 416
f 415 404 414
f 417 416 418
f 417 415 416
f 419 417 420
f 420 417 418
f 421 419 422
f 422 419 420
f 405 422 322
f 405 421 422
f 322 406 405
f 322 315 406
f 406 316 407
f 315 316 406
f 316 310 407
f 317 423 318
f 318 424 319
f 423 424 318
f 319 425 313
f 424 425 319
f 314 425 426
f 314 313 425
f 412 426 427
f 314 426 412
f 413 427 428
f 412 427 413
f 414 428 429
f 413 428 414
f 416 429 430
f 414 429 416
f 418 430 326
f 416 430 418
f 418 326 321
f 418 321 420
f 321 320 420
f 420 320 422
f 320 322 422
f 323 431 324
f 324 431 432
f 324 432 325
f 433 325 432
f 317 325 433
f 423 433 518
f 423 317 433
f 423 435 424
f 434 435 423
f 425 435 436
f 424 435 425
f 426 425 437
f 425 436 437
f 427 426 438
f 426 437 438
f 427 438 439
f 427 439 428
f 429 428 333
f 428 439 333
f 429 333 327
f 429 327 430
f 327 326 430
f 328 440 329
f 441 329 440
f 323 329 441
f 431 323 441
f 443 435 434
f 436 442 444
f 435 442 436
f 436 444 330
f 436 330 437
f 330 438 437
f 330 331 438
f 438 332 439
f 331 332 438
f 332 333 439
f 335 445 328
f 440 328 445
f 446 447 443
f 337 442 443
f 447 337 443
f 442 338 444
f 337 338 442
f 338 330 444
f 334 339 448
f 335 334 449
f 449 334 448
f 335 449 445
f 445 449 450
f 451 340 452
f 452 341 446
f 340 341 452
f 336 446 341
f 447 446 336
f 336 337 447
f 448 339 351
f 339 343 351
f 448 351 453
f 448 453 449
f 453 450 449
f 454 450 453
f 455 527 454
f 455 344 456
f 456 344 345
f 456 345 451
f 340 451 345
f 348 349 342
f 342 349 343
f 351 353 453
f 453 354 454
f 353 354 453
f 454 355 455
f 354 355 454
f 355 344 455
f 356 457 346
f 458 347 457
f 347 346 457
f 347 459 348
f 458 459 347
f 459 349 348
f 357 349 459
f 358 460 356
f 457 356 460
f 461 462 458
f 459 458 463
f 458 462 463
f 357 463 359
f 459 463 357
f 360 361 464
f 360 465 358
f 464 465 360
f 460 465 466
f 465 460 358
f 461 466 467
f 461 460 466
f 462 467 365
f 461 467 462
f 462 365 362
f 462 362 463
f 463 362 359
f 361 363 468
f 468 464 361
f 468 469 464
f 465 464 470
f 469 470 464
f 466 470 471
f 465 470 466
f 467 471 364
f 466 471 467
f 364 365 467
f 363 366 472
f 468 363 472
f 473 468 472
f 474 469 473
f 469 468 473
f 470 474 370
f 469 474 470
f 370 471 470
f 370 367 471
f 367 364 471
f 366 368 475
f 475 472 366
f 475 476 472
f 472 476 473
f 476 477 473
f 477 474 473
f 477 369 474
f 369 370 474
f 368 372 478
f 478 475 368
f 478 479 475
f 476 479 480
f 479 476 475
f 477 480 481
f 476 480 477
f 369 481 373
f 477 481 369
f 478 374 482
f 372 374 478
f 483 478 482
f 479 478 483
f 480 483 484
f 479 483 480
f 484 481 480
f 484 375 481
f 375 373 481
f 374 376 485
f 374 485 482
f 483 482 486
f 482 485 486
f 486 484 483
f 486 377 484
f 377 375 484
f 485 378 487
f 376 378 485
f 487 486 485
f 487 379 486
f 379 377 486
f 380 381 378
f 378 381 487
f 381 379 487
f 385 488 387
f 387 489 388
f 387 488 489
f 389 489 490
f 388 489 389
f 391 491 386
f 492 385 386
f 491 492 386
f 488 385 492
f 389 490 493
f 389 493 392
f 393 494 395
f 390 395 495
f 495 395 494
f 390 495 496
f 390 496 391
f 496 491 391
f 497 491 496
f 531 491 497
f 396 493 498
f 392 493 396
f 397 499 394
f 393 394 500
f 500 394 499
f 494 500 501
f 393 500 494
f 494 501 502
f 494 502 495
f 495 502 503
f 495 503 496
f 504 497 503
f 497 496 503
f 505 531 497
f 400 498 506
f 396 498 400
f 401 507 398
f 397 398 508
f 508 398 507
f 499 508 509
f 397 508 499
f 500 509 510
f 499 509 500
f 501 510 511
f 500 510 501
f 501 511 512
f 501 512 502
f 502 512 513
f 502 513 503
f 504 513 409
f 503 513 504
f 504 409 410
f 504 410 505
f 514 515 410
f 515 505 410
f 515 514 516
f 514 402 516
f 516 402 399
f 516 399 517
f 506 399 400
f 517 399 506
f 401 404 415
f 507 415 417
f 401 415 507
f 508 507 419
f 507 417 419
f 509 419 421
f 508 419 509
f 510 421 405
f 509 421 510
f 405 511 510
f 405 406 511
f 511 406 407
f 511 407 512
f 512 407 513
f 407 408 513
f 408 409 513
f 410 411 514
f 411 402 514
f 432 518 433
f 518 434 423
f 440 519 441
f 431 519 520
f 431 441 519
f 431 520 521
f 431 521 432
f 518 521 522
f 432 521 518
f 434 522 443
f 518 522 434
f 435 443 442
f 440 445 523
f 519 523 524
f 440 523 519
f 519 524 525
f 519 525 520
f 520 525 526
f 520 526 521
f 522 526 446
f 521 526 522
f 446 443 522
f 523 450 527
f 445 450 523
f 524 527 456
f 523 527 524
f 524 456 451
f 524 451 525
f 451 452 525
f 525 452 526
f 452 446 526
f 450 454 527
f 455 456 527
f 457 460 461
f 461 458 457
f 492 528 488
f 489 488 529
f 529 488 528
f 490 529 530
f 489 529 490
f 490 530 493
f 492 491 531
f 528 531 532
f 492 531 528
f 528 532 533
f 528 533 529
f 530 533 534
f 529 533 530
f 493 530 498
f 530 534 498
f 497 504 505
f 531 505 532
f 532 505 515
f 532 515 535
f 532 535 533
f 534 535 517
f 533 535 534
f 498 534 506
f 534 517 506
f 515 516 535
f 516 517 535
