Demo, -62.15234, 35.61319, -170.0696, 26.59182, 16.252, 85.67278, 0, 0, 30
Reset,    0
VideoRecord,    Start
Msg,    On,    Video Recording...
Wait,    1
LineSet, 3, 3, -40.49129, -27.58837, -48.48889, -32.25906, -20.61682, -50.10648, -28.30431, -17.75516, -49.36621
Wait,    2
HoleSet,    0
Wait,    5
Demo, -38.7962, -13.94153, -68.26711, 7.186568, 0.1454026, 117.2488, 0, 0, 30
HoleView,    0
Wait,    2
HeraView,    0
dkHera, 1, 1, 2.0, 140
HeraCylinder, 0.1204501, -0.06184906, 0.4595945, 276.6578, 288.5082, 63.94378
Wait,    2
CerebellumTrans,    0
DeformBrain,    1
Wait,    12
Demo, -23.60423, -26.12706, -40.42962, 32.21594, 11.60371, 128.2406, 0, 0, 30
Wait,    6
AteryRun, 0, 28, 3, -29.2, -47.6, -42.5
Wait,    6
PaintVertices,    0
Wait,    30
Msg,    On,    Video Saving...
VideoRecord,    End
Wait,    5
Msg,    Off
End,    0
Wait,    10
CamReset,    0