Demo,-102.0159,7.339893,-136.8648,15.5,36.7,149.332,0,1,0
Reset,0
Wait,2
HeraView,0
Wait,2
CerebellumTrans,0
Wait,5.5       
Demo,-26.89473,-37.19482,-44.27394,7.144001,33.805,159.147,0,0,30
Wait,1
CerebellumTrans,0
Wait,5.5 
CerebellumTrans,0
Wait,5.5  	
Demo,4.447491,-52.2,-4.5,11.836,35.019,152.283,0,0,30
Wait,4
HideVagus,0
Wait,0
ArteryMove,0
Wait,2
BloodVesselMove,0
Wait,3
End,0
Wait,5
CamReset,0