v -34.4796 18.3158 -614.302
v -33.1872 18.684 -615.245
v -32.2143 17.7619 -613.089
v -31.9412 18.5652 -614.381
v -31.4313 19.0383 -613.006
v -36.9955 20.1164 -614.68
v -35.7059 19.2363 -614.368
v -34.4796 19.4721 -615.404
v -33.0477 20.0823 -616.114
v -31.8485 19.6319 -615.451
v -31.432 20.1144 -613.989
v -31.7865 20.3729 -612.288
v -38.1986 21.1436 -614.756
v -37.0068 21.4635 -615.687
v -35.7519 20.433 -615.478
v -34.3693 20.7761 -616.17
v -32.8448 21.6098 -616.189
v -31.8386 21.109 -615.158
v -32.1769 21.3298 -613.498
v -39.7005 22.4374 -615.032
v -39.4491 21.3217 -613.982
v -38.2519 22.3511 -615.554
v -37.7063 23.6934 -615.946
v -36.6262 22.8793 -616.327
v -35.6084 21.785 -616.234
v -34.2317 22.138 -616.608
v -33.5746 22.9414 -615.701
v -32.6585 22.2999 -614.659
v -40.5853 23.758 -615.183
v -40.6603 22.8601 -614.159
v -39.167 23.6623 -615.645
v -38.5923 24.67 -614.77
v -37.2839 24.7177 -615.034
v -36.0689 24.2417 -615.615
v -34.6048 23.9287 -615.445
v -35.1448 23.3197 -616.63
v -33.8695 23.2388 -614.247
v -39.9161 24.4549 -614.332
v -39.4292 24.018 -613.22
v -38.4143 23.3715 -612.078
v -37.0744 23.2923 -612.075
v -37.9747 24.0073 -613.479
v -36.687 24.1239 -613.944
v -35.2609 23.9464 -614.167
v -37.5385 15.6593 -609.259
v -36.212 15.574 -609.906
v -34.7259 15.6074 -609.726
v -33.6198 15.8946 -610.993
v -40.7735 16.8919 -608.628
v -39.1345 16.065 -609.053
v -37.8284 15.9102 -610.552
v -37.8754 16.3453 -612.123
v -36.6208 15.774 -611.481
v -35.2044 15.6533 -611.196
v -34.4596 15.954 -612.394
v -33.0151 16.4527 -612.529
v -32.0003 17.3568 -611.801
v -33.3149 16.0871 -609.259
v -32.4551 16.6941 -610.588
v -41.5416 17.8753 -609.863
v -40.2533 16.9266 -610.108
v -39.0816 16.5238 -610.824
v -39.2055 17.1743 -612.21
v -37.3804 17.3381 -613.086
v -36.0041 16.4579 -612.689
v -34.4681 16.9689 -613.42
v -33.2006 17.4949 -614.075
v -31.76 18.0941 -610.17
v -42.505 19.0392 -609.275
v -41.8541 18.9613 -611.089
v -40.6874 17.7721 -611.426
v -39.9268 18.451 -612.609
v -38.5439 18.393 -613.18
v -37.0787 18.8153 -613.697
v -35.8155 17.8526 -613.456
v -31.4554 18.6832 -611.647
v -42.3329 20.276 -610.349
v -41.9328 20.4742 -612.098
v -41.033 19.3991 -612.477
v -39.6426 19.9051 -613.163
v -38.3083 19.8754 -613.835
v -32.5447 20.8333 -610.753
v -42.1028 21.6566 -611.195
v -41.9665 21.7208 -609.679
v -41.5748 22.1176 -612.661
v -40.7739 21.0826 -613.32
v -32.8013 21.5828 -611.963
v -41.0188 22.7092 -611.147
v -34.1736 22.2719 -611.693
v -33.3243 22.2931 -613.171
v -40.6603 23.2869 -612.863
v -39.6836 23.5521 -611.949
v -39.5437 22.8148 -610.664
v -38.0322 22.799 -610.672
v -36.5621 22.7588 -610.532
v -35.5788 22.788 -611.654
v -35.9965 23.4633 -612.929
v -34.612 23.0423 -612.942
v -38.6107 15.8473 -606.973
v -37.7044 15.7119 -607.971
v -36.7927 15.573 -606.654
v -36.0742 15.5235 -608.264
v -35.0524 15.668 -606.932
v -34.4873 15.6794 -608.292
v -40.9188 16.9596 -606.855
v -39.8003 16.2912 -607.534
v -33.3577 16.2376 -607.437
v -32.2534 17.3077 -607.393
v -41.9424 17.9421 -608.126
v -32.2342 16.9653 -608.973
v -42.7756 19.3561 -607.471
v -31.884 18.4235 -608.607
v -42.5717 20.5671 -608.629
v -31.7697 19.6871 -610.89
v -42.368 21.1251 -607.047
v -33.7639 21.6898 -610.435
v -41.464 21.7926 -608.118
v -40.5425 22.1857 -609.566
v -39.9928 22.25 -608.024
v -38.914 22.2025 -609.368
v -39.3809 22.3155 -606.597
v -38.387 22.3598 -607.918
v -37.3041 22.4291 -609.188
v -35.1601 22.3147 -610.184
v -38.0009 15.7827 -605.605
v -38.5934 16.0162 -604.212
v -36.8189 15.7323 -604.587
v -35.7228 15.6502 -605.565
v -34.9485 15.8732 -604.37
v -40.935 16.9907 -605.136
v -39.672 16.2093 -605.658
v -34.0866 16.0644 -605.766
v -32.82 16.7954 -605.898
v -41.9868 18.0039 -604.677
v -42.0052 17.8858 -606.477
v -32.2897 17.5102 -604.492
v -42.7876 18.9176 -605.873
v -32.058 18.1266 -605.906
v -42.8573 20.3899 -605.823
v -31.9009 18.852 -607.214
v -31.4972 18.7243 -604.483
v -42.429 20.9801 -604.287
v -32.1084 19.634 -609.584
v -32.4601 19.9419 -608.241
v -31.2727 19.5123 -605.968
v -30.3369 20.0051 -605.033
v -30.5254 19.3518 -603.685
v -29.2272 20.0542 -603.833
v -28.3214 20.7965 -604.714
v -41.8047 21.6595 -605.459
v -40.8456 22.0184 -606.465
v -40.7739 22.1664 -604.321
v -39.5234 22.4294 -605.15
v -35.782 22.531 -608.741
v -34.4357 21.5854 -608.956
v -33.1225 20.8346 -609.334
v -33.094 21.3755 -607.926
v -31.6953 20.404 -607.198
v -30.4432 20.898 -606.634
v -29.2893 20.7219 -605.713
v -27.9002 21.38 -606.1
v -26.7835 22.1388 -606.531
v -27.0052 21.4245 -604.727
v -26.0447 22.1945 -605.377
v -38.0137 23.027 -604.796
v -38.0483 22.7329 -606.335
v -36.7642 23.4108 -606.073
v -36.9358 22.7564 -607.602
v -35.577 23.3563 -607.21
v -34.3916 22.5614 -607.801
v -32.9714 22.7574 -607.397
v -31.6793 21.8373 -607.333
v -30.2997 22.4016 -607.508
v -29.1098 21.7134 -606.988
v -27.8476 22.3998 -607.511
v -26.5264 23.2546 -607.629
v -25.5664 23.1141 -606.522
v -25.1189 23.2083 -605.06
v -36.6294 23.8864 -604.594
v -35.4313 24.1625 -605.801
v -34.1444 23.9602 -606.904
v -32.6952 24.0993 -607.258
v -31.4807 23.3651 -607.536
v -30.2675 24.077 -607.896
v -29.0545 23.1911 -607.884
v -27.7391 23.9253 -608.159
v -26.3507 24.7109 -608.181
v -25.2251 24.2272 -607.49
v -24.4897 24.0642 -606.036
v -24.3668 24.3584 -604.49
v -35.217 24.7876 -604.375
v -34.159 25.0486 -605.765
v -32.8382 25.2555 -606.661
v -31.5394 24.9972 -607.591
v -30.2601 25.6477 -607.9
v -28.9952 24.8218 -608.196
v -27.6715 25.5006 -608.224
v -26.3926 26.1615 -608.114
v -25.0164 25.8534 -607.924
v -24.4995 25.2313 -606.781
v -24.0276 25.4298 -605.384
v -32.8863 26.1429 -605.694
v -31.4973 26.295 -606.805
v -30.0014 26.7834 -607.162
v -28.7981 26.3492 -607.729
v -27.4833 26.942 -607.449
v -25.9259 27.0332 -607.081
v -24.8034 26.4767 -606.329
v -24.4662 26.6023 -604.78
v -30.2782 27.2953 -606.062
v -28.6648 27.3534 -606.408
v -27.1123 27.5327 -606.153
v -25.6562 27.3701 -605.595
v -25.2114 27.5697 -604.151
v -37.4802 30.8407 -604.722
v -36.775 30.424 -603.751
v -36.2426 30.8679 -605.04
v -34.9897 30.5797 -605.463
v -33.6821 29.9088 -605.186
v -33.6951 30.9185 -606.03
v -32.498 30.4033 -605.523
v -31.3403 31.0407 -605.391
v -40.8882 31.9274 -604.27
v -39.864 31.7424 -605.3
v -38.6379 31.1337 -605.03
v -38.861 31.9366 -606.099
v -37.8962 32.386 -606.653
v -37.4428 31.399 -605.91
v -36.079 31.5629 -606.122
v -34.8407 31.7124 -606.33
v -33.6242 32.1326 -606.447
v -32.4704 31.8326 -605.9
v -31.2979 32.475 -605.381
v -41.7151 32.9161 -605.139
v -40.7486 32.5434 -605.553
v -39.846 32.9104 -606.285
v -38.8133 33.3066 -606.816
v -37.5265 33.6411 -606.891
v -36.7051 32.5912 -606.641
v -35.4925 32.8598 -606.624
v -34.3372 33.2096 -606.574
v -33.1295 33.3325 -606.287
v -32.1831 33.2749 -605.757
v -31.3539 33.898 -604.992
v -44.7968 34.046 -605.541
v -44.0897 33.125 -604.582
v -43.6378 33.6567 -605.789
v -42.8312 33.1086 -604.727
v -42.3523 33.8677 -605.818
v -41.7664 34.8012 -606.298
v -40.9454 33.8011 -606.16
v -39.8118 34.3001 -606.702
v -38.5028 34.6282 -606.922
v -37.1753 34.8664 -606.711
v -36.2215 33.9661 -606.688
v -34.9555 34.3311 -606.494
v -34.7447 35.6362 -605.906
v -33.7075 34.541 -606.162
v -32.5491 34.5936 -605.459
v -49.0765 35.766 -605.31
v -47.5684 34.1255 -604.458
v -48.0912 35.0021 -605.472
v -46.894 35.7378 -606.142
v -45.6847 34.9934 -605.666
v -44.4916 35.3838 -606.153
v -43.3107 34.7939 -606.413
v -43.3981 36.2447 -606.446
v -42.2195 35.8296 -606.559
v -40.6544 35.3584 -606.674
v -39.3214 35.677 -606.786
v -38.011 35.897 -606.585
v -37.2416 36.9583 -605.782
v -36.7705 35.9812 -606.258
v -35.8412 35.2799 -606.335
v -34.8606 36.3023 -604.728
v -33.6509 35.5749 -605.278
v -49.0821 37.1598 -605.274
v -48.0477 36.4204 -605.978
v -46.7885 37.1258 -605.996
v -45.6361 36.3087 -606.026
v -44.4805 36.9063 -606.145
v -43.331 37.679 -606.09
v -42.2309 37.1955 -606.323
v -41.163 36.5783 -606.583
v -39.9458 36.7625 -606.522
v -39.4431 37.6666 -605.736
v -38.573 36.9285 -606.248
v -38.0825 37.542 -605.071
v -36.8403 37.3212 -604.516
v -35.8977 36.5775 -605.442
v -47.8714 37.8105 -605.514
v -46.6136 38.4704 -605.42
v -45.5764 37.7432 -605.816
v -44.4259 38.2844 -605.715
v -43.1624 38.7943 -605.254
v -42.0508 38.2331 -605.416
v -40.9182 37.7468 -605.917
v -41.2561 38.4979 -604.351
v -40.2204 38.1954 -604.943
v -38.947 38.171 -604.516
v -36.9524 16.2236 -601.68
v -35.9468 15.8456 -603.122
v -41.09 17.3784 -603.333
v -39.9001 16.5038 -603.75
v -38.6675 16.275 -602.327
v -37.4583 15.9571 -603.155
v -35.1537 16.1635 -601.763
v -34.3229 16.1488 -603.052
v -33.4082 16.5397 -604.221
v -42.1085 18.5823 -603.029
v -32.4572 17.3988 -603.025
v -42.7347 19.4 -604.358
v -31.4198 18.4149 -602.741
v -31.0856 18.7765 -601.264
v -42.6448 20.1866 -602.915
v -30.0433 19.3643 -602.357
v -28.7324 20.1426 -602.305
v -42.0312 21.1638 -601.849
v -27.7509 20.675 -603.385
v -41.7346 21.7821 -603.18
v -40.4342 22.4152 -602.468
v -26.5207 21.5158 -603.191
v -25.7638 22.3116 -603.921
v -39.8863 22.9227 -600.579
v -39.3154 22.7147 -603.593
v -39.0138 23.1275 -601.969
v -24.9824 23.4139 -603.627
v -37.9162 23.3961 -603.28
v -36.6385 24.2102 -603.139
v -24.4993 24.3505 -602.788
v -35.5874 25.0833 -602.921
v -24.0375 25.4873 -603.699
v -34.4786 25.8781 -603.205
v -33.8963 25.8455 -604.511
v -24.2153 26.7262 -603.181
v -33.2747 26.8391 -603.215
v -33.718 26.7944 -602.198
v -32.658 26.8657 -604.468
v -31.7012 27.0493 -605.525
v -24.9885 27.8559 -602.694
v -33.861 28.2087 -602.595
v -33.7927 28.8101 -603.94
v -32.8409 27.9977 -603.626
v -31.6876 28.2061 -604.251
v -30.6921 27.8233 -604.923
v -29.3269 28.0773 -605.156
v -28.0067 28.2331 -605.127
v -26.6039 28.1159 -604.813
v -25.9415 28.6302 -603.661
v -25.7666 29.0781 -602.203
v -38.2551 30.5243 -603.681
v -37.2134 30.1861 -602.615
v -35.941 29.6222 -602.839
v -34.7463 29.2209 -603.107
v -35.6504 29.9698 -604.169
v -34.4992 29.793 -604.339
v -32.7144 29.1194 -604.674
v -31.4794 29.6298 -604.898
v -30.2861 29.0322 -604.523
v -28.8862 29.4404 -604.42
v -27.4315 29.1907 -604.068
v -27.2016 30.5529 -603.384
v -26.4117 29.7179 -603.103
v -26.4911 30.5002 -601.865
v -41.722 31.4545 -602.901
v -40.5118 31.1797 -603.159
v -39.4156 30.4875 -603.089
v -39.6764 31.0186 -604.227
v -30.1995 30.3149 -604.914
v -29.1394 31.0269 -604.628
v -28.058 30.6532 -604.188
v -27.1762 31.5176 -602.699
v -27.5187 31.5514 -601.298
v -44.6746 32.6088 -603.197
v -44.1768 32.5674 -601.953
v -42.9213 31.9792 -602.597
v -43.4097 32.6547 -603.512
v -42.1891 32.1223 -603.968
v -30.2741 31.782 -604.987
v -29.259 32.4167 -604.419
v -28.3958 32.0088 -603.583
v -27.8465 32.5342 -602.617
v -48.5927 33.6938 -601.906
v -48.0568 33.5754 -603.222
v -47.0914 33.3779 -602.145
v -46.8584 33.3591 -603.687
v -45.6152 32.9231 -601.918
v -45.9416 32.9543 -603.14
v -45.2618 33.2796 -604.292
v -30.3364 33.2529 -604.635
v -29.455 33.4847 -603.656
v -28.8144 33.6171 -602.685
v -51.671 34.4888 -601.586
v -50.8321 34.3734 -600.571
v -50.2396 34.3148 -601.988
v -49.282 33.9416 -603.018
v -48.8401 34.4072 -604.301
v -46.8663 34.6701 -605.434
v -46.1075 33.9535 -604.727
v -31.6426 34.9046 -604.343
v -30.5385 34.5446 -603.821
v -29.8423 34.6705 -602.732
v -56.3469 35.4438 -600.224
v -55.4374 35.4767 -601.372
v -54.1635 34.8282 -600.844
v -54.1327 35.1919 -602.152
v -52.8084 34.5693 -600.972
v -52.8226 34.9525 -602.569
v -51.5033 34.7412 -602.918
v -50.2457 34.5993 -603.382
v -49.7526 35.2822 -604.346
v -32.7002 35.591 -604.449
v -31.9063 35.5935 -603.331
v -30.966 35.6674 -602.72
v -56.5516 36.5243 -601.649
v -55.9419 37.2734 -603.083
v -55.2621 36.0537 -602.788
v -54.5648 37.0806 -603.856
v -53.841 35.8451 -603.443
v -52.4259 35.6843 -603.814
v -51.0506 35.5685 -603.971
v -50.1726 36.4811 -604.724
v -34.6858 36.7886 -603.312
v -33.8367 36.2215 -604.049
v -32.8976 36.2791 -603.312
v -57.0307 37.8984 -602.217
v -56.1535 38.795 -603.115
v -54.9548 38.4794 -603.775
v -53.54 38.38 -604.123
v -53.0658 36.9631 -604.156
v -52.0539 37.9626 -604.443
v -51.5085 36.7936 -604.4
v -50.3517 37.802 -604.883
v -49.0026 38.5186 -605.001
v -37.7851 37.896 -603.621
v -36.5452 37.7809 -603.099
v -35.7208 37.084 -603.996
v -56.9443 39.7401 -602.274
v -55.6339 40.2277 -602.894
v -54.5304 39.8306 -603.347
v -53.3425 39.792 -603.814
v -52.224 39.3048 -604.281
v -50.9926 40.1578 -604.15
v -51.0216 38.8383 -604.66
v -49.8694 39.4249 -604.6
v -48.6624 39.9459 -604.434
v -47.6977 39.1409 -604.96
v -46.3879 39.7944 -604.826
v -45.4148 39.1775 -605.195
v -44.2376 39.2524 -604.853
v -43.4356 39.6345 -603.974
v -42.3416 39.1145 -604.19
v -41.6378 39.0325 -603.052
v -40.6603 39.2001 -602.881
v -40.0394 38.6928 -603.754
v -38.8495 38.5674 -603.302
v -56.1943 40.9804 -601.783
v -55.2856 41.6754 -600.561
v -54.6323 41.1543 -601.939
v -53.474 40.7831 -602.695
v -52.1638 40.5177 -603.433
v -52.0779 41.2591 -602.22
v -50.8121 40.965 -602.988
v -49.6877 40.5721 -603.614
v -48.4189 40.9069 -603.351
v -47.388 40.3749 -604.175
v -47.0751 41.1763 -603.058
v -45.9993 40.6294 -603.842
v -44.7271 40.2487 -604.231
v -43.5929 40.1383 -602.864
v -42.3927 39.9581 -602.834
v -41.8016 40.0506 -602.72
v -53.936 41.8237 -600.239
v -53.1597 41.4615 -601.322
v -52.4669 42.0625 -599.91
v -51.5857 41.7527 -600.86
v -50.6831 41.4811 -601.781
v -49.412 41.3346 -602.244
v -48.1238 41.3521 -602.077
v -47.0904 41.2475 -601.408
v -45.9897 41.1757 -602.383
v -44.8321 40.9438 -603.13
v -43.5929 40.7285 -602.72
v -40.0154 16.9137 -601.967
v -38.6632 16.7173 -600.657
v -37.7302 16.99 -599.004
v -37.0961 16.5413 -600.262
v -36.048 16.7389 -598.957
v -35.5067 16.4194 -600.388
v -33.8599 16.6927 -600.708
v -41.1802 17.9945 -601.691
v -40.0847 17.6285 -600.386
v -33.4227 16.7365 -602.135
v -32.3776 17.6731 -601.287
v -41.9814 19.4455 -601.611
v -41.1344 18.9273 -600.256
v -31.7551 18.2565 -599.861
v -41.6692 20.5134 -600.441
v -30.6244 19.1824 -599.766
v -29.7424 19.7993 -600.953
v -40.9515 21.9334 -601.12
v -28.2227 20.4543 -600.851
v -27.3516 20.9508 -601.953
v -41.0224 21.7277 -599.602
v -26.2273 21.9542 -601.807
v -40.3092 22.8101 -598.911
v -39.0587 23.7099 -599.251
v -25.3669 22.8328 -602.385
v -38.377 23.751 -600.517
v -37.5307 23.9211 -601.798
v -24.9098 23.8825 -601.44
v -36.997 24.5301 -600.28
v -24.1833 25.476 -601.961
v -36.2277 24.8198 -601.57
v -35.5591 25.5156 -600.213
v -24.2255 26.8869 -601.693
v -34.9636 25.8125 -601.677
v -24.5646 27.5145 -600.47
v -34.163 26.6032 -600.731
v -25.1184 28.2752 -601.342
v -34.7379 29.2795 -601.781
v -33.7316 28.0202 -601.257
v -33.7526 27.8937 -599.872
v -25.9052 29.5542 -600.853
v -39.7336 30.896 -601.888
v -38.4507 30.4577 -602.222
v -37.35 30.8316 -601.506
v -36.0593 30.1165 -601.664
v -35.2012 30.1563 -600.62
v -34.2238 29.1816 -600.565
v -33.7728 29.4298 -599.505
v -27.9036 31.515 -600.01
v -26.6554 30.7367 -600.392
v -42.9484 32.5317 -601.393
v -41.8626 32.0972 -601.585
v -40.7325 31.6826 -601.873
v -39.8526 31.8006 -600.808
v -38.6765 31.156 -601.057
v -37.5923 31.7603 -600.58
v -36.3516 31.0301 -600.664
v -35.2845 31.5914 -600.149
v -34.2133 30.7809 -599.879
v -34.1733 32.3582 -600.172
v -33.1148 31.7822 -599.803
v -33.0871 30.4387 -599.151
v -32.0384 31.1769 -599.25
v -31.9048 32.4321 -600.077
v -31.0318 30.5056 -598.727
v -30.8714 31.7242 -599.552
v -29.9025 30.9364 -599.038
v -29.4688 31.8197 -599.75
v -28.5857 30.8757 -599.051
v -28.9299 32.398 -600.526
v -47.8775 33.7428 -600.751
v -46.5068 33.418 -600.861
v -45.8599 33.6104 -599.712
v -45.0105 33.0715 -600.737
v -44.3175 33.4017 -599.525
v -43.6417 33.0264 -600.582
v -42.1434 33.0003 -600.282
v -40.9705 32.4773 -600.635
v -39.8104 33.1948 -600.421
v -38.7433 32.4451 -600.426
v -37.6571 33.1581 -600.492
v -36.5016 32.3809 -600.385
v -35.4353 32.9958 -600.457
v -34.3965 33.6359 -600.615
v -33.5204 34.3644 -600.88
v -32.9561 33.2063 -600.451
v -31.4735 33.5935 -600.752
v -30.4778 32.6939 -600.34
v -29.9075 33.5038 -601.093
v -55.0033 34.8002 -599.803
v -54.2184 34.6119 -598.351
v -53.3828 34.5388 -599.565
v -51.8954 34.3282 -599.581
v -51.141 34.6731 -598.093
v -50.3037 34.3796 -599.353
v -49.4201 34.1367 -600.876
v -42.9577 33.8361 -599.628
v -41.8599 34.5529 -599.986
v -40.9031 33.8434 -600.264
v -39.761 34.6657 -600.558
v -38.7157 33.9353 -600.55
v -37.6574 34.61 -600.813
v -36.598 33.7801 -600.692
v -35.5787 34.3908 -600.894
v -34.6435 35.0563 -601.138
v -33.5352 35.5285 -601.459
v -32.3658 34.5555 -601.085
v -31.7773 35.1912 -601.984
v -30.885 34.6095 -601.507
v -57.185 35.4579 -598.931
v -56.7284 34.9921 -597.423
v -55.7888 34.8863 -598.625
v -43.9159 36.139 -599.597
v -42.8303 35.3738 -599.828
v -41.8374 36.0469 -600.49
v -40.8103 35.3416 -600.523
v -39.7061 36.1238 -600.934
v -38.6457 35.4288 -600.886
v -37.5641 36.1228 -601.294
v -36.6459 35.2228 -601.131
v -35.7066 35.861 -601.454
v -34.7201 36.1669 -602.012
v -33.7148 36.567 -602.474
v -32.6445 35.8735 -602.105
v -58.3935 36.3961 -599.077
v -57.5319 36.3608 -600.308
v -45.0647 36.9074 -599.333
v -44.0709 37.4136 -600.22
v -42.9272 36.7369 -600.411
v -41.8576 37.4459 -601.034
v -40.7772 36.8069 -601.003
v -39.7037 37.5174 -601.455
v -38.5858 36.8739 -601.369
v -37.5241 37.3727 -602.24
v -36.5462 36.7863 -601.747
v -35.579 37.1512 -602.458
v -58.9328 37.673 -599.528
v -60.1805 37.8243 -598.228
v -57.928 37.5642 -600.894
v -46.3049 38.7886 -599.428
v -45.2051 38.1745 -599.921
v -44.1174 38.6916 -600.767
v -42.9896 38.0727 -600.96
v -42.0087 38.6386 -601.849
v -40.8502 38.1549 -601.783
v -39.7055 38.6051 -602.311
v -38.5401 38.0327 -602.184
v -58.7027 39.0244 -600.429
v -59.618 39.0672 -599.142
v -57.8259 38.9411 -601.563
v -47.4204 39.7388 -598.975
v -46.3862 39.918 -599.931
v -45.2216 39.4712 -600.562
v -44.1214 39.8065 -601.52
v -43.044 39.2845 -601.76
v -58.7108 40.3968 -599.668
v -59.6663 40.4344 -598.372
v -57.7006 40.3992 -600.968
v -47.3302 40.8591 -600.085
v -46.0694 40.4675 -601.083
v -44.9292 40.5615 -601.818
v -58.5494 41.4853 -598.264
v -57.6214 41.427 -599.477
v -56.6827 41.4322 -600.524
v -56.197 42.0683 -599.166
v -54.8151 42.2345 -599.022
v -48.5485 41.4014 -600.654
v -56.7248 42.8666 -596.468
v -57.1832 42.2395 -598.016
v -55.7183 42.6345 -597.62
v -54.3209 42.67 -597.568
v -53.3667 42.327 -598.809
v -51.9125 41.8869 -598.477
v -50.8715 42.073 -599.538
v -49.9123 41.7482 -600.717
v -49.4127 41.7281 -599.322
v -39.1157 17.6243 -599.073
v -38.1593 17.843 -597.681
v -37.1518 18.058 -596.433
v -36.6451 17.367 -597.701
v -35.0726 17.3431 -597.694
v -34.4284 16.8335 -599.146
v -32.9792 17.3725 -599.594
v -40.2137 18.7572 -598.921
v -39.2928 18.7878 -597.572
v -33.586 17.7127 -597.969
v -32.3655 18.3793 -598.406
v -41.0258 20.1547 -599.023
v -40.2244 20.0131 -597.607
v -31.3196 19.1797 -598.161
v -40.6343 21.4562 -598.028
v -40.0216 21.2213 -596.364
v -30.4631 20.2824 -597.381
v -30.1128 19.9469 -598.71
v -29.1375 20.2593 -599.657
v -40.0894 22.5099 -597.04
v -29.9202 21.346 -596.802
v -29.1334 20.9899 -598.226
v -27.8215 20.9383 -599.384
v -26.8657 21.3885 -600.566
v -39.4073 23.7046 -596.274
v -28.8009 22.1936 -597.299
v -27.8397 21.8252 -598.291
v -26.6868 22.092 -599.246
v -25.7942 22.6849 -600.583
v -39.5119 23.5286 -597.86
v -38.4673 24.4093 -597.547
v -28.5935 23.4808 -596.915
v -29.9172 23.8098 -596.078
v -27.3337 23.0886 -597.887
v -26.0466 23.2763 -598.991
v -25.1554 23.8583 -599.967
v -37.1902 24.9452 -596.995
v -37.7549 24.4249 -598.823
v -36.4369 24.8967 -598.893
v -35.9885 25.0879 -597.48
v -34.7332 25.4624 -596.985
v -33.1898 25.707 -596.869
v -32.2968 24.9475 -595.867
v -30.7616 24.9292 -596.204
v -29.1616 24.8462 -596.756
v -27.7264 24.6347 -597.368
v -26.5256 24.317 -598.14
v -25.3338 24.7496 -598.976
v -24.5068 25.0173 -600.513
v -35.1957 25.617 -598.622
v -33.97 26.2133 -598.038
v -31.7351 25.8974 -596.828
v -30.2721 26.0204 -596.936
v -28.875 26.0552 -597.163
v -27.5348 26.0666 -597.508
v -26.2938 25.6745 -597.994
v -24.9244 25.9712 -598.94
v -24.2591 26.2398 -600.231
v -34.4401 26.4952 -599.45
v -32.5876 26.7854 -597.745
v -31.2565 27.0896 -597.401
v -29.7671 27.2868 -597.39
v -28.398 27.3101 -597.533
v -26.9454 27.4559 -597.781
v -25.8272 26.9256 -598.251
v -24.8911 27.4058 -599.179
v -33.3369 27.3418 -598.736
v -32.0803 28.2268 -597.993
v -30.6741 28.247 -597.697
v -29.3158 28.6294 -597.884
v -27.9176 28.4895 -597.849
v -26.8928 29.1862 -598.322
v -25.9085 28.3462 -598.592
v -25.2319 28.6874 -599.886
v -33.0696 28.7242 -598.763
v -32.1419 29.714 -598.498
v -30.8584 29.3476 -598.133
v -29.5964 29.8835 -598.393
v -28.2319 29.7366 -598.338
v -27.2046 30.5171 -599.057
v -26.0533 29.7365 -599.376
v -54.8372 34.8256 -595.556
v -55.16 34.6758 -597.125
v -53.5576 34.663 -596.868
v -52.6114 34.614 -598.136
v -48.8129 34.2888 -599.712
v -47.2265 34.1453 -599.558
v -46.2148 34.703 -598.725
v -44.9938 34.2849 -598.972
v -43.7643 34.7679 -599.083
v -59.4107 35.7213 -596.648
v -58.902 35.2109 -595.24
v -58.216 35.5475 -597.727
v -57.8362 35.0454 -596.298
v -57.3414 34.8215 -594.716
v -56.2886 34.7726 -595.903
v -51.9439 35.0432 -596.704
v -50.1785 35.4514 -597.287
v -49.5387 34.9749 -598.4
v -48.2036 34.8457 -598.702
v -47.252 35.5029 -598.389
v -46.1206 36.1979 -598.641
v -44.9515 35.5679 -598.895
v -61.2599 36.2026 -593.792
v -60.6798 36.7721 -596.946
v -60.4415 36.051 -595.407
v -59.4072 36.6117 -597.997
v -51.2555 36.7989 -595.317
v -50.7509 35.9825 -596.251
v -49.5952 36.8246 -597.104
v -48.639 36.0897 -597.891
v -47.408 36.8896 -598.301
v -46.2518 37.5509 -598.924
v -62.3342 37.3943 -594.15
v -61.6334 37.0446 -595.577
v -61.5752 38.0968 -597.126
v -50.3777 37.6362 -596.161
v -51.4289 38.1785 -595.12
v -49.5701 38.3666 -597.216
v -48.5391 37.6957 -597.893
v -47.4302 38.3603 -598.555
v -62.3757 38.4922 -595.711
v -62.8715 38.9064 -594.301
v -60.774 39.2372 -597.946
v -50.5763 39.1598 -596.212
v -51.551 39.4898 -595.218
v -49.7259 39.7159 -597.357
v -48.5399 39.3286 -598.147
v -61.7826 39.7718 -596.483
v -60.6432 40.5214 -597.14
v -51.6372 40.8228 -595.58
v -50.6471 40.5593 -596.782
v -49.3167 40.7302 -598.149
v -48.2774 40.8572 -599.071
v -60.9486 41.2923 -595.798
v -59.5826 41.5389 -597.021
v -51.5918 41.6331 -596.975
v -52.5541 42.0316 -595.854
v -50.4883 41.503 -598.101
v -59.4769 42.3344 -595.686
v -57.8787 42.9268 -595.363
v -58.2265 42.3344 -596.847
v -52.8087 42.4169 -597.37
v -56.321 43.3766 -594.897
v -55.8377 43.5571 -593.224
v -55.1881 42.9848 -595.933
v -53.7833 42.8253 -596.261
v -38.3439 18.7875 -596.172
v -36.9109 18.7776 -595.084
v -35.7223 17.9416 -596.312
v -35.2005 18.7053 -595.099
v -34.1788 18.1379 -596.497
v -39.4002 19.8843 -596.189
v -38.4069 19.7704 -594.914
v -34.4552 19.5542 -593.896
v -33.6296 19.0429 -595.289
v -32.7374 18.7396 -596.802
v -39.2578 21.068 -594.857
v -33.0746 20.1654 -594.139
v -32.3154 19.8058 -595.458
v -31.5625 19.628 -596.674
v -39.6886 22.5544 -595.35
v -33.0091 21.7423 -593.671
v -34.0439 22.4183 -592.781
v -32.012 21.1753 -594.72
v -31.0097 20.8294 -595.869
v -38.8387 23.9653 -594.681
v -36.0982 24.5287 -594.232
v -35.0481 23.6273 -593.404
v -33.6998 23.1968 -594.052
v -32.3405 22.7245 -594.697
v -31.0493 22.2498 -595.385
v -29.8918 22.534 -596.18
v -38.3389 24.6242 -596.015
v -37.6027 24.6565 -593.559
v -37.2656 24.8579 -595.156
v -35.7824 24.9279 -595.856
v -34.6614 24.2858 -594.793
v -33.9725 24.9967 -595.828
v -33.0003 24.0446 -595.055
v -31.3654 23.7187 -595.478
v -61.0217 35.9404 -591.785
v -60.0264 35.4502 -592.724
v -59.8686 35.3989 -594.123
v -58.6173 34.8688 -592.291
v -58.4007 34.8751 -593.724
v -57.0276 34.8156 -592.76
v -55.9684 34.8253 -594.188
v -55.534 35.4445 -592.711
v -54.5276 35.353 -594.067
v -53.4175 35.2244 -595.477
v -52.113 35.7086 -595.27
v -62.1533 36.8515 -592.478
v -54.2107 36.363 -592.758
v -53.2472 36.0972 -594.106
v -52.3226 37.1897 -594.363
v -62.9869 38.2711 -592.778
v -53.2661 37.5378 -593.14
v -54.2513 37.8499 -591.895
v -52.6085 38.674 -593.991
v -63.4614 39.337 -591.487
v -53.5443 39.1274 -592.623
v -54.4827 39.3577 -591.257
v -52.491 40.0312 -594.331
v -63.147 39.9285 -593.114
v -62.3716 40.2658 -594.936
v -53.3191 40.4329 -593.204
v -54.121 40.8785 -591.912
v -52.79 41.3963 -594.506
v -62.5366 41.2833 -593.171
v -61.6333 41.5087 -594.398
v -53.7639 41.889 -593.372
v -53.6998 42.5883 -594.844
v -61.2999 42.4536 -593.009
v -60.403 42.454 -594.423
v -54.8672 43.0033 -594.171
v -54.5527 42.6156 -592.455
v -60.763 43.3253 -591.649
v -59.8734 43.3153 -592.939
v -58.9374 43.1216 -594.233
v -57.4294 43.5657 -593.812
v -56.8877 44.0778 -592.252
v -55.4316 43.5033 -591.584
v -37.4871 19.7259 -593.851
v -36.0035 19.3943 -593.825
v -35.3032 20.1216 -592.565
v -38.4602 20.9192 -593.378
v -36.9259 20.2649 -592.603
v -36.0948 21.266 -591.642
v -34.6743 21.4475 -591.802
v -33.8213 20.6914 -592.837
v -39.3356 22.4 -593.877
v -38.6193 22.3511 -592.521
v -37.5812 21.5584 -592.034
v -36.6875 22.7209 -591.54
v -35.3358 22.8668 -592.06
v -38.7118 23.7287 -593.194
v -37.7649 23.5913 -592.002
v -36.4451 23.9091 -592.745
v -60.5719 35.7734 -589.933
v -59.6124 35.2009 -591.087
v -58.8835 35.1897 -589.623
v -57.8678 34.7557 -590.975
v -57.1982 35.4668 -589.599
v -56.4844 35.5091 -591.269
v -61.8318 36.5656 -590.644
v -62.5223 37.3804 -589.524
v -56.8995 36.6633 -588.406
v -56.1327 36.6356 -590.071
v -55.2442 36.6017 -591.506
v -62.8258 37.7882 -591.184
v -55.9706 37.8511 -589.003
v -55.2073 37.9802 -590.563
v -63.3977 38.7474 -589.866
v -55.2712 39.2689 -589.577
v -55.9114 39.0862 -587.997
v -63.7198 40.3649 -590.017
v -54.856 40.5911 -590.305
v -55.4093 40.6348 -588.513
v -63.3248 40.9662 -591.605
v -54.7661 42.0552 -590.945
v -55.1368 41.834 -589.301
v -63.1932 42.0342 -590.125
v -62.3448 42.2381 -591.752
v -55.3109 43.2625 -589.987
v -62.2171 43.475 -589.395
v -61.7921 43.1018 -590.662
v -56.0591 44.2876 -589.154
v -60.5054 44.1166 -589.976
v -59.4066 44.1106 -591.303
v -58.4423 43.8981 -592.626
v -57.8456 44.6186 -591.077
v -56.3104 44.5064 -590.735
v -59.8473 35.8067 -588.381
v -59.0867 36.145 -586.782
v -58.1527 35.6664 -588.138
v -60.7844 36.3704 -587.141
v -62.173 37.2357 -587.325
v -61.4823 36.4927 -588.713
v -57.6343 36.7684 -586.763
v -62.9814 38.0901 -588.252
v -56.5947 37.8739 -587.26
v -63.7251 39.4589 -588.328
v -56.1809 38.9975 -586.078
v -63.978 40.2284 -586.94
v -55.7856 40.2231 -587
v -63.9138 41.1306 -588.546
v -55.468 41.7069 -587.043
v -64.1103 42.0908 -587.116
v -55.4879 42.8323 -588.216
v -63.4153 42.7279 -588.502
v -55.5859 43.2474 -586.417
v -62.4374 44.0891 -587.971
v -61.1585 44.6091 -588.496
v -55.87 44.2245 -587.598
v -61.8921 45.1548 -586.766
v -60.3052 45.6078 -587.376
v -59.699 45.1755 -588.729
v -58.8406 44.9064 -589.886
v -57.2981 45.273 -589.475
v -56.7242 45.4136 -587.915
v -58.3539 45.8943 -588.194
v -59.7485 37.0162 -584.237
v -60.1436 36.6123 -585.642
v -58.3863 36.8874 -585.148
v -62.6098 38.4294 -584.909
v -61.7556 37.2918 -585.856
v -56.9751 37.793 -585.481
v -63.1407 38.5811 -586.607
v -56.1512 39.1286 -584.324
v -63.6033 39.7159 -585.317
v -55.6554 40.4652 -585.474
v -64.1115 41.3353 -585.676
v -55.5447 40.7669 -583.914
v -64.1986 42.4292 -584.45
v -55.4321 42.0375 -585.277
v -63.9563 43.2009 -585.708
v -55.2917 42.4456 -583.678
v -63.3587 43.7618 -586.969
v -63.9082 44.0114 -584.05
v -55.5354 43.7452 -584.852
v -63.085 45.6601 -584.127
v -63.177 44.7849 -585.589
v -55.832 45.0113 -586.188
v -62.0364 46.8865 -583.526
v -61.9736 46.0838 -585.22
v -60.5824 46.3341 -585.973
v -58.9853 46.4861 -586.764
v -57.1501 46.3361 -586.814
v -56.2196 46.287 -585.392
v -60.7817 47.2137 -584.413
v -59.3809 47.2632 -585.171
v -58.1846 48.0536 -584.197
v -57.8571 47.182 -585.684
v -61.3384 37.4005 -584.381
v -60.5791 37.436 -582.908
v -59.5312 37.5476 -581.783
v -58.6736 37.3156 -583.184
v -57.6278 37.8365 -581.911
v -62.0191 38.359 -583.179
v -57.3468 37.7876 -583.908
v -56.4314 38.4488 -582.791
v -63.035 39.5314 -583.598
v -62.4381 39.4232 -581.867
v -55.6021 39.7234 -582.565
v -63.7361 40.9176 -584.042
v -63.1232 40.8376 -582.426
v -54.9678 41.2363 -582.402
v -63.7456 42.3571 -582.995
v -54.694 42.8368 -582.168
v -63.4689 43.6457 -582.167
v -54.1628 43.1714 -580.767
v -63.4293 45.0029 -582.81
v -55.0568 44.0729 -583.181
v -63.149 45.1391 -581.196
v -54.8732 45.5943 -582.607
v -62.8222 46.3802 -582.279
v -55.5245 45.2646 -584.307
v -53.9655 45.8262 -580.828
v -61.9506 47.5995 -581.66
v -60.9262 48.0057 -582.76
v -56.749 47.3542 -584.569
v -55.5545 46.7581 -583.616
v -54.6237 46.9823 -581.936
v -60.8645 48.6659 -580.974
v -59.6322 48.9463 -581.995
v -59.6003 49.3823 -580.156
v -59.5319 48.1336 -583.517
v -58.3316 49.6213 -581.04
v -58.0381 48.8631 -582.554
v -56.7472 48.2448 -583.432
v -55.2255 48.1417 -582.921
v -57.1707 50.4783 -580.117
v -56.8055 50.01 -581.5
v -56.309 49.4271 -582.637
v -54.7967 49.6726 -582.538
v -53.5586 49.3472 -580.479
v -56.1547 51.5538 -579.638
v -55.8179 51.3496 -581.02
v -55.3224 50.9678 -582.206
v -53.8353 50.5162 -581.513
v -55.9806 52.2698 -578.434
v -55.1398 52.5975 -580.261
v -54.3638 52.199 -581.975
v -55.1615 53.3554 -578.841
v -54.084 53.2877 -580.929
v -49.4514 57.8206 -581.209
v -61.3083 38.1862 -581.619
v -60.3239 38.1564 -580.361
v -58.6686 37.9733 -580.643
v -59.1005 38.9225 -579.429
v -57.382 38.6051 -580.179
v -56.0625 38.6089 -581.166
v -61.7356 39.2392 -580.273
v -60.6148 39.2279 -579.11
v -59.7144 40.4904 -578.647
v -57.9668 39.7342 -578.969
v -56.2334 39.6477 -579.703
v -55.2529 40.1338 -580.973
v -62.339 40.7272 -580.791
v -61.396 40.6591 -579.265
v -59.7123 41.9631 -577.708
v -58.3869 40.9597 -577.852
v -56.8041 40.5762 -578.49
v -55.2442 41.0477 -579.416
v -54.4846 41.5789 -580.855
v -62.9534 42.1863 -581.45
v -61.9674 42.1389 -580.047
v -60.7617 42.0682 -578.902
v -54.2101 42.4818 -579.44
v -62.7676 43.6265 -580.595
v -61.7616 43.5298 -579.229
v -53.3682 43.2968 -578.228
v -52.8658 43.4555 -578.111
v -62.4906 45.0439 -579.67
v -61.5664 44.8254 -578.247
v -53.6162 44.1936 -579.741
v -52.3811 44.5331 -578.11
v -61.9497 46.3759 -578.885
v -54.3369 44.4728 -581.543
v -52.2662 45.974 -578.144
v -62.5018 46.5398 -580.517
v -61.3145 47.613 -578.105
v -53.0879 45.4733 -579.346
v -52.2593 47.3302 -578.707
v -61.6772 47.7873 -579.83
v -53.8545 47.6882 -580.642
v -53.2053 46.9047 -579.728
v -51.621 48.4962 -577.908
v -60.6161 48.7996 -579.106
v -54.3373 48.6803 -581.64
v -52.7871 48.6378 -579.385
v -51.0388 49.6246 -576.713
v -59.6192 49.914 -578.345
v -58.4855 50.3006 -579.306
v -51.8603 49.7414 -578.573
v -50.9044 50.8078 -577.668
v -58.3101 50.8729 -577.533
v -57.2697 51.2075 -578.577
v -52.7212 50.5245 -579.914
v -51.7256 51.1728 -578.94
v -56.7494 51.9627 -577.173
v -53.1014 51.7397 -580.901
v -51.8755 52.3904 -579.74
v -50.7582 52.2479 -578.365
v -55.6708 53.3067 -577.235
v -52.7688 53.1146 -580.699
v -50.7384 53.5977 -579.268
v -49.7863 53.5693 -578.044
v -48.7396 53.8013 -576.749
v -55.0996 54.4311 -576.273
v -54.2545 54.2182 -579.496
v -53.2385 54.6358 -580.35
v -51.6728 54.2204 -580.266
v -49.4475 54.8627 -579.035
v -48.5383 54.527 -578.003
v -47.5717 55.3055 -577.213
v -54.1601 55.7138 -576.838
v -54.6784 54.5644 -577.873
v -53.6702 55.6053 -578.639
v -52.4115 55.6924 -579.954
v -50.4355 55.2323 -579.877
v -48.755 56.1709 -579.903
v -47.9906 55.838 -578.635
v -46.938 56.3831 -576.156
v -53.1803 56.8559 -577.266
v -52.5551 56.7186 -578.717
v -51.4663 57.793 -578.949
v -51.3078 56.5888 -579.937
v -49.9123 56.5759 -580.587
v -47.8946 57.3714 -579.109
v -47.355 56.9635 -577.581
v -52.4729 58.1532 -576.143
v -52.0747 58.0003 -577.679
v -50.4882 57.9685 -579.986
v -48.4806 57.8303 -580.618
v -46.9291 58.4561 -577.768
v -51.3293 59.0851 -576.959
v -50.5526 59.0148 -578.575
v -49.4581 58.936 -580.096
v -48.4806 58.936 -580.273
v -47.4566 58.7878 -579.148
v -45.8867 59.5552 -577.16
v -50.1316 60.1748 -577.576
v -49.1802 60.1069 -578.945
v -47.7579 60.2318 -579.72
v -46.5579 59.98 -578.565
v -48.9447 61.3036 -577.748
v -47.8562 61.4871 -578.838
v -46.464 61.2216 -579.593
v -45.4503 60.9115 -577.847
v -47.8189 62.5582 -577.629
v -46.797 62.8421 -578.544
v -45.548 62.2533 -579.308
v -44.9886 62.2533 -578.111
v -45.5727 63.435 -577.105
v -45.4604 63.4396 -578.283
v -59.7941 43.182 -576.486
v -58.5842 42.1865 -576.509
v -57.2072 41.7533 -577.213
v -55.8587 41.5284 -577.981
v -54.628 42.2472 -578.039
v -60.7074 43.3771 -577.916
v -59.714 44.3295 -575.299
v -58.5741 43.2842 -575.104
v -57.7631 43.3051 -573.366
v -57.1675 42.8139 -575.93
v -55.8772 42.6685 -576.888
v -54.4677 43.3072 -576.892
v -60.6283 44.5738 -576.808
v -58.9274 44.162 -573.588
v -57.0698 43.6538 -574.639
v -55.7367 43.8288 -575.778
v -54.1518 44.5174 -575.99
v -53.2687 44.324 -577.037
v -61.2711 46.0819 -577.298
v -60.3201 45.8009 -575.862
v -52.7592 45.7048 -576.671
v -60.7194 47.3351 -576.518
v -52.0821 47.1076 -577.114
v -60.2233 48.6347 -575.744
v -51.4475 48.2383 -576.339
v -60.5402 48.8091 -577.388
v -50.4858 49.0712 -575.034
v -59.5316 49.8544 -576.734
v -50.4356 50.09 -575.117
v -49.9378 50.09 -575.034
v -58.5569 50.7708 -575.999
v -50.1752 51.0668 -576.38
v -49.4337 51.1512 -575.031
v -57.409 51.6814 -575.989
v -49.8276 52.3916 -577.091
v -49.1217 52.406 -575.763
v -56.1915 52.989 -575.733
v -48.2978 53.6272 -575.385
v -55.3976 54.3206 -574.808
v -47.5006 54.8194 -575.835
v -54.4581 55.6078 -575.147
v -47.1509 55.8443 -574.648
v -53.5641 56.9186 -575.672
v -46.3214 57.1356 -574.813
v -53.7219 56.6933 -574.034
v -46.4259 57.9163 -576.321
v -45.46 58.2809 -574.679
v -52.8032 58.078 -574.597
v -45.4019 59.013 -575.924
v -44.6323 59.7332 -574.743
v -51.7319 59.4394 -575.11
v -50.7604 60.1605 -576.096
v -45.1039 61.8151 -576.297
v -44.9737 60.5491 -575.963
v -50.4233 60.9952 -574.925
v -49.6776 61.2987 -576.358
v -44.7797 60.9947 -573.982
v -49.3343 62.3351 -575.126
v -48.5727 62.4893 -576.468
v -44.8627 62.2533 -575.034
v -48.0243 63.55 -575.484
v -47.047 63.7056 -576.783
v -45.2344 62.8691 -575.968
v -47.5084 64.0178 -574.193
v -46.1691 63.8002 -575.227
v -58.4033 43.3246 -571.778
v -57.2015 43.4016 -571.869
v -58.4321 44.5613 -571.694
v -56.5098 44.3286 -572.878
v -59.5703 45.5592 -574.345
v -58.799 45.5249 -572.892
v -57.3735 45.6547 -572.043
v -56.2389 45.8881 -572.627
v -55.9291 44.3973 -574.235
v -54.7814 44.901 -574.852
v -60.1456 47.0918 -574.966
v -59.4598 46.9279 -573.512
v -58.4641 46.8785 -572.225
v -56.9045 47.2178 -572.057
v -55.1947 45.4857 -573.328
v -53.9928 45.7288 -573.981
v -53.3047 45.6555 -575.31
v -59.7275 48.4466 -574.181
v -59.0592 48.3055 -572.751
v -56.5729 48.4249 -571.231
v -55.5166 47.1669 -572.771
v -54.1209 46.8476 -573.024
v -52.9496 46.6421 -574.107
v -52.2284 46.8728 -575.548
v -59.2655 49.7296 -575.068
v -58.8055 49.7207 -573.546
v -55.6644 48.5919 -572.187
v -54.4608 48.4022 -572.986
v -53.0493 48.0173 -573.184
v -52.115 47.6977 -574.092
v -51.3198 48.0743 -574.956
v -58.1736 50.9018 -574.489
v -55.7116 49.8726 -571.113
v -54.7076 49.8352 -572.387
v -53.2423 49.4411 -573.108
v -51.5608 48.9794 -573.508
v -50.9513 50.3692 -573.952
v -57.8748 50.9759 -572.926
v -54.7381 51.1314 -571.479
v -53.6693 50.8982 -572.812
v -52.1278 50.4054 -573.023
v -50.8188 51.3763 -572.839
v -49.8481 51.6248 -573.9
v -57.2024 52.0791 -574.571
v -53.6469 52.2185 -572.228
v -52.29 51.881 -572.898
v -50.9543 52.7128 -572.31
v -49.5827 52.6737 -572.869
v -48.901 52.8911 -574.226
v -56.233 53.1449 -574.063
v -55.3363 54.0504 -573.347
v -53.5751 53.6889 -571.823
v -52.3561 53.3375 -572.524
v -51.1666 53.9861 -571.698
v -49.6342 53.7334 -571.768
v -48.7589 54.0572 -573.079
v -54.4102 55.2682 -573.496
v -52.4801 54.5732 -571.393
v -47.907 54.4542 -574.259
v -53.7797 56.1639 -572.358
v -47.7499 55.5783 -573.229
v -52.9057 57.0067 -571.381
v -46.9217 56.8854 -573.311
v -52.9003 57.5993 -572.984
v -46.0377 58.0353 -573.2
v -51.884 58.9624 -573.516
v -45.0951 59.2174 -573.408
v -50.8312 60.249 -573.708
v -45.081 60.3231 -572.492
v -49.9381 61.0366 -572.363
v -45.5397 61.6023 -572.183
v -49.7105 61.7082 -573.679
v -45.4491 62.3346 -573.579
v -48.6882 63.0141 -573.884
v -46.3058 63.3954 -573.667
v -47.7293 63.5346 -572.638
v -57.2784 44.5613 -571.367
v -58.0755 48.2045 -571.474
v -58.3326 49.5791 -572.042
v -57.2781 49.3122 -570.526
v -57.6375 50.6352 -571.357
v -56.4272 50.8304 -570.45
v -57.0429 51.9763 -571.599
v -55.7385 52.0404 -570.768
v -57.0481 52.2364 -573.081
v -56.065 53.1442 -572.22
v -54.7592 52.83 -571.448
v -54.8175 54.3579 -572.113
v -53.9873 55.0926 -571.164
v -50.6685 54.8363 -570.678
v -49.2605 54.8853 -570.977
v -48.4433 55.1428 -572.067
v -53.3682 55.6188 -570.391
v -51.88 55.4408 -570.411
v -50.9436 56.5188 -569.854
v -49.753 55.9059 -570.054
v -48.3674 56.1979 -570.852
v -52.3907 56.7245 -569.844
v -51.7266 57.8211 -570.547
v -50.329 57.8979 -569.711
v -49.0041 57.0524 -569.864
v -47.5127 56.595 -571.91
v -52.0347 58.4489 -571.955
v -50.8683 59.0306 -570.823
v -48.7359 58.3249 -569.595
v -47.4973 57.6109 -570.39
v -46.67 57.8466 -571.726
v -50.9962 59.7288 -572.222
v -49.6066 59.3654 -569.929
v -47.6885 59.2128 -569.541
v -46.3997 58.9159 -570.404
v -45.591 58.9592 -571.823
v -49.9418 60.3719 -570.993
v -48.6292 60.5348 -569.788
v -46.8362 60.4879 -569.777
v -45.7262 60.3675 -570.961
v -49.0392 61.6932 -570.969
v -47.7441 61.7885 -570.005
v -46.3769 61.8549 -570.755
v -48.9428 62.453 -572.333
v -47.7901 62.9307 -571.095
v -46.4213 62.8512 -572.074

f 3 67 4
f 5 3 4
f 1 7 8
f 2 1 8
f 2 8 9
f 2 9 10
f 2 10 4
f 4 10 11
f 4 11 5
f 5 11 12
f 6 13 14
f 7 6 15
f 6 14 15
f 8 15 16
f 7 15 8
f 9 16 17
f 8 16 9
f 10 9 18
f 9 17 18
f 11 18 19
f 10 18 11
f 11 19 12
f 13 21 20
f 24 22 23
f 22 13 20
f 14 22 24
f 13 22 14
f 14 24 25
f 14 25 15
f 16 25 26
f 15 25 16
f 17 26 27
f 16 26 17
f 17 27 28
f 17 28 18
f 28 19 18
f 20 29 31
f 20 30 29
f 23 31 32
f 20 31 22
f 23 32 33
f 22 31 23
f 24 23 34
f 23 33 34
f 36 34 35
f 24 34 36
f 25 24 36
f 25 36 26
f 37 27 35
f 26 36 27
f 37 28 27
f 29 38 31
f 32 39 42
f 42 39 40
f 31 38 32
f 42 40 41
f 32 38 39
f 33 32 42
f 33 42 43
f 34 33 43
f 34 43 44
f 34 44 35
f 35 44 37
f 35 27 36
f 61 50 49
f 46 51 53
f 53 51 52
f 46 53 54
f 45 51 46
f 48 54 55
f 46 54 47
f 48 55 56
f 47 54 48
f 57 59 56
f 59 48 56
f 59 58 48
f 49 60 61
f 51 50 62
f 50 61 62
f 52 62 63
f 51 62 52
f 52 63 64
f 52 64 65
f 53 52 65
f 53 65 54
f 55 65 66
f 54 65 55
f 3 56 67
f 55 66 56
f 57 56 3
f 56 66 67
f 5 76 3
f 68 59 57
f 60 69 70
f 60 70 71
f 60 71 61
f 63 71 72
f 62 71 63
f 63 72 73
f 62 61 71
f 64 73 74
f 63 73 64
f 65 64 75
f 64 74 75
f 66 75 1
f 65 75 66
f 1 67 66
f 1 2 67
f 2 4 67
f 57 3 76
f 68 57 76
f 70 77 78
f 69 77 70
f 70 78 79
f 70 79 71
f 72 79 80
f 71 79 72
f 73 72 80
f 73 80 81
f 74 81 6
f 73 81 74
f 6 7 74
f 74 7 75
f 7 1 75
f 76 5 12
f 114 12 82
f 83 77 84
f 78 83 85
f 77 83 78
f 79 78 86
f 78 85 86
f 80 86 21
f 79 86 80
f 21 81 80
f 21 13 81
f 13 6 81
f 12 19 87
f 12 87 82
f 88 83 84
f 85 88 91
f 83 88 85
f 30 86 85
f 30 20 21
f 30 21 86
f 90 87 19
f 90 19 28
f 91 39 30
f 30 85 91
f 20 92 91
f 30 20 91
f 20 30 92
f 92 30 91
f 41 96 97
f 97 96 98
f 96 89 98
f 98 90 37
f 98 89 90
f 28 37 90
f 29 30 38
f 30 39 38
f 91 92 39
f 39 92 40
f 94 40 93
f 41 40 94
f 40 92 93
f 41 94 95
f 41 95 96
f 43 41 97
f 43 97 44
f 98 44 97
f 41 43 42
f 37 44 98
f 102 100 45
f 101 100 102
f 45 46 102
f 102 46 47
f 102 47 104
f 58 47 48
f 103 102 104
f 106 105 49
f 106 50 99
f 49 50 106
f 51 45 50
f 100 99 50
f 50 45 100
f 47 58 104
f 58 107 104
f 107 58 110
f 110 58 59
f 60 49 109
f 109 49 105
f 107 110 108
f 68 112 110
f 69 109 111
f 69 60 109
f 76 114 68
f 68 110 59
f 69 111 113
f 69 113 77
f 143 68 114
f 12 114 76
f 77 113 84
f 117 113 115
f 116 156 82
f 116 82 87
f 113 117 84
f 117 118 84
f 84 118 88
f 96 124 89
f 116 87 89
f 124 116 89
f 87 90 89
f 93 88 118
f 120 118 119
f 92 91 88
f 120 93 118
f 93 92 88
f 121 122 119
f 94 93 120
f 123 94 120
f 122 123 120
f 124 96 95
f 123 95 94
f 123 154 95
f 100 101 99
f 131 125 126
f 125 99 101
f 127 101 128
f 103 101 102
f 127 125 101
f 132 128 103
f 128 101 103
f 104 107 103
f 131 105 106
f 130 105 131
f 131 106 99
f 131 99 125
f 132 129 128
f 132 107 133
f 132 103 107
f 133 107 108
f 109 105 135
f 130 134 135
f 130 135 105
f 108 138 133
f 108 110 112
f 111 135 137
f 135 111 109
f 140 108 112
f 136 133 138
f 115 111 139
f 111 137 139
f 68 143 112
f 140 138 108
f 145 138 140
f 142 150 139
f 113 111 115
f 82 143 114
f 140 112 144
f 144 112 143
f 140 144 158
f 138 145 141
f 146 141 145
f 147 141 146
f 148 147 146
f 150 115 139
f 150 151 115
f 117 115 151
f 117 151 119
f 153 151 152
f 118 117 119
f 151 153 121
f 119 151 121
f 120 119 122
f 95 154 124
f 116 124 155
f 155 124 154
f 116 155 156
f 82 156 143
f 144 156 157
f 143 156 144
f 144 157 158
f 140 158 145
f 145 158 159
f 145 159 146
f 146 159 160
f 146 160 148
f 149 160 161
f 148 160 149
f 162 163 161
f 163 149 161
f 164 163 162
f 166 153 165
f 168 122 166
f 166 121 153
f 122 121 166
f 166 167 168
f 154 123 168
f 123 122 168
f 154 168 169
f 154 169 170
f 155 154 170
f 155 170 157
f 157 170 171
f 156 155 157
f 157 171 172
f 157 172 158
f 159 172 173
f 158 172 159
f 159 173 174
f 159 174 160
f 161 174 175
f 160 174 161
f 162 175 176
f 161 175 162
f 162 176 177
f 162 177 164
f 178 164 177
f 180 167 179
f 168 167 169
f 167 180 169
f 169 180 181
f 169 181 170
f 171 181 182
f 170 181 171
f 171 182 183
f 171 183 172
f 173 183 184
f 172 183 173
f 173 184 185
f 173 185 174
f 175 185 186
f 174 185 175
f 176 186 187
f 175 186 176
f 176 187 188
f 176 188 177
f 177 188 189
f 177 189 178
f 190 178 189
f 179 191 180
f 180 192 181
f 191 192 180
f 181 192 193
f 181 193 182
f 182 193 194
f 182 194 183
f 184 194 195
f 183 194 184
f 184 195 196
f 184 196 185
f 186 196 197
f 185 196 186
f 187 197 198
f 186 197 187
f 188 187 199
f 187 198 199
f 188 199 200
f 188 200 189
f 190 189 201
f 189 200 201
f 193 192 202
f 193 203 194
f 202 203 193
f 195 203 204
f 194 203 195
f 195 204 205
f 195 205 196
f 197 205 206
f 196 205 197
f 198 206 207
f 197 206 198
f 199 207 208
f 198 207 199
f 201 208 209
f 199 208 200
f 208 201 200
f 204 203 210
f 205 204 211
f 211 204 210
f 206 205 211
f 212 206 211
f 207 212 213
f 207 206 212
f 209 213 214
f 208 207 213
f 209 208 213
f 219 218 220
f 221 357 219
f 225 224 226
f 228 225 226
f 227 228 226
f 215 225 228
f 215 228 217
f 217 228 229
f 216 215 217
f 218 229 230
f 217 229 218
f 220 230 231
f 218 230 220
f 221 220 232
f 220 231 232
f 221 232 222
f 222 232 233
f 234 235 223
f 224 235 236
f 223 235 224
f 226 236 237
f 224 236 226
f 227 237 238
f 226 237 227
f 227 238 239
f 227 239 228
f 229 239 240
f 228 239 229
f 230 240 241
f 229 240 230
f 231 241 242
f 230 241 231
f 232 242 243
f 231 242 232
f 232 243 233
f 233 243 244
f 246 245 247
f 248 247 249
f 248 246 247
f 251 249 250
f 234 248 249
f 251 234 249
f 235 234 251
f 236 251 252
f 235 251 236
f 237 252 253
f 236 252 237
f 238 253 254
f 237 253 238
f 239 238 255
f 238 254 255
f 240 255 256
f 239 255 240
f 258 256 257
f 240 256 241
f 241 256 258
f 241 258 242
f 258 259 242
f 259 243 242
f 244 243 259
f 261 397 262
f 263 398 262
f 245 399 264
f 245 265 266
f 245 266 247
f 268 266 267
f 247 266 249
f 250 266 268
f 249 266 250
f 251 250 269
f 250 268 269
f 252 269 270
f 251 269 252
f 253 270 271
f 252 270 253
f 273 271 272
f 253 271 254
f 254 271 273
f 254 273 274
f 255 254 274
f 255 274 256
f 257 274 290
f 256 274 257
f 275 276 257
f 257 276 258
f 259 258 276
f 262 260 278
f 260 277 278
f 263 278 279
f 262 278 263
f 264 263 280
f 263 279 280
f 265 280 281
f 264 280 265
f 267 281 282
f 265 281 267
f 267 282 283
f 266 265 267
f 268 283 284
f 267 283 268
f 269 284 285
f 268 284 269
f 287 285 286
f 269 285 270
f 270 285 287
f 270 287 271
f 272 287 288
f 271 287 272
f 288 289 272
f 289 290 272
f 274 273 290
f 290 273 272
f 275 257 290
f 278 277 291
f 279 291 292
f 279 278 291
f 280 279 293
f 293 279 292
f 280 293 281
f 293 294 281
f 282 294 295
f 281 294 282
f 283 282 296
f 282 295 296
f 284 283 297
f 283 296 297
f 297 285 284
f 298 299 297
f 286 297 299
f 286 285 297
f 288 286 300
f 300 286 299
f 288 287 286
f 302 306 127
f 129 127 128
f 302 301 306
f 129 308 302
f 304 303 130
f 304 130 131
f 304 131 126
f 304 126 305
f 126 125 127
f 305 126 306
f 126 127 306
f 302 127 129
f 307 302 308
f 309 129 132
f 133 309 132
f 129 309 308
f 134 310 312
f 134 303 310
f 130 303 134
f 309 133 136
f 309 136 311
f 137 135 134
f 312 137 134
f 141 136 138
f 136 141 313
f 137 312 139
f 312 315 142
f 313 311 136
f 313 147 316
f 313 141 147
f 316 314 313
f 312 142 139
f 320 315 318
f 147 148 316
f 317 316 148
f 149 319 148
f 148 319 317
f 320 152 142
f 315 320 142
f 152 320 321
f 150 142 152
f 150 152 151
f 319 149 163
f 323 163 164
f 322 319 163
f 322 163 323
f 321 324 326
f 153 152 325
f 325 152 321
f 325 165 153
f 325 326 328
f 325 328 165
f 164 178 323
f 178 327 323
f 179 165 328
f 165 167 166
f 328 329 179
f 165 179 167
f 178 190 327
f 327 190 330
f 329 331 191
f 191 179 329
f 332 330 190
f 332 190 201
f 191 331 333
f 334 192 191
f 333 334 191
f 334 202 192
f 335 332 209
f 332 201 209
f 336 333 337
f 336 334 333
f 334 336 338
f 334 338 202
f 339 202 338
f 203 202 339
f 339 210 203
f 214 340 335
f 209 214 335
f 343 341 342
f 336 341 343
f 337 341 336
f 338 343 344
f 336 343 338
f 339 344 345
f 338 344 339
f 210 345 346
f 339 345 210
f 211 346 347
f 210 346 211
f 212 347 348
f 211 347 212
f 214 348 349
f 212 348 213
f 340 349 350
f 213 348 214
f 214 349 340
f 354 353 355
f 342 354 356
f 356 354 355
f 219 342 356
f 341 354 342
f 343 342 357
f 357 342 219
f 344 357 358
f 343 357 344
f 345 344 359
f 344 358 359
f 346 359 360
f 345 359 346
f 347 360 361
f 346 360 347
f 363 361 362
f 347 361 348
f 349 361 363
f 348 361 349
f 363 350 349
f 364 350 363
f 367 366 368
f 351 368 225
f 351 367 368
f 225 215 351
f 351 215 216
f 352 216 353
f 351 216 352
f 353 216 355
f 216 217 355
f 355 218 356
f 217 218 355
f 218 219 356
f 219 220 221
f 357 221 358
f 221 222 358
f 359 358 369
f 358 222 369
f 360 359 369
f 360 369 370
f 361 360 371
f 360 370 371
f 362 371 381
f 361 371 362
f 364 372 373
f 362 372 364
f 363 362 364
f 376 375 377
f 365 376 378
f 378 376 377
f 366 365 223
f 365 378 223
f 223 368 366
f 223 224 368
f 224 225 368
f 369 222 379
f 222 233 379
f 370 379 380
f 369 379 370
f 371 370 381
f 370 380 381
f 372 381 382
f 362 381 372
f 382 373 372
f 385 384 386
f 387 385 388
f 388 385 386
f 374 388 389
f 374 387 388
f 374 389 246
f 374 246 377
f 377 246 248
f 375 374 377
f 378 248 234
f 377 248 378
f 234 223 378
f 379 233 390
f 233 244 390
f 380 390 391
f 379 390 380
f 381 391 392
f 380 391 381
f 392 382 381
f 395 394 393
f 384 396 397
f 383 395 396
f 384 397 261
f 383 396 384
f 399 261 398
f 384 261 386
f 386 261 399
f 386 399 389
f 386 389 388
f 399 245 389
f 245 246 389
f 244 259 400
f 390 244 401
f 244 400 401
f 391 401 402
f 390 401 391
f 402 392 391
f 406 404 417
f 407 405 406
f 408 407 406
f 393 408 409
f 393 407 408
f 395 409 410
f 393 409 395
f 397 410 411
f 395 410 396
f 410 397 396
f 411 260 397
f 260 262 397
f 261 262 398
f 398 263 264
f 398 264 399
f 264 265 245
f 259 276 412
f 400 412 413
f 259 412 400
f 413 401 400
f 414 401 413
f 402 401 414
f 404 415 417
f 417 415 416
f 403 609 415
f 419 417 418
f 405 404 406
f 406 417 419
f 406 419 408
f 409 408 420
f 408 419 420
f 409 420 421
f 409 421 410
f 411 421 422
f 410 421 411
f 260 422 277
f 411 422 260
f 290 437 275
f 276 275 424
f 424 275 423
f 424 412 276
f 424 425 412
f 413 412 425
f 416 415 426
f 416 426 427
f 416 427 428
f 416 428 418
f 418 428 429
f 417 416 418
f 419 418 430
f 418 429 430
f 432 430 431
f 419 430 420
f 420 430 432
f 420 432 421
f 422 432 433
f 421 432 422
f 434 277 433
f 433 277 422
f 434 291 277
f 300 435 288
f 289 288 435
f 436 289 435
f 436 437 289
f 289 437 290
f 423 275 437
f 427 438 439
f 426 438 427
f 428 427 440
f 427 439 440
f 429 428 440
f 429 440 441
f 431 429 442
f 429 441 442
f 444 442 443
f 430 429 431
f 431 442 444
f 431 444 433
f 433 444 445
f 432 431 433
f 434 445 446
f 433 445 434
f 434 446 447
f 434 447 291
f 292 447 448
f 291 447 292
f 293 292 449
f 292 448 449
f 450 294 449
f 294 293 449
f 294 450 295
f 450 451 295
f 295 452 296
f 451 452 295
f 296 452 298
f 452 453 298
f 298 453 454
f 298 297 296
f 298 454 455
f 298 455 299
f 455 456 300
f 299 455 300
f 435 300 456
f 459 457 458
f 438 457 439
f 439 457 459
f 439 459 440
f 440 459 460
f 440 460 441
f 441 460 461
f 441 461 442
f 463 461 462
f 442 461 443
f 443 461 463
f 443 463 464
f 445 443 464
f 444 443 445
f 446 445 464
f 446 464 465
f 446 465 466
f 446 466 447
f 468 466 467
f 447 466 448
f 448 466 468
f 448 468 469
f 449 448 469
f 449 469 450
f 451 469 470
f 450 469 451
f 451 470 471
f 451 471 452
f 471 453 452
f 472 453 471
f 454 453 472
f 474 459 473
f 475 476 474
f 474 460 459
f 462 461 460
f 474 462 460
f 477 462 476
f 476 462 474
f 478 463 477
f 477 463 462
f 464 463 478
f 464 478 465
f 465 478 479
f 465 479 467
f 467 479 480
f 466 465 467
f 467 480 481
f 467 481 468
f 481 482 468
f 482 469 468
f 470 469 482
f 483 470 482
f 471 470 483
f 303 304 484
f 485 484 305
f 305 484 304
f 301 485 305
f 301 305 306
f 487 485 301
f 486 485 487
f 307 301 302
f 487 301 489
f 489 301 307
f 488 487 489
f 493 307 308
f 489 307 490
f 493 308 309
f 491 310 303
f 484 492 491
f 303 484 491
f 484 485 492
f 307 493 490
f 311 493 309
f 494 493 311
f 310 495 315
f 491 495 310
f 491 496 495
f 491 492 496
f 497 494 314
f 494 311 313
f 314 494 313
f 318 495 498
f 315 312 310
f 498 495 496
f 314 499 497
f 316 317 500
f 500 499 314
f 316 500 314
f 501 318 498
f 318 315 495
f 500 317 502
f 503 317 319
f 502 317 503
f 318 501 321
f 318 321 320
f 501 504 324
f 319 322 503
f 322 505 503
f 323 508 322
f 324 504 506
f 321 501 324
f 506 507 324
f 324 507 509
f 321 326 325
f 323 327 508
f 505 322 508
f 326 324 509
f 509 510 326
f 328 510 329
f 326 510 328
f 330 508 327
f 511 508 330
f 514 510 512
f 329 510 514
f 330 513 511
f 330 332 513
f 514 331 329
f 514 517 331
f 515 517 514
f 513 335 516
f 513 332 335
f 331 517 333
f 333 517 337
f 335 340 516
f 340 520 516
f 337 522 341
f 519 337 517
f 520 340 350
f 518 516 520
f 521 353 354
f 521 341 522
f 354 341 521
f 337 519 522
f 519 718 523
f 524 350 364
f 350 524 520
f 525 366 367
f 525 367 526
f 367 351 526
f 526 351 352
f 526 352 527
f 528 352 353
f 527 352 528
f 528 353 521
f 528 521 529
f 530 521 522
f 529 521 530
f 522 523 530
f 523 531 530
f 373 532 533
f 373 533 364
f 364 533 524
f 534 375 376
f 535 376 365
f 535 534 376
f 535 365 536
f 365 366 536
f 536 366 525
f 536 525 537
f 538 525 526
f 537 525 538
f 538 526 527
f 538 527 539
f 540 527 528
f 539 527 540
f 540 528 529
f 542 529 530
f 541 540 529
f 541 529 542
f 545 542 531
f 542 530 531
f 542 545 544
f 543 542 544
f 544 546 547
f 545 546 544
f 547 546 549
f 546 548 549
f 549 550 551
f 548 550 549
f 551 552 532
f 550 552 551
f 553 532 373
f 551 532 553
f 553 373 382
f 385 383 384
f 555 554 385
f 385 554 383
f 557 555 387
f 387 555 385
f 555 557 556
f 387 374 375
f 559 375 534
f 387 375 557
f 559 558 557
f 375 559 557
f 560 534 535
f 559 534 560
f 561 535 536
f 560 535 561
f 561 536 537
f 561 537 562
f 563 537 538
f 562 537 563
f 564 563 539
f 563 538 539
f 565 539 540
f 564 539 565
f 565 540 541
f 565 541 566
f 543 541 542
f 566 541 543
f 569 567 543
f 567 566 543
f 569 543 544
f 568 567 569
f 569 544 547
f 569 547 570
f 571 547 549
f 570 547 571
f 571 549 551
f 571 551 553
f 572 571 553
f 572 553 392
f 382 392 553
f 575 574 573
f 575 407 576
f 407 393 576
f 576 393 394
f 576 394 578
f 579 394 395
f 577 576 578
f 394 579 578
f 395 383 579
f 383 554 579
f 581 580 560
f 560 580 559
f 582 560 561
f 581 560 582
f 582 561 562
f 582 562 583
f 584 562 563
f 583 562 584
f 584 563 564
f 584 564 585
f 586 564 565
f 585 564 586
f 587 586 566
f 586 565 566
f 587 566 567
f 587 567 588
f 589 588 568
f 588 567 568
f 590 568 569
f 589 568 590
f 590 569 570
f 590 570 592
f 572 570 571
f 591 590 592
f 592 570 572
f 592 572 402
f 392 402 572
f 595 594 593
f 403 573 595
f 403 404 573
f 573 404 405
f 573 405 575
f 405 407 575
f 597 596 749
f 597 581 598
f 597 580 581
f 599 581 582
f 598 581 599
f 599 582 583
f 599 583 600
f 601 583 584
f 600 583 601
f 601 584 585
f 601 585 602
f 603 585 586
f 602 585 603
f 603 586 587
f 603 587 604
f 604 587 588
f 604 588 605
f 606 605 589
f 605 588 589
f 607 589 590
f 606 589 607
f 607 590 591
f 607 591 413
f 592 414 591
f 414 413 591
f 402 414 592
f 593 608 609
f 404 403 415
f 593 609 403
f 593 403 595
f 611 610 596
f 611 596 612
f 612 596 597
f 612 597 598
f 612 598 613
f 614 598 599
f 613 598 614
f 614 599 600
f 614 600 615
f 616 600 601
f 615 600 616
f 616 601 602
f 616 602 617
f 618 602 603
f 617 602 618
f 619 618 604
f 618 603 604
f 619 604 605
f 619 605 423
f 424 423 606
f 423 605 606
f 607 425 606
f 425 424 606
f 413 425 607
f 620 608 766
f 609 620 622
f 608 620 609
f 622 415 609
f 426 415 622
f 624 623 772
f 624 611 625
f 624 610 611
f 626 611 612
f 625 611 626
f 626 612 613
f 626 613 627
f 628 613 614
f 627 613 628
f 628 614 615
f 628 615 629
f 630 629 615
f 630 615 616
f 630 616 617
f 630 617 435
f 436 435 617
f 436 617 618
f 619 437 436
f 619 436 618
f 423 437 619
f 631 620 632
f 632 620 621
f 622 631 633
f 620 631 622
f 426 633 438
f 622 633 426
f 635 634 623
f 635 623 636
f 636 623 624
f 636 624 625
f 636 625 637
f 638 625 626
f 637 625 638
f 638 626 627
f 471 627 453
f 453 627 628
f 453 628 454
f 454 628 629
f 454 629 455
f 630 456 629
f 456 455 629
f 435 456 630
f 639 632 640
f 639 631 632
f 633 631 641
f 631 639 641
f 438 633 641
f 438 641 457
f 642 635 643
f 642 634 635
f 643 635 636
f 643 636 644
f 644 636 637
f 470 483 637
f 470 637 638
f 470 638 471
f 627 471 638
f 472 471 453
f 454 472 453
f 639 645 646
f 641 646 647
f 640 645 639
f 646 641 639
f 647 457 641
f 457 647 458
f 647 648 458
f 458 649 473
f 648 649 458
f 458 473 459
f 650 642 480
f 480 642 643
f 480 643 481
f 644 481 643
f 482 481 644
f 637 483 644
f 483 482 644
f 471 483 470
f 652 646 645
f 648 647 646
f 652 648 646
f 649 648 653
f 653 648 652
f 655 649 654
f 654 649 653
f 475 473 655
f 655 473 649
f 475 474 473
f 656 475 655
f 476 475 657
f 657 475 656
f 477 476 658
f 658 476 657
f 650 658 659
f 477 658 478
f 658 650 478
f 650 479 478
f 480 479 650
f 660 492 485
f 660 486 661
f 485 486 660
f 487 488 486
f 663 661 486
f 662 661 663
f 486 488 663
f 664 488 665
f 665 489 490
f 665 488 489
f 488 664 663
f 490 666 665
f 490 493 494
f 494 666 490
f 496 492 667
f 660 667 492
f 660 668 667
f 660 661 668
f 665 666 669
f 669 666 670
f 666 494 497
f 497 670 666
f 496 671 498
f 667 671 496
f 667 672 671
f 667 668 672
f 499 673 497
f 670 497 673
f 671 504 498
f 671 674 504
f 675 674 672
f 674 671 672
f 677 673 499
f 673 677 676
f 500 678 499
f 678 500 502
f 678 677 499
f 502 683 682
f 498 504 501
f 679 674 675
f 506 674 679
f 681 676 677
f 680 676 681
f 681 677 678
f 686 681 682
f 682 678 502
f 683 502 503
f 683 503 505
f 504 674 506
f 689 679 684
f 681 685 680
f 682 681 678
f 685 681 686
f 687 682 683
f 686 682 687
f 683 688 687
f 505 688 683
f 508 688 505
f 689 506 679
f 689 690 507
f 506 689 507
f 507 690 697
f 507 697 509
f 832 685 691
f 693 685 686
f 691 685 693
f 693 686 687
f 693 687 694
f 694 687 688
f 694 688 695
f 688 511 695
f 508 511 688
f 697 512 509
f 512 510 509
f 697 690 696
f 698 512 697
f 702 840 703
f 703 692 704
f 704 692 691
f 705 691 693
f 704 691 705
f 706 693 694
f 705 693 706
f 707 694 695
f 706 694 707
f 708 695 511
f 707 695 708
f 708 511 513
f 512 698 515
f 700 709 699
f 515 514 512
f 709 698 699
f 515 698 709
f 710 700 701
f 709 700 710
f 711 701 702
f 719 701 711
f 703 711 702
f 712 711 703
f 713 712 704
f 712 703 704
f 714 713 705
f 713 704 705
f 715 714 705
f 715 705 706
f 715 706 707
f 715 707 716
f 717 716 708
f 716 707 708
f 717 708 513
f 516 717 513
f 718 515 709
f 519 517 515
f 719 726 710
f 718 709 710
f 720 719 711
f 719 710 701
f 720 711 712
f 720 712 721
f 722 721 713
f 721 712 713
f 723 722 714
f 722 713 714
f 724 723 715
f 723 714 715
f 724 715 716
f 724 716 725
f 725 716 717
f 725 717 518
f 518 717 516
f 515 718 519
f 718 726 523
f 726 718 710
f 726 719 727
f 727 719 720
f 727 720 728
f 728 720 721
f 728 721 729
f 729 721 722
f 729 722 730
f 731 730 723
f 730 722 723
f 732 723 724
f 731 723 732
f 732 724 725
f 732 725 733
f 518 733 725
f 518 520 733
f 523 726 734
f 522 519 523
f 734 726 727
f 734 727 735
f 736 735 727
f 736 727 728
f 736 728 729
f 736 729 737
f 738 729 730
f 737 729 738
f 738 730 731
f 738 731 739
f 740 731 732
f 739 731 740
f 733 740 732
f 524 740 733
f 520 524 733
f 545 531 734
f 531 523 734
f 546 545 735
f 545 734 735
f 548 735 736
f 546 735 548
f 550 548 737
f 548 736 737
f 552 737 738
f 550 737 552
f 532 552 739
f 552 738 739
f 740 533 739
f 533 532 739
f 524 533 740
f 742 595 574
f 742 741 755
f 744 574 575
f 743 742 574
f 577 744 576
f 744 743 574
f 576 744 575
f 745 579 554
f 746 745 554
f 555 746 554
f 556 746 555
f 556 747 746
f 747 556 748
f 556 557 558
f 748 556 558
f 748 558 749
f 558 580 749
f 559 580 558
f 753 750 752
f 751 750 753
f 752 593 594
f 753 752 594
f 753 594 755
f 742 594 595
f 754 753 755
f 594 742 755
f 573 574 595
f 756 744 577
f 758 577 578
f 756 577 757
f 745 578 579
f 757 577 758
f 758 578 745
f 758 745 759
f 759 745 746
f 759 746 760
f 760 746 747
f 760 747 761
f 762 747 748
f 761 747 762
f 762 748 749
f 762 749 596
f 580 597 749
f 763 774 765
f 750 764 766
f 750 765 764
f 766 752 750
f 766 608 752
f 608 593 752
f 768 756 757
f 767 851 768
f 770 757 758
f 768 757 769
f 770 758 759
f 769 757 770
f 771 770 760
f 770 759 760
f 771 760 761
f 771 761 772
f 610 761 762
f 772 761 610
f 596 610 762
f 773 774 763
f 764 774 775
f 765 774 764
f 766 764 621
f 764 775 621
f 766 621 620
f 767 768 776
f 767 776 777
f 776 768 769
f 776 769 778
f 779 769 770
f 778 769 779
f 779 770 771
f 779 771 780
f 780 771 772
f 780 772 623
f 610 624 772
f 781 773 782
f 781 774 773
f 775 781 788
f 774 781 775
f 621 783 632
f 775 783 621
f 777 776 784
f 777 784 785
f 784 776 778
f 784 778 786
f 787 778 779
f 786 778 787
f 787 779 780
f 787 780 634
f 623 634 780
f 865 781 782
f 783 788 789
f 775 788 783
f 783 789 640
f 783 640 632
f 790 785 791
f 791 785 784
f 791 784 786
f 791 786 792
f 792 786 787
f 792 787 793
f 634 793 787
f 642 793 634
f 788 794 789
f 789 794 795
f 640 795 645
f 795 640 789
f 790 796 797
f 796 790 791
f 796 791 798
f 798 791 792
f 798 792 659
f 793 659 792
f 650 659 793
f 642 650 793
f 795 794 799
f 795 799 801
f 799 800 801
f 801 645 795
f 651 652 801
f 645 801 652
f 654 802 655
f 796 802 797
f 656 655 802
f 802 796 656
f 656 796 798
f 659 657 798
f 798 657 656
f 659 658 657
f 804 875 803
f 805 651 803
f 800 651 801
f 653 652 651
f 805 653 651
f 654 653 805
f 806 654 805
f 802 654 806
f 807 668 661
f 807 662 808
f 661 662 807
f 664 809 663
f 808 662 809
f 809 662 663
f 809 664 811
f 809 811 810
f 664 665 669
f 669 811 664
f 672 668 812
f 807 812 668
f 807 813 812
f 807 808 813
f 810 811 815
f 816 811 669
f 815 814 810
f 811 816 815
f 670 816 669
f 673 816 670
f 812 675 672
f 812 817 675
f 812 813 817
f 815 818 814
f 819 815 816
f 818 815 819
f 816 820 819
f 673 820 816
f 676 820 673
f 821 675 817
f 684 679 821
f 890 822 823
f 824 818 819
f 822 818 824
f 825 819 820
f 824 819 825
f 820 676 825
f 676 680 825
f 684 821 826
f 821 679 675
f 827 898 828
f 828 823 829
f 829 823 822
f 830 822 824
f 829 822 830
f 831 824 825
f 830 824 831
f 832 825 680
f 831 825 832
f 832 680 685
f 826 833 684
f 833 690 684
f 837 827 828
f 836 835 827
f 836 827 837
f 837 828 829
f 837 829 839
f 839 829 830
f 838 837 839
f 840 830 831
f 839 830 840
f 692 840 832
f 840 831 832
f 691 692 832
f 689 684 690
f 835 833 826
f 696 690 833
f 836 696 835
f 835 696 833
f 699 698 696
f 836 699 696
f 838 836 837
f 696 698 697
f 700 699 836
f 838 700 836
f 702 838 839
f 701 700 838
f 702 839 840
f 702 701 838
f 692 703 840
f 842 763 843
f 843 765 751
f 843 751 845
f 754 751 753
f 844 842 845
f 845 751 754
f 846 754 847
f 847 754 755
f 846 845 754
f 847 755 741
f 847 741 849
f 742 743 741
f 849 848 847
f 850 741 743
f 850 849 741
f 756 743 744
f 756 850 743
f 756 851 850
f 852 763 841
f 763 842 841
f 763 765 843
f 765 750 751
f 853 848 849
f 854 849 850
f 854 853 849
f 855 854 851
f 854 850 851
f 851 767 855
f 756 768 851
f 856 773 852
f 773 763 852
f 853 857 858
f 854 857 853
f 857 854 855
f 857 855 859
f 777 855 767
f 859 855 777
f 773 856 782
f 856 860 864
f 858 857 861
f 858 861 862
f 861 857 859
f 866 859 863
f 785 859 777
f 863 859 785
f 856 864 782
f 782 864 865
f 781 865 788
f 862 861 867
f 861 866 867
f 866 861 859
f 866 863 868
f 785 790 863
f 790 868 863
f 869 865 864
f 870 865 869
f 870 794 865
f 865 794 788
f 871 866 868
f 871 867 866
f 872 871 868
f 872 868 797
f 797 868 790
f 870 869 873
f 874 794 870
f 873 874 870
f 874 799 794
f 871 875 876
f 875 871 872
f 806 872 797
f 797 802 806
f 874 873 878
f 879 874 878
f 877 878 873
f 879 800 799
f 874 879 799
f 800 879 880
f 800 880 803
f 651 800 803
f 880 881 804
f 803 880 804
f 881 882 804
f 804 882 876
f 875 804 876
f 803 875 805
f 806 805 872
f 875 872 805
f 883 813 808
f 810 808 809
f 884 883 808
f 814 884 810
f 810 884 808
f 814 885 884
f 817 813 886
f 886 813 883
f 886 883 887
f 887 883 884
f 887 884 885
f 888 887 885
f 888 885 889
f 890 885 814
f 889 885 890
f 890 814 818
f 817 891 821
f 891 817 886
f 891 886 892
f 893 886 887
f 892 886 893
f 894 893 888
f 893 887 888
f 895 894 888
f 895 888 889
f 823 889 890
f 895 889 823
f 822 890 818
f 891 826 821
f 896 891 892
f 826 891 896
f 897 892 893
f 896 892 897
f 897 893 894
f 897 894 898
f 895 898 894
f 828 898 895
f 823 828 895
f 834 826 896
f 834 896 897
f 834 835 826
f 827 834 898
f 898 834 897
f 827 835 834
f 841 900 899
f 845 842 843
f 900 841 842
f 900 842 844
f 900 844 902
f 846 902 844
f 901 900 902
f 845 846 844
f 904 902 846
f 848 846 847
f 904 903 902
f 848 904 846
f 841 905 852
f 910 905 906
f 905 841 899
f 908 903 904
f 907 903 908
f 909 904 848
f 908 904 909
f 848 853 909
f 852 905 910
f 856 852 910
f 911 907 908
f 912 908 909
f 912 911 908
f 858 909 853
f 912 909 858
f 860 856 910
f 910 913 860
f 911 914 915
f 912 914 911
f 862 912 858
f 914 912 862
f 916 860 913
f 919 860 916
f 915 914 918
f 914 917 918
f 867 917 862
f 917 914 862
f 919 864 860
f 869 919 923
f 918 917 921
f 917 920 921
f 867 920 917
f 871 876 867
f 919 869 864
f 922 923 919
f 923 873 869
f 921 920 924
f 920 876 882
f 876 920 867
f 922 925 926
f 923 926 877
f 922 926 923
f 877 873 923
f 924 882 932
f 924 920 882
f 877 926 928
f 930 878 929
f 929 877 928
f 930 880 879
f 877 929 878
f 879 878 930
f 930 931 881
f 880 930 881
f 881 932 882
f 881 931 932
f 924 932 927
f 901 899 900
f 935 933 901
f 901 933 899
f 903 901 902
f 935 934 933
f 903 935 901
f 905 899 938
f 940 938 937
f 937 938 936
f 906 905 938
f 899 933 938
f 939 934 935
f 935 907 939
f 903 907 935
f 906 940 913
f 906 938 940
f 941 939 907
f 907 911 941
f 910 906 913
f 913 940 942
f 915 941 911
f 915 943 941
f 946 942 944
f 916 942 946
f 943 915 945
f 915 918 945
f 913 942 916
f 916 946 922
f 918 947 945
f 947 918 921
f 922 919 916
f 948 950 946
f 924 949 921
f 949 947 921
f 950 922 946
f 925 922 950
f 927 949 924
f 927 954 949
f 950 952 925
f 953 925 952
f 953 928 925
f 925 928 926
f 951 949 954
f 959 927 932
f 953 952 955
f 953 956 957
f 955 956 953
f 928 953 957
f 928 957 958
f 958 929 928
f 931 929 958
f 930 929 931
f 958 959 931
f 931 959 932
f 927 960 954
f 927 959 960
f 958 957 961
f 959 958 961
f 933 936 938
f 934 936 933
f 963 962 994
f 964 963 934
f 934 963 936
f 939 964 934
f 968 937 966
f 968 966 965
f 937 936 966
f 936 963 966
f 964 939 967
f 967 939 941
f 942 940 968
f 940 937 968
f 941 943 967
f 943 969 967
f 942 968 944
f 944 970 972
f 971 943 945
f 969 943 971
f 970 944 968
f 972 948 944
f 971 945 947
f 971 947 975
f 944 948 946
f 976 972 974
f 951 947 949
f 973 971 975
f 976 948 972
f 948 976 978
f 980 975 951
f 975 947 951
f 978 950 948
f 979 982 976
f 978 952 950
f 983 951 954
f 977 975 980
f 979 981 982
f 982 955 978
f 976 982 978
f 978 955 952
f 951 983 980
f 960 983 954
f 981 984 985
f 982 985 955
f 981 985 982
f 986 955 985
f 986 956 955
f 956 987 961
f 986 987 956
f 956 961 957
f 961 988 960
f 983 988 989
f 960 959 961
f 960 988 983
f 986 985 990
f 987 986 991
f 991 986 990
f 987 991 993
f 991 992 993
f 988 987 993
f 961 987 988
f 993 989 988
f 965 966 994
f 995 994 962
f 994 966 963
f 964 962 963
f 995 962 997
f 997 962 964
f 996 995 997
f 1000 964 967
f 997 964 1000
f 1002 965 999
f 965 994 999
f 997 1000 998
f 969 1000 967
f 1000 969 1001
f 970 968 965
f 999 1003 1002
f 970 965 1002
f 973 1004 969
f 971 973 969
f 1002 1005 970
f 972 1005 974
f 1006 1002 1003
f 1005 1002 1006
f 969 1004 1001
f 1004 973 1007
f 974 1005 1008
f 972 970 1005
f 1008 1005 1006
f 977 973 975
f 977 1007 973
f 979 974 1008
f 979 1008 1010
f 1009 977 1013
f 1007 977 1009
f 1010 1012 979
f 974 979 976
f 977 980 1013
f 1009 1013 1079
f 1014 1016 1012
f 1012 981 979
f 980 983 1017
f 980 1017 1013
f 1016 981 1012
f 984 981 1016
f 1017 983 989
f 1015 1017 1022
f 1013 1017 1015
f 984 1019 1020
f 1020 990 984
f 1016 1019 984
f 984 990 985
f 989 993 1021
f 1017 989 1022
f 1022 989 1021
f 1018 1015 1023
f 1015 1022 1023
f 1020 1024 1025
f 1020 1025 1027
f 1019 1024 1020
f 1028 1025 1026
f 990 1020 1027
f 1027 992 991
f 1025 1029 1027
f 992 1027 1029
f 991 990 1027
f 1030 992 1029
f 1021 993 992
f 1021 992 1030
f 1021 1030 1022
f 1023 1022 1031
f 1022 1030 1031
f 1028 1029 1025
f 1029 1033 1034
f 1032 1033 1028
f 1029 1028 1033
f 1029 1034 1030
f 1031 1034 1035
f 1030 1034 1031
f 1090 1035 1040
f 1032 1037 1038
f 1033 1038 1039
f 1032 1038 1033
f 1034 1033 1039
f 1034 1039 1035
f 1090 1040 1036
f 1035 1039 1040
f 1037 1041 1042
f 1038 1042 1043
f 1037 1042 1038
f 1043 1039 1038
f 1040 1039 1043
f 1041 1044 1042
f 1042 1045 1043
f 1044 1111 1042
f 999 994 995
f 1047 995 996
f 999 995 1047
f 1049 1048 996
f 1048 1047 996
f 998 996 997
f 1049 996 998
f 1051 1049 998
f 1050 1049 1051
f 998 1001 1052
f 998 1000 1001
f 998 1052 1051
f 1003 1047 1053
f 999 1047 1003
f 1054 1053 1048
f 1053 1047 1048
f 1050 1048 1049
f 1054 1048 1050
f 1055 1054 1050
f 1055 1050 1056
f 1051 1056 1050
f 1057 1056 1051
f 1057 1051 1052
f 1057 1052 1058
f 1052 1004 1058
f 1001 1004 1052
f 1059 1003 1053
f 1006 1003 1059
f 1060 1053 1054
f 1059 1053 1060
f 1055 1060 1054
f 1055 1061 1068
f 1061 1055 1062
f 1055 1056 1062
f 1062 1056 1063
f 1056 1057 1063
f 1063 1057 1064
f 1057 1058 1064
f 1007 1058 1004
f 1065 1064 1058
f 1065 1058 1007
f 1006 1066 1008
f 1066 1006 1059
f 1066 1059 1067
f 1060 1067 1059
f 1060 1068 1067
f 1060 1055 1068
f 1065 1009 1011
f 1065 1007 1009
f 1066 1010 1008
f 1066 1070 1010
f 1070 1066 1067
f 1070 1067 1071
f 1071 1067 1068
f 1069 1065 1011
f 1069 1011 1076
f 1014 1070 1074
f 1010 1070 1014
f 1071 1074 1070
f 1071 1075 1074
f 1009 1079 1011
f 1076 1072 1069
f 1077 1072 1076
f 1077 1073 1072
f 1078 1081 1074
f 1014 1012 1010
f 1078 1074 1075
f 1015 1079 1013
f 1079 1076 1011
f 1077 1076 1083
f 1076 1079 1018
f 1074 1081 1014
f 1016 1081 1019
f 1085 1078 1082
f 1018 1079 1015
f 1083 1076 1018
f 1080 1083 1087
f 1077 1083 1080
f 1016 1014 1081
f 1024 1019 1085
f 1085 1081 1078
f 1023 1086 1018
f 1086 1087 1018
f 1083 1018 1087
f 1080 1087 1084
f 1084 1087 1091
f 1081 1085 1019
f 1026 1024 1089
f 1024 1085 1089
f 1031 1090 1023
f 1090 1086 1023
f 1086 1090 1036
f 1086 1091 1087
f 1084 1091 1088
f 1088 1091 1095
f 1024 1026 1025
f 1089 1093 1026
f 1026 1094 1028
f 1093 1094 1026
f 1094 1032 1028
f 1035 1090 1031
f 1091 1036 1099
f 1086 1036 1091
f 1088 1095 1092
f 1092 1095 1096
f 1094 1093 1097
f 1094 1098 1032
f 1097 1098 1094
f 1037 1032 1098
f 1036 1040 1099
f 1091 1099 1095
f 1100 1095 1099
f 1096 1095 1100
f 1041 1098 1101
f 1098 1041 1037
f 1040 1102 1099
f 1040 1043 1102
f 1099 1102 1103
f 1099 1103 1100
f 1100 1103 1104
f 1105 1041 1101
f 1044 1041 1105
f 1045 1106 1043
f 1106 1102 1043
f 1103 1106 1113
f 1102 1106 1103
f 1108 1104 1107
f 1104 1103 1107
f 1109 1191 1108
f 1105 1110 1118
f 1118 1044 1105
f 1111 1045 1042
f 1106 1045 1112
f 1112 1045 1111
f 1106 1112 1113
f 1103 1113 1107
f 1107 1113 1121
f 1107 1114 1108
f 1115 1108 1114
f 1115 1109 1108
f 1044 1118 1111
f 1117 1118 1110
f 1111 1118 1119
f 1111 1119 1112
f 1112 1119 1120
f 1112 1120 1113
f 1113 1120 1121
f 1107 1121 1114
f 1114 1121 1122
f 1114 1122 1123
f 1123 1115 1114
f 1116 1115 1123
f 1131 1116 1123
f 1117 1125 1119
f 1118 1117 1119
f 1125 1126 1119
f 1128 1126 1127
f 1119 1126 1120
f 1120 1126 1128
f 1120 1128 1121
f 1121 1128 1129
f 1121 1129 1122
f 1122 1129 1135
f 1122 1130 1123
f 1116 1131 1124
f 1123 1130 1131
f 1125 1132 1133
f 1126 1133 1127
f 1125 1133 1126
f 1127 1133 1138
f 1127 1134 1128
f 1134 1129 1128
f 1134 1046 1129
f 1122 1135 1130
f 1129 1046 1135
f 1140 1130 1135
f 1131 1130 1136
f 1132 1137 1133
f 1127 1138 1134
f 1137 1138 1133
f 1139 1134 1138
f 1139 1046 1134
f 1135 1139 1140
f 1135 1046 1139
f 1130 1140 1141
f 1130 1141 1136
f 1136 1141 1146
f 1138 1143 1144
f 1139 1138 1144
f 1139 1144 1140
f 1140 1144 1145
f 1140 1145 1141
f 1146 1141 1145
f 1146 1142 1136
f 1143 1147 1144
f 1144 1147 1148
f 1144 1148 1145
f 1145 1148 1149
f 1145 1149 1146
f 1150 1146 1149
f 1147 1151 1148
f 1148 1151 1152
f 1148 1152 1149
f 1149 1152 1153
f 1149 1153 1150
f 1150 1153 1154
f 1151 1218 1152
f 1152 1155 1156
f 1152 1156 1153
f 1153 1156 1154
f 1162 1061 1157
f 1158 1157 1061
f 1158 1061 1062
f 1159 1062 1063
f 1158 1062 1159
f 1160 1063 1064
f 1159 1063 1160
f 1064 1161 1160
f 1064 1065 1069
f 1069 1161 1064
f 1068 1162 1071
f 1162 1068 1061
f 1169 1157 1163
f 1157 1164 1163
f 1158 1164 1157
f 1166 1171 1164
f 1159 1166 1158
f 1167 1159 1160
f 1166 1164 1158
f 1167 1160 1161
f 1166 1159 1167
f 1161 1168 1167
f 1069 1072 1161
f 1072 1168 1161
f 1075 1162 1169
f 1075 1071 1162
f 1157 1169 1162
f 1163 1170 1226
f 1165 1164 1171
f 1172 1166 1167
f 1172 1171 1166
f 1173 1172 1168
f 1172 1167 1168
f 1174 1168 1072
f 1173 1168 1174
f 1072 1077 1174
f 1073 1077 1072
f 1075 1175 1078
f 1175 1075 1169
f 1178 1175 1176
f 1176 1169 1163
f 1177 1173 1174
f 1080 1177 1077
f 1177 1174 1077
f 1175 1082 1078
f 1176 1175 1169
f 1082 1175 1178
f 1177 1080 1179
f 1179 1080 1084
f 1178 1180 1182
f 1082 1178 1182
f 1088 1179 1084
f 1088 1181 1179
f 1082 1089 1085
f 1082 1182 1089
f 1092 1181 1088
f 1181 1092 1183
f 1182 1093 1089
f 1093 1184 1097
f 1188 1092 1096
f 1183 1092 1185
f 1186 1183 1185
f 1093 1182 1184
f 1184 1187 1097
f 1101 1097 1190
f 1092 1188 1185
f 1096 1100 1104
f 1189 1185 1188
f 1189 1186 1185
f 1187 1190 1097
f 1097 1101 1098
f 1104 1191 1096
f 1188 1096 1191
f 1188 1191 1192
f 1189 1188 1192
f 1190 1193 1101
f 1101 1193 1105
f 1104 1108 1191
f 1194 1192 1109
f 1109 1192 1191
f 1195 1110 1193
f 1105 1193 1110
f 1109 1116 1196
f 1115 1116 1109
f 1196 1194 1109
f 1197 1110 1195
f 1197 1117 1110
f 1116 1124 1196
f 1196 1124 1198
f 1199 1117 1197
f 1199 1125 1117
f 1124 1202 1200
f 1202 1131 1136
f 1199 1201 1204
f 1199 1132 1125
f 1198 1124 1200
f 1124 1131 1202
f 1203 1200 1202
f 1199 1204 1132
f 1204 1207 1132
f 1142 1205 1202
f 1142 1202 1136
f 1203 1202 1205
f 1206 1203 1205
f 1132 1207 1137
f 1208 1143 1137
f 1207 1208 1137
f 1137 1143 1138
f 1142 1150 1210
f 1142 1146 1150
f 1210 1205 1142
f 1206 1205 1210
f 1207 1211 1208
f 1212 1143 1208
f 1211 1212 1208
f 1212 1147 1143
f 1209 1210 1150
f 1209 1216 1210
f 1209 1150 1154
f 1211 1214 1212
f 1215 1147 1212
f 1214 1215 1212
f 1215 1151 1147
f 1156 1209 1154
f 1216 1213 1210
f 1217 1215 1214
f 1218 1215 1217
f 1218 1151 1215
f 1218 1155 1152
f 1156 1216 1209
f 1155 1219 1216
f 1221 1217 1220
f 1219 1155 1221
f 1221 1218 1217
f 1218 1221 1155
f 1155 1216 1156
f 1164 1165 1170
f 1170 1165 1222
f 1165 1223 1222
f 1224 1170 1222
f 1170 1163 1164
f 1225 1165 1171
f 1225 1223 1165
f 1172 1230 1171
f 1163 1226 1176
f 1170 1227 1226
f 1224 1227 1170
f 1228 1225 1229
f 1225 1230 1236
f 1171 1230 1225
f 1231 1172 1173
f 1231 1230 1172
f 1177 1238 1173
f 1226 1232 1176
f 1176 1232 1178
f 1233 1226 1227
f 1232 1226 1233
f 1234 1227 1228
f 1233 1227 1234
f 1235 1228 1229
f 1234 1228 1235
f 1236 1229 1225
f 1242 1229 1236
f 1236 1230 1231
f 1236 1231 1237
f 1231 1238 1237
f 1173 1238 1231
f 1179 1245 1177
f 1180 1178 1232
f 1180 1232 1239
f 1233 1240 1239
f 1232 1233 1239
f 1241 1299 1235
f 1242 1235 1229
f 1248 1235 1242
f 1243 1236 1237
f 1242 1236 1243
f 1244 1237 1238
f 1250 1243 1244
f 1245 1238 1177
f 1244 1238 1245
f 1179 1181 1245
f 1246 1180 1239
f 1184 1180 1246
f 1247 1239 1240
f 1246 1239 1247
f 1248 1241 1235
f 1249 1242 1243
f 1248 1242 1249
f 1244 1243 1237
f 1249 1243 1250
f 1251 1244 1245
f 1250 1244 1251
f 1252 1245 1181
f 1251 1245 1252
f 1252 1181 1183
f 1182 1180 1184
f 1246 1253 1187
f 1247 1253 1246
f 1255 1248 1249
f 1254 1248 1255
f 1256 1249 1250
f 1255 1249 1256
f 1257 1250 1251
f 1256 1250 1257
f 1257 1251 1252
f 1257 1252 1183
f 1257 1183 1258
f 1183 1185 1258
f 1186 1185 1183
f 1184 1246 1187
f 1265 1253 1259
f 1260 1254 1255
f 1261 1255 1256
f 1261 1260 1255
f 1262 1256 1257
f 1261 1256 1262
f 1263 1262 1258
f 1262 1257 1258
f 1189 1258 1185
f 1263 1258 1264
f 1258 1189 1264
f 1186 1189 1185
f 1265 1190 1253
f 1253 1190 1187
f 1261 1266 1260
f 1267 1261 1262
f 1266 1261 1267
f 1263 1267 1262
f 1268 1267 1263
f 1269 1263 1264
f 1268 1263 1269
f 1192 1270 1189
f 1269 1264 1270
f 1270 1264 1189
f 1271 1193 1265
f 1265 1193 1190
f 1195 1271 1272
f 1274 1266 1267
f 1274 1273 1266
f 1274 1267 1268
f 1274 1268 1275
f 1269 1276 1268
f 1268 1276 1275
f 1277 1269 1270
f 1277 1276 1269
f 1270 1194 1280
f 1192 1194 1270
f 1271 1195 1193
f 1197 1195 1278
f 1279 1273 1274
f 1274 1275 1279
f 1280 1277 1270
f 1194 1196 1280
f 1278 1281 1201
f 1195 1272 1278
f 1198 1280 1196
f 1198 1282 1280
f 1278 1201 1197
f 1281 1283 1285
f 1284 1282 1198
f 1284 1198 1200
f 1199 1197 1201
f 1201 1281 1285
f 1200 1286 1284
f 1203 1286 1200
f 1285 1204 1201
f 1204 1285 1287
f 1286 1203 1288
f 1288 1203 1206
f 1287 1207 1204
f 1207 1287 1289
f 1206 1213 1288
f 1206 1210 1213
f 1289 1211 1207
f 1293 1289 1291
f 1290 1288 1213
f 1290 1213 1292
f 1293 1211 1289
f 1293 1214 1211
f 1294 1213 1216
f 1294 1292 1213
f 1293 1295 1214
f 1295 1217 1214
f 1221 1296 1294
f 1216 1219 1221
f 1217 1295 1220
f 1220 1295 1297
f 1297 1296 1220
f 1296 1221 1220
f 1294 1216 1221
f 1224 1222 1223
f 1224 1223 1298
f 1298 1223 1225
f 1228 1227 1224
f 1298 1228 1224
f 1225 1228 1298
f 1234 1240 1233
f 1234 1299 1240
f 1235 1299 1234
f 1300 1247 1240
f 1300 1240 1299
f 1299 1301 1300
f 1241 1301 1299
f 1248 1254 1241
f 1302 1259 1300
f 1259 1247 1300
f 1302 1300 1301
f 1302 1301 1303
f 1301 1254 1303
f 1241 1254 1301
f 1247 1259 1253
f 1304 1302 1303
f 1259 1302 1304
f 1305 1303 1254
f 1304 1303 1305
f 1254 1260 1305
f 1306 1259 1304
f 1265 1259 1306
f 1307 1304 1305
f 1306 1304 1307
f 1308 1305 1260
f 1307 1305 1308
f 1308 1260 1266
f 1265 1306 1271
f 1272 1271 1307
f 1307 1271 1306
f 1309 1307 1308
f 1272 1307 1309
f 1308 1273 1309
f 1266 1273 1308
f 1278 1272 1309
f 1310 1309 1273
f 1281 1309 1310
f 1273 1279 1310
f 1311 1279 1275
f 1311 1275 1276
f 1311 1276 1312
f 1276 1313 1312
f 1277 1313 1276
f 1280 1282 1277
f 1314 1283 1281
f 1281 1278 1309
f 1315 1314 1279
f 1314 1310 1279
f 1315 1279 1311
f 1315 1311 1316
f 1317 1311 1312
f 1316 1311 1317
f 1318 1312 1313
f 1317 1312 1318
f 1313 1282 1323
f 1277 1282 1313
f 1281 1310 1314
f 1319 1314 1315
f 1283 1314 1319
f 1319 1315 1316
f 1319 1316 1320
f 1321 1316 1317
f 1320 1316 1321
f 1322 1317 1318
f 1321 1317 1322
f 1323 1318 1313
f 1327 1318 1323
f 1282 1284 1323
f 1319 1320 1283
f 1324 1283 1320
f 1285 1283 1324
f 1326 1330 1321
f 1324 1320 1325
f 1326 1321 1322
f 1325 1320 1321
f 1327 1322 1318
f 1326 1322 1327
f 1328 1323 1284
f 1327 1323 1328
f 1328 1284 1286
f 1287 1285 1324
f 1329 1324 1325
f 1287 1324 1329
f 1330 1325 1321
f 1334 1325 1330
f 1331 1326 1327
f 1330 1326 1331
f 1332 1327 1328
f 1331 1327 1332
f 1328 1333 1332
f 1286 1333 1328
f 1288 1333 1286
f 1289 1287 1329
f 1334 1329 1325
f 1291 1329 1334
f 1335 1330 1331
f 1334 1330 1335
f 1336 1331 1332
f 1335 1331 1336
f 1337 1332 1333
f 1336 1332 1337
f 1290 1333 1288
f 1337 1333 1290
f 1291 1289 1329
f 1338 1334 1335
f 1291 1334 1338
f 1339 1335 1336
f 1338 1335 1339
f 1340 1336 1337
f 1339 1336 1340
f 1292 1337 1290
f 1340 1337 1292
f 1341 1293 1291
f 1341 1291 1338
f 1342 1338 1339
f 1341 1338 1342
f 1342 1339 1340
f 1342 1340 1343
f 1292 1343 1340
f 1292 1294 1343
f 1293 1341 1295
f 1297 1341 1342
f 1295 1341 1297
f 1343 1297 1342
f 1296 1297 1343
f 1294 1296 1343
