# OBJ written from E:\dropbox\Dropbox\Modo\20181112skullCase1-10\INLcase9.obj
# Units	meters

o Mesh (2)
v -0.0359269 -0.00155929 -0.0201043
v -0.0360154 -0.00144335 -0.0203616
v -0.0362329 -0.00135513 -0.0205414
v -0.0365213 -0.00131826 -0.0205956
v -0.0368032 -0.00134263 -0.0205096
v -0.0370031 -0.0014217 -0.0203066
v -0.0370675 -0.0015343 -0.0200408
v -0.036979 -0.00165024 -0.0197835
v -0.0367614 -0.00173847 -0.0196037
v -0.036473 -0.00177533 -0.0195495
v -0.0361911 -0.00175096 -0.0196355
v -0.0359912 -0.00167189 -0.0198386
v -0.0359423 -0.0026367 -0.0205712
v -0.0360251 -0.00253723 -0.0208164
v -0.0362286 -0.00247723 -0.0209949
v -0.0364984 -0.00247278 -0.0210588
v -0.0367621 -0.00252506 -0.020991
v -0.0369491 -0.00262008 -0.0208096
v -0.0370093 -0.00273236 -0.0205634
v -0.0369265 -0.00283183 -0.0203181
v -0.036723 -0.00289183 -0.0201397
v -0.0364532 -0.00289629 -0.0200758
v -0.0361895 -0.002844 -0.0201436
v -0.0360025 -0.00274899 -0.0203249
v -0.0358152 -0.00368513 -0.0210254
v -0.0358911 -0.00360104 -0.0212581
v -0.0360777 -0.00356657 -0.0214341
v -0.0363251 -0.00359097 -0.0215061
v -0.036567 -0.00366769 -0.021455
v -0.0367385 -0.00377617 -0.0212943
v -0.0367936 -0.00388736 -0.0210672
v -0.0367178 -0.00397145 -0.0208345
v -0.0365311 -0.00400591 -0.0206585
v -0.0362837 -0.00398152 -0.0205865
v -0.0360419 -0.0039048 -0.0206376
v -0.0358704 -0.00379631 -0.0207983
v -0.0354738 -0.0047188 -0.0214765
v -0.0355528 -0.00463709 -0.0217299
v -0.0357469 -0.00462101 -0.0219277
v -0.0360042 -0.00467488 -0.0220171
v -0.0362557 -0.00478425 -0.021974
v -0.0364341 -0.00491983 -0.02181
v -0.0364915 -0.00504528 -0.021569
v -0.0364126 -0.00512699 -0.0213157
v -0.0362184 -0.00514307 -0.0211178
v -0.0359611 -0.0050892 -0.0210285
v -0.0357096 -0.00497983 -0.0210716
v -0.0355312 -0.00484425 -0.0212356
v -0.0349876 -0.00577603 -0.0219379
v -0.0350688 -0.00569612 -0.0222116
v -0.0352685 -0.00569699 -0.0224307
v -0.0355332 -0.00577842 -0.0225365
v -0.035792 -0.00591859 -0.0225007
v -0.0359755 -0.00607994 -0.0223328
v -0.0360346 -0.00621924 -0.0220778
v -0.0359534 -0.00629915 -0.0218041
v -0.0357537 -0.00629828 -0.021585
v -0.0354889 -0.00621685 -0.0214792
v -0.0352302 -0.00607668 -0.021515
v -0.0350467 -0.00591533 -0.0216829
v -0.0343359 -0.00664045 -0.0223219
v -0.0344389 -0.00654203 -0.0226825
v -0.0346923 -0.00655818 -0.0229757
v -0.0350281 -0.00668459 -0.0231227
v -0.0353564 -0.00688739 -0.0230843
v -0.0355892 -0.00711222 -0.0228707
v -0.0356641 -0.00729886 -0.0225391
v -0.0355611 -0.00739729 -0.0221784
v -0.0353077 -0.00738113 -0.0218853
v -0.0349719 -0.00725472 -0.0217383
v -0.0346436 -0.00705193 -0.0217767
v -0.0344108 -0.00682709 -0.0219903
v -0.0346544 -0.00565975 -0.0219036
v -0.0347857 -0.00553068 -0.0223464
v -0.0351085 -0.00553258 -0.0227011
v -0.0355364 -0.00566494 -0.0228725
v -0.0359546 -0.00589229 -0.0228148
v -0.0362512 -0.00615372 -0.0225434
v -0.0363467 -0.00637917 -0.022131
v -0.0362154 -0.00650824 -0.0216882
v -0.0358926 -0.00650634 -0.0213336
v -0.0354648 -0.00637398 -0.0211622
v -0.0350465 -0.00614663 -0.0212199
v -0.0347499 -0.0058852 -0.0214913
v -0.0353231 -0.00359671 -0.02101
v -0.0354748 -0.00342875 -0.0214755
v -0.035848 -0.00336036 -0.0218277
v -0.0363426 -0.00340987 -0.0219721
v -0.0368261 -0.003564 -0.0218701
v -0.037169 -0.00378147 -0.021549
v -0.0372794 -0.004004 -0.0210949
v -0.0371276 -0.00417196 -0.0206294
v -0.0367545 -0.00424035 -0.0202772
v -0.0362598 -0.00419084 -0.0201328
v -0.0357763 -0.00403671 -0.0202348
v -0.0354335 -0.00381924 -0.0205558
v -0.0355723 -0.0015672 -0.0201241
v -0.0357158 -0.00137916 -0.0205414
v -0.0360686 -0.00123608 -0.020833
v -0.0365363 -0.0011763 -0.0209209
v -0.0369935 -0.00121583 -0.0207815
v -0.0373177 -0.00134408 -0.0204522
v -0.0374221 -0.00152669 -0.0200211
v -0.0372786 -0.00171472 -0.0196039
v -0.0369257 -0.0018578 -0.0193122
v -0.036458 -0.00191759 -0.0192244
v -0.0360008 -0.00187806 -0.0193638
v -0.0356766 -0.00174981 -0.0196931
v -0.0356582 -0.000628708 -0.0197079
v -0.0357733 -0.000467056 -0.020041
v -0.0360563 -0.000327693 -0.0202665
v -0.0364314 -0.000247959 -0.0203239
v -0.0367981 -0.000249221 -0.0201978
v -0.0370581 -0.000331139 -0.0199221
v -0.0371418 -0.000471764 -0.0195706
v -0.0370267 -0.000633416 -0.0192375
v -0.0367437 -0.00077278 -0.019012
v -0.0363686 -0.000852513 -0.0189546
v -0.0360019 -0.000851251 -0.0190807
v -0.0357419 -0.000769333 -0.0193564
v -0.0325743 0.0056975 -0.016949
v -0.0326484 0.00585444 -0.0171884
v -0.0328307 0.00604348 -0.0173244
v -0.0330723 0.00621396 -0.0173205
v -0.0333085 0.00632022 -0.0171777
v -0.033476 0.00633378 -0.0169344
v -0.0335299 0.00625099 -0.0166557
v -0.0334557 0.00609406 -0.0164162
v -0.0332735 0.00590502 -0.0162802
v -0.0330319 0.00573453 -0.0162841
v -0.0327957 0.00562827 -0.0164269
v -0.0326282 0.00561472 -0.0166703
v -0.033569 0.00431991 -0.0175463
v -0.0336399 0.00446507 -0.0177717
v -0.0338141 0.00463744 -0.0179013
v -0.0340451 0.00479083 -0.0179005
v -0.0342709 0.00488414 -0.0177694
v -0.034431 0.00489237 -0.0175431
v -0.0344825 0.00481331 -0.0172824
v -0.0344117 0.00466815 -0.0170571
v -0.0342374 0.00449578 -0.0169274
v -0.0340065 0.00434239 -0.0169283
v -0.0337807 0.00424908 -0.0170594
v -0.0336205 0.00424085 -0.0172856
v -0.0344601 0.0029691 -0.018132
v -0.0345283 0.00310128 -0.0183439
v -0.0346961 0.00325401 -0.0184684
v -0.0349185 0.00338636 -0.0184723
v -0.0351359 0.00346288 -0.0183545
v -0.0352901 0.00346306 -0.0181466
v -0.0353397 0.00338685 -0.0179043
v -0.0352715 0.00325467 -0.0176925
v -0.0351037 0.00310194 -0.017568
v -0.0348813 0.00296958 -0.0175641
v -0.0346639 0.00289307 -0.0176818
v -0.0345097 0.00289289 -0.0178897
v -0.0351342 0.00163225 -0.018715
v -0.0352104 0.00176825 -0.0189447
v -0.0353979 0.00191786 -0.0190845
v -0.0356465 0.00204099 -0.0190969
v -0.0358895 0.00210463 -0.0189786
v -0.0360618 0.00209175 -0.0187613
v -0.0361172 0.00200579 -0.0185031
v -0.036041 0.00186978 -0.0182734
v -0.0358534 0.00172017 -0.0181336
v -0.0356049 0.00159704 -0.0181212
v -0.0353619 0.0015334 -0.0182395
v -0.0351896 0.00154628 -0.0184569
v -0.0356014 0.000369104 -0.0192659
v -0.0356867 0.000504658 -0.0195154
v -0.0358963 0.000640613 -0.019675
v -0.0361741 0.000740539 -0.019702
v -0.0364457 0.000777661 -0.0195891
v -0.0366383 0.000742033 -0.0193665
v -0.0367003 0.0006432 -0.0190939
v -0.0366151 0.000507646 -0.0188444
v -0.0364055 0.000371691 -0.0186848
v -0.0361276 0.000271765 -0.0186578
v -0.035856 0.000234643 -0.0187708
v -0.0356634 0.000270271 -0.0189933
v -0.0356581 -0.000628717 -0.0197079
v -0.0357732 -0.000467047 -0.0200411
v -0.0360563 -0.000327667 -0.0202666
v -0.0364314 -0.000247925 -0.020324
v -0.0367981 -0.000249187 -0.0201979
v -0.0370582 -0.000331114 -0.0199222
v -0.0371419 -0.000471755 -0.0195706
v -0.0370268 -0.000633425 -0.0192374
v -0.0367437 -0.000772805 -0.0190119
v -0.0363686 -0.000852547 -0.0189545
v -0.0360019 -0.000851285 -0.0190806
v -0.0357418 -0.000769358 -0.0193563
v -0.0352692 0.000262183 -0.0193287
v -0.0354072 0.000481068 -0.0197325
v -0.0357465 0.000700057 -0.019991
v -0.0361963 0.000860472 -0.0200352
v -0.036636 0.00091933 -0.019853
v -0.0369478 0.00086086 -0.0194934
v -0.0370481 0.000700729 -0.0190526
v -0.0369101 0.000481843 -0.0186489
v -0.0365708 0.000262854 -0.0183903
v -0.036121 0.000102439 -0.0183462
v -0.0356814 4.35817e-005 -0.0185283
v -0.0353696 0.000102052 -0.018888
v -0.0340303 0.00274319 -0.0182533
v -0.0341669 0.00300743 -0.018677
v -0.0345026 0.00331262 -0.0189262
v -0.0349475 0.00357698 -0.0189342
v -0.0353825 0.00372966 -0.0186988
v -0.035691 0.00372977 -0.0182831
v -0.0357903 0.00357726 -0.0177985
v -0.0356538 0.00331302 -0.0173748
v -0.0353181 0.00300783 -0.0171256
v -0.0348731 0.00274347 -0.0171176
v -0.0344381 0.00259079 -0.017353
v -0.0341296 0.00259068 -0.0177687
v -0.0322773 0.00552524 -0.0170403
v -0.0323975 0.00577976 -0.0174286
v -0.0326932 0.00608634 -0.0176491
v -0.033085 0.00636285 -0.0176428
v -0.033468 0.00653518 -0.0174113
v -0.0337397 0.00655716 -0.0170166
v -0.0338271 0.0064229 -0.0165645
v -0.0337069 0.00616838 -0.0161762
v -0.0334113 0.00586179 -0.0159557
v -0.0330194 0.00558529 -0.015962
v -0.0326364 0.00541296 -0.0161935
v -0.0323647 0.00539098 -0.0165882
v -0.031578 0.00678402 -0.0164848
v -0.0316745 0.00699075 -0.0167983
v -0.0319118 0.00724097 -0.0169755
v -0.0322263 0.00746764 -0.0169691
v -0.0325338 0.00761002 -0.0167806
v -0.0327518 0.00762996 -0.0164605
v -0.032822 0.00752211 -0.0160948
v -0.0327255 0.00731539 -0.0157812
v -0.0324882 0.00706516 -0.015604
v -0.0321737 0.0068385 -0.0156105
v -0.0318662 0.00669612 -0.015799
v -0.0316482 0.00667618 -0.016119
v -0.0250918 0.0141105 -0.0132909
v -0.0251538 0.014281 -0.0135245
v -0.0253062 0.0145034 -0.0136459
v -0.0255083 0.014718 -0.0136228
v -0.0257059 0.0148675 -0.0134613
v -0.025846 0.0149116 -0.0132046
v -0.025891 0.0148387 -0.0129216
v -0.025829 0.0146682 -0.0126881
v -0.0256766 0.0144459 -0.0125666
v -0.0254745 0.0142312 -0.0125897
v -0.0252769 0.0140818 -0.0127512
v -0.0251368 0.0140376 -0.0130079
v -0.0266512 0.0126915 -0.0139063
v -0.0267118 0.012849 -0.0141263
v -0.0268608 0.0130518 -0.0142427
v -0.0270583 0.0132455 -0.0142243
v -0.0272514 0.0133782 -0.014076
v -0.0273883 0.0134144 -0.0138377
v -0.0274324 0.0133443 -0.013573
v -0.0273718 0.0131868 -0.013353
v -0.0272228 0.012984 -0.0132367
v -0.0270253 0.0127903 -0.013255
v -0.0268322 0.0126576 -0.0134033
v -0.0266952 0.0126214 -0.0136417
v -0.0281727 0.0111903 -0.0145574
v -0.0282313 0.0113353 -0.0147636
v -0.0283753 0.0115196 -0.0148744
v -0.0285662 0.0116938 -0.0148601
v -0.0287528 0.0118112 -0.0147246
v -0.0288852 0.0118403 -0.0145041
v -0.0289278 0.0117734 -0.0142577
v -0.0288692 0.0116284 -0.0140515
v -0.0287252 0.0114442 -0.0139407
v -0.0285343 0.01127 -0.0139549
v -0.0283476 0.0111526 -0.0140905
v -0.0282153 0.0111234 -0.014311
v -0.0295546 0.00961887 -0.0152423
v -0.0296195 0.00977217 -0.0154645
v -0.0297791 0.00996431 -0.0155858
v -0.0299906 0.0101438 -0.0155737
v -0.0301973 0.0102625 -0.0154314
v -0.0303439 0.0102887 -0.0151971
v -0.0303911 0.0102153 -0.0149335
v -0.0303262 0.010062 -0.0147113
v -0.0301667 0.00986991 -0.01459
v -0.0299552 0.00969042 -0.0146021
v -0.0297484 0.00957167 -0.0147444
v -0.0296018 0.00954548 -0.0149787
v -0.0307981 0.00808012 -0.0159131
v -0.0308696 0.00824107 -0.0161515
v -0.0310457 0.00843947 -0.016284
v -0.031279 0.00862217 -0.016275
v -0.0315071 0.0087402 -0.0161268
v -0.0316688 0.00876195 -0.0158793
v -0.0317209 0.00868159 -0.0155987
v -0.0316493 0.00852064 -0.0153603
v -0.0314733 0.00832224 -0.0152278
v -0.03124 0.00813954 -0.0152368
v -0.0310119 0.00802151 -0.015385
v -0.0308501 0.00799976 -0.0156325
v -0.0315779 0.00678398 -0.0164848
v -0.0316744 0.00699073 -0.0167983
v -0.0319118 0.00724098 -0.0169756
v -0.0322263 0.00746768 -0.0169691
v -0.0325338 0.00761007 -0.0167806
v -0.0327519 0.00763001 -0.0164606
v -0.0328221 0.00752216 -0.0160947
v -0.0327256 0.0073154 -0.0157812
v -0.0324882 0.00706515 -0.0156039
v -0.0321737 0.00683846 -0.0156104
v -0.0318662 0.00669607 -0.0157989
v -0.0316481 0.00667613 -0.016119
v -0.0305357 0.00786614 -0.0160224
v -0.0306516 0.00812638 -0.0164082
v -0.0309365 0.00844706 -0.0166225
v -0.0313142 0.00874225 -0.0166081
v -0.0316833 0.00893287 -0.0163686
v -0.0319451 0.00896784 -0.0159683
v -0.0320294 0.00883778 -0.0155145
v -0.0319135 0.00857754 -0.0151287
v -0.0316286 0.00825686 -0.0149144
v -0.031251 0.00796167 -0.0149289
v -0.0308818 0.00777105 -0.0151683
v -0.03062 0.00773608 -0.0155686
v -0.0278139 0.0108789 -0.0147158
v -0.027931 0.0111689 -0.0151283
v -0.0282192 0.0115373 -0.01535
v -0.0286012 0.0118855 -0.0153215
v -0.0289746 0.0121202 -0.0150505
v -0.0292394 0.0121784 -0.0146095
v -0.0293246 0.0120446 -0.0141168
v -0.0292074 0.0117546 -0.0137043
v -0.0289193 0.0113862 -0.0134826
v -0.0285373 0.011038 -0.0135111
v -0.0281639 0.0108033 -0.0137821
v -0.0278991 0.0107451 -0.0142231
v -0.0248434 0.0138839 -0.0134058
v -0.024944 0.0141604 -0.0137846
v -0.0251913 0.0145211 -0.0139816
v -0.025519 0.0148692 -0.0139441
v -0.0258394 0.0151116 -0.0136821
v -0.0260666 0.0151832 -0.0132659
v -0.0261397 0.0150649 -0.0128069
v -0.0260392 0.0147884 -0.0124281
v -0.0257919 0.0144278 -0.0122311
v -0.0254642 0.0140797 -0.0122686
v -0.0251438 0.0138373 -0.0125305
v -0.0249166 0.0137657 -0.0129468
v -0.0236989 0.0150929 -0.012872
v -0.0237766 0.0153195 -0.0131768
v -0.0239678 0.0156186 -0.0133329
v -0.0242212 0.01591 -0.0132982
v -0.0244689 0.0161157 -0.0130822
v -0.0246446 0.0161806 -0.0127426
v -0.0247011 0.0160872 -0.0123706
v -0.0246234 0.0158606 -0.0120657
v -0.0244322 0.0155615 -0.0119097
v -0.0241788 0.01527 -0.0119443
v -0.0239311 0.0150643 -0.0121604
v -0.0237554 0.0149995 -0.0124999
v -0.0160092 0.0204361 -0.0105405
v -0.0160536 0.0206188 -0.0107687
v -0.0161628 0.0208714 -0.010877
v -0.0163076 0.0211261 -0.0108365
v -0.0164491 0.0213147 -0.010658
v -0.0165494 0.0213866 -0.0103892
v -0.0165817 0.0213226 -0.0101023
v -0.0165373 0.0211398 -0.00987413
v -0.0164281 0.0208873 -0.00976577
v -0.0162834 0.0206326 -0.00980629
v -0.0161419 0.020444 -0.00998484
v -0.0160415 0.0203721 -0.0102536
v -0.0177376 0.0195095 -0.0109417
v -0.0177823 0.0196791 -0.0111564
v -0.0178921 0.0199118 -0.0112599
v -0.0180377 0.020145 -0.0112243
v -0.0181801 0.0203164 -0.0110592
v -0.018281 0.02038 -0.0108089
v -0.0183135 0.0203188 -0.0105405
v -0.0182688 0.0201491 -0.0103258
v -0.018159 0.0199165 -0.0102223
v -0.0180134 0.0196832 -0.0102579
v -0.017871 0.0195118 -0.010423
v -0.0177701 0.0194482 -0.0106733
v -0.0194087 0.0185222 -0.0113694
v -0.0194532 0.0186788 -0.0115705
v -0.0195627 0.0188917 -0.0116689
v -0.0197078 0.0191038 -0.0116382
v -0.0198496 0.0192583 -0.0114865
v -0.0199502 0.0193137 -0.0112546
v -0.0199826 0.0192553 -0.0110045
v -0.0199381 0.0190987 -0.0108033
v -0.0198286 0.0188858 -0.010705
v -0.0196835 0.0186737 -0.0107357
v -0.0195417 0.0185192 -0.0108874
v -0.0194411 0.0184638 -0.0111193
v -0.0209914 0.0174145 -0.0118527
v -0.0210421 0.0175805 -0.0120694
v -0.0211668 0.0178041 -0.012177
v -0.021332 0.0180251 -0.0121468
v -0.0214936 0.0181845 -0.0119869
v -0.0216081 0.0182395 -0.01174
v -0.021645 0.0181754 -0.0114724
v -0.0215943 0.0180094 -0.0112557
v -0.0214696 0.0177859 -0.0111481
v -0.0213044 0.0175648 -0.0111782
v -0.0211428 0.0174054 -0.0113382
v -0.0210283 0.0173504 -0.0115851
v -0.0225308 0.0162367 -0.0123665
v -0.0225879 0.0164119 -0.0125988
v -0.0227283 0.0166451 -0.0127161
v -0.0229145 0.016874 -0.012687
v -0.0230964 0.0170373 -0.0125192
v -0.0232255 0.017091 -0.0122577
v -0.023267 0.017021 -0.0119727
v -0.0232099 0.0168459 -0.0117404
v -0.0230695 0.0166126 -0.011623
v -0.0228833 0.0163837 -0.0116522
v -0.0227014 0.0162205 -0.0118199
v -0.0225723 0.0161667 -0.0120814
v -0.0236989 0.0150928 -0.012872
v -0.0237766 0.0153194 -0.0131769
v -0.0239678 0.0156186 -0.0133329
v -0.0242212 0.01591 -0.0132983
v -0.0244689 0.0161158 -0.0130822
v -0.0246446 0.0161806 -0.0127426
v -0.0247011 0.0160872 -0.0123705
v -0.0246234 0.0158606 -0.0120656
v -0.0244322 0.0155615 -0.0119096
v -0.0241788 0.01527 -0.0119442
v -0.0239311 0.0150643 -0.0121603
v -0.0237554 0.0149994 -0.0124999
v -0.0223329 0.0159719 -0.0124979
v -0.0224254 0.0162551 -0.0128737
v -0.0226528 0.0166322 -0.0130635
v -0.0229542 0.0170023 -0.0130165
v -0.0232488 0.017266 -0.0127452
v -0.0234577 0.0173529 -0.0123224
v -0.0235249 0.0172395 -0.0118613
v -0.0234325 0.0169563 -0.0114855
v -0.0232051 0.0165792 -0.0112957
v -0.0229037 0.0162091 -0.0113428
v -0.0226091 0.0159454 -0.011614
v -0.0224002 0.0158585 -0.0120369
v -0.0191425 0.0181422 -0.0115576
v -0.0192316 0.0184555 -0.01196
v -0.0194507 0.0188811 -0.0121568
v -0.0197412 0.0193052 -0.0120953
v -0.0200251 0.019614 -0.0117921
v -0.0202264 0.0197248 -0.0113282
v -0.0202912 0.0196079 -0.0108281
v -0.0202021 0.0192947 -0.0104258
v -0.019983 0.018869 -0.010229
v -0.0196926 0.018445 -0.0102904
v -0.0194086 0.0181362 -0.0105937
v -0.0192073 0.0180254 -0.0110575
v -0.0158315 0.0201603 -0.0106767
v -0.0159035 0.0204568 -0.0110469
v -0.0160806 0.0208664 -0.0112226
v -0.0163153 0.0212794 -0.0111569
v -0.0165448 0.0215852 -0.0108673
v -0.0167075 0.0217019 -0.0104315
v -0.0167599 0.0215981 -0.00996617
v -0.0166879 0.0213017 -0.00959606
v -0.0165108 0.0208921 -0.00942032
v -0.016276 0.020479 -0.00948604
v -0.0160466 0.0201732 -0.0097756
v -0.0158839 0.0200565 -0.0102114
v -0.0144473 0.0210499 -0.0102818
v -0.014502 0.0212914 -0.0105802
v -0.0146366 0.0216269 -0.0107204
v -0.0148149 0.0219667 -0.0106647
v -0.0149893 0.0222196 -0.0104281
v -0.0151129 0.0223179 -0.010074
v -0.0151527 0.0222353 -0.00969729
v -0.015098 0.0219939 -0.00939885
v -0.0149634 0.0216583 -0.00925867
v -0.0147851 0.0213186 -0.00931433
v -0.0146107 0.0210657 -0.00955091
v -0.0144871 0.0209673 -0.00990501
v -0.0160092 0.0204361 -0.0105405
v -0.0160536 0.0206188 -0.0107687
v -0.0161628 0.0208714 -0.010877
v -0.0163076 0.0211261 -0.0108365
v -0.0164491 0.0213147 -0.010658
v -0.0165494 0.0213866 -0.0103892
v -0.0165817 0.0213226 -0.0101023
v -0.0165373 0.0211398 -0.00987413
v -0.0164281 0.0208873 -0.00976577
v -0.0162834 0.0206326 -0.00980629
v -0.0161419 0.020444 -0.00998484
v -0.0160415 0.0203721 -0.0102536
vn -0.0422711 -0.91624 -0.398393
vn -0.999021 -0.00487385 0.0439631
vn -0.844015 -0.199372 0.497885
vn -0.842911 -0.24754 0.477729
vn -0.99791 -0.0616443 0.0193684
vn -0.462444 -0.333443 0.82156
vn -0.462218 -0.359705 0.810535
vn 0.0434255 -0.37087 0.927669
vn 0.0414269 -0.368202 0.928822
vn 0.53709 -0.301607 0.787761
vn 0.533011 -0.271009 0.801532
vn 0.886062 -0.144689 0.440408
vn 0.881306 -0.0942592 0.46305
vn 0.998119 0.057642 -0.0208764
vn 0.993384 0.114773 0.00388274
vn 0.844009 0.25165 -0.473625
vn 0.839304 0.300204 -0.453262
vn 0.463991 0.385734 -0.797447
vn 0.4602 0.412464 -0.786187
vn -0.0412219 0.423668 -0.904879
vn -0.0427741 0.42152 -0.90581
vn -0.535787 0.354897 -0.766146
vn -0.535273 0.324794 -0.779738
vn -0.886311 0.197963 -0.418645
vn -0.885159 0.147951 -0.44114
vn -0.826289 -0.369669 0.424959
vn -0.978715 -0.20104 -0.0412192
vn -0.451942 -0.438877 0.776617
vn 0.0432305 -0.390332 0.919658
vn 0.526414 -0.237356 0.816426
vn 0.868649 -0.0210144 0.494982
vn 0.978745 0.200877 0.0413154
vn 0.827349 0.369064 -0.42342
vn 0.454801 0.438619 -0.775093
vn -0.0396074 0.390864 -0.919596
vn -0.523822 0.238329 -0.817808
vn -0.867854 0.0216397 -0.496347
vn -0.792957 -0.48037 0.374785
vn -0.939769 -0.327887 -0.0965661
vn -0.431722 -0.511125 0.743214
vn 0.0476882 -0.411791 0.91003
vn 0.517079 -0.208732 0.830096
vn 0.850378 0.0437656 0.524349
vn 0.957702 0.277901 0.0746838
vn 0.810043 0.430672 -0.397934
vn 0.447307 0.46105 -0.766387
vn -0.0327604 0.361053 -0.931969
vn -0.501313 0.157707 -0.850773
vn -0.833108 -0.0944172 -0.544992
vn -0.734862 -0.596643 0.322482
vn -0.876273 -0.456939 -0.152818
vn -0.387318 -0.596528 0.70295
vn 0.0735535 -0.456537 0.886659
vn 0.524395 -0.214049 0.824131
vn 0.844247 0.0660005 0.531874
vn 0.947131 0.308493 0.0881785
vn 0.805341 0.448331 -0.387847
vn 0.456996 0.448004 -0.768405
vn -0.00429527 0.307671 -0.951483
vn -0.454762 0.0650502 -0.888234
vn -0.773815 -0.214791 -0.595882
vn -0.686159 -0.669727 0.283993
vn -0.822793 -0.536371 -0.187929
vn -0.349696 -0.657767 0.667124
vn 0.0984544 -0.5027 0.858836
vn 0.538777 -0.245081 0.806011
vn 0.852106 0.0460717 0.521337
vn 0.952977 0.291979 0.0811415
vn 0.813773 0.425959 -0.395388
vn 0.472484 0.411879 -0.779175
vn 0.0220775 0.254072 -0.966933
vn -0.415676 -0.00416892 -0.909503
vn -0.724181 -0.293205 -0.624174
vn 0.957268 0.279022 0.0760509
vn 0.820653 0.412221 -0.395731
vn 0.816515 0.420928 -0.395124
vn 0.957457 0.278503 0.0755849
vn 0.483047 0.402557 -0.777569
vn 0.467935 0.431804 -0.771092
vn 0.0330351 0.251633 -0.967259
vn 0.00227827 0.307074 -0.951683
vn -0.40935 -0.00115763 -0.912377
vn -0.456668 0.0786378 -0.886155
vn -0.72447 -0.288142 -0.626193
vn -0.784246 -0.192609 -0.589796
vn -0.826442 -0.531628 -0.185377
vn -0.890209 -0.432868 -0.141964
vn -0.687396 -0.665523 0.290801
vn -0.745207 -0.576399 0.335308
vn -0.345261 -0.653696 0.673406
vn -0.389414 -0.584408 0.711915
vn 0.106844 -0.499915 0.859459
vn 0.0793902 -0.455708 0.886582
vn 0.546795 -0.246431 0.800179
vn 0.534275 -0.226166 0.814493
vn 0.857388 0.0383905 0.513236
vn 0.854643 0.0422146 0.517497
vn 0.827676 0.367929 -0.423769
vn 0.979083 0.199357 0.0406591
vn 0.455436 0.438435 -0.774825
vn -0.0384781 0.392144 -0.919099
vn -0.522928 0.240985 -0.817602
vn -0.867976 0.0248224 -0.495985
vn -0.97936 -0.198157 -0.039856
vn -0.826269 -0.36729 0.427056
vn -0.451052 -0.437032 0.778174
vn 0.0441584 -0.389406 0.920007
vn 0.526905 -0.237688 0.816012
vn 0.868975 -0.0222988 0.494353
vn 0.840341 0.302354 -0.4499
vn 0.994366 0.106002 0.000272359
vn 0.461371 0.441185 -0.769735
vn -0.0414436 0.485262 -0.873386
vn -0.533378 0.422792 -0.732636
vn -0.882345 0.270532 -0.385072
vn -0.994707 0.0691504 0.0759958
vn -0.840322 -0.127507 0.526879
vn -0.460517 -0.266599 0.846669
vn 0.0427747 -0.31063 0.949568
vn 0.534348 -0.247855 0.808109
vn 0.88248 -0.0953352 0.460587
vn 0.831539 0.0989488 -0.546582
vn 0.988139 -0.0224694 -0.151911
vn 0.456153 0.329531 -0.82664
vn -0.0353223 0.492138 -0.8698
vn -0.50669 0.54244 -0.670093
vn -0.834395 0.469736 -0.288328
vn -0.938774 0.297282 0.174143
vn -0.795563 0.0700333 0.60181
vn -0.437822 -0.156531 0.88533
vn 0.0462089 -0.323757 0.945011
vn 0.527892 -0.382763 0.758171
vn 0.838824 -0.256707 0.480079
vn 0.995414 -0.0953329 0.00795861
vn 0.873194 -0.313977 0.37276
vn 0.9592 -0.176008 -0.221263
vn 0.779703 -0.107248 -0.616897
vn 0.912304 -0.357422 -0.199875
vn 0.437251 0.184773 -0.880154
vn -0.0362102 0.436652 -0.898902
vn -0.494197 0.56624 -0.659653
vn -0.801609 0.543272 -0.249556
vn -0.896125 0.389225 0.213221
vn -0.765841 0.143338 0.626851
vn -0.427881 -0.143289 0.892405
vn 0.0434209 -0.394515 0.917863
vn 0.504574 -0.529068 0.682269
vn 0.816433 -0.511027 0.268865
vn 0.897819 -0.352675 0.263709
vn 0.966846 -0.249237 -0.0555845
vn -0.832904 0.489179 0.258793
vn -0.70201 0.216095 0.67859
vn -0.711347 0.202854 0.67293
vn -0.843994 0.473478 0.251978
vn -0.380135 -0.110842 0.918266
vn -0.385237 -0.117916 0.915253
vn 0.0464267 -0.403984 0.913587
vn 0.0468348 -0.402819 0.914081
vn 0.463316 -0.584764 0.665874
vn 0.469075 -0.575552 0.669858
vn 0.758845 -0.604801 0.241601
vn 0.768418 -0.589908 0.248077
vn 0.853934 -0.4588 -0.245561
vn 0.864741 -0.442084 -0.238295
vn 0.723157 -0.185868 -0.665205
vn 0.73226 -0.171672 -0.659032
vn 0.401481 0.140946 -0.904957
vn 0.406432 0.148927 -0.901462
vn -0.0249972 0.434117 -0.900509
vn -0.0255231 0.433872 -0.900613
vn -0.442005 0.615051 -0.65295
vn -0.447929 0.606818 -0.656606
vn -0.737733 0.63521 -0.228599
vn -0.747555 0.621344 -0.234718
vn -0.745248 0.149234 0.649872
vn -0.8822 0.413208 0.225793
vn -0.408579 -0.154885 0.899485
vn 0.0373843 -0.417558 0.907881
vn 0.473135 -0.568475 0.673037
vn 0.782056 -0.567325 0.257935
vn 0.88148 -0.414469 -0.226293
vn 0.744794 -0.150844 -0.650021
vn 0.408579 0.152992 -0.899809
vn -0.0371961 0.415728 -0.908728
vn -0.473213 0.566993 -0.674231
vn -0.782586 0.566127 -0.258957
vn -0.785572 0.0704617 0.614745
vn -0.927865 0.32295 0.186466
vn -0.435484 -0.206071 0.876292
vn 0.0288627 -0.432641 0.901104
vn 0.483328 -0.548537 0.682276
vn 0.806021 -0.522513 0.278046
vn 0.909998 -0.361367 -0.203267
vn 0.767156 -0.108386 -0.632237
vn 0.416087 0.168368 -0.893602
vn -0.0486934 0.394666 -0.917533
vn -0.502607 0.510067 -0.698009
vn -0.824317 0.483822 -0.293968
vn -0.833198 -0.0795089 0.547228
vn -0.981209 0.155933 0.113638
vn -0.468769 -0.313942 0.825649
vn 0.0148415 -0.484721 0.874543
vn 0.488616 -0.546155 0.680418
vn 0.825478 -0.481508 0.294509
vn 0.934286 -0.307822 -0.179878
vn 0.785403 -0.0717957 -0.614807
vn 0.419311 0.162945 -0.8931
vn -0.0650906 0.333444 -0.94052
vn -0.537988 0.394291 -0.745053
vn -0.873187 0.329339 -0.359278
vn -0.851625 -0.189836 0.488567
vn -0.997776 0.0316929 0.058646
vn -0.488543 -0.397304 0.776837
vn -0.000577671 -0.535616 0.844461
vn 0.482145 -0.566004 0.668712
vn 0.826889 -0.478856 0.294876
vn 0.938477 -0.297511 -0.175352
vn 0.786337 -0.0712776 -0.613672
vn 0.41218 0.138221 -0.900557
vn -0.0808415 0.273839 -0.958372
vn -0.557539 0.299518 -0.774235
vn -0.891235 0.210359 -0.401808
vn 0.927519 -0.324381 -0.185702
vn 0.782155 -0.103925 -0.614356
vn 0.775231 -0.109092 -0.622186
vn 0.918226 -0.344703 -0.19504
vn 0.422092 0.109743 -0.899886
vn 0.421285 0.136502 -0.896597
vn -0.0627269 0.259404 -0.96373
vn -0.054444 0.326892 -0.943492
vn -0.54305 0.30225 -0.783417
vn -0.526231 0.408983 -0.745529
vn -0.88601 0.225062 -0.405381
vn -0.864324 0.358538 -0.352697
vn -0.996524 0.0490435 0.0673344
vn -0.973555 0.188815 0.128607
vn -0.844248 -0.17735 0.505758
vn -0.822972 -0.0531005 0.565595
vn -0.470892 -0.39225 0.79019
vn -0.455341 -0.300486 0.838077
vn 0.0202489 -0.537216 0.843202
vn 0.0264418 -0.48641 0.873331
vn 0.493664 -0.57415 0.653183
vn 0.490735 -0.562264 0.665612
vn 0.823391 -0.495719 0.276207
vn 0.815185 -0.509981 0.274578
vn 0.75091 -0.142646 -0.644815
vn 0.887767 -0.403559 -0.221381
vn 0.41327 0.156606 -0.897041
vn -0.0361393 0.414025 -0.909548
vn -0.476575 0.559857 -0.677817
vn -0.789005 0.554727 -0.264101
vn -0.889518 0.400332 0.220207
vn -0.751307 0.138224 0.645315
vn -0.411237 -0.161382 0.897129
vn 0.0392377 -0.417979 0.907609
vn 0.478363 -0.562651 0.674235
vn 0.788373 -0.557148 0.260872
vn 0.747774 -0.147704 -0.647315
vn 0.878278 -0.419975 -0.228578
vn 0.426601 0.178223 -0.886706
vn 0.000636878 0.470472 -0.882415
vn -0.415863 0.650576 -0.635459
vn -0.711154 0.670262 -0.212155
vn -0.806198 0.524381 0.273988
vn -0.675606 0.252033 0.692846
vn -0.354255 -0.0739078 0.932224
vn 0.071796 -0.366095 0.927804
vn 0.488211 -0.546128 0.680731
vn 0.783326 -0.565798 0.257435
vn 0.713354 -0.199665 -0.671758
vn 0.837958 -0.482096 -0.255754
vn 0.40719 0.149504 -0.901024
vn 0.00239748 0.471142 -0.882054
vn -0.391737 0.678812 -0.621094
vn -0.670014 0.717759 -0.189483
vn -0.759355 0.57873 0.297408
vn -0.636554 0.298834 0.710983
vn -0.33353 -0.0482871 0.941502
vn 0.0699278 -0.370421 0.926228
vn 0.465873 -0.580635 0.667701
vn 0.74729 -0.621623 0.234823
vn 0.657746 -0.273057 -0.702004
vn 0.775799 -0.56056 -0.289669
vn 0.36579 0.0919426 -0.926145
vn -0.0228717 0.436384 -0.89947
vn -0.401988 0.665774 -0.62861
vn -0.668768 0.718964 -0.189315
vn -0.754093 0.584327 0.299844
vn -0.636738 0.29802 0.71116
vn -0.346006 -0.0658953 0.935915
vn 0.042136 -0.410465 0.910902
vn 0.42197 -0.641071 0.641069
vn 0.689971 -0.695332 0.201131
vn -0.703573 0.633675 0.321622
vn -0.592641 0.337439 0.731377
vn -0.604639 0.326274 0.726606
vn -0.717756 0.620507 0.315907
vn -0.31983 -0.0464478 0.946336
vn -0.326525 -0.0525392 0.943727
vn 0.0417285 -0.415064 0.908835
vn 0.0419779 -0.414363 0.909143
vn 0.395047 -0.669557 0.628992
vn 0.402101 -0.662267 0.632231
vn 0.64545 -0.741809 0.181974
vn 0.657403 -0.729904 0.187248
vn 0.725999 -0.612621 -0.312443
vn 0.739552 -0.599206 -0.306619
vn 0.615202 -0.31661 -0.722
vn 0.626564 -0.305184 -0.717134
vn 0.34263 0.0670841 -0.937072
vn 0.348675 0.073448 -0.934361
vn -0.0188273 0.435732 -0.899879
vn -0.0197315 0.435302 -0.900068
vn -0.372283 0.69045 -0.620229
vn -0.379985 0.683417 -0.623339
vn -0.622922 0.762892 -0.1731
vn -0.635512 0.751234 -0.178249
vn -0.638019 0.292864 0.712154
vn -0.755215 0.582999 0.299605
vn -0.349849 -0.0758053 0.933734
vn 0.0319877 -0.424158 0.905023
vn 0.405153 -0.658875 0.633826
vn 0.669711 -0.71714 0.192865
vn 0.754849 -0.583398 -0.299749
vn 0.637783 -0.293469 -0.712116
vn 0.34984 0.0750242 -0.933801
vn -0.0318996 0.423406 -0.905378
vn -0.405195 0.658331 -0.634364
vn -0.66998 0.716773 -0.193297
vn -0.669581 0.257847 0.696545
vn -0.790508 0.543468 0.282381
vn -0.372121 -0.100071 0.922774
vn 0.0222461 -0.434438 0.900427
vn 0.407899 -0.655661 0.635396
vn 0.68146 -0.70439 0.198611
vn 0.769531 -0.5675 -0.292859
vn 0.648467 -0.281681 -0.707211
vn 0.350768 0.0763973 -0.933341
vn -0.0437015 0.410727 -0.91071
vn -0.429218 0.631752 -0.645493
vn -0.70254 0.680322 -0.208805
vn -0.716364 0.197402 0.66922
vn -0.84097 0.477876 0.253778
vn -0.409749 -0.148287 0.900065
vn -0.00320781 -0.466613 0.884456
vn 0.394385 -0.672289 0.626489
vn 0.676459 -0.710142 0.195194
vn 0.76733 -0.569963 -0.293848
vn 0.642595 -0.289319 -0.709483
vn 0.335741 0.0565099 -0.940258
vn -0.0709101 0.374807 -0.924387
vn -0.468374 0.580314 -0.666229
vn -0.75021 0.618028 -0.235004
vn -0.74974 0.148816 0.644782
vn -0.875289 0.425105 0.230553
vn -0.440302 -0.188903 0.877753
vn -0.0291511 -0.497971 0.866703
vn 0.37376 -0.69539 0.613789
vn 0.660032 -0.727754 0.186365
vn 0.752373 -0.586074 -0.300755
vn 0.62581 -0.308413 -0.71641
vn 0.314546 0.03041 -0.948755
vn -0.0974131 0.339208 -0.935654
vn -0.49931 0.535255 -0.681316
vn -0.783759 0.566517 -0.254519
vn 0.747936 -0.5908 -0.302565
vn 0.622468 -0.314762 -0.71656
vn 0.635638 -0.298762 -0.711832
vn 0.758678 -0.579419 -0.297793
vn 0.313789 0.0234466 -0.949203
vn 0.332745 0.0493741 -0.941723
vn -0.0962346 0.333663 -0.937768
vn -0.0697678 0.372265 -0.925501
vn -0.497989 0.532539 -0.684405
vn -0.464422 0.583213 -0.666464
vn -0.783325 0.566203 -0.256545
vn -0.74494 0.624985 -0.233362
vn -0.875125 0.425286 0.230841
vn -0.835272 0.485865 0.2574
vn -0.748529 0.147675 0.646449
vn -0.710845 0.203291 0.673329
vn -0.437773 -0.191773 0.878395
vn -0.40549 -0.146349 0.902308
vn -0.0267993 -0.501657 0.864651
vn -0.00190199 -0.46883 0.883286
vn 0.373828 -0.698962 0.609676
vn 0.391367 -0.677863 0.622361
vn 0.657088 -0.731386 0.182512
vn 0.669423 -0.718129 0.190168
vn 0.63798 -0.293488 -0.711931
vn 0.754983 -0.583264 -0.299674
vn 0.350134 0.0748422 -0.933705
vn -0.0316219 0.423168 -0.905499
vn -0.405085 0.658134 -0.634638
vn -0.670078 0.716617 -0.193537
vn -0.755394 0.582802 0.299537
vn -0.638084 0.292574 0.712214
vn -0.349702 -0.076124 0.933763
vn 0.0322829 -0.424367 0.904915
vn 0.40544 -0.658883 0.633634
vn 0.669897 -0.716996 0.192754
vn 0.638312 -0.293951 -0.711443
vn 0.747884 -0.590714 -0.302863
vn 0.36869 0.0916454 -0.925024
vn 0.0112528 0.462788 -0.886398
vn -0.338254 0.720064 -0.605881
vn -0.58618 0.79451 -0.158575
vn -0.666051 0.666113 0.335662
vn -0.556441 0.369268 0.744322
vn -0.286752 -0.0164262 0.957864
vn 0.0707136 -0.387583 0.919119
vn 0.420182 -0.644776 0.638522
vn 0.668042 -0.719125 0.191255
vn 0.58352 -0.344499 -0.735408
vn 0.683154 -0.651684 -0.329557
vn 0.338833 0.0646191 -0.938625
vn 0.0156347 0.465055 -0.885144
vn -0.298967 0.749412 -0.590763
vn -0.521217 0.842601 -0.135485
vn -0.592657 0.720897 0.359257
vn -0.494626 0.416841 0.76262
vn -0.252735 0.010554 0.967478
vn 0.0692693 -0.390182 0.918128
vn 0.385475 -0.677671 0.626235
vn 0.610521 -0.77369 0.169315
vn 0.512643 -0.402395 -0.758469
vn 0.603615 -0.713323 -0.356118
vn 0.287794 0.020105 -0.957481
vn -0.011352 0.440892 -0.897488
vn -0.303167 0.744891 -0.594329
vn -0.508649 0.850763 -0.132203
vn -0.57441 0.73294 0.364488
vn -0.483983 0.423347 0.765858
vn -0.260095 0.00212923 0.965581
vn 0.0386351 -0.418718 0.907294
vn 0.331003 -0.724066 0.605115
vn 0.537446 -0.831212 0.142264
vn -0.503985 0.774271 0.382758
vn -0.423419 0.455877 0.782874
vn -0.439087 0.447242 0.779216
vn -0.522537 0.764079 0.378336
vn -0.225313 0.0175058 0.974129
vn -0.23394 0.0128768 0.972166
vn 0.0372251 -0.423309 0.90522
vn 0.0378573 -0.422528 0.905559
vn 0.293771 -0.748352 0.5947
vn 0.30346 -0.74233 0.597376
vn 0.475583 -0.870607 0.125953
vn 0.491745 -0.860943 0.130244
vn 0.534062 -0.757511 -0.375439
vn 0.552322 -0.746658 -0.370731
vn 0.453601 -0.439386 -0.775362
vn 0.468979 -0.430091 -0.771415
vn 0.255674 -0.00127167 -0.966762
vn 0.264018 0.00401296 -0.964509
vn -0.00678919 0.439554 -0.89819
vn -0.0077018 0.439429 -0.898244
vn -0.263439 0.764864 -0.587863
vn -0.273412 0.759502 -0.590257
vn -0.445431 0.887376 -0.118972
vn -0.461883 0.878374 -0.122978
vn -0.484964 0.419591 0.767303
vn -0.574063 0.733034 0.364845
vn -0.265892 -0.00633196 0.963982
vn 0.0243632 -0.4305 0.902262
vn 0.308005 -0.739283 0.598826
vn 0.509086 -0.850056 0.13504
vn 0.573796 -0.73322 -0.364892
vn 0.48482 -0.420073 -0.76713
vn 0.265965 0.00556712 -0.963967
vn -0.0241978 0.42975 -0.902624
vn -0.307964 0.73883 -0.599407
vn -0.509262 0.849884 -0.135462
vn -0.529032 0.389699 0.75383
vn -0.623453 0.699118 0.350057
vn -0.296743 -0.0268008 0.954581
vn 0.011247 -0.438872 0.898479
vn 0.312455 -0.736109 0.60043
vn 0.526131 -0.838766 0.140203
vn 0.594932 -0.719231 -0.358836
vn 0.500382 -0.409535 -0.762823
vn 0.26787 0.00722262 -0.963428
vn -0.0402146 0.419277 -0.906967
vn -0.341294 0.716237 -0.608706
vn -0.554748 0.818637 -0.148624
vn -0.587308 0.343511 0.73285
vn -0.686572 0.648814 0.328114
vn -0.34302 -0.0632632 0.937195
vn -0.0191111 -0.462572 0.886376
vn 0.297657 -0.74743 0.593927
vn 0.52238 -0.841448 0.138145
vn 0.594781 -0.719366 -0.358815
vn 0.495431 -0.413895 -0.763701
vn 0.250989 -0.00695693 -0.967965
vn -0.0729881 0.392349 -0.916916
vn -0.389671 0.67704 -0.624319
vn -0.61424 0.770894 -0.168618
vn -0.629339 0.30674 0.714033
vn -0.730235 0.608613 0.310397
vn -0.380691 -0.0936538 0.919948
vn -0.0504431 -0.485733 0.87265
vn 0.273052 -0.764334 0.584154
vn 0.502837 -0.854327 0.131451
vn 0.576958 -0.731237 -0.363885
vn 0.475406 -0.428091 -0.768588
vn 0.225585 -0.0265087 -0.973863
vn -0.105176 0.365484 -0.924856
vn -0.428016 0.642812 -0.635291
vn -0.656629 0.731618 -0.183232
vn 0.572561 -0.734149 -0.364964
vn 0.471656 -0.432401 -0.768486
vn 0.486252 -0.421404 -0.765492
vn 0.583841 -0.726752 -0.361886
vn 0.223567 -0.0317474 -0.974172
vn 0.246115 -0.012874 -0.969155
vn -0.105701 0.360905 -0.926593
vn -0.0728336 0.390004 -0.917928
vn -0.428077 0.640245 -0.637837
vn -0.385385 0.679202 -0.62463
vn -0.656904 0.730936 -0.184959
vn -0.607441 0.776541 -0.167329
vn -0.730478 0.608309 0.310422
vn -0.678912 0.655338 0.331074
vn -0.628928 0.30527 0.715025
vn -0.580399 0.348136 0.736164
vn -0.379653 -0.0965818 0.920074
vn -0.338628 -0.0620962 0.938869
vn -0.0498426 -0.489143 0.870778
vn -0.018969 -0.464824 0.8852
vn 0.271888 -0.767192 0.580941
vn 0.292659 -0.752169 0.590417
vn 0.499529 -0.856684 0.1287
vn 0.513081 -0.847804 0.134074
vn 0.485354 -0.419894 -0.76689
vn 0.574336 -0.732878 -0.36473
vn 0.266461 0.00550711 -0.96383
vn -0.0238394 0.429528 -0.902739
vn -0.307873 0.738607 -0.599729
vn -0.50946 0.849719 -0.135752
vn -0.574373 0.732825 0.364779
vn -0.485117 0.41925 0.767392
vn -0.265747 -0.00669809 0.96402
vn 0.0247569 -0.430679 0.902166
vn 0.308516 -0.739169 0.598705
vn 0.509626 -0.849733 0.135038
vn 0.484766 -0.42111 -0.766596
vn 0.564068 -0.739432 -0.367516
vn 0.289539 0.0176891 -0.957003
vn 0.030666 0.459429 -0.887685
vn -0.222488 0.785738 -0.577161
vn -0.402068 0.909144 -0.108621
vn -0.459944 0.796554 0.392368
vn -0.380607 0.478132 0.791535
vn -0.185316 0.0392253 0.981896
vn 0.0735851 -0.402526 0.912446
vn 0.326703 -0.728737 0.601837
vn 0.50622 -0.852034 0.133341
vn 0.499525 -0.412706 -0.761675
vn 0.574755 -0.732671 -0.364486
vn 0.314357 0.0303637 -0.948819
vn 0.0691196 0.477409 -0.875958
vn -0.170339 0.808613 -0.563143
vn -0.339994 0.935663 -0.0945501
vn -0.394683 0.824991 0.404494
vn -0.319885 0.506234 0.800875
vn -0.135456 0.0643056 0.988694
vn 0.109474 -0.38281 0.917318
vn 0.349363 -0.715223 0.605311
vn 0.519758 -0.843413 0.136041
vn -0.391811 0.826065 0.405095
vn -0.316678 0.506058 0.802259
vn -0.132275 0.0626041 0.989234
vn 0.111739 -0.385061 0.916102
vn 0.349846 -0.716947 0.602988
vn 0.518386 -0.844558 0.134153
vn 0.572495 -0.73418 -0.365006
vn 0.497802 -0.415377 -0.761351
vn 0.314134 0.0269259 -0.948997
vn 0.070416 0.474644 -0.877356
vn -0.168129 0.807736 -0.565063
vn -0.337405 0.936497 -0.0955566
vn 0.865197 0.459843 0.199947
vt 0.486652 0.813411
vt 0.423241 0.923241
vt 0.313411 0.986652
vt 0.186589 0.986652
vt 0.0767588 0.923241
vt 0.0133482 0.813411
vt 0.0133482 0.686589
vt 0.0767589 0.576759
vt 0.186589 0.513348
vt 0.313411 0.513348
vt 0.423241 0.576759
vt 0.486652 0.686589
vt 0 0
vt 0.0833333 0
vt 0.0833333 0.0125
vt 0 0.0125
vt 0.166667 0
vt 0.166667 0.0125
vt 0.25 0
vt 0.25 0.0125
vt 0.333333 0
vt 0.333333 0.0125
vt 0.416667 0
vt 0.416667 0.0125
vt 0.5 0
vt 0.5 0.0125
vt 0.583333 0
vt 0.583333 0.0125
vt 0.666667 0
vt 0.666667 0.0125
vt 0.75 0
vt 0.75 0.0125
vt 0.833333 0
vt 0.833333 0.0125
vt 0.916667 0
vt 0.916667 0.0125
vt 1 0
vt 1 0.0125
vt 0.0833333 0.025
vt 0 0.025
vt 0.166667 0.025
vt 0.25 0.025
vt 0.333333 0.025
vt 0.416667 0.025
vt 0.5 0.025
vt 0.583333 0.025
vt 0.666667 0.025
vt 0.75 0.025
vt 0.833333 0.025
vt 0.916667 0.025
vt 1 0.025
vt 0.0833333 0.0375
vt 0 0.0375
vt 0.166667 0.0375
vt 0.25 0.0375
vt 0.333333 0.0375
vt 0.416667 0.0375
vt 0.5 0.0375
vt 0.583333 0.0375
vt 0.666667 0.0375
vt 0.75 0.0375
vt 0.833333 0.0375
vt 0.916667 0.0375
vt 1 0.0375
vt 0.0833333 0.05
vt 0 0.05
vt 0.166667 0.05
vt 0.25 0.05
vt 0.333333 0.05
vt 0.416667 0.05
vt 0.5 0.05
vt 0.583333 0.05
vt 0.666667 0.05
vt 0.75 0.05
vt 0.833333 0.05
vt 0.916667 0.05
vt 1 0.05
vt 0.0833333 0.0625
vt 0 0.0625
vt 0.166667 0.0625
vt 0.25 0.0625
vt 0.333333 0.0625
vt 0.416667 0.0625
vt 0.5 0.0625
vt 0.583333 0.0625
vt 0.666667 0.0625
vt 0.75 0.0625
vt 0.833333 0.0625
vt 0.916667 0.0625
vt 1 0.0625
vt 0.0833333 0.075
vt 0 0.075
vt 0.166667 0.075
vt 0.25 0.075
vt 0.333333 0.075
vt 0.416667 0.075
vt 0.5 0.075
vt 0.583333 0.075
vt 0.666667 0.075
vt 0.75 0.075
vt 0.833333 0.075
vt 0.916667 0.075
vt 1 0.075
vt 0.0833333 0.0875
vt 0 0.0875
vt 0.166667 0.0875
vt 0.25 0.0875
vt 0.333333 0.0875
vt 0.416667 0.0875
vt 0.5 0.0875
vt 0.583333 0.0875
vt 0.666667 0.0875
vt 0.75 0.0875
vt 0.833333 0.0875
vt 0.916667 0.0875
vt 1 0.0875
vt 0.0833333 0.1
vt 0 0.1
vt 0.166667 0.1
vt 0.25 0.1
vt 0.333333 0.1
vt 0.416667 0.1
vt 0.5 0.1
vt 0.583333 0.1
vt 0.666667 0.1
vt 0.75 0.1
vt 0.833333 0.1
vt 0.916667 0.1
vt 1 0.1
vt 0.0833333 0.1125
vt 0 0.1125
vt 0.166667 0.1125
vt 0.25 0.1125
vt 0.333333 0.1125
vt 0.416667 0.1125
vt 0.5 0.1125
vt 0.583333 0.1125
vt 0.666667 0.1125
vt 0.75 0.1125
vt 0.833333 0.1125
vt 0.916667 0.1125
vt 1 0.1125
vt 0.0833333 0.125
vt 0 0.125
vt 0.166667 0.125
vt 0.25 0.125
vt 0.333333 0.125
vt 0.416667 0.125
vt 0.5 0.125
vt 0.583333 0.125
vt 0.666667 0.125
vt 0.75 0.125
vt 0.833333 0.125
vt 0.916667 0.125
vt 1 0.125
vt 0.0833333 0.1375
vt 0 0.1375
vt 0.166667 0.1375
vt 0.25 0.1375
vt 0.333333 0.1375
vt 0.416667 0.1375
vt 0.5 0.1375
vt 0.583333 0.1375
vt 0.666667 0.1375
vt 0.75 0.1375
vt 0.833333 0.1375
vt 0.916667 0.1375
vt 1 0.1375
vt 0.0833333 0.15
vt 0 0.15
vt 0.166667 0.15
vt 0.25 0.15
vt 0.333333 0.15
vt 0.416667 0.15
vt 0.5 0.15
vt 0.583333 0.15
vt 0.666667 0.15
vt 0.75 0.15
vt 0.833333 0.15
vt 0.916667 0.15
vt 1 0.15
vt 0.0833333 0.1625
vt 0 0.1625
vt 0.166667 0.1625
vt 0.25 0.1625
vt 0.333333 0.1625
vt 0.416667 0.1625
vt 0.5 0.1625
vt 0.583333 0.1625
vt 0.666667 0.1625
vt 0.75 0.1625
vt 0.833333 0.1625
vt 0.916667 0.1625
vt 1 0.1625
vt 0.0833333 0.175
vt 0 0.175
vt 0.166667 0.175
vt 0.25 0.175
vt 0.333333 0.175
vt 0.416667 0.175
vt 0.5 0.175
vt 0.583333 0.175
vt 0.666667 0.175
vt 0.75 0.175
vt 0.833333 0.175
vt 0.916667 0.175
vt 1 0.175
vt 0.0833333 0.1875
vt 0 0.1875
vt 0.166667 0.1875
vt 0.25 0.1875
vt 0.333333 0.1875
vt 0.416667 0.1875
vt 0.5 0.1875
vt 0.583333 0.1875
vt 0.666667 0.1875
vt 0.75 0.1875
vt 0.833333 0.1875
vt 0.916667 0.1875
vt 1 0.1875
vt 0.0833333 0.2
vt 0 0.2
vt 0.166667 0.2
vt 0.25 0.2
vt 0.333333 0.2
vt 0.416667 0.2
vt 0.5 0.2
vt 0.583333 0.2
vt 0.666667 0.2
vt 0.75 0.2
vt 0.833333 0.2
vt 0.916667 0.2
vt 1 0.2
vt 0.0833333 0.2125
vt 0 0.2125
vt 0.166667 0.2125
vt 0.25 0.2125
vt 0.333333 0.2125
vt 0.416667 0.2125
vt 0.5 0.2125
vt 0.583333 0.2125
vt 0.666667 0.2125
vt 0.75 0.2125
vt 0.833333 0.2125
vt 0.916667 0.2125
vt 1 0.2125
vt 0.0833333 0.225
vt 0 0.225
vt 0.166667 0.225
vt 0.25 0.225
vt 0.333333 0.225
vt 0.416667 0.225
vt 0.5 0.225
vt 0.583333 0.225
vt 0.666667 0.225
vt 0.75 0.225
vt 0.833333 0.225
vt 0.916667 0.225
vt 1 0.225
vt 0.0833333 0.2375
vt 0 0.2375
vt 0.166667 0.2375
vt 0.25 0.2375
vt 0.333333 0.2375
vt 0.416667 0.2375
vt 0.5 0.2375
vt 0.583333 0.2375
vt 0.666667 0.2375
vt 0.75 0.2375
vt 0.833333 0.2375
vt 0.916667 0.2375
vt 1 0.2375
vt 0.0833333 0.25
vt 0 0.25
vt 0.166667 0.25
vt 0.25 0.25
vt 0.333333 0.25
vt 0.416667 0.25
vt 0.5 0.25
vt 0.583333 0.25
vt 0.666667 0.25
vt 0.75 0.25
vt 0.833333 0.25
vt 0.916667 0.25
vt 1 0.25
vt 0.0833333 0.2625
vt 0 0.2625
vt 0.166667 0.2625
vt 0.25 0.2625
vt 0.333333 0.2625
vt 0.416667 0.2625
vt 0.5 0.2625
vt 0.583333 0.2625
vt 0.666667 0.2625
vt 0.75 0.2625
vt 0.833333 0.2625
vt 0.916667 0.2625
vt 1 0.2625
vt 0.0833333 0.275
vt 0 0.275
vt 0.166667 0.275
vt 0.25 0.275
vt 0.333333 0.275
vt 0.416667 0.275
vt 0.5 0.275
vt 0.583333 0.275
vt 0.666667 0.275
vt 0.75 0.275
vt 0.833333 0.275
vt 0.916667 0.275
vt 1 0.275
vt 0.0833333 0.2875
vt 0 0.2875
vt 0.166667 0.2875
vt 0.25 0.2875
vt 0.333333 0.2875
vt 0.416667 0.2875
vt 0.5 0.2875
vt 0.583333 0.2875
vt 0.666667 0.2875
vt 0.75 0.2875
vt 0.833333 0.2875
vt 0.916667 0.2875
vt 1 0.2875
vt 0.0833333 0.3
vt 0 0.3
vt 0.166667 0.3
vt 0.25 0.3
vt 0.333333 0.3
vt 0.416667 0.3
vt 0.5 0.3
vt 0.583333 0.3
vt 0.666667 0.3
vt 0.75 0.3
vt 0.833333 0.3
vt 0.916667 0.3
vt 1 0.3
vt 0.0833333 0.3125
vt 0 0.3125
vt 0.166667 0.3125
vt 0.25 0.3125
vt 0.333333 0.3125
vt 0.416667 0.3125
vt 0.5 0.3125
vt 0.583333 0.3125
vt 0.666667 0.3125
vt 0.75 0.3125
vt 0.833333 0.3125
vt 0.916667 0.3125
vt 1 0.3125
vt 0.0833333 0.325
vt 0 0.325
vt 0.166667 0.325
vt 0.25 0.325
vt 0.333333 0.325
vt 0.416667 0.325
vt 0.5 0.325
vt 0.583333 0.325
vt 0.666667 0.325
vt 0.75 0.325
vt 0.833333 0.325
vt 0.916667 0.325
vt 1 0.325
vt 0.0833333 0.3375
vt 0 0.3375
vt 0.166667 0.3375
vt 0.25 0.3375
vt 0.333333 0.3375
vt 0.416667 0.3375
vt 0.5 0.3375
vt 0.583333 0.3375
vt 0.666667 0.3375
vt 0.75 0.3375
vt 0.833333 0.3375
vt 0.916667 0.3375
vt 1 0.3375
vt 0.0833333 0.35
vt 0 0.35
vt 0.166667 0.35
vt 0.25 0.35
vt 0.333333 0.35
vt 0.416667 0.35
vt 0.5 0.35
vt 0.583333 0.35
vt 0.666667 0.35
vt 0.75 0.35
vt 0.833333 0.35
vt 0.916667 0.35
vt 1 0.35
vt 0.0833333 0.3625
vt 0 0.3625
vt 0.166667 0.3625
vt 0.25 0.3625
vt 0.333333 0.3625
vt 0.416667 0.3625
vt 0.5 0.3625
vt 0.583333 0.3625
vt 0.666667 0.3625
vt 0.75 0.3625
vt 0.833333 0.3625
vt 0.916667 0.3625
vt 1 0.3625
vt 0.0833333 0.375
vt 0 0.375
vt 0.166667 0.375
vt 0.25 0.375
vt 0.333333 0.375
vt 0.416667 0.375
vt 0.5 0.375
vt 0.583333 0.375
vt 0.666667 0.375
vt 0.75 0.375
vt 0.833333 0.375
vt 0.916667 0.375
vt 1 0.375
vt 0.0833333 0.3875
vt 0 0.3875
vt 0.166667 0.3875
vt 0.25 0.3875
vt 0.333333 0.3875
vt 0.416667 0.3875
vt 0.5 0.3875
vt 0.583333 0.3875
vt 0.666667 0.3875
vt 0.75 0.3875
vt 0.833333 0.3875
vt 0.916667 0.3875
vt 1 0.3875
vt 0.0833333 0.4
vt 0 0.4
vt 0.166667 0.4
vt 0.25 0.4
vt 0.333333 0.4
vt 0.416667 0.4
vt 0.5 0.4
vt 0.583333 0.4
vt 0.666667 0.4
vt 0.75 0.4
vt 0.833333 0.4
vt 0.916667 0.4
vt 1 0.4
vt 0.0833333 0.4125
vt 0 0.4125
vt 0.166667 0.4125
vt 0.25 0.4125
vt 0.333333 0.4125
vt 0.416667 0.4125
vt 0.5 0.4125
vt 0.583333 0.4125
vt 0.666667 0.4125
vt 0.75 0.4125
vt 0.833333 0.4125
vt 0.916667 0.4125
vt 1 0.4125
vt 0.0833333 0.425
vt 0 0.425
vt 0.166667 0.425
vt 0.25 0.425
vt 0.333333 0.425
vt 0.416667 0.425
vt 0.5 0.425
vt 0.583333 0.425
vt 0.666667 0.425
vt 0.75 0.425
vt 0.833333 0.425
vt 0.916667 0.425
vt 1 0.425
vt 0.0833333 0.4375
vt 0 0.4375
vt 0.166667 0.4375
vt 0.25 0.4375
vt 0.333333 0.4375
vt 0.416667 0.4375
vt 0.5 0.4375
vt 0.583333 0.4375
vt 0.666667 0.4375
vt 0.75 0.4375
vt 0.833333 0.4375
vt 0.916667 0.4375
vt 1 0.4375
vt 0.0833333 0.45
vt 0 0.45
vt 0.166667 0.45
vt 0.25 0.45
vt 0.333333 0.45
vt 0.416667 0.45
vt 0.5 0.45
vt 0.583333 0.45
vt 0.666667 0.45
vt 0.75 0.45
vt 0.833333 0.45
vt 0.916667 0.45
vt 1 0.45
vt 0.0833333 0.4625
vt 0 0.4625
vt 0.166667 0.4625
vt 0.25 0.4625
vt 0.333333 0.4625
vt 0.416667 0.4625
vt 0.5 0.4625
vt 0.583333 0.4625
vt 0.666667 0.4625
vt 0.75 0.4625
vt 0.833333 0.4625
vt 0.916667 0.4625
vt 1 0.4625
vt 0.0833333 0.475
vt 0 0.475
vt 0.166667 0.475
vt 0.25 0.475
vt 0.333333 0.475
vt 0.416667 0.475
vt 0.5 0.475
vt 0.583333 0.475
vt 0.666667 0.475
vt 0.75 0.475
vt 0.833333 0.475
vt 0.916667 0.475
vt 1 0.475
vt 0.0833333 0.4875
vt 0 0.4875
vt 0.166667 0.4875
vt 0.25 0.4875
vt 0.333333 0.4875
vt 0.416667 0.4875
vt 0.5 0.4875
vt 0.583333 0.4875
vt 0.666667 0.4875
vt 0.75 0.4875
vt 0.833333 0.4875
vt 0.916667 0.4875
vt 1 0.4875
vt 0.0833333 0.5
vt 0 0.5
vt 0.166667 0.5
vt 0.25 0.5
vt 0.333333 0.5
vt 0.416667 0.5
vt 0.5 0.5
vt 0.583333 0.5
vt 0.666667 0.5
vt 0.75 0.5
vt 0.833333 0.5
vt 0.916667 0.5
vt 1 0.5
vt 0.986652 0.813411
vt 0.923241 0.923241
vt 0.813411 0.986652
vt 0.686589 0.986652
vt 0.576759 0.923241
vt 0.513348 0.813411
vt 0.513348 0.686589
vt 0.576759 0.576759
vt 0.686589 0.513348
vt 0.813411 0.513348
vt 0.923241 0.576759
vt 0.986652 0.686589
mtllib INLcase9.mtl
usemtl Default
g Default
f 1/1/1 12/2/1 11/3/1 10/4/1 9/5/1 8/6/1 7/7/1 6/8/1 5/9/1 4/10/1 3/11/1 2/12/1
f 1/13/2 2/14/3 14/15/4 13/16/5
f 2/14/3 3/17/6 15/18/7 14/15/4
f 3/17/6 4/19/8 16/20/9 15/18/7
f 4/19/8 5/21/10 17/22/11 16/20/9
f 5/21/10 6/23/12 18/24/13 17/22/11
f 6/23/12 7/25/14 19/26/15 18/24/13
f 7/25/14 8/27/16 20/28/17 19/26/15
f 8/27/16 9/29/18 21/30/19 20/28/17
f 9/29/18 10/31/20 22/32/21 21/30/19
f 10/31/20 11/33/22 23/34/23 22/32/21
f 11/33/22 12/35/24 24/36/25 23/34/23
f 12/35/24 1/37/2 13/38/5 24/36/25
f 13/16/5 14/15/4 26/39/26 25/40/27
f 14/15/4 15/18/7 27/41/28 26/39/26
f 15/18/7 16/20/9 28/42/29 27/41/28
f 16/20/9 17/22/11 29/43/30 28/42/29
f 17/22/11 18/24/13 30/44/31 29/43/30
f 18/24/13 19/26/15 31/45/32 30/44/31
f 19/26/15 20/28/17 32/46/33 31/45/32
f 20/28/17 21/30/19 33/47/34 32/46/33
f 21/30/19 22/32/21 34/48/35 33/47/34
f 22/32/21 23/34/23 35/49/36 34/48/35
f 23/34/23 24/36/25 36/50/37 35/49/36
f 24/36/25 13/38/5 25/51/27 36/50/37
f 25/40/27 26/39/26 38/52/38 37/53/39
f 26/39/26 27/41/28 39/54/40 38/52/38
f 27/41/28 28/42/29 40/55/41 39/54/40
f 28/42/29 29/43/30 41/56/42 40/55/41
f 29/43/30 30/44/31 42/57/43 41/56/42
f 30/44/31 31/45/32 43/58/44 42/57/43
f 31/45/32 32/46/33 44/59/45 43/58/44
f 32/46/33 33/47/34 45/60/46 44/59/45
f 33/47/34 34/48/35 46/61/47 45/60/46
f 34/48/35 35/49/36 47/62/48 46/61/47
f 35/49/36 36/50/37 48/63/49 47/62/48
f 36/50/37 25/51/27 37/64/39 48/63/49
f 37/53/39 38/52/38 50/65/50 49/66/51
f 38/52/38 39/54/40 51/67/52 50/65/50
f 39/54/40 40/55/41 52/68/53 51/67/52
f 40/55/41 41/56/42 53/69/54 52/68/53
f 41/56/42 42/57/43 54/70/55 53/69/54
f 42/57/43 43/58/44 55/71/56 54/70/55
f 43/58/44 44/59/45 56/72/57 55/71/56
f 44/59/45 45/60/46 57/73/58 56/72/57
f 45/60/46 46/61/47 58/74/59 57/73/58
f 46/61/47 47/62/48 59/75/60 58/74/59
f 47/62/48 48/63/49 60/76/61 59/75/60
f 48/63/49 37/64/39 49/77/51 60/76/61
f 49/66/51 50/65/50 62/78/62 61/79/63
f 50/65/50 51/67/52 63/80/64 62/78/62
f 51/67/52 52/68/53 64/81/65 63/80/64
f 52/68/53 53/69/54 65/82/66 64/81/65
f 53/69/54 54/70/55 66/83/67 65/82/66
f 54/70/55 55/71/56 67/84/68 66/83/67
f 55/71/56 56/72/57 68/85/69 67/84/68
f 56/72/57 57/73/58 69/86/70 68/85/69
f 57/73/58 58/74/59 70/87/71 69/86/70
f 58/74/59 59/75/60 71/88/72 70/87/71
f 59/75/60 60/76/61 72/89/73 71/88/72
f 60/76/61 49/77/51 61/90/63 72/89/73
f 61/79/74 62/78/75 74/91/76 73/92/77
f 62/78/75 63/80/78 75/93/79 74/91/76
f 63/80/78 64/81/80 76/94/81 75/93/79
f 64/81/80 65/82/82 77/95/83 76/94/81
f 65/82/82 66/83/84 78/96/85 77/95/83
f 66/83/84 67/84/86 79/97/87 78/96/85
f 67/84/86 68/85/88 80/98/89 79/97/87
f 68/85/88 69/86/90 81/99/91 80/98/89
f 69/86/90 70/87/92 82/100/93 81/99/91
f 70/87/92 71/88/94 83/101/95 82/100/93
f 71/88/94 72/89/96 84/102/97 83/101/95
f 72/89/96 61/90/74 73/103/77 84/102/97
f 73/92/77 74/91/76 86/104/98 85/105/99
f 74/91/76 75/93/79 87/106/100 86/104/98
f 75/93/79 76/94/81 88/107/101 87/106/100
f 76/94/81 77/95/83 89/108/102 88/107/101
f 77/95/83 78/96/85 90/109/103 89/108/102
f 78/96/85 79/97/87 91/110/104 90/109/103
f 79/97/87 80/98/89 92/111/105 91/110/104
f 80/98/89 81/99/91 93/112/106 92/111/105
f 81/99/91 82/100/93 94/113/107 93/112/106
f 82/100/93 83/101/95 95/114/108 94/113/107
f 83/101/95 84/102/97 96/115/109 95/114/108
f 84/102/97 73/103/77 85/116/99 96/115/109
f 85/105/99 86/104/98 98/117/110 97/118/111
f 86/104/98 87/106/100 99/119/112 98/117/110
f 87/106/100 88/107/101 100/120/113 99/119/112
f 88/107/101 89/108/102 101/121/114 100/120/113
f 89/108/102 90/109/103 102/122/115 101/121/114
f 90/109/103 91/110/104 103/123/116 102/122/115
f 91/110/104 92/111/105 104/124/117 103/123/116
f 92/111/105 93/112/106 105/125/118 104/124/117
f 93/112/106 94/113/107 106/126/119 105/125/118
f 94/113/107 95/114/108 107/127/120 106/126/119
f 95/114/108 96/115/109 108/128/121 107/127/120
f 96/115/109 85/116/99 97/129/111 108/128/121
f 97/118/111 98/117/110 110/130/122 109/131/123
f 98/117/110 99/119/112 111/132/124 110/130/122
f 99/119/112 100/120/113 112/133/125 111/132/124
f 100/120/113 101/121/114 113/134/126 112/133/125
f 101/121/114 102/122/115 114/135/127 113/134/126
f 102/122/115 103/123/116 115/136/128 114/135/127
f 103/123/116 104/124/117 116/137/129 115/136/128
f 104/124/117 105/125/118 117/138/130 116/137/129
f 105/125/118 106/126/119 118/139/131 117/138/130
f 106/126/119 107/127/120 119/140/132 118/139/131
f 107/127/120 108/128/121 120/141/133 119/140/132
f 108/128/121 97/129/111 109/142/134 120/141/135
f 109/131/136 110/130/122 122/143/137 121/144/138
f 110/130/122 111/132/124 123/145/139 122/143/137
f 111/132/124 112/133/125 124/146/140 123/145/139
f 112/133/125 113/134/126 125/147/141 124/146/140
f 113/134/126 114/135/127 126/148/142 125/147/141
f 114/135/127 115/136/128 127/149/143 126/148/142
f 115/136/128 116/137/129 128/150/144 127/149/143
f 116/137/129 117/138/130 129/151/145 128/150/144
f 117/138/130 118/139/131 130/152/146 129/151/145
f 118/139/131 119/140/132 131/153/147 130/152/146
f 119/140/132 120/141/135 132/154/148 131/153/147
f 120/141/149 109/142/150 121/155/138 132/154/148
f 121/144/151 122/143/152 134/156/153 133/157/154
f 122/143/152 123/145/155 135/158/156 134/156/153
f 123/145/155 124/146/157 136/159/158 135/158/156
f 124/146/157 125/147/159 137/160/160 136/159/158
f 125/147/159 126/148/161 138/161/162 137/160/160
f 126/148/161 127/149/163 139/162/164 138/161/162
f 127/149/163 128/150/165 140/163/166 139/162/164
f 128/150/165 129/151/167 141/164/168 140/163/166
f 129/151/167 130/152/169 142/165/170 141/164/168
f 130/152/169 131/153/171 143/166/172 142/165/170
f 131/153/171 132/154/173 144/167/174 143/166/172
f 132/154/173 121/155/151 133/168/154 144/167/174
f 133/157/154 134/156/153 146/169/175 145/170/176
f 134/156/153 135/158/156 147/171/177 146/169/175
f 135/158/156 136/159/158 148/172/178 147/171/177
f 136/159/158 137/160/160 149/173/179 148/172/178
f 137/160/160 138/161/162 150/174/180 149/173/179
f 138/161/162 139/162/164 151/175/181 150/174/180
f 139/162/164 140/163/166 152/176/182 151/175/181
f 140/163/166 141/164/168 153/177/183 152/176/182
f 141/164/168 142/165/170 154/178/184 153/177/183
f 142/165/170 143/166/172 155/179/185 154/178/184
f 143/166/172 144/167/174 156/180/186 155/179/185
f 144/167/174 133/168/154 145/181/176 156/180/186
f 145/170/176 146/169/175 158/182/187 157/183/188
f 146/169/175 147/171/177 159/184/189 158/182/187
f 147/171/177 148/172/178 160/185/190 159/184/189
f 148/172/178 149/173/179 161/186/191 160/185/190
f 149/173/179 150/174/180 162/187/192 161/186/191
f 150/174/180 151/175/181 163/188/193 162/187/192
f 151/175/181 152/176/182 164/189/194 163/188/193
f 152/176/182 153/177/183 165/190/195 164/189/194
f 153/177/183 154/178/184 166/191/196 165/190/195
f 154/178/184 155/179/185 167/192/197 166/191/196
f 155/179/185 156/180/186 168/193/198 167/192/197
f 156/180/186 145/181/176 157/194/188 168/193/198
f 157/183/188 158/182/187 170/195/199 169/196/200
f 158/182/187 159/184/189 171/197/201 170/195/199
f 159/184/189 160/185/190 172/198/202 171/197/201
f 160/185/190 161/186/191 173/199/203 172/198/202
f 161/186/191 162/187/192 174/200/204 173/199/203
f 162/187/192 163/188/193 175/201/205 174/200/204
f 163/188/193 164/189/194 176/202/206 175/201/205
f 164/189/194 165/190/195 177/203/207 176/202/206
f 165/190/195 166/191/196 178/204/208 177/203/207
f 166/191/196 167/192/197 179/205/209 178/204/208
f 167/192/197 168/193/198 180/206/210 179/205/209
f 168/193/198 157/194/188 169/207/200 180/206/210
f 169/196/200 170/195/199 182/208/211 181/209/212
f 170/195/199 171/197/201 183/210/213 182/208/211
f 171/197/201 172/198/202 184/211/214 183/210/213
f 172/198/202 173/199/203 185/212/215 184/211/214
f 173/199/203 174/200/204 186/213/216 185/212/215
f 174/200/204 175/201/205 187/214/217 186/213/216
f 175/201/205 176/202/206 188/215/218 187/214/217
f 176/202/206 177/203/207 189/216/219 188/215/218
f 177/203/207 178/204/208 190/217/220 189/216/219
f 178/204/208 179/205/209 191/218/221 190/217/220
f 179/205/209 180/206/210 192/219/222 191/218/221
f 180/206/210 169/207/200 181/220/212 192/219/222
f 181/209/223 182/208/224 194/221/225 193/222/226
f 182/208/224 183/210/227 195/223/228 194/221/225
f 183/210/227 184/211/229 196/224/230 195/223/228
f 184/211/229 185/212/231 197/225/232 196/224/230
f 185/212/231 186/213/233 198/226/234 197/225/232
f 186/213/233 187/214/235 199/227/236 198/226/234
f 187/214/235 188/215/237 200/228/238 199/227/236
f 188/215/237 189/216/239 201/229/240 200/228/238
f 189/216/239 190/217/241 202/230/242 201/229/240
f 190/217/241 191/218/243 203/231/244 202/230/242
f 191/218/243 192/219/245 204/232/246 203/231/244
f 192/219/245 181/220/223 193/233/226 204/232/246
f 193/222/226 194/221/225 206/234/247 205/235/248
f 194/221/225 195/223/228 207/236/249 206/234/247
f 195/223/228 196/224/230 208/237/250 207/236/249
f 196/224/230 197/225/232 209/238/251 208/237/250
f 197/225/232 198/226/234 210/239/252 209/238/251
f 198/226/234 199/227/236 211/240/253 210/239/252
f 199/227/236 200/228/238 212/241/254 211/240/253
f 200/228/238 201/229/240 213/242/255 212/241/254
f 201/229/240 202/230/242 214/243/256 213/242/255
f 202/230/242 203/231/244 215/244/257 214/243/256
f 203/231/244 204/232/246 216/245/258 215/244/257
f 204/232/246 193/233/226 205/246/248 216/245/258
f 205/235/248 206/234/247 218/247/259 217/248/260
f 206/234/247 207/236/249 219/249/261 218/247/259
f 207/236/249 208/237/250 220/250/262 219/249/261
f 208/237/250 209/238/251 221/251/263 220/250/262
f 209/238/251 210/239/252 222/252/264 221/251/263
f 210/239/252 211/240/253 223/253/265 222/252/264
f 211/240/253 212/241/254 224/254/266 223/253/265
f 212/241/254 213/242/255 225/255/267 224/254/266
f 213/242/255 214/243/256 226/256/268 225/255/267
f 214/243/256 215/244/257 227/257/269 226/256/268
f 215/244/257 216/245/258 228/258/270 227/257/269
f 216/245/258 205/246/248 217/259/260 228/258/270
f 217/248/260 218/247/259 230/260/271 229/261/272
f 218/247/259 219/249/261 231/262/273 230/260/271
f 219/249/261 220/250/262 232/263/274 231/262/273
f 220/250/262 221/251/263 233/264/275 232/263/274
f 221/251/263 222/252/264 234/265/276 233/264/275
f 222/252/264 223/253/265 235/266/277 234/265/276
f 223/253/265 224/254/266 236/267/278 235/266/277
f 224/254/266 225/255/267 237/268/279 236/267/278
f 225/255/267 226/256/268 238/269/280 237/268/279
f 226/256/268 227/257/269 239/270/281 238/269/280
f 227/257/269 228/258/270 240/271/282 239/270/281
f 228/258/270 217/259/260 229/272/272 240/271/282
f 229/261/272 230/260/271 242/273/283 241/274/284
f 230/260/271 231/262/273 243/275/285 242/273/283
f 231/262/273 232/263/274 244/276/286 243/275/285
f 232/263/274 233/264/275 245/277/287 244/276/286
f 233/264/275 234/265/276 246/278/288 245/277/287
f 234/265/276 235/266/277 247/279/289 246/278/288
f 235/266/277 236/267/278 248/280/290 247/279/289
f 236/267/278 237/268/279 249/281/291 248/280/290
f 237/268/279 238/269/280 250/282/292 249/281/291
f 238/269/280 239/270/281 251/283/293 250/282/292
f 239/270/281 240/271/282 252/284/294 251/283/293
f 240/271/282 229/272/272 241/285/284 252/284/294
f 241/274/295 242/273/296 254/286/297 253/287/298
f 242/273/296 243/275/299 255/288/300 254/286/297
f 243/275/299 244/276/301 256/289/302 255/288/300
f 244/276/301 245/277/303 257/290/304 256/289/302
f 245/277/303 246/278/305 258/291/306 257/290/304
f 246/278/305 247/279/307 259/292/308 258/291/306
f 247/279/307 248/280/309 260/293/310 259/292/308
f 248/280/309 249/281/311 261/294/312 260/293/310
f 249/281/311 250/282/313 262/295/314 261/294/312
f 250/282/313 251/283/315 263/296/316 262/295/314
f 251/283/315 252/284/317 264/297/318 263/296/316
f 252/284/317 241/285/295 253/298/298 264/297/318
f 253/287/298 254/286/297 266/299/319 265/300/320
f 254/286/297 255/288/300 267/301/321 266/299/319
f 255/288/300 256/289/302 268/302/322 267/301/321
f 256/289/302 257/290/304 269/303/323 268/302/322
f 257/290/304 258/291/306 270/304/324 269/303/323
f 258/291/306 259/292/308 271/305/325 270/304/324
f 259/292/308 260/293/310 272/306/326 271/305/325
f 260/293/310 261/294/312 273/307/327 272/306/326
f 261/294/312 262/295/314 274/308/328 273/307/327
f 262/295/314 263/296/316 275/309/329 274/308/328
f 263/296/316 264/297/318 276/310/330 275/309/329
f 264/297/318 253/298/298 265/311/320 276/310/330
f 265/300/320 266/299/319 278/312/331 277/313/332
f 266/299/319 267/301/321 279/314/333 278/312/331
f 267/301/321 268/302/322 280/315/334 279/314/333
f 268/302/322 269/303/323 281/316/335 280/315/334
f 269/303/323 270/304/324 282/317/336 281/316/335
f 270/304/324 271/305/325 283/318/337 282/317/336
f 271/305/325 272/306/326 284/319/338 283/318/337
f 272/306/326 273/307/327 285/320/339 284/319/338
f 273/307/327 274/308/328 286/321/340 285/320/339
f 274/308/328 275/309/329 287/322/341 286/321/340
f 275/309/329 276/310/330 288/323/342 287/322/341
f 276/310/330 265/311/320 277/324/332 288/323/342
f 277/313/332 278/312/331 290/325/343 289/326/344
f 278/312/331 279/314/333 291/327/345 290/325/343
f 279/314/333 280/315/334 292/328/346 291/327/345
f 280/315/334 281/316/335 293/329/347 292/328/346
f 281/316/335 282/317/336 294/330/348 293/329/347
f 282/317/336 283/318/337 295/331/349 294/330/348
f 283/318/337 284/319/338 296/332/350 295/331/349
f 284/319/338 285/320/339 297/333/351 296/332/350
f 285/320/339 286/321/340 298/334/352 297/333/351
f 286/321/340 287/322/341 299/335/353 298/334/352
f 287/322/341 288/323/342 300/336/354 299/335/353
f 288/323/342 277/324/332 289/337/344 300/336/354
f 289/326/344 290/325/343 302/338/355 301/339/356
f 290/325/343 291/327/345 303/340/357 302/338/355
f 291/327/345 292/328/346 304/341/358 303/340/357
f 292/328/346 293/329/347 305/342/359 304/341/358
f 293/329/347 294/330/348 306/343/360 305/342/359
f 294/330/348 295/331/349 307/344/361 306/343/360
f 295/331/349 296/332/350 308/345/362 307/344/361
f 296/332/350 297/333/351 309/346/363 308/345/362
f 297/333/351 298/334/352 310/347/364 309/346/363
f 298/334/352 299/335/353 311/348/365 310/347/364
f 299/335/353 300/336/354 312/349/366 311/348/365
f 300/336/354 289/337/344 301/350/356 312/349/366
f 301/339/367 302/338/368 314/351/369 313/352/370
f 302/338/368 303/340/371 315/353/372 314/351/369
f 303/340/371 304/341/373 316/354/374 315/353/372
f 304/341/373 305/342/375 317/355/376 316/354/374
f 305/342/375 306/343/377 318/356/378 317/355/376
f 306/343/377 307/344/379 319/357/380 318/356/378
f 307/344/379 308/345/381 320/358/382 319/357/380
f 308/345/381 309/346/383 321/359/384 320/358/382
f 309/346/383 310/347/385 322/360/386 321/359/384
f 310/347/385 311/348/387 323/361/388 322/360/386
f 311/348/387 312/349/389 324/362/390 323/361/388
f 312/349/389 301/350/367 313/363/370 324/362/390
f 313/352/370 314/351/369 326/364/391 325/365/392
f 314/351/369 315/353/372 327/366/393 326/364/391
f 315/353/372 316/354/374 328/367/394 327/366/393
f 316/354/374 317/355/376 329/368/395 328/367/394
f 317/355/376 318/356/378 330/369/396 329/368/395
f 318/356/378 319/357/380 331/370/397 330/369/396
f 319/357/380 320/358/382 332/371/398 331/370/397
f 320/358/382 321/359/384 333/372/399 332/371/398
f 321/359/384 322/360/386 334/373/400 333/372/399
f 322/360/386 323/361/388 335/374/401 334/373/400
f 323/361/388 324/362/390 336/375/402 335/374/401
f 324/362/390 313/363/370 325/376/392 336/375/402
f 325/365/392 326/364/391 338/377/403 337/378/404
f 326/364/391 327/366/393 339/379/405 338/377/403
f 327/366/393 328/367/394 340/380/406 339/379/405
f 328/367/394 329/368/395 341/381/407 340/380/406
f 329/368/395 330/369/396 342/382/408 341/381/407
f 330/369/396 331/370/397 343/383/409 342/382/408
f 331/370/397 332/371/398 344/384/410 343/383/409
f 332/371/398 333/372/399 345/385/411 344/384/410
f 333/372/399 334/373/400 346/386/412 345/385/411
f 334/373/400 335/374/401 347/387/413 346/386/412
f 335/374/401 336/375/402 348/388/414 347/387/413
f 336/375/402 325/376/392 337/389/404 348/388/414
f 337/378/404 338/377/403 350/390/415 349/391/416
f 338/377/403 339/379/405 351/392/417 350/390/415
f 339/379/405 340/380/406 352/393/418 351/392/417
f 340/380/406 341/381/407 353/394/419 352/393/418
f 341/381/407 342/382/408 354/395/420 353/394/419
f 342/382/408 343/383/409 355/396/421 354/395/420
f 343/383/409 344/384/410 356/397/422 355/396/421
f 344/384/410 345/385/411 357/398/423 356/397/422
f 345/385/411 346/386/412 358/399/424 357/398/423
f 346/386/412 347/387/413 359/400/425 358/399/424
f 347/387/413 348/388/414 360/401/426 359/400/425
f 348/388/414 337/389/404 349/402/416 360/401/426
f 349/391/416 350/390/415 362/403/427 361/404/428
f 350/390/415 351/392/417 363/405/429 362/403/427
f 351/392/417 352/393/418 364/406/430 363/405/429
f 352/393/418 353/394/419 365/407/431 364/406/430
f 353/394/419 354/395/420 366/408/432 365/407/431
f 354/395/420 355/396/421 367/409/433 366/408/432
f 355/396/421 356/397/422 368/410/434 367/409/433
f 356/397/422 357/398/423 369/411/435 368/410/434
f 357/398/423 358/399/424 370/412/436 369/411/435
f 358/399/424 359/400/425 371/413/437 370/412/436
f 359/400/425 360/401/426 372/414/438 371/413/437
f 360/401/426 349/402/416 361/415/428 372/414/438
f 361/404/439 362/403/440 374/416/441 373/417/442
f 362/403/440 363/405/443 375/418/444 374/416/441
f 363/405/443 364/406/445 376/419/446 375/418/444
f 364/406/445 365/407/447 377/420/448 376/419/446
f 365/407/447 366/408/449 378/421/450 377/420/448
f 366/408/449 367/409/451 379/422/452 378/421/450
f 367/409/451 368/410/453 380/423/454 379/422/452
f 368/410/453 369/411/455 381/424/456 380/423/454
f 369/411/455 370/412/457 382/425/458 381/424/456
f 370/412/457 371/413/459 383/426/460 382/425/458
f 371/413/459 372/414/461 384/427/462 383/426/460
f 372/414/461 361/415/439 373/428/442 384/427/462
f 373/417/442 374/416/441 386/429/463 385/430/464
f 374/416/441 375/418/444 387/431/465 386/429/463
f 375/418/444 376/419/446 388/432/466 387/431/465
f 376/419/446 377/420/448 389/433/467 388/432/466
f 377/420/448 378/421/450 390/434/468 389/433/467
f 378/421/450 379/422/452 391/435/469 390/434/468
f 379/422/452 380/423/454 392/436/470 391/435/469
f 380/423/454 381/424/456 393/437/471 392/436/470
f 381/424/456 382/425/458 394/438/472 393/437/471
f 382/425/458 383/426/460 395/439/473 394/438/472
f 383/426/460 384/427/462 396/440/474 395/439/473
f 384/427/462 373/428/442 385/441/464 396/440/474
f 385/430/464 386/429/463 398/442/475 397/443/476
f 386/429/463 387/431/465 399/444/477 398/442/475
f 387/431/465 388/432/466 400/445/478 399/444/477
f 388/432/466 389/433/467 401/446/479 400/445/478
f 389/433/467 390/434/468 402/447/480 401/446/479
f 390/434/468 391/435/469 403/448/481 402/447/480
f 391/435/469 392/436/470 404/449/482 403/448/481
f 392/436/470 393/437/471 405/450/483 404/449/482
f 393/437/471 394/438/472 406/451/484 405/450/483
f 394/438/472 395/439/473 407/452/485 406/451/484
f 395/439/473 396/440/474 408/453/486 407/452/485
f 396/440/474 385/441/464 397/454/476 408/453/486
f 397/443/476 398/442/475 410/455/487 409/456/488
f 398/442/475 399/444/477 411/457/489 410/455/487
f 399/444/477 400/445/478 412/458/490 411/457/489
f 400/445/478 401/446/479 413/459/491 412/458/490
f 401/446/479 402/447/480 414/460/492 413/459/491
f 402/447/480 403/448/481 415/461/493 414/460/492
f 403/448/481 404/449/482 416/462/494 415/461/493
f 404/449/482 405/450/483 417/463/495 416/462/494
f 405/450/483 406/451/484 418/464/496 417/463/495
f 406/451/484 407/452/485 419/465/497 418/464/496
f 407/452/485 408/453/486 420/466/498 419/465/497
f 408/453/486 397/454/476 409/467/488 420/466/498
f 409/456/488 410/455/487 422/468/499 421/469/500
f 410/455/487 411/457/489 423/470/501 422/468/499
f 411/457/489 412/458/490 424/471/502 423/470/501
f 412/458/490 413/459/491 425/472/503 424/471/502
f 413/459/491 414/460/492 426/473/504 425/472/503
f 414/460/492 415/461/493 427/474/505 426/473/504
f 415/461/493 416/462/494 428/475/506 427/474/505
f 416/462/494 417/463/495 429/476/507 428/475/506
f 417/463/495 418/464/496 430/477/508 429/476/507
f 418/464/496 419/465/497 431/478/509 430/477/508
f 419/465/497 420/466/498 432/479/510 431/478/509
f 420/466/498 409/467/488 421/480/500 432/479/510
f 421/469/511 422/468/512 434/481/513 433/482/514
f 422/468/512 423/470/515 435/483/516 434/481/513
f 423/470/515 424/471/517 436/484/518 435/483/516
f 424/471/517 425/472/519 437/485/520 436/484/518
f 425/472/519 426/473/521 438/486/522 437/485/520
f 426/473/521 427/474/523 439/487/524 438/486/522
f 427/474/523 428/475/525 440/488/526 439/487/524
f 428/475/525 429/476/527 441/489/528 440/488/526
f 429/476/527 430/477/529 442/490/530 441/489/528
f 430/477/529 431/478/531 443/491/532 442/490/530
f 431/478/531 432/479/533 444/492/534 443/491/532
f 432/479/533 421/480/511 433/493/514 444/492/534
f 433/482/514 434/481/513 446/494/535 445/495/536
f 434/481/513 435/483/516 447/496/537 446/494/535
f 435/483/516 436/484/518 448/497/538 447/496/537
f 436/484/518 437/485/520 449/498/539 448/497/538
f 437/485/520 438/486/522 450/499/540 449/498/539
f 438/486/522 439/487/524 451/500/541 450/499/540
f 439/487/524 440/488/526 452/501/542 451/500/541
f 440/488/526 441/489/528 453/502/543 452/501/542
f 441/489/528 442/490/530 454/503/544 453/502/543
f 442/490/530 443/491/532 455/504/545 454/503/544
f 443/491/532 444/492/534 456/505/546 455/504/545
f 444/492/534 433/493/514 445/506/536 456/505/546
f 445/495/536 446/494/535 458/507/547 457/508/548
f 446/494/535 447/496/537 459/509/549 458/507/547
f 447/496/537 448/497/538 460/510/550 459/509/549
f 448/497/538 449/498/539 461/511/551 460/510/550
f 449/498/539 450/499/540 462/512/552 461/511/551
f 450/499/540 451/500/541 463/513/553 462/512/552
f 451/500/541 452/501/542 464/514/554 463/513/553
f 452/501/542 453/502/543 465/515/555 464/514/554
f 453/502/543 454/503/544 466/516/556 465/515/555
f 454/503/544 455/504/545 467/517/557 466/516/556
f 455/504/545 456/505/546 468/518/558 467/517/557
f 456/505/546 445/506/536 457/519/548 468/518/558
f 457/508/548 458/507/547 470/520/559 469/521/560
f 458/507/547 459/509/549 471/522/561 470/520/559
f 459/509/549 460/510/550 472/523/562 471/522/561
f 460/510/550 461/511/551 473/524/563 472/523/562
f 461/511/551 462/512/552 474/525/564 473/524/563
f 462/512/552 463/513/553 475/526/565 474/525/564
f 463/513/553 464/514/554 476/527/566 475/526/565
f 464/514/554 465/515/555 477/528/567 476/527/566
f 465/515/555 466/516/556 478/529/568 477/528/567
f 466/516/556 467/517/557 479/530/569 478/529/568
f 467/517/557 468/518/558 480/531/570 479/530/569
f 468/518/558 457/519/548 469/532/560 480/531/570
f 469/521/571 470/520/572 482/533/572 481/534/571
f 470/520/572 471/522/573 483/535/573 482/533/572
f 471/522/573 472/523/574 484/536/574 483/535/573
f 472/523/574 473/524/575 485/537/575 484/536/574
f 473/524/575 474/525/576 486/538/576 485/537/575
f 474/525/576 475/526/577 487/539/577 486/538/576
f 475/526/577 476/527/578 488/540/578 487/539/577
f 476/527/578 477/528/579 489/541/579 488/540/578
f 477/528/579 478/529/580 490/542/580 489/541/579
f 478/529/580 479/530/581 491/543/581 490/542/580
f 479/530/581 480/531/582 492/544/582 491/543/581
f 480/531/582 469/532/571 481/545/571 492/544/582
f 481/546/583 482/547/583 483/548/583 484/549/583 485/550/583 486/551/583 487/552/583 488/553/583 489/554/583 490/555/583 491/556/583 492/557/583
